ISO-10303-21;
HEADER;
FILE_DESCRIPTION(('STEP AP214'),'1');
FILE_NAME('301.stp','2019-12-11T21:27:51',(' '),(' '),'Spatial InterOp 3D',' ',' ');
FILE_SCHEMA(('AUTOMOTIVE_DESIGN { 1 0 10303 214 1 1 1 1 }'));
ENDSEC;
DATA;
#1=MECHANICAL_DESIGN_GEOMETRIC_PRESENTATION_REPRESENTATION(' ',(#11,#12,#13,#14,#15,#16,#17,#18,#19,#20,#21,#22,#23,#24,#25,#26,#27,#28,#29,#30,#31,#32,#33),#7);
#2=PRODUCT_DEFINITION_CONTEXT('',#34,'design');
#3=APPLICATION_PROTOCOL_DEFINITION('INTERNATIONAL STANDARD','automotive_design',1994,#34);
#4=PRODUCT_CATEGORY_RELATIONSHIP('NONE','NONE',#35,#36);
#5=SHAPE_DEFINITION_REPRESENTATION(#37,#38);
#6=SHAPE_DEFINITION_REPRESENTATION(#37,#39);
#7= (GEOMETRIC_REPRESENTATION_CONTEXT(3)GLOBAL_UNCERTAINTY_ASSIGNED_CONTEXT((#42))GLOBAL_UNIT_ASSIGNED_CONTEXT((#44,#45,#46))REPRESENTATION_CONTEXT('NONE','WORKSPACE'));
#11=STYLED_ITEM('',(#48),#49);
#12=STYLED_ITEM('',(#50),#51);
#13=STYLED_ITEM('',(#52),#53);
#14=STYLED_ITEM('',(#54),#55);
#15=STYLED_ITEM('',(#56),#57);
#16=STYLED_ITEM('',(#58),#59);
#17=STYLED_ITEM('',(#60),#61);
#18=STYLED_ITEM('',(#62),#63);
#19=STYLED_ITEM('',(#64),#65);
#20=STYLED_ITEM('',(#66),#67);
#21=STYLED_ITEM('',(#68),#69);
#22=STYLED_ITEM('',(#70),#71);
#23=STYLED_ITEM('',(#72),#73);
#24=STYLED_ITEM('',(#74),#75);
#25=STYLED_ITEM('',(#76),#77);
#26=STYLED_ITEM('',(#78),#79);
#27=STYLED_ITEM('',(#80),#81);
#28=STYLED_ITEM('',(#82),#83);
#29=STYLED_ITEM('',(#84),#85);
#30=STYLED_ITEM('',(#86),#87);
#31=STYLED_ITEM('',(#88),#89);
#32=STYLED_ITEM('',(#90),#91);
#33=STYLED_ITEM('',(#92),#93);
#34=APPLICATION_CONTEXT(' ');
#35=PRODUCT_CATEGORY('part','NONE');
#36=PRODUCT_RELATED_PRODUCT_CATEGORY('detail',' ',(#94));
#37=PRODUCT_DEFINITION_SHAPE('NONE','NONE',#95);
#38=ADVANCED_BREP_SHAPE_REPRESENTATION('PartBody/Pocket.5',(#89,#96),#7);
#39=GEOMETRICALLY_BOUNDED_WIREFRAME_SHAPE_REPRESENTATION('Point',(#93,#97),#7);
#42=UNCERTAINTY_MEASURE_WITH_UNIT(LENGTH_MEASURE(1.0E-008),#44,'','');
#44= (CONVERSION_BASED_UNIT('METRE',#100)LENGTH_UNIT()NAMED_UNIT(#103));
#45= (NAMED_UNIT(#105)PLANE_ANGLE_UNIT()SI_UNIT($,.RADIAN.));
#46= (NAMED_UNIT(#105)SOLID_ANGLE_UNIT()SI_UNIT($,.STERADIAN.));
#48=PRESENTATION_STYLE_ASSIGNMENT((#111));
#49=ADVANCED_FACE('',(#112),#113,.F.);
#50=PRESENTATION_STYLE_ASSIGNMENT((#114));
#51=ADVANCED_FACE('',(#115),#116,.F.);
#52=PRESENTATION_STYLE_ASSIGNMENT((#117));
#53=ADVANCED_FACE('',(#118),#119,.T.);
#54=PRESENTATION_STYLE_ASSIGNMENT((#120));
#55=ADVANCED_FACE('0:36',(#121,#122),#123,.F.);
#56=PRESENTATION_STYLE_ASSIGNMENT((#124));
#57=ADVANCED_FACE('0:35',(#125),#126,.T.);
#58=PRESENTATION_STYLE_ASSIGNMENT((#127));
#59=ADVANCED_FACE('0:33',(#128),#129,.F.);
#60=PRESENTATION_STYLE_ASSIGNMENT((#130));
#61=ADVANCED_FACE('0:34',(#131),#132,.F.);
#62=PRESENTATION_STYLE_ASSIGNMENT((#133));
#63=EDGE_CURVE('',#134,#135,#136,.T.);
#64=PRESENTATION_STYLE_ASSIGNMENT((#137));
#65=EDGE_CURVE('0:25',#135,#138,#139,.T.);
#66=PRESENTATION_STYLE_ASSIGNMENT((#140));
#67=EDGE_CURVE('0:457',#141,#142,#143,.F.);
#68=PRESENTATION_STYLE_ASSIGNMENT((#144));
#69=EDGE_CURVE('',#145,#146,#147,.F.);
#70=PRESENTATION_STYLE_ASSIGNMENT((#148));
#71=EDGE_CURVE('0:435',#149,#145,#150,.F.);
#72=PRESENTATION_STYLE_ASSIGNMENT((#151));
#73=EDGE_CURVE('',#152,#134,#153,.T.);
#74=PRESENTATION_STYLE_ASSIGNMENT((#154));
#75=EDGE_CURVE('',#155,#156,#157,.F.);
#76=PRESENTATION_STYLE_ASSIGNMENT((#158));
#77=EDGE_CURVE('',#159,#149,#160,.F.);
#78=PRESENTATION_STYLE_ASSIGNMENT((#161));
#79=EDGE_CURVE('0:425',#162,#155,#163,.F.);
#80=PRESENTATION_STYLE_ASSIGNMENT((#164));
#81=EDGE_CURVE('',#156,#162,#165,.F.);
#82=PRESENTATION_STYLE_ASSIGNMENT((#166));
#83=EDGE_CURVE('',#142,#141,#167,.F.);
#84=PRESENTATION_STYLE_ASSIGNMENT((#168));
#85=EDGE_CURVE('',#146,#159,#169,.F.);
#86=PRESENTATION_STYLE_ASSIGNMENT((#170));
#87=EDGE_CURVE('',#138,#152,#171,.T.);
#88=PRESENTATION_STYLE_ASSIGNMENT((#172));
#89=MANIFOLD_SOLID_BREP('PartBody/Pocket.5',#173);
#90=PRESENTATION_STYLE_ASSIGNMENT((#174));
#91=CARTESIAN_POINT('',(0.0,0.0,0.0));
#92=PRESENTATION_STYLE_ASSIGNMENT((#175));
#93=GEOMETRIC_CURVE_SET('Point',(#91));
#94=PRODUCT('PartBody/Pocket.5','','PART--DESC',(#176));
#95=PRODUCT_DEFINITION('','NONE',#177,#2);
#96=AXIS2_PLACEMENT_3D('',#178,#179,#180);
#97=AXIS2_PLACEMENT_3D('',#181,#182,#183);
#100=LENGTH_MEASURE_WITH_UNIT(LENGTH_MEASURE(1.0),#184);
#103=DIMENSIONAL_EXPONENTS(1.0,0.0,0.0,0.0,0.0,0.0,0.0);
#105=DIMENSIONAL_EXPONENTS(0.0,0.0,0.0,0.0,0.0,0.0,0.0);
#111=SURFACE_STYLE_USAGE(.BOTH.,#185);
#112=FACE_OUTER_BOUND('',#186,.T.);
#113=CYLINDRICAL_SURFACE('',#187,0.006);
#114=SURFACE_STYLE_USAGE(.BOTH.,#188);
#115=FACE_OUTER_BOUND('',#189,.T.);
#116=CYLINDRICAL_SURFACE('',#190,0.0240000000000001);
#117=SURFACE_STYLE_USAGE(.BOTH.,#191);
#118=FACE_OUTER_BOUND('',#192,.T.);
#119=CYLINDRICAL_SURFACE('',#193,0.0075);
#120=SURFACE_STYLE_USAGE(.BOTH.,#194);
#121=FACE_OUTER_BOUND('',#195,.T.);
#122=FACE_BOUND('',#196,.T.);
#123=CYLINDRICAL_SURFACE('',#197,0.015);
#124=SURFACE_STYLE_USAGE(.BOTH.,#198);
#125=FACE_OUTER_BOUND('',#199,.T.);
#126=CYLINDRICAL_SURFACE('',#200,0.0075);
#127=SURFACE_STYLE_USAGE(.BOTH.,#201);
#128=FACE_OUTER_BOUND('',#202,.T.);
#129=CYLINDRICAL_SURFACE('',#203,0.0240000000000001);
#130=SURFACE_STYLE_USAGE(.BOTH.,#204);
#131=FACE_OUTER_BOUND('',#205,.T.);
#132=CYLINDRICAL_SURFACE('',#206,0.006);
#133=CURVE_STYLE('',#207,POSITIVE_LENGTH_MEASURE(0.35),#208);
#134=VERTEX_POINT('',#209);
#135=VERTEX_POINT('',#210);
#136=B_SPLINE_CURVE_WITH_KNOTS('',5,(#211,#212,#213,#214,#215,#216,#217,#218,#219,#220,#221,#222,#223,#224,#225,#226,#227,#228,#229,#230,#231,#232,#233,#234),.UNSPECIFIED.,.F.,.F.,(6,3,3,3,3,3,3,6),(0.0,3.93452275517761,7.96579587257541,11.3083168418046,14.6368373744069,18.0448712979651,22.6323768040662,25.5647878807582),.UNSPECIFIED.);
#137=CURVE_STYLE('',#235,POSITIVE_LENGTH_MEASURE(0.35),#236);
#138=VERTEX_POINT('',#237);
#139=B_SPLINE_CURVE_WITH_KNOTS('',5,(#238,#239,#240,#241,#242,#243),.UNSPECIFIED.,.F.,.F.,(6,6),(-28.141269065244,-26.856950048735),.UNSPECIFIED.);
#140=CURVE_STYLE('',#244,POSITIVE_LENGTH_MEASURE(0.35),#245);
#141=VERTEX_POINT('',#246);
#142=VERTEX_POINT('',#247);
#143=B_SPLINE_CURVE_WITH_KNOTS('',3,(#248,#249,#250,#251,#252,#253,#254,#255,#256,#257,#258,#259,#260,#261,#262,#263,#264,#265,#266,#267,#268,#269,#270,#271,#272,#273,#274,#275,#276,#277,#278,#279,#280,#281,#282,#283,#284),.UNSPECIFIED.,.F.,.F.,(4,3,3,3,3,3,3,3,3,3,3,3,4),(0.0416751611925656,0.044511512873388,0.0454487050869408,0.0475289946008427,0.0492745987431126,0.050360274787131,0.0520656484708086,0.053459261081837,0.0542482588432764,0.0571033666063959,0.0595919366989147,0.0603126087983037,0.062091021198156),.UNSPECIFIED.);
#144=CURVE_STYLE('',#285,POSITIVE_LENGTH_MEASURE(0.35),#286);
#145=VERTEX_POINT('',#287);
#146=VERTEX_POINT('',#288);
#147=B_SPLINE_CURVE_WITH_KNOTS('',5,(#289,#290,#291,#292,#293,#294),.UNSPECIFIED.,.F.,.F.,(6,6),(-35.9552090963043,-31.7434541813972),.UNSPECIFIED.);
#148=CURVE_STYLE('',#295,POSITIVE_LENGTH_MEASURE(0.35),#296);
#149=VERTEX_POINT('',#297);
#150=B_SPLINE_CURVE_WITH_KNOTS('',5,(#298,#299,#300,#301,#302,#303,#304,#305,#306,#307,#308,#309,#310,#311,#312,#313,#314,#315,#316,#317,#318,#319,#320,#321),.UNSPECIFIED.,.F.,.F.,(6,3,3,3,3,3,3,6),(-31.7434541813972,-27.7159798719134,-23.1615898026904,-19.4324512871849,-15.1789806967991,-10.156103520849,-5.00558061282233,-0.0),.UNSPECIFIED.);
#151=CURVE_STYLE('',#322,POSITIVE_LENGTH_MEASURE(0.35),#323);
#152=VERTEX_POINT('',#324);
#153=B_SPLINE_CURVE_WITH_KNOTS('',5,(#325,#326,#327,#328,#329,#330),.UNSPECIFIED.,.F.,.F.,(6,6),(-3.60009085777395,0.0),.UNSPECIFIED.);
#154=CURVE_STYLE('',#331,POSITIVE_LENGTH_MEASURE(0.35),#332);
#155=VERTEX_POINT('',#333);
#156=VERTEX_POINT('',#334);
#157=B_SPLINE_CURVE_WITH_KNOTS('',3,(#335,#336,#337,#338,#339,#340,#341,#342,#343,#344,#345,#346,#347,#348,#349,#350,#351,#352,#353,#354,#355,#356,#357,#358,#359,#360,#361,#362,#363,#364,#365,#366,#367,#368,#369,#370,#371,#372,#373,#374,#375,#376,#377,#378,#379,#380),.UNSPECIFIED.,.F.,.F.,(4,3,3,3,3,3,3,3,3,3,3,3,3,3,3,4),(0.0525234455496869,0.0557749122876537,0.0567058143928294,0.0575756741996878,0.0600014961659231,0.0620786523380826,0.0636007090934465,0.0656595126500236,0.0672825908883292,0.0683534293148361,0.0692013226300911,0.0730066501015171,0.0745052820334576,0.075728155949366,0.0766007423864946,0.0785019520082002),.UNSPECIFIED.);
#158=CURVE_STYLE('',#381,POSITIVE_LENGTH_MEASURE(0.35),#382);
#159=VERTEX_POINT('',#383);
#160=B_SPLINE_CURVE_WITH_KNOTS('',3,(#384,#385,#386,#387),.UNSPECIFIED.,.F.,.F.,(4,4),(-67.2916788124899,-65.3952795267321),.UNSPECIFIED.);
#161=CURVE_STYLE('',#388,POSITIVE_LENGTH_MEASURE(0.35),#389);
#162=VERTEX_POINT('',#390);
#163=B_SPLINE_CURVE_WITH_KNOTS('',3,(#391,#392,#393,#394,#395,#396,#397,#398,#399,#400,#401,#402,#403,#404,#405,#406,#407,#408,#409,#410,#411,#412,#413,#414,#415),.UNSPECIFIED.,.F.,.F.,(4,3,3,3,3,3,3,3,4),(0.0785019520082002,0.0806439168388736,0.0816815304597892,0.0825171820770259,0.0847981478932276,0.0863706791165426,0.0872251397503735,0.0880421022932543,0.089411685555189),.UNSPECIFIED.);
#164=CURVE_STYLE('',#416,POSITIVE_LENGTH_MEASURE(0.35),#417);
#165=B_SPLINE_CURVE_WITH_KNOTS('',3,(#418,#419,#420,#421,#422,#423,#424,#425,#426,#427,#428,#429,#430,#431,#432,#433,#434,#435,#436,#437,#438,#439,#440,#441,#442),.UNSPECIFIED.,.F.,.F.,(4,3,3,3,3,3,3,3,4),(0.0399238251740963,0.0421995573380726,0.0434794357854435,0.0443568988099729,0.0464659259253615,0.0480430974529616,0.0492595347202629,0.0501029197000401,0.0525234455496869),.UNSPECIFIED.);
#166=CURVE_STYLE('',#443,POSITIVE_LENGTH_MEASURE(0.35),#444);
#167=B_SPLINE_CURVE_WITH_KNOTS('',3,(#445,#446,#447,#448,#449,#450,#451,#452,#453,#454,#455,#456,#457,#458,#459,#460,#461,#462,#463,#464,#465,#466,#467,#468,#469,#470,#471,#472,#473,#474,#475,#476,#477,#478,#479,#480,#481,#482,#483,#484,#485,#486,#487),.UNSPECIFIED.,.F.,.F.,(4,3,3,3,3,3,3,3,3,3,3,3,3,3,4),(0.0228096030020734,0.024694295877478,0.0254897596309986,0.027362770464363,0.0293175265804207,0.0300481932243619,0.0319620201196979,0.0333188091268095,0.0342792853476414,0.0350455992789506,0.036924460643592,0.0382642605826587,0.0391778489516382,0.0400300719232606,0.0416751611925656),.UNSPECIFIED.);
#168=CURVE_STYLE('',#488,POSITIVE_LENGTH_MEASURE(0.35),#489);
#169=B_SPLINE_CURVE_WITH_KNOTS('',5,(#490,#491,#492,#493,#494,#495,#496,#497,#498,#499,#500,#501,#502,#503,#504,#505,#506,#507,#508,#509,#510,#511,#512,#513),.UNSPECIFIED.,.F.,.F.,(6,3,3,3,3,3,3,6),(-65.3952795267321,-60.2522353947121,-56.4353315979763,-52.7517690115183,-49.0967412086078,-45.3182468717834,-40.7418717627597,-35.9552090963043),.UNSPECIFIED.);
#170=CURVE_STYLE('',#514,POSITIVE_LENGTH_MEASURE(0.35),#515);
#171=B_SPLINE_CURVE_WITH_KNOTS('',5,(#516,#517,#518,#519,#520,#521,#522,#523,#524,#525,#526,#527,#528,#529,#530,#531,#532,#533,#534,#535,#536),.UNSPECIFIED.,.F.,.F.,(6,3,3,3,3,3,6),(-26.856950048735,-22.2714423563633,-17.767224901607,-15.0024275011809,-11.6262626511004,-7.56519589054762,-3.60009085777395),.UNSPECIFIED.);
#172=SURFACE_STYLE_USAGE(.BOTH.,#537);
#173=CLOSED_SHELL('',(#49,#51,#53,#55,#57,#59,#61));
#174=POINT_STYLE(' ',#538,POSITIVE_LENGTH_MEASURE(1.0E-006),#539);
#175=SURFACE_STYLE_USAGE(.BOTH.,#540);
#176=PRODUCT_CONTEXT('',#34,'mechanical');
#177=PRODUCT_DEFINITION_FORMATION_WITH_SPECIFIED_SOURCE(' ','NONE',#94,.NOT_KNOWN.);
#178=CARTESIAN_POINT('',(0.0,0.0,0.0));
#179=DIRECTION('',(0.0,0.0,1.0));
#180=DIRECTION('',(1.0,0.0,0.0));
#181=CARTESIAN_POINT('',(0.0,0.0,0.0));
#182=DIRECTION('',(0.0,0.0,1.0));
#183=DIRECTION('',(1.0,0.0,0.0));
#184= (NAMED_UNIT(#103)LENGTH_UNIT()SI_UNIT($,.METRE.));
#185=SURFACE_SIDE_STYLE('',(#542));
#186=EDGE_LOOP('',(#543,#544,#545,#546,#547));
#187=AXIS2_PLACEMENT_3D('',#548,#549,#550);
#188=SURFACE_SIDE_STYLE('',(#551));
#189=EDGE_LOOP('',(#552,#553,#554,#555,#556,#557));
#190=AXIS2_PLACEMENT_3D('',#558,#559,#560);
#191=SURFACE_SIDE_STYLE('',(#561));
#192=EDGE_LOOP('',(#562,#563,#564,#565,#566));
#193=AXIS2_PLACEMENT_3D('',#567,#568,#569);
#194=SURFACE_SIDE_STYLE('',(#570));
#195=EDGE_LOOP('',(#571,#572,#573));
#196=EDGE_LOOP('',(#574,#575));
#197=AXIS2_PLACEMENT_3D('',#576,#577,#578);
#198=SURFACE_SIDE_STYLE('',(#579));
#199=EDGE_LOOP('',(#580,#581,#582,#583,#584,#585));
#200=AXIS2_PLACEMENT_3D('',#586,#587,#588);
#201=SURFACE_SIDE_STYLE('',(#589));
#202=EDGE_LOOP('',(#590,#591,#592,#593,#594,#595));
#203=AXIS2_PLACEMENT_3D('',#596,#597,#598);
#204=SURFACE_SIDE_STYLE('',(#599));
#205=EDGE_LOOP('',(#600,#601,#602,#603,#604));
#206=AXIS2_PLACEMENT_3D('',#605,#606,#607);
#207=DRAUGHTING_PRE_DEFINED_CURVE_FONT('continuous');
#208=COLOUR_RGB('',0.0,0.0,0.0);
#209=CARTESIAN_POINT('',(0.00915920187739279,0.006,-1.03357098769459E-018));
#210=CARTESIAN_POINT('',(0.0078534689319383,-0.00593145588662812,-0.000904340126828721));
#211=CARTESIAN_POINT('',(0.00915920187739279,0.006,-1.33226762955019E-018));
#212=CARTESIAN_POINT('',(0.00910307578169113,0.00599999999999999,-0.000553587615108484));
#213=CARTESIAN_POINT('',(0.00902648801728829,0.00593615432341636,-0.00110510066235258));
#214=CARTESIAN_POINT('',(0.00893271439398304,0.00580940446100099,-0.00164412253020374));
#215=CARTESIAN_POINT('',(0.0087189638327923,0.00543315174511392,-0.00269183506851146));
#216=CARTESIAN_POINT('',(0.00847852690623501,0.00483175467831534,-0.00362256548861923));
#217=CARTESIAN_POINT('',(0.00835568861480198,0.00447414974499975,-0.00405610901432871));
#218=CARTESIAN_POINT('',(0.00813996318239269,0.00373280933216736,-0.00476737639193976));
#219=CARTESIAN_POINT('',(0.00795615951882436,0.0028546971705478,-0.00530830797753821));
#220=CARTESIAN_POINT('',(0.0078820836860232,0.00243254191061918,-0.00551486387790402));
#221=CARTESIAN_POINT('',(0.00775675306805528,0.00155190515876275,-0.0058432479632136));
#222=CARTESIAN_POINT('',(0.00767902561622057,0.000619338476986508,-0.00599578431281662));
#223=CARTESIAN_POINT('',(0.00765279144856361,0.000147137381272831,-0.00602599757853426));
#224=CARTESIAN_POINT('',(0.00762357183733114,-0.000809320517590037,-0.0059928702704628));
#225=CARTESIAN_POINT('',(0.00763544359251769,-0.00174120116381108,-0.00577227513269729));
#226=CARTESIAN_POINT('',(0.00765008757359798,-0.0021996294771972,-0.00561354267473698));
#227=CARTESIAN_POINT('',(0.00769794859658955,-0.00322981233192067,-0.0051361693310225));
#228=CARTESIAN_POINT('',(0.00776230192560496,-0.00412408028795322,-0.00443044008369507));
#229=CARTESIAN_POINT('',(0.00779788382693189,-0.00457937734496261,-0.00395817416659111));
#230=CARTESIAN_POINT('',(0.00784370752543513,-0.00521215356555328,-0.00309249864021874));
#231=CARTESIAN_POINT('',(0.00786181861296275,-0.00563831021982011,-0.00211393237754164));
#232=CARTESIAN_POINT('',(0.00786394688592062,-0.00577104401950472,-0.00171882463065391));
#233=CARTESIAN_POINT('',(0.00786100413076671,-0.00586896039374723,-0.00131424039348176));
#234=CARTESIAN_POINT('',(0.0078534689319383,-0.00593145588662812,-0.000904340126828721));
#235=DRAUGHTING_PRE_DEFINED_CURVE_FONT('continuous');
#236=COLOUR_RGB('',0.0,0.0,0.0);
#237=CARTESIAN_POINT('',(0.0078286618668562,-0.006,3.39270864867247E-018));
#238=CARTESIAN_POINT('',(0.0078534689319384,-0.00593145588662748,-0.00090434012682853));
#239=CARTESIAN_POINT('',(0.00785016871280283,-0.00595882727073871,-0.000724814578204402));
#240=CARTESIAN_POINT('',(0.00784597729666005,-0.00597939050475047,-0.000544269411016133));
#241=CARTESIAN_POINT('',(0.0078409552835768,-0.00599312245804386,-0.000363053005457109));
#242=CARTESIAN_POINT('',(0.00783516327361991,-0.006,-0.00018151374172063));
#243=CARTESIAN_POINT('',(0.0078286618668562,-0.006,3.39270864867247E-018));
#244=DRAUGHTING_PRE_DEFINED_CURVE_FONT('continuous');
#245=COLOUR_RGB('',0.0,0.0,0.0);
#246=CARTESIAN_POINT('',(0.155250805887767,-0.006,7.34788079488412E-019));
#247=CARTESIAN_POINT('',(0.152960286827634,0.006,1.82426944260532E-014));
#248=CARTESIAN_POINT('',(0.152960286827634,0.006,3.64842698175302E-014));
#249=CARTESIAN_POINT('',(0.15239371049904,0.00600000000000507,-0.000833380109802883));
#250=CARTESIAN_POINT('',(0.151799028837845,0.0058224321811284,-0.00166154617111013));
#251=CARTESIAN_POINT('',(0.151279590163915,0.00549622457296106,-0.00240655676093024));
#252=CARTESIAN_POINT('',(0.151107956341524,0.00538843849253838,-0.00265272444475967));
#253=CARTESIAN_POINT('',(0.150946135676292,0.00526695752056566,-0.00288733594946703));
#254=CARTESIAN_POINT('',(0.150786089843951,0.00512191372718411,-0.00312505996282999));
#255=CARTESIAN_POINT('',(0.15043083543408,0.00479995940653909,-0.00365273695912822));
#256=CARTESIAN_POINT('',(0.15010106970985,0.00436526251709202,-0.00417349571992665));
#257=CARTESIAN_POINT('',(0.149872790730913,0.00383611621939357,-0.00461348158675264));
#258=CARTESIAN_POINT('',(0.149681238195287,0.00339210111334387,-0.00498268075183956));
#259=CARTESIAN_POINT('',(0.149561717712854,0.00288076821121072,-0.00529561534624546));
#260=CARTESIAN_POINT('',(0.149532507605148,0.00234206480205715,-0.00552401416208947));
#261=CARTESIAN_POINT('',(0.149514340419696,0.00200701897351752,-0.00566606648474353));
#262=CARTESIAN_POINT('',(0.149529531231465,0.0016608405229129,-0.00577713863566678));
#263=CARTESIAN_POINT('',(0.149578253145981,0.00130389958521851,-0.00585660702725281));
#264=CARTESIAN_POINT('',(0.149654785248989,0.000743218813891742,-0.00598143551954725));
#265=CARTESIAN_POINT('',(0.149815820457887,0.000164568929150602,-0.00602344622005795));
#266=CARTESIAN_POINT('',(0.150035842610435,-0.000390121089015412,-0.00598730369497869));
#267=CARTESIAN_POINT('',(0.150215642292716,-0.00084340766891662,-0.00595776842113991));
#268=CARTESIAN_POINT('',(0.150434287219119,-0.00128177340173898,-0.00587663684761165));
#269=CARTESIAN_POINT('',(0.150668093493735,-0.0016864421188925,-0.00575811713840778));
#270=CARTESIAN_POINT('',(0.150800463584119,-0.00191554646929234,-0.00569101686641806));
#271=CARTESIAN_POINT('',(0.150936413134878,-0.00213221661951487,-0.00561285905562176));
#272=CARTESIAN_POINT('',(0.151074845849748,-0.00233922693937513,-0.00552521649585803));
#273=CARTESIAN_POINT('',(0.151575785571265,-0.00308832509929974,-0.00520806863436779));
#274=CARTESIAN_POINT('',(0.152166703395824,-0.00378951225474853,-0.00472662302090704));
#275=CARTESIAN_POINT('',(0.152742414499851,-0.00436422637239139,-0.00411746623186195));
#276=CARTESIAN_POINT('',(0.153244216026897,-0.00486515890579308,-0.00358651276437672));
#277=CARTESIAN_POINT('',(0.153733021259993,-0.00527098136895798,-0.00295747966638387));
#278=CARTESIAN_POINT('',(0.154150300235957,-0.00554813398508993,-0.00228434001048226));
#279=CARTESIAN_POINT('',(0.154271141242824,-0.00562839540039804,-0.00208940358073934));
#280=CARTESIAN_POINT('',(0.154386130243776,-0.00569823071388772,-0.00189152122305236));
#281=CARTESIAN_POINT('',(0.154499550828863,-0.00575944388843327,-0.00168190549555812));
#282=CARTESIAN_POINT('',(0.154779440358494,-0.00591050047677411,-0.00116463389687147));
#283=CARTESIAN_POINT('',(0.155037935813125,-0.006,-0.000590062216033861));
#284=CARTESIAN_POINT('',(0.155250805887761,-0.006,2.16833937731747E-015));
#285=DRAUGHTING_PRE_DEFINED_CURVE_FONT('continuous');
#286=COLOUR_RGB('',0.0,0.0,0.0);
#287=CARTESIAN_POINT('',(0.00929126574468762,0.0075,-1.4454065424994E-019));
#288=CARTESIAN_POINT('',(0.00940283360141867,0.00691867731842432,0.00289515183773163));
#289=CARTESIAN_POINT('',(0.00940283360141867,0.00691867731842432,0.00289515183773164));
#290=CARTESIAN_POINT('',(0.00943052623757523,0.00714835472776529,0.00234628118374657));
#291=CARTESIAN_POINT('',(0.00943330260641042,0.00732402741399645,0.0017734950859449));
#292=CARTESIAN_POINT('',(0.00940992141128758,0.00744171778195623,0.00118561100097687));
#293=CARTESIAN_POINT('',(0.00936145027598333,0.0075,0.000591482646264183));
#294=CARTESIAN_POINT('',(0.00929126574468762,0.0075,-1.4454065424994E-019));
#295=DRAUGHTING_PRE_DEFINED_CURVE_FONT('continuous');
#296=COLOUR_RGB('',0.0,0.0,0.0);
#297=CARTESIAN_POINT('',(0.00767874029434747,-0.00738062167180931,-0.00133282547155237));
#298=CARTESIAN_POINT('',(0.00929126574468762,0.0075,6.30947008032462E-019));
#299=CARTESIAN_POINT('',(0.00922415205872357,0.00749999999999998,-0.000565602987463253));
#300=CARTESIAN_POINT('',(0.00913715266401699,0.00744668221009546,-0.00112884632839779));
#301=CARTESIAN_POINT('',(0.00903304802849459,0.00734092823383891,-0.00168246810994371));
#302=CARTESIAN_POINT('',(0.00878366221869923,0.00700938159688442,-0.00282842792209291));
#303=CARTESIAN_POINT('',(0.00849478883108692,0.00646367716431165,-0.0038808291035111));
#304=CARTESIAN_POINT('',(0.00833645573897788,0.00611754905045709,-0.00440616516348997));
#305=CARTESIAN_POINT('',(0.00805145224704105,0.00539326478292309,-0.0052898381025015));
#306=CARTESIAN_POINT('',(0.00779109489677411,0.00451260918291374,-0.00602374625406107));
#307=CARTESIAN_POINT('',(0.00768209431584902,0.00408716965083672,-0.00632052894050767));
#308=CARTESIAN_POINT('',(0.00747277196814963,0.00312185469337574,-0.0068763608584845));
#309=CARTESIAN_POINT('',(0.00732364158791543,0.00206035904221446,-0.00724870727558234));
#310=CARTESIAN_POINT('',(0.00726420295197465,0.00147440724700879,-0.00739056423440016));
#311=CARTESIAN_POINT('',(0.00717987765303492,0.00017030201691359,-0.00756999469919245));
#312=CARTESIAN_POINT('',(0.00718601909158811,-0.00114728742956987,-0.0074631978672923));
#313=CARTESIAN_POINT('',(0.00721304568349473,-0.00184994638287564,-0.00732047416250999));
#314=CARTESIAN_POINT('',(0.00730091966636817,-0.00322312853181797,-0.00686699624512129));
#315=CARTESIAN_POINT('',(0.00742567056376935,-0.00444881766806139,-0.00610370672678033));
#316=CARTESIAN_POINT('',(0.00749031974521393,-0.00501953607625806,-0.00564379734189084));
#317=CARTESIAN_POINT('',(0.00760489420335009,-0.00602463670004591,-0.00460926647348731));
#318=CARTESIAN_POINT('',(0.00767440249218327,-0.00675894759800445,-0.00336513534479015));
#319=CARTESIAN_POINT('',(0.00769298512390055,-0.00704686532870482,-0.00271126612913708));
#320=CARTESIAN_POINT('',(0.00769390478492698,-0.00725485029740541,-0.00202929395255871));
#321=CARTESIAN_POINT('',(0.00767874029434747,-0.00738062167180931,-0.00133282547155237));
#322=DRAUGHTING_PRE_DEFINED_CURVE_FONT('continuous');
#323=COLOUR_RGB('',0.0,0.0,0.0);
#324=CARTESIAN_POINT('',(0.00922810496382775,0.00546951153324249,0.00246666649300779));
#325=CARTESIAN_POINT('',(0.00922810496382775,0.00546951153324249,0.0024666664930078));
#326=CARTESIAN_POINT('',(0.00925331078085597,0.00567856374201868,0.00200312046025777));
#327=CARTESIAN_POINT('',(0.00925929012443555,0.00583889045718375,0.00151649304883196));
#328=CARTESIAN_POINT('',(0.00924480368822463,0.00594655973949866,0.001014865980379));
#329=CARTESIAN_POINT('',(0.00921055729114713,0.006,0.000506533024750285));
#330=CARTESIAN_POINT('',(0.00915920187739279,0.006,-1.03357098769459E-018));
#331=DRAUGHTING_PRE_DEFINED_CURVE_FONT('continuous');
#332=COLOUR_RGB('',0.0,0.0,0.0);
#333=CARTESIAN_POINT('',(0.15628879960032,-0.0075,1.69383014795461E-014));
#334=CARTESIAN_POINT('',(0.153425650775279,0.0075,1.08875700620141E-013));
#335=CARTESIAN_POINT('',(0.153425650775279,0.0075,2.17757728102758E-013));
#336=CARTESIAN_POINT('',(0.152745616387817,0.00750000000002706,-0.000932013479490844));
#337=CARTESIAN_POINT('',(0.152024569123897,0.00732428492060684,-0.00185222194464407));
#338=CARTESIAN_POINT('',(0.151367966924931,0.00699711735795076,-0.002700064569425));
#339=CARTESIAN_POINT('',(0.15117998026582,0.00690344856249133,-0.00294280378463832));
#340=CARTESIAN_POINT('',(0.150997288536893,0.00679753667818794,-0.0031796014437882));
#341=CARTESIAN_POINT('',(0.150822175647282,0.00668043535674048,-0.0034090736930157));
#342=CARTESIAN_POINT('',(0.150658545483071,0.0065710127522681,-0.00362349869569063));
#343=CARTESIAN_POINT('',(0.150497388409112,0.00644927293929419,-0.00383688152859763));
#344=CARTESIAN_POINT('',(0.150338707357177,0.00631179455361285,-0.00405108004277663));
#345=CARTESIAN_POINT('',(0.149896185495179,0.00592840163760625,-0.00464842625504391));
#346=CARTESIAN_POINT('',(0.149485673899973,0.00542698573773331,-0.00523655913677898));
#347=CARTESIAN_POINT('',(0.149190515267556,0.00482209727252469,-0.00574433441699819));
#348=CARTESIAN_POINT('',(0.148937780077741,0.00430415002558549,-0.00617912665322081));
#349=CARTESIAN_POINT('',(0.14877051795159,0.00371003549132762,-0.00655506032870772));
#350=CARTESIAN_POINT('',(0.14871505189908,0.00307607983745139,-0.00684015590711389));
#351=CARTESIAN_POINT('',(0.148674408599819,0.00261154255396912,-0.00704906251551124));
#352=CARTESIAN_POINT('',(0.148692214975562,0.00212701892118638,-0.007210061321052));
#353=CARTESIAN_POINT('',(0.148767697232597,0.00163007841495429,-0.00732071337788198));
#354=CARTESIAN_POINT('',(0.148869797984552,0.000957893965831517,-0.0074703864090231));
#355=CARTESIAN_POINT('',(0.149079023686157,0.000269060699259003,-0.00752427883716138));
#356=CARTESIAN_POINT('',(0.149362281115452,-0.000391224201710162,-0.0074897892910279));
#357=CARTESIAN_POINT('',(0.149585589924035,-0.000911766363404596,-0.0074625991146755));
#358=CARTESIAN_POINT('',(0.149854358396515,-0.00141582976233489,-0.0073811382431277));
#359=CARTESIAN_POINT('',(0.150143126383238,-0.00188579730931396,-0.00725904735541684));
#360=CARTESIAN_POINT('',(0.15033364329686,-0.00219586203487011,-0.00717849694755504));
#361=CARTESIAN_POINT('',(0.15053266420652,-0.00249109767805466,-0.00708045902695133));
#362=CARTESIAN_POINT('',(0.150732145101098,-0.00276754199685893,-0.00697070378768328));
#363=CARTESIAN_POINT('',(0.150890094715949,-0.00298643149890917,-0.00688379923571165));
#364=CARTESIAN_POINT('',(0.151052958018895,-0.00320009551559297,-0.00678714121761777));
#365=CARTESIAN_POINT('',(0.151221518919923,-0.00341066039559306,-0.00667962541359416));
#366=CARTESIAN_POINT('',(0.151978016719529,-0.00435567117462116,-0.0061970967330367));
#367=CARTESIAN_POINT('',(0.152833311722096,-0.00521286237123358,-0.00550196929424435));
#368=CARTESIAN_POINT('',(0.153619143396495,-0.00588981319336101,-0.00464328553368309));
#369=CARTESIAN_POINT('',(0.15392862331622,-0.00615641314461654,-0.00430511466332338));
#370=CARTESIAN_POINT('',(0.154227387375249,-0.00639539676088731,-0.00394184907480668));
#371=CARTESIAN_POINT('',(0.154506366377965,-0.00660183919968954,-0.0035588929713385));
#372=CARTESIAN_POINT('',(0.15473401143092,-0.00677029488795243,-0.00324640327998193));
#373=CARTESIAN_POINT('',(0.154948452314738,-0.00691705479765489,-0.00292086730373457));
#374=CARTESIAN_POINT('',(0.155146149974414,-0.00703999575111371,-0.00258620568097375));
#375=CARTESIAN_POINT('',(0.155287217908108,-0.00712772074643846,-0.00234740657891617));
#376=CARTESIAN_POINT('',(0.155424622870645,-0.00720632424599082,-0.00209574618715196));
#377=CARTESIAN_POINT('',(0.155555278886214,-0.00727248595391133,-0.00183328886162614));
#378=CARTESIAN_POINT('',(0.155839954951948,-0.0074166404701113,-0.00126144133873917));
#379=CARTESIAN_POINT('',(0.156090322396851,-0.0075,-0.000638247725319903));
#380=CARTESIAN_POINT('',(0.156288799600315,-0.0075,1.84394169686805E-014));
#381=DRAUGHTING_PRE_DEFINED_CURVE_FONT('continuous');
#382=COLOUR_RGB('',0.0,0.0,0.0);
#383=CARTESIAN_POINT('',(0.00762809073151688,-0.0075,2.56789468788214E-018));
#384=CARTESIAN_POINT('',(0.00767874029434747,-0.00738062167180931,-0.00133282547155238));
#385=CARTESIAN_POINT('',(0.00766916500517583,-0.00746003728245041,-0.000893055532060586));
#386=CARTESIAN_POINT('',(0.00765189346602979,-0.0075001094401694,-0.00044631310654843));
#387=CARTESIAN_POINT('',(0.00762807715748237,-0.00749998592314212,-5.64528742085261E-009));
#388=DRAUGHTING_PRE_DEFINED_CURVE_FONT('continuous');
#389=COLOUR_RGB('',0.0,0.0,0.0);
#390=CARTESIAN_POINT('',(0.157009618667186,-0.00050624167323786,0.00748289464020167));
#391=CARTESIAN_POINT('',(0.15628879960032,-0.0075,3.38790661467102E-014));
#392=CARTESIAN_POINT('',(0.156512411682561,-0.0075,0.000719074535334899));
#393=CARTESIAN_POINT('',(0.156670923090843,-0.00739290090501395,0.00145881922296815));
#394=CARTESIAN_POINT('',(0.156776059563203,-0.00718279900860877,0.00215810064684873));
#395=CARTESIAN_POINT('',(0.156826989921262,-0.00708102115195662,0.00249684753936594));
#396=CARTESIAN_POINT('',(0.156865875843355,-0.00695586227186641,0.0028257347789757));
#397=CARTESIAN_POINT('',(0.156895869454061,-0.00681161726463042,0.00313876890519018));
#398=CARTESIAN_POINT('',(0.156920025082695,-0.00669544822911922,0.00339087380102852));
#399=CARTESIAN_POINT('',(0.15693922240102,-0.00656298672551199,0.00364136630307363));
#400=CARTESIAN_POINT('',(0.156954311237507,-0.00641427576729239,0.00388678097930995));
#401=CARTESIAN_POINT('',(0.156995497204866,-0.00600835946772819,0.00455665641034231));
#402=CARTESIAN_POINT('',(0.157006059137838,-0.00547954093512278,0.00518409707650973));
#403=CARTESIAN_POINT('',(0.157008808230635,-0.00486591965746337,0.00570726080419597));
#404=CARTESIAN_POINT('',(0.157010703495451,-0.00444288016622862,0.00606793753632797));
#405=CARTESIAN_POINT('',(0.157009010274095,-0.0039797261973956,0.00638023570801067));
#406=CARTESIAN_POINT('',(0.157008024373883,-0.00349879875155565,0.00663388327423031));
#407=CARTESIAN_POINT('',(0.157007488668832,-0.00323747893538511,0.00677170683982211));
#408=CARTESIAN_POINT('',(0.157007090002344,-0.00297110356460288,0.00689235972300949));
#409=CARTESIAN_POINT('',(0.157007004320259,-0.00270387528308927,0.00699564567809855));
#410=CARTESIAN_POINT('',(0.157006922398342,-0.00244837434161672,0.00709439891864881));
#411=CARTESIAN_POINT('',(0.157007115953627,-0.00218775551106348,0.00717928423222374));
#412=CARTESIAN_POINT('',(0.157007521628935,-0.00191706345414987,0.00725085289554015));
#413=CARTESIAN_POINT('',(0.157008201716556,-0.00146326625926232,0.00737083299035765));
#414=CARTESIAN_POINT('',(0.157009618938358,-0.000987880464920962,0.00745031071999934));
#415=CARTESIAN_POINT('',(0.157009618943234,-0.000506241705510965,0.00748289511723914));
#416=DRAUGHTING_PRE_DEFINED_CURVE_FONT('continuous');
#417=COLOUR_RGB('',0.0,0.0,0.0);
#418=CARTESIAN_POINT('',(0.157009618943234,-0.000506241706271534,0.00748289511718768));
#419=CARTESIAN_POINT('',(0.157009618951338,0.00029407365663799,0.00753703900247936));
#420=CARTESIAN_POINT('',(0.157006043244091,0.0011116091774475,0.00745935795645335));
#421=CARTESIAN_POINT('',(0.156977339193115,0.001878624980087,0.00726090684310115));
#422=CARTESIAN_POINT('',(0.156961195950612,0.00230999691837168,0.00714929735457836));
#423=CARTESIAN_POINT('',(0.156936820549739,0.00272490513458731,0.00700045997481285));
#424=CARTESIAN_POINT('',(0.156900898349986,0.00311256411434448,0.00682363133779185));
#425=CARTESIAN_POINT('',(0.156876270697174,0.00337833655669042,0.00670240061390351));
#426=CARTESIAN_POINT('',(0.156845629334652,0.00363912366869844,0.00656472425307333));
#427=CARTESIAN_POINT('',(0.156806733544008,0.00389384490359179,0.00640999000520065));
#428=CARTESIAN_POINT('',(0.156713245528163,0.00450608037817884,0.00603807835158111));
#429=CARTESIAN_POINT('',(0.156570714011875,0.00507425019014168,0.00556857505601058));
#430=CARTESIAN_POINT('',(0.156365099988086,0.00555289095831972,0.00504136906058375));
#431=CARTESIAN_POINT('',(0.156211337818966,0.00591082784116531,0.00464711415551392));
#432=CARTESIAN_POINT('',(0.156022254794021,0.00622031587025789,0.00422051006824997));
#433=CARTESIAN_POINT('',(0.155804337403851,0.00647514433126879,0.00378450867210497));
#434=CARTESIAN_POINT('',(0.155636262574984,0.00667168784687129,0.00344823050731129));
#435=CARTESIAN_POINT('',(0.155451498421763,0.00683580382562352,0.00310678780624915));
#436=CARTESIAN_POINT('',(0.155257881022869,0.0069692080262636,0.00277130645845293));
#437=CARTESIAN_POINT('',(0.155123641460798,0.00706170034139025,0.00253870923594721));
#438=CARTESIAN_POINT('',(0.154984892121391,0.00714023344566566,0.00230810549993962));
#439=CARTESIAN_POINT('',(0.154837597659022,0.00720806937775568,0.00207213316306189));
#440=CARTESIAN_POINT('',(0.154414860638297,0.00740275938421293,0.00139488949035026));
#441=CARTESIAN_POINT('',(0.153931894971144,0.00749999999998643,0.000693827287878926));
#442=CARTESIAN_POINT('',(0.153425650775227,0.0075,1.46682951537127E-013));
#443=DRAUGHTING_PRE_DEFINED_CURVE_FONT('continuous');
#444=COLOUR_RGB('',0.0,0.0,0.0);
#445=CARTESIAN_POINT('',(0.155250805887761,-0.006,2.17110615268727E-015));
#446=CARTESIAN_POINT('',(0.155476398364328,-0.006,0.000625327899528847));
#447=CARTESIAN_POINT('',(0.155651503172731,-0.00589845395297147,0.00126906755278711));
#448=CARTESIAN_POINT('',(0.155778663643341,-0.00570059704049031,0.00187168196602764));
#449=CARTESIAN_POINT('',(0.15583233368506,-0.0056170884729586,0.00212602469175108));
#450=CARTESIAN_POINT('',(0.155877559833766,-0.00551775438148381,0.00237143283241563));
#451=CARTESIAN_POINT('',(0.155916426168872,-0.00540330044569296,0.00260851380935088));
#452=CARTESIAN_POINT('',(0.156007941421938,-0.0051338054992436,0.0031667482181709));
#453=CARTESIAN_POINT('',(0.156068771516468,-0.00475753038665325,0.0037151485248498));
#454=CARTESIAN_POINT('',(0.156107410041143,-0.00429639304480556,0.00418819851541763));
#455=CARTESIAN_POINT('',(0.156147734897294,-0.00381512992381218,0.00468189419821436));
#456=CARTESIAN_POINT('',(0.156165637149395,-0.00324133400804228,0.00509360615497247));
#457=CARTESIAN_POINT('',(0.156172512631058,-0.00263812009739461,0.00538890734302629));
#458=CARTESIAN_POINT('',(0.156175082611563,-0.00241264527726182,0.00549928772565033));
#459=CARTESIAN_POINT('',(0.156176022781731,-0.00218599326199854,0.00559299247139951));
#460=CARTESIAN_POINT('',(0.156175550404034,-0.00195414651258053,0.00567285742878925));
#461=CARTESIAN_POINT('',(0.156174313110463,-0.00134687293808284,0.00588204681045158));
#462=CARTESIAN_POINT('',(0.156163763326364,-0.000672178979785821,0.00600043461097386));
#463=CARTESIAN_POINT('',(0.156135581487294,3.86829035640307E-006,0.00599999875302735));
#464=CARTESIAN_POINT('',(0.156115602245941,0.000483145442669484,0.00599968975576541));
#465=CARTESIAN_POINT('',(0.156086364989949,0.000963327670633684,0.0059409015938155));
#466=CARTESIAN_POINT('',(0.156043132871119,0.00142140555315378,0.00582920288319626));
#467=CARTESIAN_POINT('',(0.156012528685874,0.00174568066972934,0.00575013093104671));
#468=CARTESIAN_POINT('',(0.155974866263153,0.00205857618892237,0.00564485998239044));
#469=CARTESIAN_POINT('',(0.155929379175012,0.00235263445572201,0.00551952091378859));
#470=CARTESIAN_POINT('',(0.155893087397473,0.00258724822499373,0.00541951940170145));
#471=CARTESIAN_POINT('',(0.155851558443526,0.00281307793047855,0.00530591986758625));
#472=CARTESIAN_POINT('',(0.155802185337394,0.00303501544870002,0.00517577832080859));
#473=CARTESIAN_POINT('',(0.155681131526713,0.00357916558262524,0.00485669509109693));
#474=CARTESIAN_POINT('',(0.155513410531791,0.00408087103911255,0.00444271955661144));
#475=CARTESIAN_POINT('',(0.155294955434161,0.00449517780001951,0.00397408814021679));
#476=CARTESIAN_POINT('',(0.155139176975994,0.00479061640100645,0.00363991109291233));
#477=CARTESIAN_POINT('',(0.154957692792287,0.00504308155982586,0.0032780102726239));
#478=CARTESIAN_POINT('',(0.154758594732466,0.00524764539870349,0.00290898913189205));
#479=CARTESIAN_POINT('',(0.154622832917261,0.00538713424212186,0.00265735945775203));
#480=CARTESIAN_POINT('',(0.154479167188065,0.00550450731011902,0.0024026410586271));
#481=CARTESIAN_POINT('',(0.154332214163631,0.0056009228212858,0.00215166529692699));
#482=CARTESIAN_POINT('',(0.154195131920222,0.00569086213775151,0.00191754748555407));
#483=CARTESIAN_POINT('',(0.154051965077592,0.00576515885605127,0.00168095953445544));
#484=CARTESIAN_POINT('',(0.153900475432897,0.00582515800751534,0.00143789227255727));
#485=CARTESIAN_POINT('',(0.153608047280644,0.00594097741573083,0.00096868719644106));
#486=CARTESIAN_POINT('',(0.153288901077892,0.00599999999999807,0.000483360433845071));
#487=CARTESIAN_POINT('',(0.152960286827625,0.006,2.40125401921714E-014));
#488=DRAUGHTING_PRE_DEFINED_CURVE_FONT('continuous');
#489=COLOUR_RGB('',0.0,0.0,0.0);
#490=CARTESIAN_POINT('',(0.00762809073151688,-0.0075,4.21884749357559E-018));
#491=CARTESIAN_POINT('',(0.00758953057243647,-0.00749999999999999,0.000726313412384628));
#492=CARTESIAN_POINT('',(0.00753725274428116,-0.00741207813783172,0.00145189854021381));
#493=CARTESIAN_POINT('',(0.00747538097157234,-0.00723655719558181,0.00216263744142499));
#494=CARTESIAN_POINT('',(0.00736376604396468,-0.00678486639407164,0.00335113281502381));
#495=CARTESIAN_POINT('',(0.00726942659426466,-0.00609712935523668,0.00441725392950969));
#496=CARTESIAN_POINT('',(0.00723558447847642,-0.00576376261706464,0.00484434403908965));
#497=CARTESIAN_POINT('',(0.00718824037799815,-0.00503600599638515,0.00562084120681846));
#498=CARTESIAN_POINT('',(0.00718825776233436,-0.00418275472231024,0.00625811407433535));
#499=CARTESIAN_POINT('',(0.00720196113601855,-0.00373757025680541,0.00653371207547373));
#500=CARTESIAN_POINT('',(0.0072593353633972,-0.0028085335122673,0.0070023250984809));
#501=CARTESIAN_POINT('',(0.00737612975019843,-0.00181785354567355,0.00730361225777754));
#502=CARTESIAN_POINT('',(0.00744894324449618,-0.00131461692428327,0.00741043500751975));
#503=CARTESIAN_POINT('',(0.00762374525984118,-0.000282070361920462,0.00753917246884555));
#504=CARTESIAN_POINT('',(0.00784316337076563,0.000749082102324852,0.00748997249800601));
#505=CARTESIAN_POINT('',(0.00796366254289557,0.0012676954602888,0.00741954943571047));
#506=CARTESIAN_POINT('',(0.00824235173291445,0.00239206602886873,0.00716645027908211));
#507=CARTESIAN_POINT('',(0.00853113647287544,0.00344766544013221,0.00670509067418478));
#508=CARTESIAN_POINT('',(0.00868621094074552,0.00399835732012381,0.00639239044190287));
#509=CARTESIAN_POINT('',(0.0089832162875835,0.00505355744736815,0.00563637047091029));
#510=CARTESIAN_POINT('',(0.00921395359125303,0.00593227723405248,0.00466184094154005));
#511=CARTESIAN_POINT('',(0.00930774937759022,0.00632689587151113,0.00411193760522399));
#512=CARTESIAN_POINT('',(0.00937136089934925,0.00665764876789555,0.00351894375374375));
#513=CARTESIAN_POINT('',(0.00940283360141867,0.00691867731842432,0.00289515183773163));
#514=DRAUGHTING_PRE_DEFINED_CURVE_FONT('continuous');
#515=COLOUR_RGB('',0.0,0.0,0.0);
#516=CARTESIAN_POINT('',(0.0078286618668562,-0.006,6.0507154842071E-018));
#517=CARTESIAN_POINT('',(0.00780544937031676,-0.00599999999999999,0.000648073140887971));
#518=CARTESIAN_POINT('',(0.00777332118676532,-0.00591250025084576,0.0012958269369172));
#519=CARTESIAN_POINT('',(0.0077358768990849,-0.00573762688560346,0.00192770310901319));
#520=CARTESIAN_POINT('',(0.00766480623578555,-0.00522657441734416,0.00311789789764717));
#521=CARTESIAN_POINT('',(0.00762652417819335,-0.0044200288684202,0.00413266007896369));
#522=CARTESIAN_POINT('',(0.00762200321804734,-0.00395517442257416,0.00457968228392573));
#523=CARTESIAN_POINT('',(0.00764774185484873,-0.0031181919264573,0.0051922955900501));
#524=CARTESIAN_POINT('',(0.00773033196885496,-0.00217891753091088,0.00561080026539661));
#525=CARTESIAN_POINT('',(0.00777029905526167,-0.00181021959914841,0.00574024446870005));
#526=CARTESIAN_POINT('',(0.00787737516634672,-0.000973753108581438,0.00595970646625213));
#527=CARTESIAN_POINT('',(0.00802071326300398,-0.000115402081508347,0.00602668453104579));
#528=CARTESIAN_POINT('',(0.00810888429648438,0.000356897538790975,0.00601693775379982));
#529=CARTESIAN_POINT('',(0.00831760759179229,0.00138542926929747,0.00589485062418071));
#530=CARTESIAN_POINT('',(0.00854314734608226,0.00236341064877169,0.00555788491140841));
#531=CARTESIAN_POINT('',(0.00866595001039743,0.00287382195229179,0.00531216401319022));
#532=CARTESIAN_POINT('',(0.00889532030212023,0.00381883592848054,0.00471166600407581));
#533=CARTESIAN_POINT('',(0.00907664943259179,0.00460668079028555,0.0039042965101355));
#534=CARTESIAN_POINT('',(0.00914928622537751,0.00494991985831543,0.00345983869101606));
#535=CARTESIAN_POINT('',(0.00920034352226916,0.00523926346510249,0.00297721158200477));
#536=CARTESIAN_POINT('',(0.00922810496382775,0.00546951153324249,0.00246666649300779));
#537=SURFACE_SIDE_STYLE('',(#608));
#538=PRE_DEFINED_MARKER('');
#539=COLOUR_RGB('',0.560784339904785,0.686274528503418,0.560784339904785);
#540=SURFACE_SIDE_STYLE('',(#609));
#542=SURFACE_STYLE_FILL_AREA(#610);
#543=ORIENTED_EDGE('',*,*,#611,.F.);
#544=ORIENTED_EDGE('',*,*,#63,.T.);
#545=ORIENTED_EDGE('',*,*,#65,.T.);
#546=ORIENTED_EDGE('',*,*,#612,.F.);
#547=ORIENTED_EDGE('',*,*,#67,.T.);
#548=CARTESIAN_POINT('',(0.085,0.0,0.0));
#549=DIRECTION('',(1.0,0.0,0.0));
#550=DIRECTION('',(0.0,1.0,0.0));
#551=SURFACE_STYLE_FILL_AREA(#613);
#552=ORIENTED_EDGE('',*,*,#614,.F.);
#553=ORIENTED_EDGE('',*,*,#69,.F.);
#554=ORIENTED_EDGE('',*,*,#71,.F.);
#555=ORIENTED_EDGE('',*,*,#615,.F.);
#556=ORIENTED_EDGE('',*,*,#63,.F.);
#557=ORIENTED_EDGE('',*,*,#73,.F.);
#558=CARTESIAN_POINT('',(-0.0151457523577448,0.00381045258506741,0.0011266641168049));
#559=DIRECTION('',(0.114858354303152,0.952613146266991,0.281666029201386));
#560=DIRECTION('',(-0.992809516206183,0.119704906041671,-5.08971534625845E-018));
#561=SURFACE_STYLE_FILL_AREA(#616);
#562=ORIENTED_EDGE('',*,*,#617,.F.);
#563=ORIENTED_EDGE('',*,*,#75,.F.);
#564=ORIENTED_EDGE('',*,*,#618,.F.);
#565=ORIENTED_EDGE('',*,*,#77,.T.);
#566=ORIENTED_EDGE('',*,*,#71,.T.);
#567=CARTESIAN_POINT('',(0.085,0.0,0.0));
#568=DIRECTION('',(1.0,0.0,0.0));
#569=DIRECTION('',(0.0,1.0,0.0));
#570=SURFACE_STYLE_FILL_AREA(#619);
#571=ORIENTED_EDGE('',*,*,#79,.T.);
#572=ORIENTED_EDGE('',*,*,#75,.T.);
#573=ORIENTED_EDGE('',*,*,#81,.T.);
#574=ORIENTED_EDGE('',*,*,#67,.F.);
#575=ORIENTED_EDGE('',*,*,#83,.F.);
#576=CARTESIAN_POINT('',(0.162728817687428,0.00451860070844803,-0.0123171488346515));
#577=DIRECTION('',(0.484745487504782,-0.30124004722987,0.821143255643434));
#578=DIRECTION('',(0.301240041816621,0.93888140075989,0.166601778242213));
#579=SURFACE_STYLE_FILL_AREA(#620);
#580=ORIENTED_EDGE('',*,*,#617,.T.);
#581=ORIENTED_EDGE('',*,*,#69,.T.);
#582=ORIENTED_EDGE('',*,*,#85,.T.);
#583=ORIENTED_EDGE('',*,*,#618,.T.);
#584=ORIENTED_EDGE('',*,*,#79,.F.);
#585=ORIENTED_EDGE('',*,*,#81,.F.);
#586=CARTESIAN_POINT('',(0.085,0.0,0.0));
#587=DIRECTION('',(1.0,0.0,0.0));
#588=DIRECTION('',(0.0,1.0,0.0));
#589=SURFACE_STYLE_FILL_AREA(#621);
#590=ORIENTED_EDGE('',*,*,#614,.T.);
#591=ORIENTED_EDGE('',*,*,#87,.F.);
#592=ORIENTED_EDGE('',*,*,#65,.F.);
#593=ORIENTED_EDGE('',*,*,#615,.T.);
#594=ORIENTED_EDGE('',*,*,#77,.F.);
#595=ORIENTED_EDGE('',*,*,#85,.F.);
#596=CARTESIAN_POINT('',(-0.0151457523577448,0.00381045258506741,0.0011266641168049));
#597=DIRECTION('',(0.114858354303152,0.952613146266991,0.281666029201386));
#598=DIRECTION('',(-0.992809516206183,0.119704906041671,-5.08971534625845E-018));
#599=SURFACE_STYLE_FILL_AREA(#622);
#600=ORIENTED_EDGE('',*,*,#611,.T.);
#601=ORIENTED_EDGE('',*,*,#83,.T.);
#602=ORIENTED_EDGE('',*,*,#612,.T.);
#603=ORIENTED_EDGE('',*,*,#87,.T.);
#604=ORIENTED_EDGE('',*,*,#73,.T.);
#605=CARTESIAN_POINT('',(0.085,0.0,0.0));
#606=DIRECTION('',(1.0,0.0,0.0));
#607=DIRECTION('',(0.0,1.0,0.0));
#608=SURFACE_STYLE_FILL_AREA(#623);
#609=SURFACE_STYLE_FILL_AREA(#624);
#610=FILL_AREA_STYLE('',(#625));
#611=EDGE_CURVE('',#134,#142,#626,.T.);
#612=EDGE_CURVE('',#141,#138,#627,.T.);
#613=FILL_AREA_STYLE('',(#628));
#614=EDGE_CURVE('',#146,#152,#629,.T.);
#615=EDGE_CURVE('',#135,#149,#630,.T.);
#616=FILL_AREA_STYLE('',(#631));
#617=EDGE_CURVE('',#156,#145,#632,.T.);
#618=EDGE_CURVE('',#159,#155,#633,.T.);
#619=FILL_AREA_STYLE('',(#634));
#620=FILL_AREA_STYLE('',(#635));
#621=FILL_AREA_STYLE('',(#636));
#622=FILL_AREA_STYLE('',(#637));
#623=FILL_AREA_STYLE('',(#638));
#624=FILL_AREA_STYLE('',(#639));
#625=FILL_AREA_STYLE_COLOUR('',#640);
#626=LINE('',#641,#642);
#627=LINE('',#643,#644);
#628=FILL_AREA_STYLE_COLOUR('',#645);
#629=LINE('',#646,#647);
#630=LINE('',#648,#649);
#631=FILL_AREA_STYLE_COLOUR('',#650);
#632=LINE('',#651,#652);
#633=LINE('',#653,#654);
#634=FILL_AREA_STYLE_COLOUR('',#655);
#635=FILL_AREA_STYLE_COLOUR('',#656);
#636=FILL_AREA_STYLE_COLOUR('',#657);
#637=FILL_AREA_STYLE_COLOUR('',#658);
#638=FILL_AREA_STYLE_COLOUR('',#659);
#639=FILL_AREA_STYLE_COLOUR('',#660);
#640=COLOUR_RGB('',0.560784339904785,0.560784339904785,0.686274528503418);
#641=CARTESIAN_POINT('',(0.085,0.006,-7.34874345838986E-019));
#642=VECTOR('',#661,1.0);
#643=CARTESIAN_POINT('',(0.085,-0.006,7.34701813137838E-019));
#644=VECTOR('',#662,1.0);
#645=COLOUR_RGB('',0.560784339904785,0.560784339904785,0.686274528503418);
#646=CARTESIAN_POINT('',(0.00853719874432553,-0.000260732048328588,0.000772363866277626));
#647=VECTOR('',#663,1.0);
#648=CARTESIAN_POINT('',(0.00853719874432553,-0.000260732048328588,0.000772363866277626));
#649=VECTOR('',#664,1.0);
#650=COLOUR_RGB('',0.560784339904785,0.560784339904785,0.686274528503418);
#651=CARTESIAN_POINT('',(0.085,0.0075,-9.20028316532341E-019));
#652=VECTOR('',#665,1.0);
#653=CARTESIAN_POINT('',(0.085,-0.0075,9.16941882188688E-019));
#654=VECTOR('',#666,1.0);
#655=COLOUR_RGB('',0.560784339904785,0.560784339904785,0.686274528503418);
#656=COLOUR_RGB('',0.560784339904785,0.560784339904785,0.686274528503418);
#657=COLOUR_RGB('',0.560784339904785,0.560784339904785,0.686274528503418);
#658=COLOUR_RGB('',0.560784339904785,0.560784339904785,0.686274528503418);
#659=COLOUR_RGB('',0.560784339904785,0.560784339904785,0.686274528503418);
#660=COLOUR_RGB('',0.560784339904785,0.686274528503418,0.560784339904785);
#661=DIRECTION('',(1.0,0.0,-0.0));
#662=DIRECTION('',(-1.0,0.0,-0.0));
#663=DIRECTION('',(-0.114858354303152,-0.952613146266991,-0.281666029201386));
#664=DIRECTION('',(-0.114858354303152,-0.952613146266991,-0.281666029201386));
#665=DIRECTION('',(-1.0,-0.0,-0.0));
#666=DIRECTION('',(1.0,0.0,0.0));
#667=PRESENTATION_LAYER_ASSIGNMENT('9','Calque0',(#89,#93));
#668=PRESENTATION_LAYER_ASSIGNMENT('1023','',(#49,#51,#53,#55,#57,#59,#61,#63,#65,#67,#69,#71,#73,#75,#77,#79,#81,#83,#85,#87));
ENDSEC;
END-ISO-10303-21;
