START RECORD GO HERE.                                                   S      1
1H,,1H;,20HCNEXT - IGES PRODUCT,27HMors_essais_traction_v1.igs,44HIBM CAG      1
TIA IGES - CATIA Version 5 Release 19 ,27HCATIA Version 5 Release 19 ,  G      2
32,75,6,75,15,5HPart3,1.0,2,2HMM,1000,1.0,15H20191128.183055,0.001,     G      3
10000.0,17HMartin Kawczynski,15HDESKTOP-UDLM1FC,11,0,15H20191128.183055,G      4
;                                                                       G      5
     406       1       0       0       0       0       0       000010201D      1
     406       0       0       1      15                               0D      2
     110       2       0       0       0       0       0       001010001D      3
     110       0       0       2       0                               0D      4
     110       4       0       0       0       0       0       001010001D      5
     110       0       0       2       0                               0D      6
     120       6       0       0       0       0       0       001010001D      7
     120       0       0       1       0                               0D      8
     124       7       0       0       0       0       0       001020201D      9
     124       0       0       2       0                               0D     10
     100       9       0       0       0       0       9       001010001D     11
     100       0       0       1       0                               0D     12
     110      10       0       0       0       0       0       001010001D     13
     110       0       0       2       0                               0D     14
     124      12       0       0       0       0       0       001020201D     15
     124       0       0       2       0                               0D     16
     100      14       0       0       0       0      15       001010001D     17
     100       0       0       1       0                               0D     18
     110      15       0       0       0       0       0       001010001D     19
     110       0       0       2       0                               0D     20
     102      17       0       0       0       0       0       001010001D     21
     102       0       0       1       0                               0D     22
     142      18       0       0       0       0       0       001010001D     23
     142       0       0       1       0                               0D     24
     144      19       0       0   10000       0       0       000000000D     25
     144       0       0       1       0                               0D     26
     108      20       0       0       0       0       0       001010001D     27
     108       0       0       2       0                               0D     28
     110      22       0       0       0       0       0       001010001D     29
     110       0       0       2       0                               0D     30
     110      24       0       0       0       0       0       001010001D     31
     110       0       0       2       0                               0D     32
     110      26       0       0       0       0       0       001010001D     33
     110       0       0       1       0                               0D     34
     110      27       0       0       0       0       0       001010001D     35
     110       0       0       2       0                               0D     36
     102      29       0       0       0       0       0       001010001D     37
     102       0       0       1       0                               0D     38
     142      30       0       0       0       0       0       001010001D     39
     142       0       0       1       0                               0D     40
     144      31       0       0   10000       0       0       000000000D     41
     144       0       0       1       0                               0D     42
     108      32       0       0       0       0       0       001010001D     43
     108       0       0       2       0                               0D     44
     110      34       0       0       0       0       0       001010001D     45
     110       0       0       2       0                               0D     46
     110      36       0       0       0       0       0       001010001D     47
     110       0       0       2       0                               0D     48
     110      38       0       0       0       0       0       001010001D     49
     110       0       0       2       0                               0D     50
     110      40       0       0       0       0       0       001010001D     51
     110       0       0       2       0                               0D     52
     102      42       0       0       0       0       0       001010001D     53
     102       0       0       1       0                               0D     54
     142      43       0       0       0       0       0       001010001D     55
     142       0       0       1       0                               0D     56
     144      44       0       0   10000       0       0       000000000D     57
     144       0       0       1       0                               0D     58
     110      45       0       0       0       0       0       001010001D     59
     110       0       0       2       0                               0D     60
     110      47       0       0       0       0       0       001010001D     61
     110       0       0       2       0                               0D     62
     120      49       0       0       0       0       0       001010001D     63
     120       0       0       1       0                               0D     64
     124      50       0       0       0       0       0       001020201D     65
     124       0       0       2       0                               0D     66
     100      52       0       0       0       0      65       001010001D     67
     100       0       0       1       0                               0D     68
     110      53       0       0       0       0       0       001010001D     69
     110       0       0       2       0                               0D     70
     124      55       0       0       0       0       0       001020201D     71
     124       0       0       2       0                               0D     72
     100      57       0       0       0       0      71       001010001D     73
     100       0       0       1       0                               0D     74
     110      58       0       0       0       0       0       001010001D     75
     110       0       0       2       0                               0D     76
     102      60       0       0       0       0       0       001010001D     77
     102       0       0       1       0                               0D     78
     142      61       0       0       0       0       0       001010001D     79
     142       0       0       1       0                               0D     80
     144      62       0       0   10000       0       0       000000000D     81
     144       0       0       1       0                               0D     82
     108      63       0       0       0       0       0       001010001D     83
     108       0       0       2       0                               0D     84
     110      65       0       0       0       0       0       001010001D     85
     110       0       0       2       0                               0D     86
     110      67       0       0       0       0       0       001010001D     87
     110       0       0       2       0                               0D     88
     110      69       0       0       0       0       0       001010001D     89
     110       0       0       2       0                               0D     90
     110      71       0       0       0       0       0       001010001D     91
     110       0       0       2       0                               0D     92
     102      73       0       0       0       0       0       001010001D     93
     102       0       0       1       0                               0D     94
     142      74       0       0       0       0       0       001010001D     95
     142       0       0       1       0                               0D     96
     144      75       0       0   10000       0       0       000000000D     97
     144       0       0       1       0                               0D     98
     110      76       0       0       0       0       0       001010001D     99
     110       0       0       2       0                               0D    100
     110      78       0       0       0       0       0       001010001D    101
     110       0       0       2       0                               0D    102
     120      80       0       0       0       0       0       001010001D    103
     120       0       0       1       0                               0D    104
     124      81       0       0       0       0       0       001020201D    105
     124       0       0       2       0                               0D    106
     100      83       0       0       0       0     105       001010001D    107
     100       0       0       1       0                               0D    108
     110      84       0       0       0       0       0       001010001D    109
     110       0       0       2       0                               0D    110
     124      86       0       0       0       0       0       001020201D    111
     124       0       0       2       0                               0D    112
     100      88       0       0       0       0     111       001010001D    113
     100       0       0       1       0                               0D    114
     110      89       0       0       0       0       0       001010001D    115
     110       0       0       2       0                               0D    116
     102      91       0       0       0       0       0       001010001D    117
     102       0       0       1       0                               0D    118
     142      92       0       0       0       0       0       001010001D    119
     142       0       0       1       0                               0D    120
     144      93       0       0   10000       0       0       000000000D    121
     144       0       0       1       0                               0D    122
     110      94       0       0       0       0       0       001010001D    123
     110       0       0       2       0                               0D    124
     110      96       0       0       0       0       0       001010001D    125
     110       0       0       2       0                               0D    126
     110      98       0       0       0       0       0       001010001D    127
     110       0       0       2       0                               0D    128
     110     100       0       0       0       0       0       001010001D    129
     110       0       0       2       0                               0D    130
     102     102       0       0       0       0       0       001010001D    131
     102       0       0       1       0                               0D    132
     142     103       0       0       0       0       0       001010001D    133
     142       0       0       1       0                               0D    134
     144     104       0       0   10000       0       0       000000000D    135
     144       0       0       1       0                               0D    136
     110     105       0       0       0       0       0       001010001D    137
     110       0       0       2       0                               0D    138
     110     107       0       0       0       0       0       001010001D    139
     110       0       0       2       0                               0D    140
     110     109       0       0       0       0       0       001010001D    141
     110       0       0       1       0                               0D    142
     110     110       0       0       0       0       0       001010001D    143
     110       0       0       2       0                               0D    144
     102     112       0       0       0       0       0       001010001D    145
     102       0       0       1       0                               0D    146
     142     113       0       0       0       0       0       001010001D    147
     142       0       0       1       0                               0D    148
     144     114       0       0   10000       0       0       000000000D    149
     144       0       0       1       0                               0D    150
     110     115       0       0       0       0       0       001010001D    151
     110       0       0       2       0                               0D    152
     110     117       0       0       0       0       0       001010001D    153
     110       0       0       2       0                               0D    154
     120     119       0       0       0       0       0       001010001D    155
     120       0       0       1       0                               0D    156
     124     120       0       0       0       0       0       001020201D    157
     124       0       0       2       0                               0D    158
     100     122       0       0       0       0     157       001010001D    159
     100       0       0       1       0                               0D    160
     110     123       0       0       0       0       0       001010001D    161
     110       0       0       2       0                               0D    162
     124     125       0       0       0       0       0       001020201D    163
     124       0       0       2       0                               0D    164
     100     127       0       0       0       0     163       001010001D    165
     100       0       0       1       0                               0D    166
     110     128       0       0       0       0       0       001010001D    167
     110       0       0       2       0                               0D    168
     102     130       0       0       0       0       0       001010001D    169
     102       0       0       1       0                               0D    170
     142     131       0       0       0       0       0       001010001D    171
     142       0       0       1       0                               0D    172
     144     132       0       0   10000       0       0       000000000D    173
     144       0       0       1       0                               0D    174
     108     133       0       0       0       0       0       001010001D    175
     108       0       0       2       0                               0D    176
     110     135       0       0       0       0       0       001010001D    177
     110       0       0       2       0                               0D    178
     110     137       0       0       0       0       0       001010001D    179
     110       0       0       2       0                               0D    180
     110     139       0       0       0       0       0       001010001D    181
     110       0       0       1       0                               0D    182
     110     140       0       0       0       0       0       001010001D    183
     110       0       0       2       0                               0D    184
     102     142       0       0       0       0       0       001010001D    185
     102       0       0       1       0                               0D    186
     142     143       0       0       0       0       0       001010001D    187
     142       0       0       1       0                               0D    188
     144     144       0       0   10000       0       0       000000000D    189
     144       0       0       1       0                               0D    190
     108     145       0       0       0       0       0       001010001D    191
     108       0       0       2       0                               0D    192
     110     147       0       0       0       0       0       001010001D    193
     110       0       0       2       0                               0D    194
     110     149       0       0       0       0       0       001010001D    195
     110       0       0       2       0                               0D    196
     110     151       0       0       0       0       0       001010001D    197
     110       0       0       1       0                               0D    198
     110     152       0       0       0       0       0       001010001D    199
     110       0       0       2       0                               0D    200
     102     154       0       0       0       0       0       001010001D    201
     102       0       0       1       0                               0D    202
     142     155       0       0       0       0       0       001010001D    203
     142       0       0       1       0                               0D    204
     144     156       0       0   10000       0       0       000000000D    205
     144       0       0       1       0                               0D    206
     108     157       0       0       0       0       0       001010001D    207
     108       0       0       2       0                               0D    208
     110     159       0       0       0       0       0       001010001D    209
     110       0       0       2       0                               0D    210
     110     161       0       0       0       0       0       001010001D    211
     110       0       0       2       0                               0D    212
     110     163       0       0       0       0       0       001010001D    213
     110       0       0       1       0                               0D    214
     110     164       0       0       0       0       0       001010001D    215
     110       0       0       2       0                               0D    216
     102     166       0       0       0       0       0       001010001D    217
     102       0       0       1       0                               0D    218
     142     167       0       0       0       0       0       001010001D    219
     142       0       0       1       0                               0D    220
     144     168       0       0   10000       0       0       000000000D    221
     144       0       0       1       0                               0D    222
     108     169       0       0       0       0       0       001010001D    223
     108       0       0       1       0                               0D    224
     124     170       0       0       0       0       0       001020201D    225
     124       0       0       2       0                               0D    226
     100     172       0       0       0       0     225       001010001D    227
     100       0       0       1       0                               0D    228
     110     173       0       0       0       0       0       001010001D    229
     110       0       0       1       0                               0D    230
     110     174       0       0       0       0       0       001010001D    231
     110       0       0       2       0                               0D    232
     110     176       0       0       0       0       0       001010001D    233
     110       0       0       2       0                               0D    234
     110     178       0       0       0       0       0       001010001D    235
     110       0       0       2       0                               0D    236
     124     180       0       0       0       0       0       001020201D    237
     124       0       0       2       0                               0D    238
     100     182       0       0       0       0     237       001010001D    239
     100       0       0       1       0                               0D    240
     110     183       0       0       0       0       0       001010001D    241
     110       0       0       2       0                               0D    242
     124     185       0       0       0       0       0       001020201D    243
     124       0       0       2       0                               0D    244
     100     187       0       0       0       0     243       001010001D    245
     100       0       0       1       0                               0D    246
     110     188       0       0       0       0       0       001010001D    247
     110       0       0       2       0                               0D    248
     110     190       0       0       0       0       0       001010001D    249
     110       0       0       2       0                               0D    250
     110     192       0       0       0       0       0       001010001D    251
     110       0       0       2       0                               0D    252
     110     194       0       0       0       0       0       001010001D    253
     110       0       0       1       0                               0D    254
     124     195       0       0       0       0       0       001020201D    255
     124       0       0       2       0                               0D    256
     100     197       0       0       0       0     255       001010001D    257
     100       0       0       1       0                               0D    258
     110     198       0       0       0       0       0       001010001D    259
     110       0       0       1       0                               0D    260
     110     199       0       0       0       0       0       001010001D    261
     110       0       0       1       0                               0D    262
     110     200       0       0       0       0       0       001010001D    263
     110       0       0       1       0                               0D    264
     102     201       0       0       0       0       0       001010001D    265
     102       0       0       2       0                               0D    266
     142     203       0       0       0       0       0       001010001D    267
     142       0       0       1       0                               0D    268
     144     204       0       0   10000       0       0       000000000D    269
     144       0       0       1       0                               0D    270
     108     205       0       0       0       0       0       001010001D    271
     108       0       0       1       0                               0D    272
     110     206       0       0       0       0       0       001010001D    273
     110       0       0       2       0                               0D    274
     110     208       0       0       0       0       0       001010001D    275
     110       0       0       2       0                               0D    276
     110     210       0       0       0       0       0       001010001D    277
     110       0       0       2       0                               0D    278
     124     212       0       0       0       0       0       001020201D    279
     124       0       0       2       0                               0D    280
     100     214       0       0       0       0     279       001010001D    281
     100       0       0       1       0                               0D    282
     110     215       0       0       0       0       0       001010001D    283
     110       0       0       2       0                               0D    284
     110     217       0       0       0       0       0       001010001D    285
     110       0       0       2       0                               0D    286
     110     219       0       0       0       0       0       001010001D    287
     110       0       0       2       0                               0D    288
     110     221       0       0       0       0       0       001010001D    289
     110       0       0       2       0                               0D    290
     124     223       0       0       0       0       0       001020201D    291
     124       0       0       2       0                               0D    292
     100     225       0       0       0       0     291       001010001D    293
     100       0       0       1       0                               0D    294
     110     226       0       0       0       0       0       001010001D    295
     110       0       0       2       0                               0D    296
     124     228       0       0       0       0       0       001020201D    297
     124       0       0       2       0                               0D    298
     100     230       0       0       0       0     297       001010001D    299
     100       0       0       1       0                               0D    300
     110     231       0       0       0       0       0       001010001D    301
     110       0       0       2       0                               0D    302
     110     233       0       0       0       0       0       001010001D    303
     110       0       0       2       0                               0D    304
     110     235       0       0       0       0       0       001010001D    305
     110       0       0       2       0                               0D    306
     110     237       0       0       0       0       0       001010001D    307
     110       0       0       2       0                               0D    308
     124     239       0       0       0       0       0       001020201D    309
     124       0       0       2       0                               0D    310
     100     241       0       0       0       0     309       001010001D    311
     100       0       0       1       0                               0D    312
     102     242       0       0       0       0       0       001010001D    313
     102       0       0       2       0                               0D    314
     142     244       0       0       0       0       0       001010001D    315
     142       0       0       1       0                               0D    316
     144     245       0       0   10000       0       0       000000000D    317
     144       0       0       1       0                               0D    318
     108     246       0       0       0       0       0       001010001D    319
     108       0       0       2       0                               0D    320
     110     248       0       0       0       0       0       001010001D    321
     110       0       0       2       0                               0D    322
     110     250       0       0       0       0       0       001010001D    323
     110       0       0       2       0                               0D    324
     110     252       0       0       0       0       0       001010001D    325
     110       0       0       2       0                               0D    326
     110     254       0       0       0       0       0       001010001D    327
     110       0       0       2       0                               0D    328
     102     256       0       0       0       0       0       001010001D    329
     102       0       0       1       0                               0D    330
     142     257       0       0       0       0       0       001010001D    331
     142       0       0       1       0                               0D    332
     124     258       0       0       0       0       0       001020201D    333
     124       0       0       2       0                               0D    334
     100     260       0       0       0       0     333       001010001D    335
     100       0       0       1       0                               0D    336
     124     261       0       0       0       0       0       001020201D    337
     124       0       0       2       0                               0D    338
     100     263       0       0       0       0     337       001010001D    339
     100       0       0       1       0                               0D    340
     102     264       0       0       0       0       0       001010001D    341
     102       0       0       1       0                               0D    342
     142     265       0       0       0       0       0       001010001D    343
     142       0       0       1       0                               0D    344
     144     266       0       0   10000       0       0       000000000D    345
     144       0       0       1       0                               0D    346
     108     267       0       0       0       0       0       001010001D    347
     108       0       0       2       0                               0D    348
     110     269       0       0       0       0       0       001010001D    349
     110       0       0       2       0                               0D    350
     110     271       0       0       0       0       0       001010001D    351
     110       0       0       2       0                               0D    352
     110     273       0       0       0       0       0       001010001D    353
     110       0       0       2       0                               0D    354
     110     275       0       0       0       0       0       001010001D    355
     110       0       0       2       0                               0D    356
     102     277       0       0       0       0       0       001010001D    357
     102       0       0       1       0                               0D    358
     142     278       0       0       0       0       0       001010001D    359
     142       0       0       1       0                               0D    360
     124     279       0       0       0       0       0       001020201D    361
     124       0       0       2       0                               0D    362
     100     281       0       0       0       0     361       001010001D    363
     100       0       0       1       0                               0D    364
     124     282       0       0       0       0       0       001020201D    365
     124       0       0       2       0                               0D    366
     100     284       0       0       0       0     365       001010001D    367
     100       0       0       1       0                               0D    368
     102     285       0       0       0       0       0       001010001D    369
     102       0       0       1       0                               0D    370
     142     286       0       0       0       0       0       001010001D    371
     142       0       0       1       0                               0D    372
     144     287       0       0   10000       0       0       000000000D    373
     144       0       0       1       0                               0D    374
     108     288       0       0       0       0       0       001010001D    375
     108       0       0       2       0                               0D    376
     110     290       0       0       0       0       0       001010001D    377
     110       0       0       2       0                               0D    378
     110     292       0       0       0       0       0       001010001D    379
     110       0       0       2       0                               0D    380
     110     294       0       0       0       0       0       001010001D    381
     110       0       0       2       0                               0D    382
     110     296       0       0       0       0       0       001010001D    383
     110       0       0       2       0                               0D    384
     102     298       0       0       0       0       0       001010001D    385
     102       0       0       1       0                               0D    386
     142     299       0       0       0       0       0       001010001D    387
     142       0       0       1       0                               0D    388
     124     300       0       0       0       0       0       001020201D    389
     124       0       0       2       0                               0D    390
     100     302       0       0       0       0     389       001010001D    391
     100       0       0       1       0                               0D    392
     124     303       0       0       0       0       0       001020201D    393
     124       0       0       2       0                               0D    394
     100     305       0       0       0       0     393       001010001D    395
     100       0       0       1       0                               0D    396
     102     306       0       0       0       0       0       001010001D    397
     102       0       0       1       0                               0D    398
     142     307       0       0       0       0       0       001010001D    399
     142       0       0       1       0                               0D    400
     144     308       0       0   10000       0       0       000000000D    401
     144       0       0       1       0                               0D    402
     108     309       0       0       0       0       0       001010001D    403
     108       0       0       2       0                               0D    404
     110     311       0       0       0       0       0       001010001D    405
     110       0       0       2       0                               0D    406
     110     313       0       0       0       0       0       001010001D    407
     110       0       0       2       0                               0D    408
     110     315       0       0       0       0       0       001010001D    409
     110       0       0       2       0                               0D    410
     110     317       0       0       0       0       0       001010001D    411
     110       0       0       2       0                               0D    412
     102     319       0       0       0       0       0       001010001D    413
     102       0       0       1       0                               0D    414
     142     320       0       0       0       0       0       001010001D    415
     142       0       0       1       0                               0D    416
     124     321       0       0       0       0       0       001020201D    417
     124       0       0       2       0                               0D    418
     100     323       0       0       0       0     417       001010001D    419
     100       0       0       1       0                               0D    420
     124     324       0       0       0       0       0       001020201D    421
     124       0       0       2       0                               0D    422
     100     326       0       0       0       0     421       001010001D    423
     100       0       0       1       0                               0D    424
     102     327       0       0       0       0       0       001010001D    425
     102       0       0       1       0                               0D    426
     142     328       0       0       0       0       0       001010001D    427
     142       0       0       1       0                               0D    428
     144     329       0       0   10000       0       0       000000000D    429
     144       0       0       1       0                               0D    430
     110     330       0       0       0       0       0       001010001D    431
     110       0       0       2       0                               0D    432
     110     332       0       0       0       0       0       001010001D    433
     110       0       0       2       0                               0D    434
     120     334       0       0       0       0       0       001010001D    435
     120       0       0       1       0                               0D    436
     110     335       0       0       0       0       0       001010001D    437
     110       0       0       2       0                               0D    438
     124     337       0       0       0       0       0       001020201D    439
     124       0       0       2       0                               0D    440
     100     339       0       0       0       0     439       001010001D    441
     100       0       0       1       0                               0D    442
     110     340       0       0       0       0       0       001010001D    443
     110       0       0       2       0                               0D    444
     124     342       0       0       0       0       0       001020201D    445
     124       0       0       2       0                               0D    446
     100     344       0       0       0       0     445       001010001D    447
     100       0       0       1       0                               0D    448
     102     345       0       0       0       0       0       001010001D    449
     102       0       0       1       0                               0D    450
     142     346       0       0       0       0       0       001010001D    451
     142       0       0       1       0                               0D    452
     144     347       0       0   10000       0       0       000000000D    453
     144       0       0       1       0                               0D    454
     110     348       0       0       0       0       0       001010001D    455
     110       0       0       2       0                               0D    456
     110     350       0       0       0       0       0       001010001D    457
     110       0       0       2       0                               0D    458
     120     352       0       0       0       0       0       001010001D    459
     120       0       0       1       0                               0D    460
     110     353       0       0       0       0       0       001010001D    461
     110       0       0       2       0                               0D    462
     124     355       0       0       0       0       0       001020201D    463
     124       0       0       2       0                               0D    464
     100     357       0       0       0       0     463       001010001D    465
     100       0       0       1       0                               0D    466
     110     358       0       0       0       0       0       001010001D    467
     110       0       0       2       0                               0D    468
     124     360       0       0       0       0       0       001020201D    469
     124       0       0       2       0                               0D    470
     100     362       0       0       0       0     469       001010001D    471
     100       0       0       1       0                               0D    472
     102     363       0       0       0       0       0       001010001D    473
     102       0       0       1       0                               0D    474
     142     364       0       0       0       0       0       001010001D    475
     142       0       0       1       0                               0D    476
     144     365       0       0   10000       0       0       000000000D    477
     144       0       0       1       0                               0D    478
     110     366       0       0       0       0       0       001010001D    479
     110       0       0       2       0                               0D    480
     110     368       0       0       0       0       0       001010001D    481
     110       0       0       2       0                               0D    482
     120     370       0       0       0       0       0       001010001D    483
     120       0       0       1       0                               0D    484
     124     371       0       0       0       0       0       001020201D    485
     124       0       0       2       0                               0D    486
     100     373       0       0       0       0     485       001010001D    487
     100       0       0       1       0                               0D    488
     110     374       0       0       0       0       0       001010001D    489
     110       0       0       2       0                               0D    490
     124     376       0       0       0       0       0       001020201D    491
     124       0       0       2       0                               0D    492
     100     378       0       0       0       0     491       001010001D    493
     100       0       0       1       0                               0D    494
     110     379       0       0       0       0       0       001010001D    495
     110       0       0       2       0                               0D    496
     102     381       0       0       0       0       0       001010001D    497
     102       0       0       1       0                               0D    498
     142     382       0       0       0       0       0       001010001D    499
     142       0       0       1       0                               0D    500
     144     383       0       0   10000       0       0       000000000D    501
     144       0       0       1       0                               0D    502
     110     384       0       0       0       0       0       001010001D    503
     110       0       0       2       0                               0D    504
     110     386       0       0       0       0       0       001010001D    505
     110       0       0       2       0                               0D    506
     120     388       0       0       0       0       0       001010001D    507
     120       0       0       1       0                               0D    508
     124     389       0       0       0       0       0       001020201D    509
     124       0       0       2       0                               0D    510
     100     391       0       0       0       0     509       001010001D    511
     100       0       0       1       0                               0D    512
     110     392       0       0       0       0       0       001010001D    513
     110       0       0       2       0                               0D    514
     124     394       0       0       0       0       0       001020201D    515
     124       0       0       2       0                               0D    516
     100     396       0       0       0       0     515       001010001D    517
     100       0       0       1       0                               0D    518
     110     397       0       0       0       0       0       001010001D    519
     110       0       0       2       0                               0D    520
     102     399       0       0       0       0       0       001010001D    521
     102       0       0       1       0                               0D    522
     142     400       0       0       0       0       0       001010001D    523
     142       0       0       1       0                               0D    524
     144     401       0       0   10000       0       0       000000000D    525
     144       0       0       1       0                               0D    526
406,1,15HCorps principal,0,0;                                          1P      1
110,22.5,15.57636747,13.37927017,23.5,15.57636747,13.37927017,0,       3P      2
0;                                                                     3P      3
110,0.0,15.57636747,3.379270168,45.0,15.57636747,3.379270168,0,        5P      4
0;                                                                     5P      5
120,3,5,0.0,6.283185307,0,0;                                           7P      6
124,0.0,0.0,-1.0,45.0,1.0,3.375077995E-015,0.0,15.57636747,            9P      7
3.375077995E-015,-1.0,0.0,13.37927017,0,0;                             9P      8
100,0.0,0.0,0.0,10.0,0.0,-1.776356839E-014,10.0,0,0;                  11P      9
110,45.0,15.57636747,3.379270168,0.0,15.57636747,3.379270168,0,       13P     10
0;                                                                    13P     11
124,0.0,0.0,1.0,0.0,1.598721155E-015,1.0,0.0,15.57636747,-1.0,        15P     12
1.598721155E-015,0.0,13.37927017,0,0;                                 15P     13
100,0.0,0.0,0.0,10.0,0.0,-1.776356839E-014,10.0,0,0;                  17P     14
110,0.0,25.57636747,13.37927017,45.0,25.57636747,13.37927017,0,       19P     15
0;                                                                    19P     16
102,4,11,13,17,19,0,0;                                                21P     17
142,0,7,0,21,2,0,0;                                                   23P     18
144,7,1,0,23,0,1,1;                                                   25P     19
108,0.0,0.0,-1.0,-3.379270168,0,0.0,8.576367471,3.379270168,1.0,      27P     20
0,0;                                                                  27P     21
110,45.0,15.57636747,3.379270168,45.0,8.576367471,3.379270168,0,      29P     22
0;                                                                    29P     23
110,45.0,8.576367471,3.379270168,0.0,8.576367471,3.379270168,0,       31P     24
0;                                                                    31P     25
110,0.0,8.576367471,3.379270168,0.0,15.57636747,3.379270168,0,0;      33P     26
110,0.0,15.57636747,3.379270168,45.0,15.57636747,3.379270168,0,       35P     27
0;                                                                    35P     28
102,4,29,31,33,35,0,0;                                                37P     29
142,0,27,0,37,2,0,0;                                                  39P     30
144,27,1,0,39,0,1,1;                                                  41P     31
108,0.0,0.0,-1.0,40.62072983,0,0.0,8.576367471,-40.62072983,1.0,      43P     32
0,0;                                                                  43P     33
110,45.0,8.576367471,-40.62072983,45.0,16.57636747,-40.62072983,      45P     34
0,0;                                                                  45P     35
110,45.0,16.57636747,-40.62072983,0.0,16.57636747,-40.62072983,       47P     36
0,0;                                                                  47P     37
110,0.0,16.57636747,-40.62072983,0.0,8.576367471,-40.62072983,0,      49P     38
0;                                                                    49P     39
110,0.0,8.576367471,-40.62072983,45.0,8.576367471,-40.62072983,       51P     40
0,0;                                                                  51P     41
102,4,45,47,49,51,0,0;                                                53P     42
142,0,43,0,53,2,0,0;                                                  55P     43
144,43,1,0,55,0,1,1;                                                  57P     44
110,22.5,26.57636747,-16.62072983,23.5,26.57636747,-16.62072983,      59P     45
0,0;                                                                  59P     46
110,0.0,26.57636747,-6.620729832,45.0,26.57636747,-6.620729832,       61P     47
0,0;                                                                  61P     48
120,59,61,0.0,6.283185307,0,0;                                        63P     49
124,0.0,0.0,-1.0,45.0,-1.0,0.0,0.0,26.57636747,0.0,1.0,0.0,           65P     50
-16.62072983,0,0;                                                     65P     51
100,0.0,0.0,0.0,10.0,0.0,0.0,10.0,0,0;                                67P     52
110,45.0,26.57636747,-6.620729832,0.0,26.57636747,-6.620729832,       69P     53
0,0;                                                                  69P     54
124,0.0,0.0,1.0,0.0,0.0,-1.0,0.0,26.57636747,1.0,0.0,0.0,             71P     55
-16.62072983,0,0;                                                     71P     56
100,0.0,0.0,0.0,10.0,0.0,0.0,10.0,0,0;                                73P     57
110,0.0,16.57636747,-16.62072983,45.0,16.57636747,-16.62072983,       75P     58
0,0;                                                                  75P     59
102,4,67,69,73,75,0,0;                                                77P     60
142,0,63,0,77,2,0,0;                                                  79P     61
144,63,1,0,79,0,1,1;                                                  81P     62
108,0.0,0.0,-1.0,6.620729832,0,0.0,26.57636747,-6.620729832,1.0,      83P     63
0,0;                                                                  83P     64
110,45.0,26.57636747,-6.620729832,45.0,34.57636747,-6.620729832,      85P     65
0,0;                                                                  85P     66
110,45.0,34.57636747,-6.620729832,0.0,34.57636747,-6.620729832,       87P     67
0,0;                                                                  87P     68
110,0.0,34.57636747,-6.620729832,0.0,26.57636747,-6.620729832,0,      89P     69
0;                                                                    89P     70
110,0.0,26.57636747,-6.620729832,45.0,26.57636747,-6.620729832,       91P     71
0,0;                                                                  91P     72
102,4,85,87,89,91,0,0;                                                93P     73
142,0,83,0,93,2,0,0;                                                  95P     74
144,83,1,0,95,0,1,1;                                                  97P     75
110,22.5,34.57636747,-16.62072983,23.5,34.57636747,-16.62072983,      99P     76
0,0;                                                                  99P     77
110,0.0,44.57636747,-16.62072983,45.0,44.57636747,-16.62072983,      101P     78
0,0;                                                                 101P     79
120,99,101,0.0,6.283185307,0,0;                                      103P     80
124,0.0,0.0,-1.0,45.0,1.421085472E-015,1.0,0.0,34.57636747,1.0,      105P     81
-1.421085472E-015,0.0,-16.62072983,0,0;                              105P     82
100,0.0,0.0,0.0,10.0,0.0,1.421085472E-014,10.0,0,0;                  107P     83
110,45.0,44.57636747,-16.62072983,0.0,44.57636747,-16.62072983,      109P     84
0,0;                                                                 109P     85
124,0.0,0.0,1.0,0.0,1.0,0.0,0.0,34.57636747,0.0,1.0,0.0,             111P     86
-16.62072983,0,0;                                                    111P     87
100,0.0,0.0,0.0,10.0,0.0,1.421085472E-014,10.0,0,0;                  113P     88
110,0.0,34.57636747,-6.620729832,45.0,34.57636747,-6.620729832,      115P     89
0,0;                                                                 115P     90
102,4,107,109,113,115,0,0;                                           117P     91
142,0,103,0,117,2,0,0;                                               119P     92
144,103,1,0,119,0,1,1;                                               121P     93
110,45.0,44.57636747,-40.62072983,45.0,52.57636747,-40.62072983,     123P     94
0,0;                                                                 123P     95
110,45.0,52.57636747,-40.62072983,0.0,52.57636747,-40.62072983,      125P     96
0,0;                                                                 125P     97
110,0.0,52.57636747,-40.62072983,0.0,44.57636747,-40.62072983,0,     127P     98
0;                                                                   127P     99
110,0.0,44.57636747,-40.62072983,45.0,44.57636747,-40.62072983,      129P    100
0,0;                                                                 129P    101
102,4,123,125,127,129,0,0;                                           131P    102
142,0,43,0,131,2,0,0;                                                133P    103
144,43,1,0,133,0,1,1;                                                135P    104
110,45.0,52.57636747,3.379270168,45.0,45.57636747,3.379270168,0,     137P    105
0;                                                                   137P    106
110,45.0,45.57636747,3.379270168,0.0,45.57636747,3.379270168,0,      139P    107
0;                                                                   139P    108
110,0.0,45.57636747,3.379270168,0.0,52.57636747,3.379270168,0,0;     141P    109
110,0.0,52.57636747,3.379270168,45.0,52.57636747,3.379270168,0,      143P    110
0;                                                                   143P    111
102,4,137,139,141,143,0,0;                                           145P    112
142,0,27,0,145,2,0,0;                                                147P    113
144,27,1,0,147,0,1,1;                                                149P    114
110,22.5,45.57636747,13.37927017,23.5,45.57636747,13.37927017,0,     151P    115
0;                                                                   151P    116
110,0.0,35.57636747,13.37927017,45.0,35.57636747,13.37927017,0,      153P    117
0;                                                                   153P    118
120,151,153,0.0,6.283185307,0,0;                                     155P    119
124,0.0,0.0,-1.0,45.0,0.0,-1.0,0.0,45.57636747,-1.0,0.0,0.0,         157P    120
13.37927017,0,0;                                                     157P    121
100,0.0,0.0,0.0,10.0,0.0,3.552713679E-015,10.0,0,0;                  159P    122
110,45.0,35.57636747,13.37927017,0.0,35.57636747,13.37927017,0,      161P    123
0;                                                                   161P    124
124,0.0,0.0,1.0,0.0,-1.0,3.552713679E-016,0.0,45.57636747,           163P    125
-3.552713679E-016,-1.0,0.0,13.37927017,0,0;                          163P    126
100,0.0,0.0,0.0,10.0,0.0,3.552713679E-015,10.0,0,0;                  165P    127
110,0.0,45.57636747,3.379270168,45.0,45.57636747,3.379270168,0,      167P    128
0;                                                                   167P    129
102,4,159,161,165,167,0,0;                                           169P    130
142,0,155,0,169,2,0,0;                                               171P    131
144,155,1,0,171,0,1,1;                                               173P    132
108,0.0,-1.0,0.0,-35.57636747,0,0.0,35.57636747,68.37927017,1.0,     175P    133
0,0;                                                                 175P    134
110,45.0,35.57636747,13.37927017,45.0,35.57636747,68.37927017,0,     177P    135
0;                                                                   177P    136
110,45.0,35.57636747,68.37927017,0.0,35.57636747,68.37927017,0,      179P    137
0;                                                                   179P    138
110,0.0,35.57636747,68.37927017,0.0,35.57636747,13.37927017,0,0;     181P    139
110,0.0,35.57636747,13.37927017,45.0,35.57636747,13.37927017,0,      183P    140
0;                                                                   183P    141
102,4,177,179,181,183,0,0;                                           185P    142
142,0,175,0,185,2,0,0;                                               187P    143
144,175,1,0,187,0,1,1;                                               189P    144
108,0.0,0.0,-1.0,-68.37927017,0,0.0,25.57636747,68.37927017,1.0,     191P    145
0,0;                                                                 191P    146
110,45.0,35.57636747,68.37927017,45.0,25.57636747,68.37927017,0,     193P    147
0;                                                                   193P    148
110,45.0,25.57636747,68.37927017,0.0,25.57636747,68.37927017,0,      195P    149
0;                                                                   195P    150
110,0.0,25.57636747,68.37927017,0.0,35.57636747,68.37927017,0,0;     197P    151
110,0.0,35.57636747,68.37927017,45.0,35.57636747,68.37927017,0,      199P    152
0;                                                                   199P    153
102,4,193,195,197,199,0,0;                                           201P    154
142,0,191,0,201,2,0,0;                                               203P    155
144,191,1,0,203,0,1,1;                                               205P    156
108,0.0,1.0,0.0,25.57636747,0,0.0,25.57636747,13.37927017,1.0,0,     207P    157
0;                                                                   207P    158
110,45.0,25.57636747,68.37927017,45.0,25.57636747,13.37927017,0,     209P    159
0;                                                                   209P    160
110,45.0,25.57636747,13.37927017,0.0,25.57636747,13.37927017,0,      211P    161
0;                                                                   211P    162
110,0.0,25.57636747,13.37927017,0.0,25.57636747,68.37927017,0,0;     213P    163
110,0.0,25.57636747,68.37927017,45.0,25.57636747,68.37927017,0,      215P    164
0;                                                                   215P    165
102,4,209,211,213,215,0,0;                                           217P    166
142,0,207,0,217,2,0,0;                                               219P    167
144,207,1,0,219,0,1,1;                                               221P    168
108,1.0,0.0,0.0,0.0,0,0.0,0.0,0.0,1.0,0,0;                           223P    169
124,0.0,0.0,-1.0,0.0,1.0,3.375077995E-015,0.0,15.57636747,           225P    170
3.375077995E-015,-1.0,0.0,13.37927017,0,0;                           225P    171
100,0.0,0.0,0.0,10.0,0.0,-1.776356839E-014,10.0,0,0;                 227P    172
110,0.0,15.57636747,3.379270168,0.0,8.576367471,3.379270168,0,0;     229P    173
110,0.0,8.576367471,3.379270168,0.0,8.576367471,-40.62072983,0,      231P    174
0;                                                                   231P    175
110,0.0,8.576367471,-40.62072983,0.0,16.57636747,-40.62072983,0,     233P    176
0;                                                                   233P    177
110,0.0,16.57636747,-40.62072983,0.0,16.57636747,-16.62072983,0,     235P    178
0;                                                                   235P    179
124,0.0,0.0,-1.0,0.0,-1.0,0.0,0.0,26.57636747,0.0,1.0,0.0,           237P    180
-16.62072983,0,0;                                                    237P    181
100,0.0,0.0,0.0,10.0,0.0,0.0,10.0,0,0;                               239P    182
110,0.0,26.57636747,-6.620729832,0.0,34.57636747,-6.620729832,0,     241P    183
0;                                                                   241P    184
124,0.0,0.0,-1.0,0.0,1.421085472E-015,1.0,0.0,34.57636747,1.0,       243P    185
-1.421085472E-015,0.0,-16.62072983,0,0;                              243P    186
100,0.0,0.0,0.0,10.0,0.0,1.421085472E-014,10.0,0,0;                  245P    187
110,0.0,44.57636747,-16.62072983,0.0,44.57636747,-40.62072983,0,     247P    188
0;                                                                   247P    189
110,0.0,44.57636747,-40.62072983,0.0,52.57636747,-40.62072983,0,     249P    190
0;                                                                   249P    191
110,0.0,52.57636747,-40.62072983,0.0,52.57636747,3.379270168,0,      251P    192
0;                                                                   251P    193
110,0.0,52.57636747,3.379270168,0.0,45.57636747,3.379270168,0,0;     253P    194
124,0.0,0.0,-1.0,0.0,0.0,-1.0,0.0,45.57636747,-1.0,0.0,0.0,          255P    195
13.37927017,0,0;                                                     255P    196
100,0.0,0.0,0.0,10.0,0.0,3.552713679E-015,10.0,0,0;                  257P    197
110,0.0,35.57636747,13.37927017,0.0,35.57636747,68.37927017,0,0;     259P    198
110,0.0,35.57636747,68.37927017,0.0,25.57636747,68.37927017,0,0;     261P    199
110,0.0,25.57636747,68.37927017,0.0,25.57636747,13.37927017,0,0;     263P    200
102,16,227,229,231,233,235,239,241,245,247,249,251,253,257,259,      265P    201
261,263,0,0;                                                         265P    202
142,0,223,0,265,2,0,0;                                               267P    203
144,223,1,0,267,0,1,1;                                               269P    204
108,1.0,0.0,0.0,45.0,0,45.0,0.0,0.0,1.0,0,0;                         271P    205
110,45.0,25.57636747,13.37927017,45.0,25.57636747,68.37927017,0,     273P    206
0;                                                                   273P    207
110,45.0,25.57636747,68.37927017,45.0,35.57636747,68.37927017,0,     275P    208
0;                                                                   275P    209
110,45.0,35.57636747,68.37927017,45.0,35.57636747,13.37927017,0,     277P    210
0;                                                                   277P    211
124,0.0,0.0,1.0,45.0,-1.0,3.552713679E-016,0.0,45.57636747,          279P    212
-3.552713679E-016,-1.0,0.0,13.37927017,0,0;                          279P    213
100,0.0,0.0,0.0,10.0,0.0,3.552713679E-015,10.0,0,0;                  281P    214
110,45.0,45.57636747,3.379270168,45.0,52.57636747,3.379270168,0,     283P    215
0;                                                                   283P    216
110,45.0,52.57636747,3.379270168,45.0,52.57636747,-40.62072983,      285P    217
0,0;                                                                 285P    218
110,45.0,52.57636747,-40.62072983,45.0,44.57636747,-40.62072983,     287P    219
0,0;                                                                 287P    220
110,45.0,44.57636747,-40.62072983,45.0,44.57636747,-16.62072983,     289P    221
0,0;                                                                 289P    222
124,0.0,0.0,1.0,45.0,1.0,0.0,0.0,34.57636747,0.0,1.0,0.0,            291P    223
-16.62072983,0,0;                                                    291P    224
100,0.0,0.0,0.0,10.0,0.0,1.421085472E-014,10.0,0,0;                  293P    225
110,45.0,34.57636747,-6.620729832,45.0,26.57636747,-6.620729832,     295P    226
0,0;                                                                 295P    227
124,0.0,0.0,1.0,45.0,0.0,-1.0,0.0,26.57636747,1.0,0.0,0.0,           297P    228
-16.62072983,0,0;                                                    297P    229
100,0.0,0.0,0.0,10.0,0.0,0.0,10.0,0,0;                               299P    230
110,45.0,16.57636747,-16.62072983,45.0,16.57636747,-40.62072983,     301P    231
0,0;                                                                 301P    232
110,45.0,16.57636747,-40.62072983,45.0,8.576367471,-40.62072983,     303P    233
0,0;                                                                 303P    234
110,45.0,8.576367471,-40.62072983,45.0,8.576367471,3.379270168,      305P    235
0,0;                                                                 305P    236
110,45.0,8.576367471,3.379270168,45.0,15.57636747,3.379270168,0,     307P    237
0;                                                                   307P    238
124,0.0,0.0,1.0,45.0,1.598721155E-015,1.0,0.0,15.57636747,-1.0,      309P    239
1.598721155E-015,0.0,13.37927017,0,0;                                309P    240
100,0.0,0.0,0.0,10.0,0.0,-1.776356839E-014,10.0,0,0;                 311P    241
102,16,273,275,277,281,283,285,287,289,293,295,299,301,303,305,      313P    242
307,311,0,0;                                                         313P    243
142,0,271,0,313,2,0,0;                                               315P    244
144,271,1,0,315,0,1,1;                                               317P    245
108,0.0,1.0,0.0,52.57636747,0,0.0,52.57636747,-40.62072983,1.0,      319P    246
0,0;                                                                 319P    247
110,45.0,52.57636747,-40.62072983,45.0,52.57636747,3.379270168,      321P    248
0,0;                                                                 321P    249
110,45.0,52.57636747,3.379270168,0.0,52.57636747,3.379270168,0,      323P    250
0;                                                                   323P    251
110,0.0,52.57636747,3.379270168,0.0,52.57636747,-40.62072983,0,      325P    252
0;                                                                   325P    253
110,0.0,52.57636747,-40.62072983,45.0,52.57636747,-40.62072983,      327P    254
0,0;                                                                 327P    255
102,4,321,323,325,327,0,0;                                           329P    256
142,0,319,0,329,2,0,0;                                               331P    257
124,1.0,0.0,0.0,22.5,0.0,0.0,1.0,52.57636747,0.0,-1.0,0.0,           333P    258
-25.37072983,0,0;                                                    333P    259
100,0.0,0.0,0.0,5.25,0.0,-5.25,0.0,0,0;                              335P    260
124,-1.0,0.0,0.0,22.5,0.0,0.0,1.0,52.57636747,0.0,1.0,0.0,           337P    261
-25.37072983,0,0;                                                    337P    262
100,0.0,0.0,0.0,5.25,0.0,-5.25,0.0,0,0;                              339P    263
102,2,335,339,0,0;                                                   341P    264
142,0,319,0,341,2,0,0;                                               343P    265
144,319,1,1,331,343,0,1,1;                                           345P    266
108,0.0,1.0,0.0,44.57636747,0,0.0,44.57636747,-40.62072983,1.0,      347P    267
0,0;                                                                 347P    268
110,45.0,44.57636747,-16.62072983,45.0,44.57636747,-40.62072983,     349P    269
0,0;                                                                 349P    270
110,45.0,44.57636747,-40.62072983,0.0,44.57636747,-40.62072983,      351P    271
0,0;                                                                 351P    272
110,0.0,44.57636747,-40.62072983,0.0,44.57636747,-16.62072983,0,     353P    273
0;                                                                   353P    274
110,0.0,44.57636747,-16.62072983,45.0,44.57636747,-16.62072983,      355P    275
0,0;                                                                 355P    276
102,4,349,351,353,355,0,0;                                           357P    277
142,0,347,0,357,2,0,0;                                               359P    278
124,1.0,0.0,0.0,22.5,0.0,0.0,-1.0,44.57636747,0.0,1.0,0.0,           361P    279
-25.37072983,0,0;                                                    361P    280
100,0.0,0.0,0.0,5.25,0.0,-5.25,0.0,0,0;                              363P    281
124,-1.0,0.0,0.0,22.5,0.0,0.0,-1.0,44.57636747,0.0,-1.0,0.0,         365P    282
-25.37072983,0,0;                                                    365P    283
100,0.0,0.0,0.0,5.25,0.0,-5.25,0.0,0,0;                              367P    284
102,2,363,367,0,0;                                                   369P    285
142,0,347,0,369,2,0,0;                                               371P    286
144,347,1,1,359,371,0,1,1;                                           373P    287
108,0.0,1.0,0.0,16.57636747,0,0.0,16.57636747,-40.62072983,1.0,      375P    288
0,0;                                                                 375P    289
110,45.0,16.57636747,-40.62072983,45.0,16.57636747,-16.62072983,     377P    290
0,0;                                                                 377P    291
110,45.0,16.57636747,-16.62072983,0.0,16.57636747,-16.62072983,      379P    292
0,0;                                                                 379P    293
110,0.0,16.57636747,-16.62072983,0.0,16.57636747,-40.62072983,0,     381P    294
0;                                                                   381P    295
110,0.0,16.57636747,-40.62072983,45.0,16.57636747,-40.62072983,      383P    296
0,0;                                                                 383P    297
102,4,377,379,381,383,0,0;                                           385P    298
142,0,375,0,385,2,0,0;                                               387P    299
124,1.0,0.0,0.0,22.5,0.0,0.0,1.0,16.57636747,0.0,-1.0,0.0,           389P    300
-25.37072983,0,0;                                                    389P    301
100,0.0,0.0,0.0,5.25,0.0,-5.25,0.0,0,0;                              391P    302
124,-1.0,0.0,0.0,22.5,0.0,0.0,1.0,16.57636747,0.0,1.0,0.0,           393P    303
-25.37072983,0,0;                                                    393P    304
100,0.0,0.0,0.0,5.25,0.0,-5.25,0.0,0,0;                              395P    305
102,2,391,395,0,0;                                                   397P    306
142,0,375,0,397,2,0,0;                                               399P    307
144,375,1,1,387,399,0,1,1;                                           401P    308
108,0.0,-1.0,-1.211152391E-016,-8.576367471,0,0.0,8.576367471,       403P    309
3.379270168,1.0,0,0;                                                 403P    310
110,45.0,8.576367471,3.379270168,45.0,8.576367471,-40.62072983,      405P    311
0,0;                                                                 405P    312
110,45.0,8.576367471,-40.62072983,0.0,8.576367471,-40.62072983,      407P    313
0,0;                                                                 407P    314
110,0.0,8.576367471,-40.62072983,0.0,8.576367471,3.379270168,0,      409P    315
0;                                                                   409P    316
110,0.0,8.576367471,3.379270168,45.0,8.576367471,3.379270168,0,      411P    317
0;                                                                   411P    318
102,4,405,407,409,411,0,0;                                           413P    319
142,0,403,0,413,2,0,0;                                               415P    320
124,-1.0,0.0,0.0,22.5,0.0,1.211152391E-016,-1.0,8.576367471,0.0,     417P    321
-1.0,-1.211152391E-016,-25.37072983,0,0;                             417P    322
100,0.0,0.0,0.0,5.25,0.0,-5.25,0.0,0,0;                              419P    323
124,1.0,0.0,0.0,22.5,0.0,-1.211152391E-016,-1.0,8.576367471,0.0,     421P    324
1.0,-1.211152391E-016,-25.37072983,0,0;                              421P    325
100,0.0,0.0,0.0,5.25,0.0,-5.25,0.0,0,0;                              423P    326
102,2,419,423,0,0;                                                   425P    327
142,0,403,0,425,2,0,0;                                               427P    328
144,403,1,1,415,427,0,1,1;                                           429P    329
110,22.5,30.07636747,-25.37072983,22.5,31.07636747,-25.37072983,     431P    330
0,0;                                                                 431P    331
110,27.75,44.57636747,-25.37072983,27.75,52.57636747,                433P    332
-25.37072983,0,0;                                                    433P    333
120,431,433,0.0,6.283185307,0,0;                                     435P    334
110,17.25,44.57636747,-25.37072983,17.25,52.57636747,                437P    335
-25.37072983,0,0;                                                    437P    336
124,-1.0,0.0,0.0,22.5,0.0,0.0,-1.0,52.57636747,0.0,-1.0,0.0,         439P    337
-25.37072983,0,0;                                                    439P    338
100,0.0,0.0,0.0,5.25,0.0,-5.25,0.0,0,0;                              441P    339
110,27.75,52.57636747,-25.37072983,27.75,44.57636747,                443P    340
-25.37072983,0,0;                                                    443P    341
124,1.0,0.0,0.0,22.5,0.0,0.0,1.0,44.57636747,0.0,-1.0,0.0,           445P    342
-25.37072983,0,0;                                                    445P    343
100,0.0,0.0,0.0,5.25,0.0,-5.25,0.0,0,0;                              447P    344
102,4,437,441,443,447,0,0;                                           449P    345
142,0,435,0,449,2,0,0;                                               451P    346
144,435,1,0,451,0,1,1;                                               453P    347
110,22.5,30.07636747,-25.37072983,22.5,31.07636747,-25.37072983,     455P    348
0,0;                                                                 455P    349
110,17.25,44.57636747,-25.37072983,17.25,52.57636747,                457P    350
-25.37072983,0,0;                                                    457P    351
120,455,457,0.0,6.283185307,0,0;                                     459P    352
110,27.75,44.57636747,-25.37072983,27.75,52.57636747,                461P    353
-25.37072983,0,0;                                                    461P    354
124,1.0,0.0,0.0,22.5,0.0,0.0,-1.0,52.57636747,0.0,1.0,0.0,           463P    355
-25.37072983,0,0;                                                    463P    356
100,0.0,0.0,0.0,5.25,0.0,-5.25,0.0,0,0;                              465P    357
110,17.25,52.57636747,-25.37072983,17.25,44.57636747,                467P    358
-25.37072983,0,0;                                                    467P    359
124,-1.0,0.0,0.0,22.5,0.0,0.0,1.0,44.57636747,0.0,1.0,0.0,           469P    360
-25.37072983,0,0;                                                    469P    361
100,0.0,0.0,0.0,5.25,0.0,-5.25,0.0,0,0;                              471P    362
102,4,461,465,467,471,0,0;                                           473P    363
142,0,459,0,473,2,0,0;                                               475P    364
144,459,1,0,475,0,1,1;                                               477P    365
110,22.5,30.07636747,-25.37072983,22.5,31.07636747,-25.37072983,     479P    366
0,0;                                                                 479P    367
110,27.75,8.576367471,-25.37072983,27.75,16.57636747,                481P    368
-25.37072983,0,0;                                                    481P    369
120,479,481,0.0,6.283185307,0,0;                                     483P    370
124,-1.0,0.0,0.0,22.5,0.0,0.0,-1.0,16.57636747,0.0,-1.0,0.0,         485P    371
-25.37072983,0,0;                                                    485P    372
100,0.0,0.0,0.0,5.25,0.0,-5.25,0.0,0,0;                              487P    373
110,27.75,16.57636747,-25.37072983,27.75,8.576367471,                489P    374
-25.37072983,0,0;                                                    489P    375
124,1.0,0.0,0.0,22.5,0.0,0.0,1.0,8.576367471,0.0,-1.0,0.0,           491P    376
-25.37072983,0,0;                                                    491P    377
100,0.0,0.0,0.0,5.25,0.0,-5.25,0.0,0,0;                              493P    378
110,17.25,8.576367471,-25.37072983,17.25,16.57636747,                495P    379
-25.37072983,0,0;                                                    495P    380
102,4,487,489,493,495,0,0;                                           497P    381
142,0,483,0,497,2,0,0;                                               499P    382
144,483,1,0,499,0,1,1;                                               501P    383
110,22.5,30.07636747,-25.37072983,22.5,31.07636747,-25.37072983,     503P    384
0,0;                                                                 503P    385
110,17.25,8.576367471,-25.37072983,17.25,16.57636747,                505P    386
-25.37072983,0,0;                                                    505P    387
120,503,505,0.0,6.283185307,0,0;                                     507P    388
124,1.0,0.0,0.0,22.5,0.0,0.0,-1.0,16.57636747,0.0,1.0,0.0,           509P    389
-25.37072983,0,0;                                                    509P    390
100,0.0,0.0,0.0,5.25,0.0,-5.25,0.0,0,0;                              511P    391
110,17.25,16.57636747,-25.37072983,17.25,8.576367471,                513P    392
-25.37072983,0,0;                                                    513P    393
124,-1.0,0.0,0.0,22.5,0.0,0.0,1.0,8.576367471,0.0,1.0,0.0,           515P    394
-25.37072983,0,0;                                                    515P    395
100,0.0,0.0,0.0,5.25,0.0,-5.25,0.0,0,0;                              517P    396
110,27.75,8.576367471,-25.37072983,27.75,16.57636747,                519P    397
-25.37072983,0,0;                                                    519P    398
102,4,511,513,517,519,0,0;                                           521P    399
142,0,507,0,521,2,0,0;                                               523P    400
144,507,1,0,523,0,1,1;                                               525P    401
S      1G      5D    526P    401                                        T      1
