START RECORD GO HERE.                                                   S      1
1H,,1H;,20HCNEXT - IGES PRODUCT,42H20M_EL_04009 (chape tdb centre droiteG      1
).igs,44HIBM CATIA IGES - CATIA Version 5 Release 19 ,27HCATIA Version 5G      2
 Release 19 ,32,75,6,75,15,35HEL_04009  (Chape tdb centre droite),1.0,2,G      3
2HMM,1000,1.0,15H20200123.185943,0.001,10000.0,5Hmik75,15HLAPTOP-SUH344GG      4
9,11,0,15H20200123.185943,;                                             G      5
     110       1       0       0       0       0       0       001010001D      1
     110       0       0       2       0                               0D      2
     110       3       0       0       0       0       0       001010001D      3
     110       0       0       2       0                               0D      4
     120       5       0       0       0       0       0       001010001D      5
     120       0       0       1       0                               0D      6
     110       6       0       0       0       0       0       001010001D      7
     110       0       0       2       0                               0D      8
     124       8       0       0       0       0       0       001020201D      9
     124       0       0       2       0                               0D     10
     100      10       0       0       0       0       9       001010001D     11
     100       0       0       1       0                               0D     12
     110      11       0       0       0       0       0       001010001D     13
     110       0       0       2       0                               0D     14
     124      13       0       0       0       0       0       001020201D     15
     124       0       0       2       0                               0D     16
     100      15       0       0       0       0      15       001010001D     17
     100       0       0       1       0                               0D     18
     102      16       0       0       0       0       0       001010001D     19
     102       0       0       1       0                               0D     20
     142      17       0       0       0       0       0       001010001D     21
     142       0       0       1       0                               0D     22
     144      18       0       0   10000       0       0       000000000D     23
     144       0       0       1       0                PartBody       0D     24
     108      19       0       0       0       0       0       001010001D     25
     108       0       0       1       0                               0D     26
     126      20       0       0       0       0       0       001010001D     27
     126       0       0       2       0                               0D     28
     126      22       0       0       0       0       0       001010001D     29
     126       0       0       3       0                               0D     30
     126      25       0       0       0       0       0       001010001D     31
     126       0       0      13       0                               0D     32
     126      38       0       0       0       0       0       001010001D     33
     126       0       0       3       0                               0D     34
     102      41       0       0       0       0       0       001010001D     35
     102       0       0       1       0                               0D     36
     142      42       0       0       0       0       0       001010001D     37
     142       0       0       1       0                               0D     38
     126      43       0       0       0       0       0       001010001D     39
     126       0       0       8       0                               0D     40
     126      51       0       0       0       0       0       001010001D     41
     126       0       0      10       0                               0D     42
     102      61       0       0       0       0       0       001010001D     43
     102       0       0       1       0                               0D     44
     142      62       0       0       0       0       0       001010001D     45
     142       0       0       1       0                               0D     46
     144      63       0       0   10000       0       0       000000000D     47
     144       0       0       1       0                PartBody       0D     48
     108      64       0       0       0       0       0       001010001D     49
     108       0       0       2       0                               0D     50
     110      66       0       0       0       0       0       001010001D     51
     110       0       0       1       0                               0D     52
     110      67       0       0       0       0       0       001010001D     53
     110       0       0       2       0                               0D     54
     110      69       0       0       0       0       0       001010001D     55
     110       0       0       2       0                               0D     56
     110      71       0       0       0       0       0       001010001D     57
     110       0       0       1       0                               0D     58
     102      72       0       0       0       0       0       001010001D     59
     102       0       0       1       0                               0D     60
     142      73       0       0       0       0       0       001010001D     61
     142       0       0       1       0                               0D     62
     144      74       0       0   10000       0       0       000000000D     63
     144       0       0       1       0                PartBody       0D     64
     108      75       0       0       0       0       0       001010001D     65
     108       0       0       3       0                               0D     66
     110      78       0       0       0       0       0       001010001D     67
     110       0       0       1       0                               0D     68
     124      79       0       0       0       0       0       001020201D     69
     124       0       0       4       0                               0D     70
     100      83       0       0       0       0      69       001010001D     71
     100       0       0       1       0                               0D     72
     110      84       0       0       0       0       0       001010001D     73
     110       0       0       2       0                               0D     74
     124      86       0       0       0       0       0       001020201D     75
     124       0       0       3       0                               0D     76
     100      89       0       0       0       0      75       001010001D     77
     100       0       0       1       0                               0D     78
     102      90       0       0       0       0       0       001010001D     79
     102       0       0       1       0                               0D     80
     142      91       0       0       0       0       0       001010001D     81
     142       0       0       1       0                               0D     82
     144      92       0       0   10000       0       0       000000000D     83
     144       0       0       1       0                PartBody       0D     84
     110      93       0       0       0       0       0       001010001D     85
     110       0       0       2       0                               0D     86
     110      95       0       0       0       0       0       001010001D     87
     110       0       0       2       0                               0D     88
     110      97       0       0       0       0       0       001010001D     89
     110       0       0       2       0                               0D     90
     110      99       0       0       0       0       0       001010001D     91
     110       0       0       2       0                               0D     92
     102     101       0       0       0       0       0       001010001D     93
     102       0       0       1       0                               0D     94
     142     102       0       0       0       0       0       001010001D     95
     142       0       0       1       0                               0D     96
     144     103       0       0   10000       0       0       000000000D     97
     144       0       0       1       0                PartBody       0D     98
     108     104       0       0       0       0       0       001010001D     99
     108       0       0       2       0                               0D    100
     124     106       0       0       0       0       0       001020201D    101
     124       0       0       3       0                               0D    102
     100     109       0       0       0       0     101       001010001D    103
     100       0       0       1       0                               0D    104
     110     110       0       0       0       0       0       001010001D    105
     110       0       0       2       0                               0D    106
     110     112       0       0       0       0       0       001010001D    107
     110       0       0       2       0                               0D    108
     110     114       0       0       0       0       0       001010001D    109
     110       0       0       2       0                               0D    110
     124     116       0       0       0       0       0       001020201D    111
     124       0       0       3       0                               0D    112
     100     119       0       0       0       0     111       001010001D    113
     100       0       0       1       0                               0D    114
     110     120       0       0       0       0       0       001010001D    115
     110       0       0       2       0                               0D    116
     102     122       0       0       0       0       0       001010001D    117
     102       0       0       1       0                               0D    118
     142     123       0       0       0       0       0       001010001D    119
     142       0       0       1       0                               0D    120
     144     124       0       0   10000       0       0       000000000D    121
     144       0       0       1       0                PartBody       0D    122
     110     125       0       0       0       0       0       001010001D    123
     110       0       0       2       0                               0D    124
     110     127       0       0       0       0       0       001010001D    125
     110       0       0       2       0                               0D    126
     120     129       0       0       0       0       0       001010001D    127
     120       0       0       1       0                               0D    128
     124     130       0       0       0       0       0       001020201D    129
     124       0       0       3       0                               0D    130
     100     133       0       0       0       0     129       001010001D    131
     100       0       0       1       0                               0D    132
     110     134       0       0       0       0       0       001010001D    133
     110       0       0       2       0                               0D    134
     124     136       0       0       0       0       0       001020201D    135
     124       0       0       3       0                               0D    136
     100     139       0       0       0       0     135       001010001D    137
     100       0       0       1       0                               0D    138
     110     140       0       0       0       0       0       001010001D    139
     110       0       0       2       0                               0D    140
     102     142       0       0       0       0       0       001010001D    141
     102       0       0       1       0                               0D    142
     142     143       0       0       0       0       0       001010001D    143
     142       0       0       1       0                               0D    144
     144     144       0       0   10000       0       0       000000000D    145
     144       0       0       1       0                PartBody       0D    146
     108     145       0       0       0       0       0       001010001D    147
     108       0       0       2       0                               0D    148
     110     147       0       0       0       0       0       001010001D    149
     110       0       0       2       0                               0D    150
     110     149       0       0       0       0       0       001010001D    151
     110       0       0       2       0                               0D    152
     110     151       0       0       0       0       0       001010001D    153
     110       0       0       2       0                               0D    154
     110     153       0       0       0       0       0       001010001D    155
     110       0       0       2       0                               0D    156
     102     155       0       0       0       0       0       001010001D    157
     102       0       0       1       0                               0D    158
     142     156       0       0       0       0       0       001010001D    159
     142       0       0       1       0                               0D    160
     144     157       0       0   10000       0       0       000000000D    161
     144       0       0       1       0                PartBody       0D    162
     110     158       0       0       0       0       0       001010001D    163
     110       0       0       2       0                               0D    164
     110     160       0       0       0       0       0       001010001D    165
     110       0       0       2       0                               0D    166
     120     162       0       0       0       0       0       001010001D    167
     120       0       0       1       0                               0D    168
     124     163       0       0       0       0       0       001020201D    169
     124       0       0       3       0                               0D    170
     100     166       0       0       0       0     169       001010001D    171
     100       0       0       1       0                               0D    172
     110     167       0       0       0       0       0       001010001D    173
     110       0       0       2       0                               0D    174
     124     169       0       0       0       0       0       001020201D    175
     124       0       0       3       0                               0D    176
     100     172       0       0       0       0     175       001010001D    177
     100       0       0       1       0                               0D    178
     110     173       0       0       0       0       0       001010001D    179
     110       0       0       2       0                               0D    180
     102     175       0       0       0       0       0       001010001D    181
     102       0       0       1       0                               0D    182
     142     176       0       0       0       0       0       001010001D    183
     142       0       0       1       0                               0D    184
     144     177       0       0   10000       0       0       000000000D    185
     144       0       0       1       0                PartBody       0D    186
     108     178       0       0       0       0       0       001010001D    187
     108       0       0       2       0                               0D    188
     110     180       0       0       0       0       0       001010001D    189
     110       0       0       2       0                               0D    190
     110     182       0       0       0       0       0       001010001D    191
     110       0       0       2       0                               0D    192
     110     184       0       0       0       0       0       001010001D    193
     110       0       0       2       0                               0D    194
     110     186       0       0       0       0       0       001010001D    195
     110       0       0       2       0                               0D    196
     102     188       0       0       0       0       0       001010001D    197
     102       0       0       1       0                               0D    198
     142     189       0       0       0       0       0       001010001D    199
     142       0       0       1       0                               0D    200
     144     190       0       0   10000       0       0       000000000D    201
     144       0       0       1       0                PartBody       0D    202
     124     191       0       0       0       0       0       001020201D    203
     124       0       0       3       0                               0D    204
     100     194       0       0       0       0     203       001010001D    205
     100       0       0       1       0                               0D    206
     110     195       0       0       0       0       0       001010001D    207
     110       0       0       2       0                               0D    208
     124     197       0       0       0       0       0       001020201D    209
     124       0       0       3       0                               0D    210
     100     200       0       0       0       0     209       001010001D    211
     100       0       0       1       0                               0D    212
     110     201       0       0       0       0       0       001010001D    213
     110       0       0       2       0                               0D    214
     102     203       0       0       0       0       0       001010001D    215
     102       0       0       1       0                               0D    216
     142     204       0       0       0       0       0       001010001D    217
     142       0       0       1       0                               0D    218
     144     205       0       0   10000       0       0       000000000D    219
     144       0       0       1       0                PartBody       0D    220
     110     206       0       0       0       0       0       001010001D    221
     110       0       0       2       0                               0D    222
     110     208       0       0       0       0       0       001010001D    223
     110       0       0       2       0                               0D    224
     120     210       0       0       0       0       0       001010001D    225
     120       0       0       1       0                               0D    226
     110     211       0       0       0       0       0       001010001D    227
     110       0       0       2       0                               0D    228
     124     213       0       0       0       0       0       001020201D    229
     124       0       0       3       0                               0D    230
     100     216       0       0       0       0     229       001010001D    231
     100       0       0       1       0                               0D    232
     110     217       0       0       0       0       0       001010001D    233
     110       0       0       1       0                               0D    234
     124     218       0       0       0       0       0       001020201D    235
     124       0       0       3       0                               0D    236
     100     221       0       0       0       0     235       001010001D    237
     100       0       0       1       0                               0D    238
     102     222       0       0       0       0       0       001010001D    239
     102       0       0       1       0                               0D    240
     142     223       0       0       0       0       0       001010001D    241
     142       0       0       1       0                               0D    242
     144     224       0       0   10000       0       0       000000000D    243
     144       0       0       1       0                PartBody       0D    244
     108     225       0       0       0       0       0       001010001D    245
     108       0       0       2       0                               0D    246
     126     227       0       0       0       0       0       001010001D    247
     126       0       0       4       0                               0D    248
     126     231       0       0       0       0       0       001010001D    249
     126       0       0       7       0                               0D    250
     110     238       0       0       0       0       0       001010001D    251
     110       0       0       2       0                               0D    252
     110     240       0       0       0       0       0       001010001D    253
     110       0       0       2       0                               0D    254
     110     242       0       0       0       0       0       001010001D    255
     110       0       0       2       0                               0D    256
     126     244       0       0       0       0       0       001010001D    257
     126       0       0       7       0                               0D    258
     102     251       0       0       0       0       0       001010001D    259
     102       0       0       1       0                               0D    260
     142     252       0       0       0       0       0       001010001D    261
     142       0       0       1       0                               0D    262
     144     253       0       0   10000       0       0       000000000D    263
     144       0       0       1       0                PartBody       0D    264
     110     254       0       0       0       0       0       001010001D    265
     110       0       0       2       0                               0D    266
     110     256       0       0       0       0       0       001010001D    267
     110       0       0       2       0                               0D    268
     120     258       0       0       0       0       0       001010001D    269
     120       0       0       1       0                               0D    270
     124     259       0       0       0       0       0       001020201D    271
     124       0       0       3       0                               0D    272
     100     262       0       0       0       0     271       001010001D    273
     100       0       0       1       0                               0D    274
     110     263       0       0       0       0       0       001010001D    275
     110       0       0       2       0                               0D    276
     124     265       0       0       0       0       0       001020201D    277
     124       0       0       3       0                               0D    278
     100     268       0       0       0       0     277       001010001D    279
     100       0       0       1       0                               0D    280
     110     269       0       0       0       0       0       001010001D    281
     110       0       0       2       0                               0D    282
     102     271       0       0       0       0       0       001010001D    283
     102       0       0       1       0                               0D    284
     142     272       0       0       0       0       0       001010001D    285
     142       0       0       1       0                               0D    286
     144     273       0       0   10000       0       0       000000000D    287
     144       0       0       1       0                PartBody       0D    288
     110     274       0       0       0       0       0       001010001D    289
     110       0       0       2       0                               0D    290
     110     276       0       0       0       0       0       001010001D    291
     110       0       0       2       0                               0D    292
     120     278       0       0       0       0       0       001010001D    293
     120       0       0       1       0                               0D    294
     124     279       0       0       0       0       0       001020201D    295
     124       0       0       2       0                               0D    296
     100     281       0       0       0       0     295       001010001D    297
     100       0       0       1       0                               0D    298
     110     282       0       0       0       0       0       001010001D    299
     110       0       0       2       0                               0D    300
     124     284       0       0       0       0       0       001020201D    301
     124       0       0       2       0                               0D    302
     100     286       0       0       0       0     301       001010001D    303
     100       0       0       1       0                               0D    304
     110     287       0       0       0       0       0       001010001D    305
     110       0       0       2       0                               0D    306
     102     289       0       0       0       0       0       001010001D    307
     102       0       0       1       0                               0D    308
     142     290       0       0       0       0       0       001010001D    309
     142       0       0       1       0                               0D    310
     144     291       0       0   10000       0       0       000000000D    311
     144       0       0       1       0                PartBody       0D    312
     110     292       0       0       0       0       0       001010001D    313
     110       0       0       2       0                               0D    314
     110     294       0       0       0       0       0       001010001D    315
     110       0       0       2       0                               0D    316
     120     296       0       0       0       0       0       001010001D    317
     120       0       0       1       0                               0D    318
     124     297       0       0       0       0       0       001020201D    319
     124       0       0       2       0                               0D    320
     100     299       0       0       0       0     319       001010001D    321
     100       0       0       1       0                               0D    322
     110     300       0       0       0       0       0       001010001D    323
     110       0       0       2       0                               0D    324
     124     302       0       0       0       0       0       001020201D    325
     124       0       0       2       0                               0D    326
     100     304       0       0       0       0     325       001010001D    327
     100       0       0       1       0                               0D    328
     110     305       0       0       0       0       0       001010001D    329
     110       0       0       2       0                               0D    330
     102     307       0       0       0       0       0       001010001D    331
     102       0       0       1       0                               0D    332
     142     308       0       0       0       0       0       001010001D    333
     142       0       0       1       0                               0D    334
     144     309       0       0   10000       0       0       000000000D    335
     144       0       0       1       0                PartBody       0D    336
     108     310       0       0       0       0       0       001010001D    337
     108       0       0       1       0                               0D    338
     110     311       0       0       0       0       0       001010001D    339
     110       0       0       2       0                               0D    340
     124     313       0       0       0       0       0       001020201D    341
     124       0       0       2       0                               0D    342
     100     315       0       0       0       0     341       001010001D    343
     100       0       0       1       0                               0D    344
     110     316       0       0       0       0       0       001010001D    345
     110       0       0       1       0                               0D    346
     110     317       0       0       0       0       0       001010001D    347
     110       0       0       1       0                               0D    348
     102     318       0       0       0       0       0       001010001D    349
     102       0       0       1       0                               0D    350
     142     319       0       0       0       0       0       001010001D    351
     142       0       0       1       0                               0D    352
     124     320       0       0       0       0       0       001020201D    353
     124       0       0       2       0                               0D    354
     100     322       0       0       0       0     353       001010001D    355
     100       0       0       1       0                               0D    356
     124     323       0       0       0       0       0       001020201D    357
     124       0       0       2       0                               0D    358
     100     325       0       0       0       0     357       001010001D    359
     100       0       0       1       0                               0D    360
     102     326       0       0       0       0       0       001010001D    361
     102       0       0       1       0                               0D    362
     142     327       0       0       0       0       0       001010001D    363
     142       0       0       1       0                               0D    364
     144     328       0       0   10000       0       0       000000000D    365
     144       0       0       1       0                PartBody       0D    366
     108     329       0       0       0       0       0       001010001D    367
     108       0       0       2       0                               0D    368
     110     331       0       0       0       0       0       001010001D    369
     110       0       0       2       0                               0D    370
     110     333       0       0       0       0       0       001010001D    371
     110       0       0       2       0                               0D    372
     110     335       0       0       0       0       0       001010001D    373
     110       0       0       2       0                               0D    374
     110     337       0       0       0       0       0       001010001D    375
     110       0       0       2       0                               0D    376
     102     339       0       0       0       0       0       001010001D    377
     102       0       0       1       0                               0D    378
     142     340       0       0       0       0       0       001010001D    379
     142       0       0       1       0                               0D    380
     144     341       0       0   10000       0       0       000000000D    381
     144       0       0       1       0                PartBody       0D    382
     124     342       0       0       0       0       0       001020201D    383
     124       0       0       3       0                               0D    384
     100     345       0       0       0       0     383       001010001D    385
     100       0       0       1       0                               0D    386
     110     346       0       0       0       0       0       001010001D    387
     110       0       0       2       0                               0D    388
     102     348       0       0   10000       0       0       000000000D    389
     102       0       0       1       0                Sketch.2       0D    390
110,0.0,-4.682244427,-5.298734484,1.0,-4.682244427,-5.298734484,       1P      1
0,0;                                                                   1P      2
110,0.0,-6.282244427,-5.298734484,1.5,-6.282244427,-5.298734484,       3P      3
0,0;                                                                   3P      4
120,1,3,0.0,6.283185307,0,0;                                           5P      5
110,1.5,-6.282244427,-5.298734484,0.0,-6.282244427,-5.298734484,       7P      6
0,0;                                                                   7P      7
124,0.0,0.0,1.0,0.0,-1.0,0.0,0.0,-4.682244427,0.0,-1.0,0.0,            9P      8
-5.298734484,0,0;                                                      9P      9
100,0.0,0.0,0.0,1.6,0.0,-1.6,0.0,0,0;                                 11P     10
110,0.0,-3.082244427,-5.298734484,1.5,-3.082244427,-5.298734484,      13P     11
0,0;                                                                  13P     12
124,0.0,0.0,-1.0,1.5,1.0,0.0,0.0,-4.682244427,0.0,-1.0,0.0,           15P     13
-5.298734484,0,0;                                                     15P     14
100,0.0,0.0,0.0,1.6,0.0,-1.6,0.0,0,0;                                 17P     15
102,4,7,11,13,17,0,0;                                                 19P     16
142,0,5,0,19,2,0,0;                                                   21P     17
144,5,1,0,21,0,0;                                                     23P     18
108,1.0,0.0,0.0,1.5,0,1.5,0.0,0.0,1.0,0,0;                            25P     19
126,1,1,0,0,1,0,0.0,0.0,10.0,10.0,1.0,1.0,1.5,-9.98097891,            27P     20
-0.616490057,1.5,0.0,0.0,0.0,10.0,0.0,0.0,0.0,0,0;                    27P     21
126,1,1,0,0,1,0,0.0,0.0,5.0,5.0,1.0,1.0,1.5,-1.998401444E-015,        29P     22
-2.664535259E-015,1.5,0.3082450285,-4.990489455,0.0,5.0,0.0,0.0,      29P     23
0.0,0,0;                                                              29P     24
126,14,5,0,0,1,0,0.0,0.0,0.0,0.0,0.0,0.0,3.926990817,                 31P     25
3.926990817,3.926990817,7.853981634,7.853981634,7.853981634,          31P     26
11.78097245,11.78097245,11.78097245,15.70796327,15.70796327,          31P     27
15.70796327,15.70796327,15.70796327,15.70796327,1.0,1.0,1.0,1.0,      31P     28
1.0,1.0,1.0,1.0,1.0,1.0,1.0,1.0,1.0,1.0,1.0,1.5,0.3082450285,         31P     29
-4.990489455,1.5,0.3566640443,-5.774393706,1.5,0.2511638205,          31P     30
-6.567805008,1.5,-0.01089998651,-7.33038358,1.5,-0.8199135028,        31P     31
-8.711696106,1.5,-2.091166374,-9.684549283,1.5,-2.815697949,          31P     32
-10.03846667,1.5,-4.364492347,-10.44314318,1.5,-5.951314951,          31P     33
-10.23214273,1.5,-6.713893523,-9.970078924,1.5,-8.095206049,          31P     34
-9.161065408,1.5,-9.068059226,-7.889812536,1.5,-9.421976611,          31P     35
-7.165280962,1.5,-9.624314866,-6.390883763,1.5,-9.672733882,          31P     36
-5.606979512,0.0,15.70796327,0.0,0.0,0.0,0,0;                         31P     37
126,1,1,0,0,1,0,0.0,0.0,5.0,5.0,1.0,1.0,1.5,-9.672733882,             33P     38
-5.606979512,1.5,-9.98097891,-0.616490057,0.0,5.0,0.0,0.0,0.0,0,      33P     39
0;                                                                    33P     40
102,4,27,29,31,33,0,0;                                                35P     41
142,0,25,0,35,2,0,0;                                                  37P     42
126,8,5,0,0,1,0,0.0,0.0,0.0,0.0,0.0,0.0,2.513274123,2.513274123,      39P     43
2.513274123,5.026548246,5.026548246,5.026548246,5.026548246,          39P     44
5.026548246,5.026548246,1.0,1.0,1.0,1.0,1.0,1.0,1.0,1.0,1.0,1.5,      39P     45
-3.082244427,-5.298734484,1.5,-3.082244427,-4.796079659,1.5,          39P     46
-3.279636515,-4.293424835,1.5,-3.676934778,-3.896126572,1.5,          39P     47
-4.682244427,-3.501342396,1.5,-5.687554076,-3.896126572,1.5,          39P     48
-6.084852339,-4.293424835,1.5,-6.282244427,-4.796079659,1.5,          39P     49
-6.282244427,-5.298734484,0.0,5.026548246,0.0,0.0,0.0,0,0;            39P     50
126,8,5,0,0,1,0,5.026548246,5.026548246,5.026548246,5.026548246,      41P     51
5.026548246,5.026548246,7.539822369,7.539822369,7.539822369,          41P     52
10.05309649,10.05309649,10.05309649,10.05309649,10.05309649,          41P     53
10.05309649,1.0,1.0,1.0,1.0,1.0,1.0,1.0,1.0,1.0,1.5,                  41P     54
-6.282244427,-5.298734484,1.5,-6.282244427,-5.801389308,1.5,          41P     55
-6.084852339,-6.304044133,1.5,-5.687554076,-6.701342396,1.5,          41P     56
-4.682244427,-7.096126572,1.5,-3.676934778,-6.701342396,1.5,          41P     57
-3.279636515,-6.304044133,1.5,-3.082244427,-5.801389308,1.5,          41P     58
-3.082244427,-5.298734484,5.026548246,10.05309649,0.0,0.0,0.0,0,      41P     59
0;                                                                    41P     60
102,2,39,41,0,0;                                                      43P     61
142,0,25,0,43,2,0,0;                                                  45P     62
144,25,1,1,37,45,0,0;                                                 47P     63
108,0.0,0.998097891,0.0616490057,0.0,0,0.0,0.1541225142,              49P     64
-2.495244728,1.0,0,0;                                                 49P     65
110,0.0,0.0,0.0,0.0,0.3082450285,-4.990489455,0,0;                    51P     66
110,0.0,0.3082450285,-4.990489455,1.5,0.3082450285,-4.990489455,      53P     67
0,0;                                                                  53P     68
110,1.5,0.3082450285,-4.990489455,1.5,2.775557562E-017,               55P     69
-8.881784197E-016,0,0;                                                55P     70
110,1.5,2.775557562E-017,-8.881784197E-016,0.0,0.0,0.0,0,0;           57P     71
102,4,51,53,55,57,0,0;                                                59P     72
142,0,49,0,59,2,0,0;                                                  61P     73
144,49,1,0,61,0,0;                                                    63P     74
108,-1.139837968E-017,-0.998097891,-0.0616490057,                     65P     75
-4.440892099E-015,0,0.3634433716,0.2064124524,-3.341819241,1.0,       65P     76
0,0;                                                                  65P     77
110,0.0,0.0,0.0,1.5,2.775557562E-017,-8.881784197E-016,0,0;           67P     78
124,1.0,-2.576272132E-017,-1.139837968E-017,-4.0,                     69P     79
-8.200664675E-016,-0.0616490057,-0.998097891,4.538121147E-015,        69P     80
-2.484081094E-017,0.998097891,-0.0616490057,-7.515539595E-016,0,      69P     81
0;                                                                    69P     82
100,0.0,0.0,0.0,5.5,0.0,1.423504748,5.312592045,0,0;                  71P     83
110,-2.576495252,-0.3275160172,5.302486916,-2.96472382,               73P     84
-0.2381934671,3.85635412,0,0;                                         73P     85
124,0.2588190451,0.9659258263,1.139837968E-017,-4.0,                  75P     86
-0.05954836677,0.01595593679,0.998097891,4.538121147E-015,            75P     87
0.9640885301,-0.2583267431,0.0616490057,-7.515539595E-016,0,0;        75P     88
100,0.0,0.0,0.0,4.0,0.0,1.03527618,3.863703305,0,0;                   77P     89
102,4,67,71,73,77,0,0;                                                79P     90
142,0,65,0,79,2,0,0;                                                  81P     91
144,65,1,0,81,0,0;                                                    83P     92
110,-28.938564,-0.6672501717,10.80278557,-2.96472382,                 85P     93
-0.2381934671,3.85635412,0,0;                                         85P     94
110,-2.96472382,-0.2381934671,3.85635412,-2.576495252,                87P     95
-0.3275160172,5.302486916,0,0;                                        87P     96
110,-2.576495252,-0.3275160172,5.302486916,-28.55033543,              89P     97
-0.7565727219,12.24891837,0,0;                                        89P     98
110,-28.55033543,-0.7565727219,12.24891837,-28.938564,                91P     99
-0.6672501717,10.80278557,0,0;                                        91P    100
102,4,85,87,89,91,0,0;                                                93P    101
142,0,65,0,93,2,0,0;                                                  95P    102
144,65,1,0,95,0,0;                                                    97P    103
108,0.2588190451,-0.05954836677,0.9640885301,4.46472382,0,            99P    104
-2.576495252,-0.3275160172,5.302486916,1.0,0,0;                       99P    105
124,-0.9471681994,-0.1894336399,-0.2588190451,-28.55033543,          101P    106
-0.2113891842,0.9755862877,0.05954836677,-1.255621667,               101P    107
0.2412198475,0.1111138661,-0.9640885301,12.21809386,0,0;             101P    108
100,0.0,0.0,0.0,0.5,0.0,-0.09805806757,0.4902903378,0,0;             103P    109
110,-28.55033543,-0.7565727219,12.24891837,-2.576495252,             105P    110
-0.3275160172,5.302486916,0,0;                                       105P    111
110,-2.576495252,-0.3275160172,5.302486916,-2.576495252,             107P    112
-10.30849493,4.685996859,0,0;                                        107P    113
110,-2.576495252,-10.30849493,4.685996859,-26.81166894,              109P    114
-10.70883095,11.16744017,0,0;                                        109P    115
124,7.105427358E-015,-0.9659258263,-0.2588190451,-26.81166894,       111P    116
-0.998097891,-0.01595593679,0.05954836677,-10.209782,                111P    117
-0.0616490057,0.2583267431,-0.9640885301,11.19826467,0,0;            111P    118
100,0.0,0.0,0.0,0.5,0.0,0.09805806757,0.4902903378,0,0;              113P    119
110,-27.28525304,-10.31547659,11.3188746,-29.02391953,               115P    120
-1.361316259,12.33870379,0,0;                                        115P    121
102,6,103,105,107,109,113,115,0,0;                                   117P    122
142,0,99,0,117,2,0,0;                                                119P    123
144,99,1,0,119,0,0;                                                  121P    124
110,-28.55033543,-1.255621667,12.21809386,-28.29151638,              123P    125
-1.315170034,13.18218239,0,0;                                        123P    126
110,-28.938564,-0.6672501717,10.80278557,-28.55033543,               125P    127
-0.7565727219,12.24891837,0,0;                                       125P    128
120,123,125,0.0,6.283185307,0,0;                                     127P    129
124,-0.9471681994,-0.1894336399,-0.2588190451,-28.938564,            129P    130
-0.2113891842,0.9755862877,0.05954836677,-1.166299117,               129P    131
0.2412198475,0.1111138661,-0.9640885301,10.77196107,0,0;             129P    132
100,0.0,0.0,0.0,0.5,0.0,-0.09805806757,0.4902903378,0,0;             131P    133
110,-28.938564,-0.6672501717,10.80278557,-28.55033543,               133P    134
-0.7565727219,12.24891837,0,0;                                       133P    135
124,0.0,-0.9659258263,0.2588190451,-28.55033543,0.998097891,         135P    136
-0.01595593679,-0.05954836677,-1.255621667,0.0616490057,             135P    137
0.2583267431,0.9640885301,12.21809386,0,0;                           135P    138
100,0.0,0.0,0.0,0.5,0.0,-0.09805806757,0.4902903378,0,0;             137P    139
110,-29.02391953,-1.361316259,12.33870379,-29.4121481,               139P    140
-1.271993709,10.89257099,0,0;                                        139P    141
102,4,131,133,137,139,0,0;                                           141P    142
142,0,127,0,141,2,0,0;                                               143P    143
144,127,1,0,143,0,0;                                                 145P    144
108,-0.9471681994,-0.2113891842,0.2412198475,30.75464138,0,          147P    145
-28.56175822,-5.651515247,10.39376778,1.0,0,0;                       147P    146
110,-27.67348161,-10.22615404,9.872741803,-29.4121481,               149P    147
-1.271993709,10.89257099,0,0;                                        149P    148
110,-29.4121481,-1.271993709,10.89257099,-29.02391953,               151P    149
-1.361316259,12.33870379,0,0;                                        151P    150
110,-29.02391953,-1.361316259,12.33870379,-27.28525304,              153P    151
-10.31547659,11.3188746,0,0;                                         153P    152
110,-27.28525304,-10.31547659,11.3188746,-27.67348161,               155P    153
-10.22615404,9.872741803,0,0;                                        155P    154
102,4,149,151,153,155,0,0;                                           157P    155
142,0,147,0,157,2,0,0;                                               159P    156
144,147,1,0,159,0,0;                                                 161P    157
110,-26.81166894,-10.209782,11.19826467,-26.5528499,                 163P    158
-10.26933037,12.1623532,0,0;                                         163P    159
110,-27.67348161,-10.22615404,9.872741803,-27.28525304,              165P    160
-10.31547659,11.3188746,0,0;                                         165P    161
120,163,165,0.0,6.283185307,0,0;                                     167P    162
124,0.0,-0.9659258263,-0.2588190451,-27.19989751,-0.998097891,       169P    163
-0.01595593679,0.05954836677,-10.12045945,-0.0616490057,             169P    164
0.2583267431,-0.9640885301,9.752131879,0,0;                          169P    165
100,0.0,0.0,0.0,0.5,0.0,0.09805806757,0.4902903378,0,0;              171P    166
110,-27.67348161,-10.22615404,9.872741803,-27.28525304,              173P    167
-10.31547659,11.3188746,0,0;                                         173P    168
124,-0.9471681994,0.1894336399,0.2588190451,-26.81166894,            175P    169
-0.2113891842,-0.9755862877,-0.05954836677,-10.209782,               175P    170
0.2412198475,-0.1111138661,0.9640885301,11.19826467,0,0;             175P    171
100,0.0,0.0,0.0,0.5,0.0,0.09805806757,0.4902903378,0,0;              177P    172
110,-26.81166894,-10.70883095,11.16744017,-27.19989751,              179P    173
-10.6195084,9.721307376,0,0;                                         179P    174
102,4,171,173,177,179,0,0;                                           181P    175
142,0,167,0,181,2,0,0;                                               183P    176
144,167,1,0,183,0,0;                                                 185P    177
108,-3.469446952E-018,-0.998097891,-0.0616490057,10.0,0,             187P    178
-16.09945682,-10.53187804,8.302571262,1.0,0,0;                       187P    179
110,-27.19989751,-10.6195084,9.721307376,-26.81166894,               189P    180
-10.70883095,11.16744017,0,0;                                        189P    181
110,-26.81166894,-10.70883095,11.16744017,-2.576495252,              191P    182
-10.30849493,4.685996859,0,0;                                        191P    183
110,-2.576495252,-10.30849493,4.685996859,-2.96472382,               193P    184
-10.21917238,3.239864063,0,0;                                        193P    185
110,-2.96472382,-10.21917238,3.239864063,-27.19989751,               195P    186
-10.6195084,9.721307376,0,0;                                         195P    187
102,4,189,191,193,195,0,0;                                           197P    188
142,0,187,0,197,2,0,0;                                               199P    189
144,187,1,0,199,0,0;                                                 201P    190
124,1.0,-3.311328848E-016,1.139837968E-017,-4.0,                     203P    191
-1.776356839E-015,-0.0616490057,-0.998097891,-9.98097891,            203P    192
2.220446049E-016,0.998097891,-0.0616490057,-0.616490057,0,0;         203P    193
100,0.0,0.0,0.0,4.0,0.0,1.03527618,3.863703305,0,0;                  205P    194
110,-2.96472382,-10.21917238,3.239864063,-2.576495252,               207P    195
-10.30849493,4.685996859,0,0;                                        207P    196
124,0.2588190451,0.9659258263,-1.139837968E-017,-4.0,                209P    197
-0.05954836677,0.01595593679,0.998097891,-9.98097891,                209P    198
0.9640885301,-0.2583267431,0.0616490057,-0.616490057,0,0;            209P    199
100,0.0,0.0,0.0,5.5,0.0,1.423504748,5.312592045,0,0;                 211P    200
110,1.5,-9.98097891,-0.616490057,0.0,-9.98097891,-0.616490057,0,     213P    201
0;                                                                   213P    202
102,4,205,207,211,213,0,0;                                           215P    203
142,0,187,0,215,2,0,0;                                               217P    204
144,187,1,0,217,0,0;                                                 219P    205
110,-4.0,-4.990489455,-0.3082450285,-4.0,-5.988587346,               221P    206
-0.3698940342,0,0;                                                   221P    207
110,-8.881784197E-016,5.374367977E-015,-9.554108164E-016,            223P    208
-8.881784197E-016,-9.98097891,-0.616490057,0,0;                      223P    209
120,221,223,0.0,6.283185307,0,0;                                     225P    210
110,-2.96472382,-0.2381934671,3.85635412,-2.96472382,                227P    211
-10.21917238,3.239864063,0,0;                                        227P    212
124,0.2588190451,0.9659258263,0.0,-4.0,-0.05954836677,               229P    213
0.01595593679,0.998097891,-9.98097891,0.9640885301,                  229P    214
-0.2583267431,0.0616490057,-0.616490057,0,0;                         229P    215
100,0.0,0.0,0.0,4.0,0.0,1.03527618,3.863703305,0,0;                  231P    216
110,0.0,-9.98097891,-0.616490057,0.0,0.0,0.0,0,0;                    233P    217
124,1.0,-1.378636609E-016,0.0,-4.0,-8.881784197E-016,                235P    218
-0.0616490057,-0.998097891,3.552713679E-015,8.326672685E-017,        235P    219
0.998097891,-0.0616490057,-3.330669074E-016,0,0;                     235P    220
100,0.0,0.0,0.0,4.0,0.0,1.03527618,3.863703305,0,0;                  237P    221
102,4,227,231,233,237,0,0;                                           239P    222
142,0,225,0,239,2,0,0;                                               241P    223
144,225,1,0,241,0,0;                                                 243P    224
108,0.2588190451,-0.05954836677,0.9640885301,2.96472382,0,           245P    225
-2.96472382,-0.2381934671,3.85635412,1.0,0,0;                        245P    226
126,1,1,0,0,1,0,-4.489117562,-4.489117562,4.689117562,               247P    227
4.689117562,1.0,1.0,-29.4121481,-1.271993709,10.89257099,            247P    228
-27.67348161,-10.22615404,9.872741803,-4.489117562,4.689117562,      247P    229
0.0,0.0,0.0,0,0;                                                     247P    230
126,4,4,0,0,1,0,0.09869777992,0.09869777992,0.09869777992,           249P    231
0.09869777992,0.09869777992,0.7853981634,0.7853981634,               249P    232
0.7853981634,0.7853981634,0.7853981634,1.0,1.0,1.0,1.0,1.0,          249P    233
-27.67348161,-10.22615404,9.872741803,-27.64096057,-10.39363791,     249P    234
9.853666319,-27.53287891,-10.54566028,9.815260847,-27.36572292,      249P    235
-10.62224763,9.765655644,-27.19989751,-10.6195084,9.721307376,       249P    236
0.09869777992,0.7853981634,0.0,0.0,0.0,0,0;                          249P    237
110,-27.19989751,-10.6195084,9.721307376,-2.96472382,                251P    238
-10.21917238,3.239864063,0,0;                                        251P    239
110,-2.96472382,-10.21917238,3.239864063,-2.96472382,                253P    240
-0.2381934671,3.85635412,0,0;                                        253P    241
110,-2.96472382,-0.2381934671,3.85635412,-28.938564,                 255P    242
-0.6672501717,10.80278557,0,0;                                       255P    243
126,4,4,0,0,1,0,2.35619449,2.35619449,2.35619449,2.35619449,         257P    244
2.35619449,3.240290434,3.240290434,3.240290434,3.240290434,          257P    245
3.240290434,1.0,1.0,1.0,1.0,1.0,-28.938564,-0.6672501717,            257P    246
10.80278557,-29.15205677,-0.6707768165,10.85988198,-29.36959913,     257P    247
-0.80828552,10.90978993,-29.45401747,-1.056365739,10.91712982,       257P    248
-29.4121481,-1.271993709,10.89257099,2.35619449,3.240290434,0.0,     257P    249
0.0,0.0,0,0;                                                         257P    250
102,6,247,249,251,253,255,257,0,0;                                   259P    251
142,0,245,0,259,2,0,0;                                               261P    252
144,245,1,0,261,0,0;                                                 263P    253
110,-4.0,-4.990489455,-0.3082450285,-4.0,-5.988587346,               265P    254
-0.3698940342,0,0;                                                   265P    255
110,1.5,3.916151925E-015,-6.21713499E-015,1.5,-9.98097891,           267P    256
-0.616490057,0,0;                                                    267P    257
120,265,267,0.0,6.283185307,0,0;                                     269P    258
124,0.2588190451,0.9659258263,0.0,-4.0,-0.05954836677,               271P    259
0.01595593679,0.998097891,3.552713679E-015,0.9640885301,             271P    260
-0.2583267431,0.0616490057,-3.330669074E-016,0,0;                    271P    261
100,0.0,0.0,0.0,5.5,0.0,1.423504748,5.312592045,0,0;                 273P    262
110,1.5,2.775557562E-017,-8.881784197E-016,1.5,-9.98097891,          275P    263
-0.616490057,0,0;                                                    275P    264
124,1.0,1.014467471E-016,0.0,-4.0,-9.689219124E-016,                 277P    265
-0.0616490057,-0.998097891,-9.98097891,-1.614869854E-016,            277P    266
0.998097891,-0.0616490057,-0.616490057,0,0;                          277P    267
100,0.0,0.0,0.0,5.5,0.0,1.423504748,5.312592045,0,0;                 279P    268
110,-2.576495252,-10.30849493,4.685996859,-2.576495252,              281P    269
-0.3275160172,5.302486916,0,0;                                       281P    270
102,4,273,275,279,281,0,0;                                           283P    271
142,0,269,0,283,2,0,0;                                               285P    272
144,269,1,0,285,0,0;                                                 287P    273
110,0.0,-4.682244427,-5.298734484,1.0,-4.682244427,-5.298734484,     289P    274
0,0;                                                                 289P    275
110,0.0,-9.672733882,-5.606979512,1.5,-9.672733882,-5.606979512,     291P    276
0,0;                                                                 291P    277
120,289,291,0.0,6.283185307,0,0;                                     293P    278
124,-1.776356839E-016,0.0,1.0,1.5,-0.998097891,0.0616490057,0.0,     295P    279
-4.682244427,-0.0616490057,-0.998097891,0.0,-5.298734484,0,0;        295P    280
100,0.0,0.0,0.0,5.0,0.0,-5.0,-5.551115123E-016,0,0;                  297P    281
110,1.5,0.3082450285,-4.990489455,0.0,0.3082450285,-4.990489455,     299P    282
0,0;                                                                 299P    283
124,0.0,0.0,-1.0,0.0,0.998097891,0.0616490057,0.0,-4.682244427,      301P    284
0.0616490057,-0.998097891,0.0,-5.298734484,0,0;                      301P    285
100,0.0,0.0,0.0,5.0,0.0,-5.0,3.469446952E-016,0,0;                   303P    286
110,0.0,-9.672733882,-5.606979512,1.5,-9.672733882,-5.606979512,     305P    287
0,0;                                                                 305P    288
102,4,297,299,303,305,0,0;                                           307P    289
142,0,293,0,307,2,0,0;                                               309P    290
144,293,1,0,309,0,0;                                                 311P    291
110,0.0,-4.682244427,-5.298734484,1.0,-4.682244427,-5.298734484,     313P    292
0,0;                                                                 313P    293
110,0.0,-3.082244427,-5.298734484,1.5,-3.082244427,-5.298734484,     315P    294
0,0;                                                                 315P    295
120,313,315,0.0,6.283185307,0,0;                                     317P    296
124,0.0,0.0,-1.0,1.5,-1.0,0.0,0.0,-4.682244427,0.0,1.0,0.0,          319P    297
-5.298734484,0,0;                                                    319P    298
100,0.0,0.0,0.0,1.6,0.0,-1.6,0.0,0,0;                                321P    299
110,1.5,-3.082244427,-5.298734484,0.0,-3.082244427,-5.298734484,     323P    300
0,0;                                                                 323P    301
124,0.0,0.0,1.0,0.0,1.0,0.0,0.0,-4.682244427,0.0,1.0,0.0,            325P    302
-5.298734484,0,0;                                                    325P    303
100,0.0,0.0,0.0,1.6,0.0,-1.6,0.0,0,0;                                327P    304
110,0.0,-6.282244427,-5.298734484,1.5,-6.282244427,-5.298734484,     329P    305
0,0;                                                                 329P    306
102,4,321,323,327,329,0,0;                                           331P    307
142,0,317,0,331,2,0,0;                                               333P    308
144,317,1,0,333,0,0;                                                 335P    309
108,1.0,0.0,0.0,0.0,0,0.0,0.0,0.0,1.0,0,0;                           337P    310
110,0.0,-9.98097891,-0.616490057,0.0,-9.672733882,-5.606979512,      339P    311
0,0;                                                                 339P    312
124,0.0,0.0,1.0,0.0,-0.998097891,0.0616490057,0.0,-4.682244427,      341P    313
-0.0616490057,-0.998097891,0.0,-5.298734484,0,0;                     341P    314
100,0.0,0.0,0.0,5.0,0.0,-5.0,3.469446952E-016,0,0;                   343P    315
110,0.0,0.3082450285,-4.990489455,0.0,0.0,0.0,0,0;                   345P    316
110,0.0,0.0,0.0,0.0,-9.98097891,-0.616490057,0,0;                    347P    317
102,4,339,343,345,347,0,0;                                           349P    318
142,0,337,0,349,2,0,0;                                               351P    319
124,0.0,0.0,-1.0,0.0,1.0,0.0,0.0,-4.682244427,0.0,-1.0,0.0,          353P    320
-5.298734484,0,0;                                                    353P    321
100,0.0,0.0,0.0,1.6,0.0,-1.6,0.0,0,0;                                355P    322
124,0.0,0.0,-1.0,0.0,-1.0,0.0,0.0,-4.682244427,0.0,1.0,0.0,          357P    323
-5.298734484,0,0;                                                    357P    324
100,0.0,0.0,0.0,1.6,0.0,-1.6,0.0,0,0;                                359P    325
102,2,355,359,0,0;                                                   361P    326
142,0,337,0,361,2,0,0;                                               363P    327
144,337,1,1,351,363,0,0;                                             365P    328
108,0.0,0.998097891,0.0616490057,-10.0,0,0.0,-9.826856396,           367P    329
-3.111734785,1.0,0,0;                                                367P    330
110,0.0,-9.98097891,-0.616490057,1.5,-9.98097891,-0.616490057,0,     369P    331
0;                                                                   369P    332
110,1.5,-9.98097891,-0.616490057,1.5,-9.672733882,-5.606979512,      371P    333
0,0;                                                                 371P    334
110,1.5,-9.672733882,-5.606979512,0.0,-9.672733882,-5.606979512,     373P    335
0,0;                                                                 373P    336
110,0.0,-9.672733882,-5.606979512,0.0,-9.98097891,-0.616490057,      375P    337
0,0;                                                                 375P    338
102,4,369,371,373,375,0,0;                                           377P    339
142,0,367,0,377,2,0,0;                                               379P    340
144,367,1,0,379,0,0;                                                 381P    341
124,1.0,1.81327297E-016,0.0,-4.0,0.0,-0.0616490057,-0.998097891,     383P    342
-4.990489455,-1.816728586E-016,0.998097891,-0.0616490057,            383P    343
-0.3082450285,0,0;                                                   383P    344
100,0.0,0.0,0.0,5.5,0.0,1.423504748,5.312592045,0,0;                 385P    345
110,-2.576495252,-5.318005472,4.994241887,-29.62241839,              387P    346
-5.764771702,12.22739069,0,0;                                        387P    347
102,2,385,387,0,0;                                                   389P    348
S      1G      5D    390P    348                                        T      1
