START RECORD GO HERE.                                                   S      1
1H,,1H;,20HCNEXT - IGES PRODUCT,12H20M_BA_5.igs,44HIBM CATIA IGES - CATIG      1
A Version 5 Release 19 ,27HCATIA Version 5 Release 19 ,32,75,6,75,15,9HCG      2
hape 2.1,1.0,2,2HMM,1000,1.0,15H20191218.151958,0.001,10000.0,5Halexb,  G      3
15HLAPTOP-PR6NE7IP,11,0,15H20191218.151958,;                            G      4
     406       1       0       0       0       0       0       000010201D      1
     406       0       0       1      15                               0D      2
     110       2       0       0       0       0       0       001010001D      3
     110       0       0       1       0                               0D      4
     110       3       0       0       0       0       0       001010001D      5
     110       0       0       1       0                               0D      6
     120       4       0       0       0       0       0       001010001D      7
     120       0       0       1       0                               0D      8
     124       5       0       0       0       0       0       001020201D      9
     124       0       0       2       0                               0D     10
     100       7       0       0       0       0       9       001010001D     11
     100       0       0       1       0                               0D     12
     110       8       0       0       0       0       0       001010001D     13
     110       0       0       1       0                               0D     14
     124       9       0       0       0       0       0       001020201D     15
     124       0       0       2       0                               0D     16
     100      11       0       0       0       0      15       001010001D     17
     100       0       0       1       0                               0D     18
     110      12       0       0       0       0       0       001010001D     19
     110       0       0       1       0                               0D     20
     102      13       0       0       0       0       0       001010001D     21
     102       0       0       1       0                               0D     22
     142      14       0       0       0       0       0       001010001D     23
     142       0       0       1       0                               0D     24
     144      15       0       0   10000       0       0       000000000D     25
     144       0       0       1       0                               0D     26
     110      16       0       0       0       0       0       001010001D     27
     110       0       0       1       0                               0D     28
     110      17       0       0       0       0       0       001010001D     29
     110       0       0       1       0                               0D     30
     120      18       0       0       0       0       0       001010001D     31
     120       0       0       1       0                               0D     32
     124      19       0       0       0       0       0       001020201D     33
     124       0       0       2       0                               0D     34
     100      21       0       0       0       0      33       001010001D     35
     100       0       0       1       0                               0D     36
     110      22       0       0       0       0       0       001010001D     37
     110       0       0       1       0                               0D     38
     124      23       0       0       0       0       0       001020201D     39
     124       0       0       2       0                               0D     40
     100      25       0       0       0       0      39       001010001D     41
     100       0       0       1       0                               0D     42
     110      26       0       0       0       0       0       001010001D     43
     110       0       0       1       0                               0D     44
     102      27       0       0       0       0       0       001010001D     45
     102       0       0       1       0                               0D     46
     142      28       0       0       0       0       0       001010001D     47
     142       0       0       1       0                               0D     48
     144      29       0       0   10000       0       0       000000000D     49
     144       0       0       1       0                               0D     50
     108      30       0       0       0       0       0       001010001D     51
     108       0       0       1       0                               0D     52
     126      31       0       0       0       0       0       001010001D     53
     126       0       0       6       0                               0D     54
     126      37       0       0       0       0       0       001010001D     55
     126       0       0      11       0                               0D     56
     124      48       0       0       0       0       0       001020201D     57
     124       0       0       2       0                               0D     58
     100      50       0       0       0       0      57       001010001D     59
     100       0       0       1       0                               0D     60
     110      51       0       0       0       0       0       001010001D     61
     110       0       0       1       0                               0D     62
     124      52       0       0       0       0       0       001020201D     63
     124       0       0       2       0                               0D     64
     100      54       0       0       0       0      63       001010001D     65
     100       0       0       1       0                               0D     66
     110      55       0       0       0       0       0       001010001D     67
     110       0       0       1       0                               0D     68
     124      56       0       0       0       0       0       001020201D     69
     124       0       0       2       0                               0D     70
     100      58       0       0       0       0      69       001010001D     71
     100       0       0       1       0                               0D     72
     102      59       0       0       0       0       0       001010001D     73
     102       0       0       1       0                               0D     74
     142      60       0       0       0       0       0       001010001D     75
     142       0       0       1       0                               0D     76
     124      61       0       0       0       0       0       001020201D     77
     124       0       0       2       0                               0D     78
     100      63       0       0       0       0      77       001010001D     79
     100       0       0       1       0                               0D     80
     124      64       0       0       0       0       0       001020201D     81
     124       0       0       2       0                               0D     82
     100      66       0       0       0       0      81       001010001D     83
     100       0       0       1       0                               0D     84
     124      67       0       0       0       0       0       001020201D     85
     124       0       0       2       0                               0D     86
     100      69       0       0       0       0      85       001010001D     87
     100       0       0       1       0                               0D     88
     124      70       0       0       0       0       0       001020201D     89
     124       0       0       2       0                               0D     90
     100      72       0       0       0       0      89       001010001D     91
     100       0       0       1       0                               0D     92
     102      73       0       0       0       0       0       001010001D     93
     102       0       0       1       0                               0D     94
     142      74       0       0       0       0       0       001010001D     95
     142       0       0       1       0                               0D     96
     144      75       0       0   10000       0       0       000000000D     97
     144       0       0       1       0                               0D     98
     108      76       0       0       0       0       0       001010001D     99
     108       0       0       1       0                               0D    100
     110      77       0       0       0       0       0       001010001D    101
     110       0       0       1       0                               0D    102
     110      78       0       0       0       0       0       001010001D    103
     110       0       0       1       0                               0D    104
     110      79       0       0       0       0       0       001010001D    105
     110       0       0       1       0                               0D    106
     110      80       0       0       0       0       0       001010001D    107
     110       0       0       1       0                               0D    108
     102      81       0       0       0       0       0       001010001D    109
     102       0       0       1       0                               0D    110
     142      82       0       0       0       0       0       001010001D    111
     142       0       0       1       0                               0D    112
     144      83       0       0   10000       0       0       000000000D    113
     144       0       0       1       0                               0D    114
     110      84       0       0       0       0       0       001010001D    115
     110       0       0       1       0                               0D    116
     110      85       0       0       0       0       0       001010001D    117
     110       0       0       1       0                               0D    118
     120      86       0       0       0       0       0       001010001D    119
     120       0       0       1       0                               0D    120
     110      87       0       0       0       0       0       001010001D    121
     110       0       0       1       0                               0D    122
     124      88       0       0       0       0       0       001020201D    123
     124       0       0       2       0                               0D    124
     100      90       0       0       0       0     123       001010001D    125
     100       0       0       1       0                               0D    126
     110      91       0       0       0       0       0       001010001D    127
     110       0       0       1       0                               0D    128
     124      92       0       0       0       0       0       001020201D    129
     124       0       0       2       0                               0D    130
     100      94       0       0       0       0     129       001010001D    131
     100       0       0       1       0                               0D    132
     102      95       0       0       0       0       0       001010001D    133
     102       0       0       1       0                               0D    134
     142      96       0       0       0       0       0       001010001D    135
     142       0       0       1       0                               0D    136
     144      97       0       0   10000       0       0       000000000D    137
     144       0       0       1       0                               0D    138
     108      98       0       0       0       0       0       001010001D    139
     108       0       0       1       0                               0D    140
     110      99       0       0       0       0       0       001010001D    141
     110       0       0       1       0                               0D    142
     110     100       0       0       0       0       0       001010001D    143
     110       0       0       1       0                               0D    144
     110     101       0       0       0       0       0       001010001D    145
     110       0       0       1       0                               0D    146
     110     102       0       0       0       0       0       001010001D    147
     110       0       0       1       0                               0D    148
     102     103       0       0       0       0       0       001010001D    149
     102       0       0       1       0                               0D    150
     142     104       0       0       0       0       0       001010001D    151
     142       0       0       1       0                               0D    152
     144     105       0       0   10000       0       0       000000000D    153
     144       0       0       1       0                               0D    154
     110     106       0       0       0       0       0       001010001D    155
     110       0       0       1       0                               0D    156
     110     107       0       0       0       0       0       001010001D    157
     110       0       0       1       0                               0D    158
     120     108       0       0       0       0       0       001010001D    159
     120       0       0       1       0                               0D    160
     110     109       0       0       0       0       0       001010001D    161
     110       0       0       1       0                               0D    162
     124     110       0       0       0       0       0       001020201D    163
     124       0       0       2       0                               0D    164
     100     112       0       0       0       0     163       001010001D    165
     100       0       0       1       0                               0D    166
     110     113       0       0       0       0       0       001010001D    167
     110       0       0       1       0                               0D    168
     124     114       0       0       0       0       0       001020201D    169
     124       0       0       2       0                               0D    170
     100     116       0       0       0       0     169       001010001D    171
     100       0       0       1       0                               0D    172
     102     117       0       0       0       0       0       001010001D    173
     102       0       0       1       0                               0D    174
     142     118       0       0       0       0       0       001010001D    175
     142       0       0       1       0                               0D    176
     144     119       0       0   10000       0       0       000000000D    177
     144       0       0       1       0                               0D    178
     126     120       0       0       0       0       0       001010001D    179
     126       0       0      10       0                               0D    180
     122     130       0       0       0       0       0       001010001D    181
     122       0       0       1       0                               0D    182
     110     131       0       0       0       0       0       001010001D    183
     110       0       0       1       0                               0D    184
     126     132       0       0       0       0       0       001010001D    185
     126       0       0       6       0                               0D    186
     110     138       0       0       0       0       0       001010001D    187
     110       0       0       1       0                               0D    188
     126     139       0       0       0       0       0       001010001D    189
     126       0       0       5       0                               0D    190
     102     144       0       0       0       0       0       001010001D    191
     102       0       0       1       0                               0D    192
     142     145       0       0       0       0       0       001010001D    193
     142       0       0       1       0                               0D    194
     144     146       0       0   10000       0       0       000000000D    195
     144       0       0       1       0                               0D    196
     126     147       0       0       0       0       0       001010001D    197
     126       0       0       7       0                               0D    198
     122     154       0       0       0       0       0       001010001D    199
     122       0       0       1       0                               0D    200
     126     155       0       0       0       0       0       001010001D    201
     126       0       0       5       0                               0D    202
     110     160       0       0       0       0       0       001010001D    203
     110       0       0       1       0                               0D    204
     126     161       0       0       0       0       0       001010001D    205
     126       0       0       4       0                               0D    206
     110     165       0       0       0       0       0       001010001D    207
     110       0       0       1       0                               0D    208
     102     166       0       0       0       0       0       001010001D    209
     102       0       0       1       0                               0D    210
     142     167       0       0       0       0       0       001010001D    211
     142       0       0       1       0                               0D    212
     144     168       0       0   10000       0       0       000000000D    213
     144       0       0       1       0                               0D    214
     110     169       0       0       0       0       0       001010001D    215
     110       0       0       1       0                               0D    216
     110     170       0       0       0       0       0       001010001D    217
     110       0       0       1       0                               0D    218
     120     171       0       0       0       0       0       001010001D    219
     120       0       0       1       0                               0D    220
     110     172       0       0       0       0       0       001010001D    221
     110       0       0       1       0                               0D    222
     124     173       0       0       0       0       0       001020201D    223
     124       0       0       2       0                               0D    224
     100     175       0       0       0       0     223       001010001D    225
     100       0       0       1       0                               0D    226
     110     176       0       0       0       0       0       001010001D    227
     110       0       0       1       0                               0D    228
     124     177       0       0       0       0       0       001020201D    229
     124       0       0       2       0                               0D    230
     100     179       0       0       0       0     229       001010001D    231
     100       0       0       1       0                               0D    232
     102     180       0       0       0       0       0       001010001D    233
     102       0       0       1       0                               0D    234
     142     181       0       0       0       0       0       001010001D    235
     142       0       0       1       0                               0D    236
     144     182       0       0   10000       0       0       000000000D    237
     144       0       0       1       0                               0D    238
     108     183       0       0       0       0       0       001010001D    239
     108       0       0       1       0                               0D    240
     126     184       0       0       0       0       0       001010001D    241
     126       0       0       5       0                               0D    242
     110     189       0       0       0       0       0       001010001D    243
     110       0       0       1       0                               0D    244
     126     190       0       0       0       0       0       001010001D    245
     126       0       0      13       0                               0D    246
     110     203       0       0       0       0       0       001010001D    247
     110       0       0       1       0                               0D    248
     126     204       0       0       0       0       0       001010001D    249
     126       0       0       5       0                               0D    250
     126     209       0       0       0       0       0       001010001D    251
     126       0       0       6       0                               0D    252
     126     215       0       0       0       0       0       001010001D    253
     126       0       0       4       0                               0D    254
     102     219       0       0       0       0       0       001010001D    255
     102       0       0       1       0                               0D    256
     142     220       0       0       0       0       0       001010001D    257
     142       0       0       1       0                               0D    258
     126     221       0       0       0       0       0       001010001D    259
     126       0       0       7       0                               0D    260
     126     228       0       0       0       0       0       001010001D    261
     126       0       0       8       0                               0D    262
     126     236       0       0       0       0       0       001010001D    263
     126       0       0       7       0                               0D    264
     126     243       0       0       0       0       0       001010001D    265
     126       0       0       7       0                               0D    266
     102     250       0       0       0       0       0       001010001D    267
     102       0       0       1       0                               0D    268
     142     251       0       0       0       0       0       001010001D    269
     142       0       0       1       0                               0D    270
     144     252       0       0   10000       0       0       000000000D    271
     144       0       0       1       0                               0D    272
     110     253       0       0       0       0       0       001010001D    273
     110       0       0       1       0                               0D    274
     110     254       0       0       0       0       0       001010001D    275
     110       0       0       1       0                               0D    276
     120     255       0       0       0       0       0       001010001D    277
     120       0       0       1       0                               0D    278
     110     256       0       0       0       0       0       001010001D    279
     110       0       0       1       0                               0D    280
     124     257       0       0       0       0       0       001020201D    281
     124       0       0       2       0                               0D    282
     100     259       0       0       0       0     281       001010001D    283
     100       0       0       1       0                               0D    284
     110     260       0       0       0       0       0       001010001D    285
     110       0       0       1       0                               0D    286
     124     261       0       0       0       0       0       001020201D    287
     124       0       0       2       0                               0D    288
     100     263       0       0       0       0     287       001010001D    289
     100       0       0       1       0                               0D    290
     102     264       0       0       0       0       0       001010001D    291
     102       0       0       1       0                               0D    292
     142     265       0       0       0       0       0       001010001D    293
     142       0       0       1       0                               0D    294
     144     266       0       0   10000       0       0       000000000D    295
     144       0       0       1       0                               0D    296
     110     267       0       0       0       0       0       001010001D    297
     110       0       0       1       0                               0D    298
     110     268       0       0       0       0       0       001010001D    299
     110       0       0       1       0                               0D    300
     120     269       0       0       0       0       0       001010001D    301
     120       0       0       1       0                               0D    302
     124     270       0       0       0       0       0       001020201D    303
     124       0       0       2       0                               0D    304
     100     272       0       0       0       0     303       001010001D    305
     100       0       0       1       0                               0D    306
     110     273       0       0       0       0       0       001010001D    307
     110       0       0       1       0                               0D    308
     124     274       0       0       0       0       0       001020201D    309
     124       0       0       2       0                               0D    310
     100     276       0       0       0       0     309       001010001D    311
     100       0       0       1       0                               0D    312
     110     277       0       0       0       0       0       001010001D    313
     110       0       0       1       0                               0D    314
     102     278       0       0       0       0       0       001010001D    315
     102       0       0       1       0                               0D    316
     142     279       0       0       0       0       0       001010001D    317
     142       0       0       1       0                               0D    318
     144     280       0       0   10000       0       0       000000000D    319
     144       0       0       1       0                               0D    320
406,1,15HCorps principal,0,0;                                          1P      1
110,22.42760468,20.0,1.5,22.42760468,20.0,2.5,0,0;                     3P      2
110,22.42760468,22.15,0.0,22.42760468,22.15,1.5,0,0;                   5P      3
120,3,5,0.0,6.283185307,0,0;                                           7P      4
124,-1.0,0.0,0.0,22.42760468,0.0,1.0,0.0,20.0,0.0,0.0,-1.0,1.5,        9P      5
0,0;                                                                   9P      6
100,0.0,0.0,0.0,2.15,0.0,3.552713679E-015,2.15,0,0;                   11P      7
110,22.42760468,22.15,1.5,22.42760468,22.15,0.0,0,0;                  13P      8
124,-1.652424967E-015,-1.0,0.0,22.42760468,1.0,                       15P      9
-1.652424967E-015,0.0,20.0,0.0,0.0,1.0,0.0,0,0;                       15P     10
100,0.0,0.0,0.0,2.15,0.0,3.552713679E-015,2.15,0,0;                   17P     11
110,20.27760468,20.0,0.0,20.27760468,20.0,1.5,0,0;                    19P     12
102,4,11,13,17,19,0,0;                                                21P     13
142,0,7,0,21,2,0,0;                                                   23P     14
144,7,1,0,23,0,1,1;                                                   25P     15
110,22.42760468,20.0,1.5,22.42760468,20.0,2.5,0,0;                    27P     16
110,24.57760468,20.0,0.0,24.57760468,20.0,1.5,0,0;                    29P     17
120,27,29,0.0,6.283185307,0,0;                                        31P     18
124,0.0,1.0,0.0,22.42760468,1.0,0.0,0.0,20.0,0.0,0.0,-1.0,1.5,0,      33P     19
0;                                                                    33P     20
100,0.0,0.0,0.0,2.15,0.0,3.552713679E-015,2.15,0,0;                   35P     21
110,24.57760468,20.0,1.5,24.57760468,20.0,0.0,0,0;                    37P     22
124,1.0,-1.652424967E-015,0.0,22.42760468,1.652424967E-015,1.0,       39P     23
0.0,20.0,0.0,0.0,1.0,0.0,0,0;                                         39P     24
100,0.0,0.0,0.0,2.15,0.0,3.552713679E-015,2.15,0,0;                   41P     25
110,22.42760468,22.15,0.0,22.42760468,22.15,1.5,0,0;                  43P     26
102,4,35,37,41,43,0,0;                                                45P     27
142,0,31,0,45,2,0,0;                                                  47P     28
144,31,1,0,47,0,1,1;                                                  49P     29
108,0.0,0.0,1.0,0.0,0,0.0,0.0,0.0,1.0,0,0;                            51P     30
126,5,5,0,0,1,0,0.0,0.0,0.0,0.0,0.0,0.0,7.826938288,7.826938288,      53P     31
7.826938288,7.826938288,7.826938288,7.826938288,1.0,1.0,1.0,1.0,      53P     32
1.0,1.0,12.90833983,8.101136699,0.0,13.8114523,8.066314274,0.0,       53P     33
14.71421052,8.021588142,0.0,15.61664846,7.967074187,0.0,              53P     34
16.51819405,7.902863063,0.0,17.4189439,7.828953964,0.0,0.0,           53P     35
7.826938288,0.0,0.0,0.0,0,0;                                          53P     36
126,11,5,0,0,1,0,0.0,0.0,0.0,0.0,0.0,0.0,4.174880422,                 55P     37
4.174880422,4.174880422,9.444510077,9.444510077,9.444510077,          55P     38
25.25296627,25.25296627,25.25296627,25.25296627,25.25296627,          55P     39
25.25296627,1.0,1.0,1.0,1.0,1.0,1.0,1.0,1.0,1.0,1.0,1.0,1.0,          55P     40
17.4189439,7.828953964,0.0,17.89940289,7.789530931,0.0,               55P     41
18.37963548,7.747348684,0.0,18.85965603,7.70240502,0.0,               55P     42
19.94494355,7.594489445,0.0,21.02874569,7.472410134,0.0,              55P     43
21.63288793,7.399878616,0.0,24.04729963,7.091943162,0.0,              55P     44
26.45192638,6.712206166,0.0,28.24809479,6.38603675,0.0,               55P     45
30.03626288,6.016375387,0.0,31.81342334,5.599523367,0.0,0.0,          55P     46
25.25296627,0.0,0.0,0.0,0,0;                                          55P     47
124,-0.2283626809,0.9735761326,0.0,31.92760468,-0.9735761326,         57P     48
-0.2283626809,0.0,6.086311428,0.0,0.0,1.0,0.0,0,0;                    57P     49
100,0.0,0.0,0.0,0.5,0.0,-0.1141813405,0.4867880663,0,0;               59P     50
110,32.42760468,6.086311428,0.0,32.42760468,20.0,0.0,0,0;             61P     51
124,1.0,0.0,0.0,22.42760468,0.0,1.0,0.0,20.0,0.0,0.0,1.0,0.0,0,       63P     52
0;                                                                    63P     53
100,0.0,0.0,0.0,10.0,0.0,-10.0,0.0,0,0;                               65P     54
110,12.42760468,20.0,0.0,12.42760468,8.600765412,0.0,0,0;             67P     55
124,-1.0,0.0,0.0,12.92760468,0.0,-1.0,0.0,8.600765412,0.0,0.0,        69P     56
1.0,0.0,0,0;                                                          69P     57
100,0.0,0.0,0.0,0.5,0.0,0.01926484504,0.4996287279,0,0;               71P     58
102,7,53,55,59,61,65,67,71,0,0;                                       73P     59
142,0,51,0,73,2,0,0;                                                  75P     60
124,0.0,-1.0,0.0,22.42760468,-1.0,0.0,0.0,20.0,0.0,0.0,-1.0,0.0,      77P     61
0,0;                                                                  77P     62
100,0.0,0.0,0.0,2.15,0.0,3.552713679E-015,2.15,0,0;                   79P     63
124,-1.0,0.0,0.0,22.42760468,0.0,1.0,0.0,20.0,0.0,0.0,-1.0,0.0,       81P     64
0,0;                                                                  81P     65
100,0.0,0.0,0.0,2.15,0.0,3.552713679E-015,2.15,0,0;                   83P     66
124,0.0,1.0,0.0,22.42760468,1.0,0.0,0.0,20.0,0.0,0.0,-1.0,0.0,0,      85P     67
0;                                                                    85P     68
100,0.0,0.0,0.0,2.15,0.0,3.552713679E-015,2.15,0,0;                   87P     69
124,1.0,0.0,0.0,22.42760468,0.0,-1.0,0.0,20.0,0.0,0.0,-1.0,0.0,       89P     70
0,0;                                                                  89P     71
100,0.0,0.0,0.0,2.15,0.0,3.552713679E-015,2.15,0,0;                   91P     72
102,4,79,83,87,91,0,0;                                                93P     73
142,0,51,0,93,2,0,0;                                                  95P     74
144,51,1,1,75,95,0,1,1;                                               97P     75
108,-1.0,0.0,0.0,-12.42760468,0,12.42760468,20.0,0.0,1.0,0,0;         99P     76
110,12.42760468,8.600765412,1.5,12.42760468,8.600765412,0.0,0,0;     101P     77
110,12.42760468,8.600765412,0.0,12.42760468,20.0,0.0,0,0;            103P     78
110,12.42760468,20.0,0.0,12.42760468,20.0,1.5,0,0;                   105P     79
110,12.42760468,20.0,1.5,12.42760468,8.600765412,1.5,0,0;            107P     80
102,4,101,103,105,107,0,0;                                           109P     81
142,0,99,0,109,2,0,0;                                                111P     82
144,99,1,0,111,0,1,1;                                                113P     83
110,22.42760468,20.0,0.0,22.42760468,20.0,1.0,0,0;                   115P     84
110,32.42760468,20.0,0.0,32.42760468,20.0,1.5,0,0;                   117P     85
120,115,117,0.0,6.283185307,0,0;                                     119P     86
110,32.42760468,20.0,0.0,32.42760468,20.0,1.5,0,0;                   121P     87
124,1.0,0.0,0.0,22.42760468,0.0,1.0,0.0,20.0,0.0,0.0,1.0,1.5,0,      123P     88
0;                                                                   123P     89
100,0.0,0.0,0.0,10.0,0.0,-10.0,0.0,0,0;                              125P     90
110,12.42760468,20.0,1.5,12.42760468,20.0,0.0,0,0;                   127P     91
124,-1.0,0.0,0.0,22.42760468,0.0,1.0,0.0,20.0,0.0,0.0,-1.0,0.0,      129P     92
0,0;                                                                 129P     93
100,0.0,0.0,0.0,10.0,0.0,-10.0,0.0,0,0;                              131P     94
102,4,121,125,127,131,0,0;                                           133P     95
142,0,119,0,133,2,0,0;                                               135P     96
144,119,1,0,135,0,1,1;                                               137P     97
108,1.0,0.0,0.0,32.42760468,0,32.42760468,0.0,0.0,1.0,0,0;           139P     98
110,32.42760468,6.086311428,1.5,32.42760468,20.0,1.5,0,0;            141P     99
110,32.42760468,20.0,1.5,32.42760468,20.0,0.0,0,0;                   143P    100
110,32.42760468,20.0,0.0,32.42760468,6.086311428,0.0,0,0;            145P    101
110,32.42760468,6.086311428,0.0,32.42760468,6.086311428,1.5,0,0;     147P    102
102,4,141,143,145,147,0,0;                                           149P    103
142,0,139,0,149,2,0,0;                                               151P    104
144,139,1,0,151,0,1,1;                                               153P    105
110,31.92760468,6.086311428,0.0,31.92760468,6.086311428,1.0,0,0;     155P    106
110,31.81342333,5.599523361,0.0,31.81342333,5.599523361,1.5,0,0;     157P    107
120,155,157,0.0,6.283185307,0,0;                                     159P    108
110,32.42760468,6.086311428,1.5,32.42760468,6.086311428,0.0,0,0;     161P    109
124,1.0,0.0,0.0,31.92760468,0.0,-1.0,0.0,6.086311428,0.0,0.0,        163P    110
-1.0,0.0,0,0;                                                        163P    111
100,0.0,0.0,0.0,0.5,0.0,-0.1141813405,0.4867880663,0,0;              165P    112
110,31.81342333,5.599523361,0.0,31.81342333,5.599523361,1.5,0,0;     167P    113
124,-0.2283626809,0.9735761326,0.0,31.92760468,-0.9735761326,        169P    114
-0.2283626809,0.0,6.086311428,0.0,0.0,1.0,1.5,0,0;                   169P    115
100,0.0,0.0,0.0,0.5,0.0,-0.1141813405,0.4867880663,0,0;              171P    116
102,4,161,165,167,171,0,0;                                           173P    117
142,0,159,0,173,2,0,0;                                               175P    118
144,159,1,0,175,0,1,1;                                               177P    119
126,8,5,0,0,1,0,0.8929422985,0.8929422985,0.8929422985,              179P    120
0.8929422985,0.8929422985,0.8929422985,14.41923285,14.41923285,      179P    121
14.41923285,21.51191866,21.51191866,21.51191866,21.51191866,         179P    122
21.51191866,21.51191866,1.0,1.0,1.0,1.0,1.0,1.0,1.0,1.0,1.0,         179P    123
31.81342334,5.599523367,0.0,29.9510769,6.03635667,0.0,               179P    124
28.0766742,6.421359301,0.0,26.19365237,6.758797317,0.0,              179P    125
23.31111545,7.204266384,0.0,20.41514715,7.547021395,0.0,             179P    126
19.41735887,7.652952227,0.0,18.41864147,7.746925922,0.0,             179P    127
17.4189439,7.828953964,0.0,0.8929422985,21.51191866,0.0,0.0,0.0,     179P    128
0,0;                                                                 179P    129
122,179,31.81342334,5.599523367,1.5,0,0;                             181P    130
110,31.81342333,5.599523361,1.5,31.81342333,5.599523361,0.0,0,0;     183P    131
126,4,4,0,0,1,0,1.093624755,1.093624755,1.093624755,1.093624755,     185P    132
1.093624755,26.34659102,26.34659102,26.34659102,26.34659102,         185P    133
26.34659102,1.0,1.0,1.0,1.0,1.0,31.81342334,5.599523367,0.0,         185P    134
28.26480254,6.431890382,0.0,24.67078135,7.064037001,0.0,             185P    135
21.0516871,7.530877005,0.0,17.4189439,7.828953964,0.0,               185P    136
1.093624755,26.34659102,0.0,0.0,0.0,0,0;                             185P    137
110,17.4189439,7.828953964,0.0,17.4189439,7.828953964,1.5,0,0;       187P    138
126,4,4,0,0,1,0,0.0,0.0,0.0,0.0,0.0,25.25296627,25.25296627,         189P    139
25.25296627,25.25296627,25.25296627,1.0,1.0,1.0,1.0,1.0,             189P    140
17.4189439,7.828953964,1.5,21.0516871,7.530877005,1.5,               189P    141
24.67078135,7.064037001,1.5,28.26480254,6.431890382,1.5,             189P    142
31.81342334,5.599523367,1.5,0.0,25.25296627,0.0,0.0,0.0,0,0;         189P    143
102,4,183,185,187,189,0,0;                                           191P    144
142,0,181,0,191,2,0,0;                                               193P    145
144,181,1,0,193,0,1,1;                                               195P    146
126,5,5,0,0,1,0,0.6803059285,0.6803059285,0.6803059285,              197P    147
0.6803059285,0.6803059285,0.6803059285,7.071028148,7.071028148,      197P    148
7.071028148,7.071028148,7.071028148,7.071028148,1.0,1.0,1.0,1.0,     197P    149
1.0,1.0,12.90833983,8.101136699,0.0,13.8114632,8.066313854,0.0,      197P    150
14.71424611,8.021586533,0.0,15.61663326,7.967075269,0.0,             197P    151
16.51818646,7.902863686,0.0,17.4189439,7.828953964,0.0,              197P    152
0.6803059285,7.071028148,0.0,0.0,0.0,0,0;                            197P    153
122,197,12.90833983,8.101136699,1.5,0,0;                             199P    154
126,3,3,0,0,1,0,0.8332020091,0.8332020091,0.8332020091,              201P    155
0.8332020091,8.660140297,8.660140297,8.660140297,8.660140297,        201P    156
1.0,1.0,1.0,1.0,12.90833983,8.101136699,1.5,14.41352728,             201P    157
8.043099324,1.5,15.91769415,7.952135795,1.5,17.4189439,              201P    158
7.828953964,1.5,0.8332020091,8.660140297,0.0,0.0,0.0,0,0;            201P    159
110,17.4189439,7.828953964,1.5,17.4189439,7.828953964,0.0,0,0;       203P    160
126,3,3,0,0,1,0,0.0,0.0,0.0,0.0,7.826938288,7.826938288,             205P    161
7.826938288,7.826938288,1.0,1.0,1.0,1.0,17.4189439,7.828953964,      205P    162
0.0,15.91769415,7.952135795,0.0,14.41352728,8.043099324,0.0,         205P    163
12.90833983,8.101136699,0.0,0.0,7.826938288,0.0,0.0,0.0,0,0;         205P    164
110,12.90833983,8.101136685,0.0,12.90833983,8.101136685,1.5,0,0;     207P    165
102,4,201,203,205,207,0,0;                                           209P    166
142,0,199,0,209,2,0,0;                                               211P    167
144,199,1,0,211,0,1,1;                                               213P    168
110,12.92760468,8.600765412,0.0,12.92760468,8.600765412,1.0,0,0;     215P    169
110,12.42760468,8.600765412,0.0,12.42760468,8.600765412,1.5,0,0;     217P    170
120,215,217,0.0,6.283185307,0,0;                                     219P    171
110,12.90833983,8.101136685,1.5,12.90833983,8.101136685,0.0,0,0;     221P    172
124,-0.03852969008,-0.9992574558,0.0,12.92760468,-0.9992574558,      223P    173
0.03852969008,0.0,8.600765412,0.0,0.0,-1.0,0.0,0,0;                  223P    174
100,0.0,0.0,0.0,0.5,0.0,0.01926484504,0.4996287279,0,0;              225P    175
110,12.42760468,8.600765412,0.0,12.42760468,8.600765412,1.5,0,0;     227P    176
124,-1.0,0.0,0.0,12.92760468,0.0,-1.0,0.0,8.600765412,0.0,0.0,       229P    177
1.0,1.5,0,0;                                                         229P    178
100,0.0,0.0,0.0,0.5,0.0,0.01926484504,0.4996287279,0,0;              231P    179
102,4,221,225,227,231,0,0;                                           233P    180
142,0,219,0,233,2,0,0;                                               235P    181
144,219,1,0,235,0,1,1;                                               237P    182
108,0.0,0.0,1.0,1.5,0,0.0,0.0,1.5,1.0,0,0;                           239P    183
126,4,4,0,0,1,0,0.0,0.0,0.0,0.0,0.0,0.7661285486,0.7661285486,       241P    184
0.7661285486,0.7661285486,0.7661285486,1.0,1.0,1.0,1.0,1.0,          241P    185
12.90833983,8.101136685,1.5,12.71694991,8.108516358,1.5,             241P    186
12.52714217,8.215446489,1.5,12.42760468,8.409233275,1.5,             241P    187
12.42760468,8.600765412,1.5,0.0,0.7661285486,0.0,0.0,0.0,0,0;        241P    188
110,12.42760468,8.600765412,1.5,12.42760468,20.0,1.5,0,0;            243P    189
126,14,5,0,0,1,0,0.0,0.0,0.0,0.0,0.0,0.0,7.853981634,                245P    190
7.853981634,7.853981634,15.70796327,15.70796327,15.70796327,         245P    191
23.5619449,23.5619449,23.5619449,31.41592654,31.41592654,            245P    192
31.41592654,31.41592654,31.41592654,31.41592654,1.0,1.0,1.0,1.0,     245P    193
1.0,1.0,1.0,1.0,1.0,1.0,1.0,1.0,1.0,1.0,1.0,12.42760468,20.0,        245P    194
1.5,12.42760468,21.57079633,1.5,12.73602981,23.14159265,1.5,         245P    195
13.3531849,24.63153684,1.5,15.13844736,27.28915732,1.5,              245P    196
17.79606784,29.07441977,1.5,19.28601202,29.69157486,1.5,             245P    197
22.42760468,30.30842514,1.5,25.56919733,29.69157486,1.5,             245P    198
27.05914151,29.07441977,1.5,29.71676199,27.28915732,1.5,             245P    199
31.50202445,24.63153684,1.5,32.11917954,23.14159265,1.5,             245P    200
32.42760468,21.57079633,1.5,32.42760468,20.0,1.5,0.0,                245P    201
31.41592654,0.0,0.0,0.0,0,0;                                         245P    202
110,32.42760468,20.0,1.5,32.42760468,6.086311428,1.5,0,0;            247P    203
126,4,4,0,0,1,0,0.0,0.0,0.0,0.0,0.0,0.9005959597,0.9005959597,       249P    204
0.9005959597,0.9005959597,0.9005959597,1.0,1.0,1.0,1.0,1.0,          249P    205
32.42760468,6.086311428,1.5,32.42760468,5.861162438,1.5,             249P    206
32.28809269,5.63148308,1.5,32.03262302,5.548107734,1.5,              249P    207
31.81342333,5.599523361,1.5,0.0,0.9005959597,0.0,0.0,0.0,0,0;        249P    208
126,4,4,0,0,1,0,1.093624755,1.093624755,1.093624755,1.093624755,     251P    209
1.093624755,26.34659102,26.34659102,26.34659102,26.34659102,         251P    210
26.34659102,1.0,1.0,1.0,1.0,1.0,31.81342334,5.599523367,1.5,         251P    211
28.26480254,6.431890382,1.5,24.67077935,7.064037248,1.5,             251P    212
21.0516871,7.530877005,1.5,17.4189439,7.828953964,1.5,               251P    213
1.093624755,26.34659102,0.0,0.0,0.0,0,0;                             251P    214
126,3,3,0,0,1,0,0.0,0.0,0.0,0.0,7.826938288,7.826938288,             253P    215
7.826938288,7.826938288,1.0,1.0,1.0,1.0,17.4189439,7.828953964,      253P    216
1.5,15.91769415,7.952135795,1.5,14.41352728,8.043099324,1.5,         253P    217
12.90833983,8.101136699,1.5,0.0,7.826938288,0.0,0.0,0.0,0,0;         253P    218
102,7,241,243,245,247,249,251,253,0,0;                               255P    219
142,0,239,0,255,2,0,0;                                               257P    220
126,5,5,0,0,1,0,10.13163631,10.13163631,10.13163631,10.13163631,     259P    221
10.13163631,10.13163631,13.50884841,13.50884841,13.50884841,         259P    222
13.50884841,13.50884841,13.50884841,1.0,1.0,1.0,1.0,1.0,1.0,         259P    223
22.42760468,17.85,1.5,23.1030471,17.85,1.5,23.77911971,              259P    224
18.11448226,1.5,24.31312242,18.64848497,1.5,24.57760468,             259P    225
19.32455758,1.5,24.57760468,20.0,1.5,10.13163631,13.50884841,        259P    226
0.0,0.0,0.0,0,0;                                                     259P    227
126,5,5,0,0,1,0,3.552713679E-015,3.552713679E-015,                   261P    228
3.552713679E-015,3.552713679E-015,3.552713679E-015,                  261P    229
3.552713679E-015,3.377212103,3.377212103,3.377212103,                261P    230
3.377212103,3.377212103,3.377212103,1.0,1.0,1.0,1.0,1.0,1.0,         261P    231
24.57760468,20.0,1.5,24.57760468,20.67544242,1.5,24.31312242,        261P    232
21.35151503,1.5,23.77911971,21.88551774,1.5,23.1030471,22.15,        261P    233
1.5,22.42760468,22.15,1.5,3.552713679E-015,3.377212103,0.0,0.0,      261P    234
0.0,0,0;                                                             261P    235
126,5,5,0,0,1,0,3.377212103,3.377212103,3.377212103,3.377212103,     263P    236
3.377212103,3.377212103,6.754424205,6.754424205,6.754424205,         263P    237
6.754424205,6.754424205,6.754424205,1.0,1.0,1.0,1.0,1.0,1.0,         263P    238
22.42760468,22.15,1.5,21.75216225,22.15,1.5,21.07608964,             263P    239
21.88551774,1.5,20.54208693,21.35151503,1.5,20.27760468,             263P    240
20.67544242,1.5,20.27760468,20.0,1.5,3.377212103,6.754424205,        263P    241
0.0,0.0,0.0,0,0;                                                     263P    242
126,5,5,0,0,1,0,6.754424205,6.754424205,6.754424205,6.754424205,     265P    243
6.754424205,6.754424205,10.13163631,10.13163631,10.13163631,         265P    244
10.13163631,10.13163631,10.13163631,1.0,1.0,1.0,1.0,1.0,1.0,         265P    245
20.27760468,20.0,1.5,20.27760468,19.32455758,1.5,20.54208693,        265P    246
18.64848497,1.5,21.07608964,18.11448226,1.5,21.75216225,17.85,       265P    247
1.5,22.42760468,17.85,1.5,6.754424205,10.13163631,0.0,0.0,0.0,0,     265P    248
0;                                                                   265P    249
102,4,259,261,263,265,0,0;                                           267P    250
142,0,239,0,267,2,0,0;                                               269P    251
144,239,1,1,257,269,0,1,1;                                           271P    252
110,22.42760468,20.0,1.5,22.42760468,20.0,2.5,0,0;                   273P    253
110,22.42760468,17.85,0.0,22.42760468,17.85,1.5,0,0;                 275P    254
120,273,275,0.0,6.283185307,0,0;                                     277P    255
110,22.42760468,17.85,1.5,22.42760468,17.85,0.0,0,0;                 279P    256
124,1.652424967E-015,1.0,0.0,22.42760468,-1.0,1.652424967E-015,      281P    257
0.0,20.0,0.0,0.0,1.0,0.0,0,0;                                        281P    258
100,0.0,0.0,0.0,2.15,0.0,3.552713679E-015,2.15,0,0;                  283P    259
110,24.57760468,20.0,0.0,24.57760468,20.0,1.5,0,0;                   285P    260
124,1.0,0.0,0.0,22.42760468,0.0,-1.0,0.0,20.0,0.0,0.0,-1.0,1.5,      287P    261
0,0;                                                                 287P    262
100,0.0,0.0,0.0,2.15,0.0,3.552713679E-015,2.15,0,0;                  289P    263
102,4,279,283,285,289,0,0;                                           291P    264
142,0,277,0,291,2,0,0;                                               293P    265
144,277,1,0,293,0,1,1;                                               295P    266
110,22.42760468,20.0,1.5,22.42760468,20.0,2.5,0,0;                   297P    267
110,20.27760468,20.0,0.0,20.27760468,20.0,1.5,0,0;                   299P    268
120,297,299,0.0,6.283185307,0,0;                                     301P    269
124,0.0,-1.0,0.0,22.42760468,-1.0,0.0,0.0,20.0,0.0,0.0,-1.0,1.5,     303P    270
0,0;                                                                 303P    271
100,0.0,0.0,0.0,2.15,0.0,3.552713679E-015,2.15,0,0;                  305P    272
110,20.27760468,20.0,1.5,20.27760468,20.0,0.0,0,0;                   307P    273
124,-1.0,1.652424967E-015,0.0,22.42760468,-1.652424967E-015,         309P    274
-1.0,0.0,20.0,0.0,0.0,1.0,0.0,0,0;                                   309P    275
100,0.0,0.0,0.0,2.15,0.0,3.552713679E-015,2.15,0,0;                  311P    276
110,22.42760468,17.85,0.0,22.42760468,17.85,1.5,0,0;                 313P    277
102,4,305,307,311,313,0,0;                                           315P    278
142,0,301,0,315,2,0,0;                                               317P    279
144,301,1,0,317,0,1,1;                                               319P    280
S      1G      4D    320P    280                                        T      1
