START RECORD GO HERE.                                                   S      1
1H,,1H;,20HCNEXT - IGES PRODUCT,34H20_M_EN_1200_018 (Chape frame).igs,  G      1
44HIBM CATIA IGES - CATIA Version 5 Release 19 ,27HCATIA Version 5 ReleaG      2
se 19 ,32,75,6,75,15,11HEN_1200_018,1.0,2,2HMM,1000,1.0,15H20200123.1001G      3
02,0.001,10000.0,8HCalixthe,14HMACHINEDECALOU,11,0,15H20200123.100102,; G      4
     314       1       0       0       0       0       0       000000201D      1
     314       0       0       1       0                               0D      2
     406       2       0       0       0       0       0       000010201D      3
     406       0       0       1      15                               0D      4
     110       3       0       0       0       0       0       001010001D      5
     110       0       0       1       0                               0D      6
     110       4       0       0       0       0       0       001010001D      7
     110       0       0       2       0                               0D      8
     120       6       0       0       0       0       0       001010001D      9
     120       0      -1       1       0                               0D     10
     124       7       0       0       0       0       0       001020201D     11
     124       0       0       2       0                               0D     12
     100       9       0       0       0       0      11       001010001D     13
     100       0       0       1       0                               0D     14
     110      10       0       0       0       0       0       001010001D     15
     110       0       0       2       0                               0D     16
     124      12       0       0       0       0       0       001020201D     17
     124       0       0       2       0                               0D     18
     100      14       0       0       0       0      17       001010001D     19
     100       0       0       1       0                               0D     20
     110      15       0       0       0       0       0       001010001D     21
     110       0       0       2       0                               0D     22
     102      17       0       0       0       0       0       001010001D     23
     102       0       0       1       0                               0D     24
     142      18       0       0       0       0       0       001010001D     25
     142       0       0       1       0                               0D     26
     144      19       0       0   10000       0       0       000000000D     27
     144       0      -1       1       0                               0D     28
     110      20       0       0       0       0       0       001010001D     29
     110       0       0       1       0                               0D     30
     110      21       0       0       0       0       0       001010001D     31
     110       0       0       1       0                               0D     32
     120      22       0       0       0       0       0       001010001D     33
     120       0      -1       1       0                               0D     34
     110      23       0       0       0       0       0       001010001D     35
     110       0       0       1       0                               0D     36
     124      24       0       0       0       0       0       001020201D     37
     124       0       0       2       0                               0D     38
     100      26       0       0       0       0      37       001010001D     39
     100       0       0       1       0                               0D     40
     110      27       0       0       0       0       0       001010001D     41
     110       0       0       1       0                               0D     42
     124      28       0       0       0       0       0       001020201D     43
     124       0       0       1       0                               0D     44
     100      29       0       0       0       0      43       001010001D     45
     100       0       0       1       0                               0D     46
     102      30       0       0       0       0       0       001010001D     47
     102       0       0       1       0                               0D     48
     142      31       0       0       0       0       0       001010001D     49
     142       0       0       1       0                               0D     50
     144      32       0       0   10000       0       0       000000000D     51
     144       0      -1       1       0                               0D     52
     110      33       0       0       0       0       0       001010001D     53
     110       0       0       1       0                               0D     54
     110      34       0       0       0       0       0       001010001D     55
     110       0       0       1       0                               0D     56
     120      35       0       0       0       0       0       001010001D     57
     120       0      -1       1       0                               0D     58
     110      36       0       0       0       0       0       001010001D     59
     110       0       0       1       0                               0D     60
     124      37       0       0       0       0       0       001020201D     61
     124       0       0       1       0                               0D     62
     100      38       0       0       0       0      61       001010001D     63
     100       0       0       1       0                               0D     64
     110      39       0       0       0       0       0       001010001D     65
     110       0       0       1       0                               0D     66
     124      40       0       0       0       0       0       001020201D     67
     124       0       0       2       0                               0D     68
     100      42       0       0       0       0      67       001010001D     69
     100       0       0       1       0                               0D     70
     102      43       0       0       0       0       0       001010001D     71
     102       0       0       1       0                               0D     72
     142      44       0       0       0       0       0       001010001D     73
     142       0       0       1       0                               0D     74
     144      45       0       0   10000       0       0       000000000D     75
     144       0      -1       1       0                               0D     76
     108      46       0       0       0       0       0       001010001D     77
     108       0      -1       2       0                               0D     78
     110      48       0       0       0       0       0       001010001D     79
     110       0       0       2       0                               0D     80
     110      50       0       0       0       0       0       001010001D     81
     110       0       0       2       0                               0D     82
     110      52       0       0       0       0       0       001010001D     83
     110       0       0       2       0                               0D     84
     110      54       0       0       0       0       0       001010001D     85
     110       0       0       2       0                               0D     86
     102      56       0       0       0       0       0       001010001D     87
     102       0       0       1       0                               0D     88
     142      57       0       0       0       0       0       001010001D     89
     142       0       0       1       0                               0D     90
     144      58       0       0   10000       0       0       000000000D     91
     144       0      -1       1       0                               0D     92
     110      59       0       0       0       0       0       001010001D     93
     110       0       0       1       0                               0D     94
     110      60       0       0       0       0       0       001010001D     95
     110       0       0       2       0                               0D     96
     120      62       0       0       0       0       0       001010001D     97
     120       0      -1       1       0                               0D     98
     110      63       0       0       0       0       0       001010001D     99
     110       0       0       1       0                               0D    100
     124      64       0       0       0       0       0       001020201D    101
     124       0       0       2       0                               0D    102
     100      66       0       0       0       0     101       001010001D    103
     100       0       0       1       0                               0D    104
     110      67       0       0       0       0       0       001010001D    105
     110       0       0       2       0                               0D    106
     124      69       0       0       0       0       0       001020201D    107
     124       0       0       2       0                               0D    108
     100      71       0       0       0       0     107       001010001D    109
     100       0       0       1       0                               0D    110
     102      72       0       0       0       0       0       001010001D    111
     102       0       0       1       0                               0D    112
     142      73       0       0       0       0       0       001010001D    113
     142       0       0       1       0                               0D    114
     144      74       0       0   10000       0       0       000000000D    115
     144       0      -1       1       0                               0D    116
     108      75       0       0       0       0       0       001010001D    117
     108       0      -1       1       0                               0D    118
     110      76       0       0       0       0       0       001010001D    119
     110       0       0       2       0                               0D    120
     110      78       0       0       0       0       0       001010001D    121
     110       0       0       2       0                               0D    122
     110      80       0       0       0       0       0       001010001D    123
     110       0       0       2       0                               0D    124
     110      82       0       0       0       0       0       001010001D    125
     110       0       0       2       0                               0D    126
     102      84       0       0       0       0       0       001010001D    127
     102       0       0       1       0                               0D    128
     142      85       0       0       0       0       0       001010001D    129
     142       0       0       1       0                               0D    130
     144      86       0       0   10000       0       0       000000000D    131
     144       0      -1       1       0                               0D    132
     108      87       0       0       0       0       0       001010001D    133
     108       0      -1       1       0                               0D    134
     110      88       0       0       0       0       0       001010001D    135
     110       0       0       1       0                               0D    136
     110      89       0       0       0       0       0       001010001D    137
     110       0       0       1       0                               0D    138
     110      90       0       0       0       0       0       001010001D    139
     110       0       0       1       0                               0D    140
     110      91       0       0       0       0       0       001010001D    141
     110       0       0       1       0                               0D    142
     102      92       0       0       0       0       0       001010001D    143
     102       0       0       1       0                               0D    144
     142      93       0       0       0       0       0       001010001D    145
     142       0       0       1       0                               0D    146
     144      94       0       0   10000       0       0       000000000D    147
     144       0      -1       1       0                               0D    148
     108      95       0       0       0       0       0       001010001D    149
     108       0      -1       1       0                               0D    150
     110      96       0       0       0       0       0       001010001D    151
     110       0       0       2       0                               0D    152
     124      98       0       0       0       0       0       001020201D    153
     124       0       0       2       0                               0D    154
     100     100       0       0       0       0     153       001010001D    155
     100       0       0       1       0                               0D    156
     110     101       0       0       0       0       0       001010001D    157
     110       0       0       2       0                               0D    158
     124     103       0       0       0       0       0       001020201D    159
     124       0       0       2       0                               0D    160
     100     105       0       0       0       0     159       001010001D    161
     100       0       0       1       0                               0D    162
     110     106       0       0       0       0       0       001010001D    163
     110       0       0       1       0                               0D    164
     124     107       0       0       0       0       0       001020201D    165
     124       0       0       2       0                               0D    166
     100     109       0       0       0       0     165       001010001D    167
     100       0       0       1       0                               0D    168
     102     110       0       0       0       0       0       001010001D    169
     102       0       0       1       0                               0D    170
     142     111       0       0       0       0       0       001010001D    171
     142       0       0       1       0                               0D    172
     124     112       0       0       0       0       0       001020201D    173
     124       0       0       1       0                               0D    174
     100     113       0       0       0       0     173       001010001D    175
     100       0       0       1       0                               0D    176
     124     114       0       0       0       0       0       001020201D    177
     124       0       0       2       0                               0D    178
     100     116       0       0       0       0     177       001010001D    179
     100       0       0       1       0                               0D    180
     102     117       0       0       0       0       0       001010001D    181
     102       0       0       1       0                               0D    182
     142     118       0       0       0       0       0       001010001D    183
     142       0       0       1       0                               0D    184
     144     119       0       0   10000       0       0       000000000D    185
     144       0      -1       1       0                               0D    186
     108     120       0       0       0       0       0       001010001D    187
     108       0      -1       1       0                               0D    188
     124     121       0       0       0       0       0       001020201D    189
     124       0       0       2       0                               0D    190
     100     123       0       0       0       0     189       001010001D    191
     100       0       0       1       0                               0D    192
     110     124       0       0       0       0       0       001010001D    193
     110       0       0       1       0                               0D    194
     124     125       0       0       0       0       0       001020201D    195
     124       0       0       2       0                               0D    196
     100     127       0       0       0       0     195       001010001D    197
     100       0       0       1       0                               0D    198
     110     128       0       0       0       0       0       001010001D    199
     110       0       0       2       0                               0D    200
     124     130       0       0       0       0       0       001020201D    201
     124       0       0       2       0                               0D    202
     100     132       0       0       0       0     201       001010001D    203
     100       0       0       1       0                               0D    204
     110     133       0       0       0       0       0       001010001D    205
     110       0       0       2       0                               0D    206
     102     135       0       0       0       0       0       001010001D    207
     102       0       0       1       0                               0D    208
     142     136       0       0       0       0       0       001010001D    209
     142       0       0       1       0                               0D    210
     124     137       0       0       0       0       0       001020201D    211
     124       0       0       1       0                               0D    212
     100     138       0       0       0       0     211       001010001D    213
     100       0       0       1       0                               0D    214
     124     139       0       0       0       0       0       001020201D    215
     124       0       0       2       0                               0D    216
     100     141       0       0       0       0     215       001010001D    217
     100       0       0       1       0                               0D    218
     102     142       0       0       0       0       0       001010001D    219
     102       0       0       1       0                               0D    220
     142     143       0       0       0       0       0       001010001D    221
     142       0       0       1       0                               0D    222
     144     144       0       0   10000       0       0       000000000D    223
     144       0      -1       1       0                               0D    224
     110     145       0       0       0       0       0       001010001D    225
     110       0       0       1       0                               0D    226
     110     146       0       0       0       0       0       001010001D    227
     110       0       0       1       0                               0D    228
     120     147       0       0       0       0       0       001010001D    229
     120       0      -1       1       0                               0D    230
     110     148       0       0       0       0       0       001010001D    231
     110       0       0       2       0                               0D    232
     124     150       0       0       0       0       0       001020201D    233
     124       0       0       2       0                               0D    234
     100     152       0       0       0       0     233       001010001D    235
     100       0       0       1       0                               0D    236
     110     153       0       0       0       0       0       001010001D    237
     110       0       0       1       0                               0D    238
     124     154       0       0       0       0       0       001020201D    239
     124       0       0       2       0                               0D    240
     100     156       0       0       0       0     239       001010001D    241
     100       0       0       1       0                               0D    242
     102     157       0       0       0       0       0       001010001D    243
     102       0       0       1       0                               0D    244
     142     158       0       0       0       0       0       001010001D    245
     142       0       0       1       0                               0D    246
     144     159       0       0   10000       0       0       000000000D    247
     144       0      -1       1       0                               0D    248
     110     160       0       0   10000       0       0       000000001D    249
     110       0       0       2       0                Courbe.7       0D    250
314,37.25490196,37.25490196,37.25490196,5HColor,0,0;                   1P      1
406,1,15HCorps principal,0,0;                                          3P      2
110,0.0,0.0,0.5,0.0,0.0,1.5,0,0;                                       5P      3
110,4.997968708,0.1425089214,-1.0,4.997968708,0.1425089214,2.0,        7P      4
0,0;                                                                   7P      5
120,5,7,0.0,6.283185307,0,0;                                           9P      6
124,0.9995937416,-0.02850178428,0.0,0.0,0.02850178428,                11P      7
0.9995937416,0.0,0.0,0.0,0.0,1.0,2.0,0,0;                             11P      8
100,0.0,0.0,0.0,5.0,0.0,-4.991876483,0.2849020519,0,0;                13P      9
110,-4.997968708,0.1425089214,2.0,-4.997968708,0.1425089214,          15P     10
-1.0,0,0;                                                             15P     11
124,-0.9995937416,0.02850178428,0.0,0.0,0.02850178428,                17P     12
0.9995937416,0.0,0.0,0.0,0.0,-1.0,-1.0,0,0;                           17P     13
100,0.0,0.0,0.0,5.0,0.0,-4.991876483,0.2849020519,0,0;                19P     14
110,4.997968708,0.1425089214,-1.0,4.997968708,0.1425089214,2.0,       21P     15
0,0;                                                                  21P     16
102,4,13,15,19,21,0,0;                                                23P     17
142,0,9,0,23,2,0,0;                                                   25P     18
144,9,1,0,25,0,1,3;                                                   27P     19
110,0.0,0.0,0.5,0.0,0.0,1.5,0,0;                                      29P     20
110,-2.15,2.632903661E-016,-1.0,-2.15,2.632903661E-016,2.0,0,0;       31P     21
120,29,31,0.0,6.283185307,0,0;                                        33P     22
110,-2.15,2.632903661E-016,2.0,-2.15,2.632903661E-016,-1.0,0,0;       35P     23
124,-1.0,-1.224606354E-016,0.0,0.0,1.224606354E-016,-1.0,0.0,         37P     24
0.0,0.0,0.0,1.0,-1.0,0,0;                                             37P     25
100,0.0,0.0,0.0,2.15,0.0,-2.15,-2.632903661E-016,0,0;                 39P     26
110,2.15,0.0,-1.0,2.15,0.0,2.0,0,0;                                   41P     27
124,1.0,0.0,0.0,0.0,0.0,-1.0,0.0,0.0,0.0,0.0,-1.0,2.0,0,0;            43P     28
100,0.0,0.0,0.0,2.15,0.0,-2.15,-2.632903661E-016,0,0;                 45P     29
102,4,35,39,41,45,0,0;                                                47P     30
142,0,33,0,47,2,0,0;                                                  49P     31
144,33,1,0,49,0,1,3;                                                  51P     32
110,0.0,0.0,0.5,0.0,0.0,1.5,0,0;                                      53P     33
110,2.15,0.0,-1.0,2.15,0.0,2.0,0,0;                                   55P     34
120,53,55,0.0,6.283185307,0,0;                                        57P     35
110,2.15,0.0,2.0,2.15,0.0,-1.0,0,0;                                   59P     36
124,1.0,0.0,0.0,0.0,0.0,1.0,0.0,0.0,0.0,0.0,1.0,-1.0,0,0;             61P     37
100,0.0,0.0,0.0,2.15,0.0,-2.15,2.632903661E-016,0,0;                  63P     38
110,-2.15,2.632903661E-016,-1.0,-2.15,2.632903661E-016,2.0,0,0;       65P     39
124,-1.0,1.224606354E-016,0.0,0.0,1.224606354E-016,1.0,0.0,0.0,       67P     40
0.0,0.0,-1.0,2.0,0,0;                                                 67P     41
100,0.0,0.0,0.0,2.15,0.0,-2.15,2.632903661E-016,0,0;                  69P     42
102,4,59,63,65,69,0,0;                                                71P     43
142,0,57,0,71,2,0,0;                                                  73P     44
144,57,1,0,73,0,1,3;                                                  75P     45
108,0.9995937416,-0.02850178428,0.0,-5.0,0,-6.0,-35.0,0.0,1.0,0,      77P     46
0;                                                                    77P     47
110,-5.97067395,-33.97149822,-1.0,-4.997968708,0.1425089214,          79P     48
-1.0,0,0;                                                             79P     49
110,-4.997968708,0.1425089214,-1.0,-4.997968708,0.1425089214,         81P     50
2.0,0,0;                                                              81P     51
110,-4.997968708,0.1425089214,2.0,-5.97067395,-33.97149822,2.0,       83P     52
0,0;                                                                  83P     53
110,-5.97067395,-33.97149822,2.0,-5.97067395,-33.97149822,-1.0,       85P     54
0,0;                                                                  85P     55
102,4,79,81,83,85,0,0;                                                87P     56
142,0,77,0,87,2,0,0;                                                  89P     57
144,77,1,0,89,0,1,3;                                                  91P     58
110,-4.971080208,-34.0,0.5,-4.971080208,-34.0,1.5,0,0;                93P     59
110,-5.97067395,-33.97149822,-1.0,-5.97067395,-33.97149822,2.0,       95P     60
0,0;                                                                  95P     61
120,93,95,0.0,6.283185307,0,0;                                        97P     62
110,-4.971080208,-35.0,2.0,-4.971080208,-35.0,-1.0,0,0;               99P     63
124,0.0,-1.0,0.0,-4.971080208,-1.0,0.0,0.0,-34.0,0.0,0.0,-1.0,       101P     64
-1.0,0,0;                                                            101P     65
100,0.0,0.0,0.0,1.0,0.0,-0.02850178428,0.9995937416,0,0;             103P     66
110,-5.97067395,-33.97149822,-1.0,-5.97067395,-33.97149822,2.0,      105P     67
0,0;                                                                 105P     68
124,-0.9995937416,-0.02850178428,0.0,-4.971080208,0.02850178428,     107P     69
-0.9995937416,0.0,-34.0,0.0,0.0,1.0,2.0,0,0;                         107P     70
100,0.0,0.0,0.0,1.0,0.0,-0.02850178428,0.9995937416,0,0;             109P     71
102,4,99,103,105,109,0,0;                                            111P     72
142,0,97,0,111,2,0,0;                                                113P     73
144,97,1,0,113,0,1,3;                                                115P     74
108,0.9995937416,0.02850178428,0.0,5.0,0,6.0,-35.0,0.0,1.0,0,0;      117P     75
110,5.97067395,-33.97149822,-1.0,5.97067395,-33.97149822,2.0,0,      119P     76
0;                                                                   119P     77
110,5.97067395,-33.97149822,2.0,4.997968708,0.1425089214,2.0,0,      121P     78
0;                                                                   121P     79
110,4.997968708,0.1425089214,2.0,4.997968708,0.1425089214,-1.0,      123P     80
0,0;                                                                 123P     81
110,4.997968708,0.1425089214,-1.0,5.97067395,-33.97149822,-1.0,      125P     82
0,0;                                                                 125P     83
102,4,119,121,123,125,0,0;                                           127P     84
142,0,117,0,127,2,0,0;                                               129P     85
144,117,1,0,129,0,1,3;                                               131P     86
108,0.0,-1.0,0.0,35.0,0,-6.0,-35.0,0.0,1.0,0,0;                      133P     87
110,4.971080208,-35.0,2.0,4.971080208,-35.0,-1.0,0,0;                135P     88
110,4.971080208,-35.0,-1.0,-4.971080208,-35.0,-1.0,0,0;              137P     89
110,-4.971080208,-35.0,-1.0,-4.971080208,-35.0,2.0,0,0;              139P     90
110,-4.971080208,-35.0,2.0,4.971080208,-35.0,2.0,0,0;                141P     91
102,4,135,137,139,141,0,0;                                           143P     92
142,0,133,0,143,2,0,0;                                               145P     93
144,133,1,0,145,0,1,3;                                               147P     94
108,0.0,0.0,1.0,-1.0,0,0.0,0.0,-1.0,1.0,0,0;                         149P     95
110,5.97067395,-33.97149822,-1.0,4.997968708,0.1425089214,-1.0,      151P     96
0,0;                                                                 151P     97
124,0.9995937416,-0.02850178428,0.0,0.0,0.02850178428,               153P     98
0.9995937416,0.0,0.0,0.0,0.0,1.0,-1.0,0,0;                           153P     99
100,0.0,0.0,0.0,5.0,0.0,-4.991876483,0.2849020519,0,0;               155P    100
110,-4.997968708,0.1425089214,-1.0,-5.97067395,-33.97149822,         157P    101
-1.0,0,0;                                                            157P    102
124,-0.9995937416,-0.02850178428,0.0,-4.971080208,0.02850178428,     159P    103
-0.9995937416,0.0,-34.0,0.0,0.0,1.0,-1.0,0,0;                        159P    104
100,0.0,0.0,0.0,1.0,0.0,-0.02850178428,0.9995937416,0,0;             161P    105
110,-4.971080208,-35.0,-1.0,4.971080208,-35.0,-1.0,0,0;              163P    106
124,0.0,1.0,0.0,4.971080208,-1.0,0.0,0.0,-34.0,0.0,0.0,1.0,-1.0,     165P    107
0,0;                                                                 165P    108
100,0.0,0.0,0.0,1.0,0.0,-0.02850178428,0.9995937416,0,0;             167P    109
102,6,151,155,157,161,163,167,0,0;                                   169P    110
142,0,149,0,169,2,0,0;                                               171P    111
124,1.0,0.0,0.0,0.0,0.0,-1.0,0.0,0.0,0.0,0.0,-1.0,-1.0,0,0;          173P    112
100,0.0,0.0,0.0,2.15,0.0,-2.15,-2.632903661E-016,0,0;                175P    113
124,-1.0,1.224606354E-016,0.0,0.0,1.224606354E-016,1.0,0.0,0.0,      177P    114
0.0,0.0,-1.0,-1.0,0,0;                                               177P    115
100,0.0,0.0,0.0,2.15,0.0,-2.15,2.632903661E-016,0,0;                 179P    116
102,2,175,179,0,0;                                                   181P    117
142,0,149,0,181,2,0,0;                                               183P    118
144,149,1,1,171,183,0,1,3;                                           185P    119
108,0.0,0.0,1.0,2.0,0,0.0,0.0,2.0,1.0,0,0;                           187P    120
124,0.9995937416,0.02850178428,0.0,4.971080208,0.02850178428,        189P    121
-0.9995937416,0.0,-34.0,0.0,0.0,-1.0,2.0,0,0;                        189P    122
100,0.0,0.0,0.0,1.0,0.0,-0.02850178428,0.9995937416,0,0;             191P    123
110,4.971080208,-35.0,2.0,-4.971080208,-35.0,2.0,0,0;                193P    124
124,0.0,-1.0,0.0,-4.971080208,-1.0,0.0,0.0,-34.0,0.0,0.0,-1.0,       195P    125
2.0,0,0;                                                             195P    126
100,0.0,0.0,0.0,1.0,0.0,-0.02850178428,0.9995937416,0,0;             197P    127
110,-5.97067395,-33.97149822,2.0,-4.997968708,0.1425089214,2.0,      199P    128
0,0;                                                                 199P    129
124,-0.9995937416,0.02850178428,0.0,0.0,0.02850178428,               201P    130
0.9995937416,0.0,0.0,0.0,0.0,-1.0,2.0,0,0;                           201P    131
100,0.0,0.0,0.0,5.0,0.0,-4.991876483,0.2849020519,0,0;               203P    132
110,4.997968708,0.1425089214,2.0,5.97067395,-33.97149822,2.0,0,      205P    133
0;                                                                   205P    134
102,6,191,193,197,199,203,205,0,0;                                   207P    135
142,0,187,0,207,2,0,0;                                               209P    136
124,1.0,0.0,0.0,0.0,0.0,1.0,0.0,0.0,0.0,0.0,1.0,2.0,0,0;             211P    137
100,0.0,0.0,0.0,2.15,0.0,-2.15,2.632903661E-016,0,0;                 213P    138
124,-1.0,-1.224606354E-016,0.0,0.0,1.224606354E-016,-1.0,0.0,        215P    139
0.0,0.0,0.0,1.0,2.0,0,0;                                             215P    140
100,0.0,0.0,0.0,2.15,0.0,-2.15,-2.632903661E-016,0,0;                217P    141
102,2,213,217,0,0;                                                   219P    142
142,0,187,0,219,2,0,0;                                               221P    143
144,187,1,1,209,221,0,1,3;                                           223P    144
110,4.971080208,-34.0,0.5,4.971080208,-34.0,1.5,0,0;                 225P    145
110,4.971080208,-35.0,-1.0,4.971080208,-35.0,2.0,0,0;                227P    146
120,225,227,0.0,6.283185307,0,0;                                     229P    147
110,5.97067395,-33.97149822,2.0,5.97067395,-33.97149822,-1.0,0,      231P    148
0;                                                                   231P    149
124,0.9995937416,0.02850178428,0.0,4.971080208,0.02850178428,        233P    150
-0.9995937416,0.0,-34.0,0.0,0.0,-1.0,-1.0,0,0;                       233P    151
100,0.0,0.0,0.0,1.0,0.0,-0.02850178428,0.9995937416,0,0;             235P    152
110,4.971080208,-35.0,-1.0,4.971080208,-35.0,2.0,0,0;                237P    153
124,0.0,1.0,0.0,4.971080208,-1.0,0.0,0.0,-34.0,0.0,0.0,1.0,2.0,      239P    154
0,0;                                                                 239P    155
100,0.0,0.0,0.0,1.0,0.0,-0.02850178428,0.9995937416,0,0;             241P    156
102,4,231,235,237,241,0,0;                                           243P    157
142,0,229,0,243,2,0,0;                                               245P    158
144,229,1,0,245,0,1,3;                                               247P    159
110,88.65453775,-21.43059223,8.986454632,-497.9054622,               249P    160
-21.43059223,8.986454632,0,0;                                        249P    161
S      1G      4D    250P    161                                        T      1
