START RECORD GO HERE.                                                   S      1
1H,,1H;,20HCNEXT - IGES PRODUCT,40HEN_17101 (Chape Admission Optimus 1).G      1
igs,44HIBM CATIA IGES - CATIA Version 5 Release 19 ,27HCATIA Version 5 RG      2
elease 19 ,32,75,6,75,15,36HEN_17101 (Chape Admission Optimus 1),1.0,2, G      3
2HMM,1000,1.0,15H20200123.232744,0.001,10000.0,15HAimery SAULIERE,9HMRY-G      4
987EC,11,0,15H20200123.232744,;                                         G      5
     406       1       0       0       0       0       0       000010201D      1
     406       0       0       1      15                               0D      2
     110       2       0       0   10000       0       0       000000001D      3
     110       0       0       2       0                               0D      4
     406       4       0       0       0       0       0       000010201D      5
     406       0       0       1      15                               0D      6
     110       5       0       0       0       0       0       001010001D      7
     110       0       0       1       0                               0D      8
     110       6       0       0       0       0       0       001010001D      9
     110       0       0       1       0                               0D     10
     120       7       0       0       0       0       0       001010001D     11
     120       0       0       1       0                               0D     12
     124       8       0       0       0       0       0       001020201D     13
     124       0       0       2       0                               0D     14
     100      10       0       0       0       0      13       001010001D     15
     100       0       0       1       0                               0D     16
     110      11       0       0       0       0       0       001010001D     17
     110       0       0       1       0                               0D     18
     124      12       0       0       0       0       0       001020201D     19
     124       0       0       2       0                               0D     20
     100      14       0       0       0       0      19       001010001D     21
     100       0       0       1       0                               0D     22
     110      15       0       0       0       0       0       001010001D     23
     110       0       0       1       0                               0D     24
     102      16       0       0       0       0       0       001010001D     25
     102       0       0       1       0                               0D     26
     142      17       0       0       0       0       0       001010001D     27
     142       0       0       1       0                               0D     28
     144      18       0       0   10000       0       0       000000000D     29
     144       0       0       1       0                               0D     30
     110      19       0       0       0       0       0       001010001D     31
     110       0       0       1       0                               0D     32
     110      20       0       0       0       0       0       001010001D     33
     110       0       0       1       0                               0D     34
     120      21       0       0       0       0       0       001010001D     35
     120       0       0       1       0                               0D     36
     110      22       0       0       0       0       0       001010001D     37
     110       0       0       1       0                               0D     38
     124      23       0       0       0       0       0       001020201D     39
     124       0       0       2       0                               0D     40
     100      25       0       0       0       0      39       001010001D     41
     100       0       0       1       0                               0D     42
     110      26       0       0       0       0       0       001010001D     43
     110       0       0       1       0                               0D     44
     124      27       0       0       0       0       0       001020201D     45
     124       0       0       1       0                               0D     46
     100      28       0       0       0       0      45       001010001D     47
     100       0       0       1       0                               0D     48
     102      29       0       0       0       0       0       001010001D     49
     102       0       0       1       0                               0D     50
     142      30       0       0       0       0       0       001010001D     51
     142       0       0       1       0                               0D     52
     144      31       0       0   10000       0       0       000000000D     53
     144       0       0       1       0                               0D     54
     110      32       0       0       0       0       0       001010001D     55
     110       0       0       1       0                               0D     56
     110      33       0       0       0       0       0       001010001D     57
     110       0       0       1       0                               0D     58
     120      34       0       0       0       0       0       001010001D     59
     120       0       0       1       0                               0D     60
     110      35       0       0       0       0       0       001010001D     61
     110       0       0       1       0                               0D     62
     124      36       0       0       0       0       0       001020201D     63
     124       0       0       1       0                               0D     64
     100      37       0       0       0       0      63       001010001D     65
     100       0       0       1       0                               0D     66
     110      38       0       0       0       0       0       001010001D     67
     110       0       0       1       0                               0D     68
     124      39       0       0       0       0       0       001020201D     69
     124       0       0       2       0                               0D     70
     100      41       0       0       0       0      69       001010001D     71
     100       0       0       1       0                               0D     72
     102      42       0       0       0       0       0       001010001D     73
     102       0       0       1       0                               0D     74
     142      43       0       0       0       0       0       001010001D     75
     142       0       0       1       0                               0D     76
     144      44       0       0   10000       0       0       000000000D     77
     144       0       0       1       0                               0D     78
     108      45       0       0       0       0       0       001010001D     79
     108       0       0       1       0                               0D     80
     126      46       0       0       0       0       0       001010001D     81
     126       0       0      12       0                               0D     82
     126      58       0       0       0       0       0       001010001D     83
     126       0       0       6       0                               0D     84
     110      64       0       0       0       0       0       001010001D     85
     110       0       0       1       0                               0D     86
     124      65       0       0       0       0       0       001020201D     87
     124       0       0       2       0                               0D     88
     100      67       0       0       0       0      87       001010001D     89
     100       0       0       1       0                               0D     90
     110      68       0       0       0       0       0       001010001D     91
     110       0       0       2       0                               0D     92
     102      70       0       0       0       0       0       001010001D     93
     102       0       0       1       0                               0D     94
     142      71       0       0       0       0       0       001010001D     95
     142       0       0       1       0                               0D     96
     124      72       0       0       0       0       0       001020201D     97
     124       0       0       1       0                               0D     98
     100      73       0       0       0       0      97       001010001D     99
     100       0       0       1       0                               0D    100
     124      74       0       0       0       0       0       001020201D    101
     124       0       0       2       0                               0D    102
     100      76       0       0       0       0     101       001010001D    103
     100       0       0       1       0                               0D    104
     102      77       0       0       0       0       0       001010001D    105
     102       0       0       1       0                               0D    106
     142      78       0       0       0       0       0       001010001D    107
     142       0       0       1       0                               0D    108
     144      79       0       0   10000       0       0       000000000D    109
     144       0       0       1       0                               0D    110
     108      80       0       0       0       0       0       001010001D    111
     108       0       0       1       0                               0D    112
     110      81       0       0       0       0       0       001010001D    113
     110       0       0       2       0                               0D    114
     124      83       0       0       0       0       0       001020201D    115
     124       0       0       2       0                               0D    116
     100      85       0       0       0       0     115       001010001D    117
     100       0       0       1       0                               0D    118
     110      86       0       0       0       0       0       001010001D    119
     110       0       0       1       0                               0D    120
     126      87       0       0       0       0       0       001010001D    121
     126       0       0       7       0                               0D    122
     126      94       0       0       0       0       0       001010001D    123
     126       0       0      11       0                               0D    124
     102     105       0       0       0       0       0       001010001D    125
     102       0       0       1       0                               0D    126
     142     106       0       0       0       0       0       001010001D    127
     142       0       0       1       0                               0D    128
     124     107       0       0       0       0       0       001020201D    129
     124       0       0       1       0                               0D    130
     100     108       0       0       0       0     129       001010001D    131
     100       0       0       1       0                               0D    132
     124     109       0       0       0       0       0       001020201D    133
     124       0       0       2       0                               0D    134
     100     111       0       0       0       0     133       001010001D    135
     100       0       0       1       0                               0D    136
     102     112       0       0       0       0       0       001010001D    137
     102       0       0       1       0                               0D    138
     142     113       0       0       0       0       0       001010001D    139
     142       0       0       1       0                               0D    140
     144     114       0       0   10000       0       0       000000000D    141
     144       0       0       1       0                               0D    142
     108     115       0       0       0       0       0       001010001D    143
     108       0       0       2       0                               0D    144
     110     117       0       0       0       0       0       001010001D    145
     110       0       0       2       0                               0D    146
     110     119       0       0       0       0       0       001010001D    147
     110       0       0       1       0                               0D    148
     110     120       0       0       0       0       0       001010001D    149
     110       0       0       2       0                               0D    150
     126     122       0       0       0       0       0       001010001D    151
     126       0       0       7       0                               0D    152
     102     129       0       0       0       0       0       001010001D    153
     102       0       0       1       0                               0D    154
     142     130       0       0       0       0       0       001010001D    155
     142       0       0       1       0                               0D    156
     144     131       0       0   10000       0       0       000000000D    157
     144       0       0       1       0                               0D    158
     108     132       0       0       0       0       0       001010001D    159
     108       0       0       2       0                               0D    160
     126     134       0       0       0       0       0       001010001D    161
     126       0       0       7       0                               0D    162
     110     141       0       0       0       0       0       001010001D    163
     110       0       0       1       0                               0D    164
     110     142       0       0       0       0       0       001010001D    165
     110       0       0       1       0                               0D    166
     110     143       0       0       0       0       0       001010001D    167
     110       0       0       1       0                               0D    168
     102     144       0       0       0       0       0       001010001D    169
     102       0       0       1       0                               0D    170
     142     145       0       0       0       0       0       001010001D    171
     142       0       0       1       0                               0D    172
     144     146       0       0   10000       0       0       000000000D    173
     144       0       0       1       0                               0D    174
     110     147       0       0       0       0       0       001010001D    175
     110       0       0       2       0                               0D    176
     110     149       0       0       0       0       0       001010001D    177
     110       0       0       2       0                               0D    178
     120     151       0       0       0       0       0       001010001D    179
     120       0       0       1       0                               0D    180
     110     152       0       0       0       0       0       001010001D    181
     110       0       0       2       0                               0D    182
     126     154       0       0       0       0       0       001010001D    183
     126       0       0       6       0                               0D    184
     126     160       0       0       0       0       0       001010001D    185
     126       0       0       5       0                               0D    186
     126     165       0       0       0       0       0       001010001D    187
     126       0       0       7       0                               0D    188
     102     172       0       0       0       0       0       001010001D    189
     102       0       0       1       0                               0D    190
     142     173       0       0       0       0       0       001010001D    191
     142       0       0       1       0                               0D    192
     144     174       0       0   10000       0       0       000000000D    193
     144       0       0       1       0                               0D    194
     110     175       0       0       0       0       0       001010001D    195
     110       0       0       2       0                               0D    196
     110     177       0       0       0       0       0       001010001D    197
     110       0       0       2       0                               0D    198
     120     179       0       0       0       0       0       001010001D    199
     120       0       0       1       0                               0D    200
     110     180       0       0       0       0       0       001010001D    201
     110       0       0       2       0                               0D    202
     126     182       0       0       0       0       0       001010001D    203
     126       0       0       6       0                               0D    204
     126     188       0       0       0       0       0       001010001D    205
     126       0       0       5       0                               0D    206
     126     193       0       0       0       0       0       001010001D    207
     126       0       0       6       0                               0D    208
     102     199       0       0       0       0       0       001010001D    209
     102       0       0       1       0                               0D    210
     142     200       0       0       0       0       0       001010001D    211
     142       0       0       1       0                               0D    212
     144     201       0       0   10000       0       0       000000000D    213
     144       0       0       1       0                               0D    214
     406     202       0       0       0       0       0       000010201D    215
     406       0       0       1      15                               0D    216
     116     203       0       0   10000       0       0       000000001D    217
     116       0       0       1       0                               0D    218
406,1,18HMHB_Upper_Member_L,0,0;                                       1P      1
110,42.33566392,-66.37751822,265.3109642,-72.23779571,                 3P      2
106.2432389,-528.0782962,0,1,1;                                        3P      3
406,1,15HCorps principal,0,0;                                          5P      4
110,28.0,0.0,0.75,28.0,0.0,1.75,0,0;                                   7P      5
110,30.07055236,-7.72740661,0.0,30.07055236,-7.72740661,1.5,0,0;       9P      6
120,7,9,0.0,6.283185307,0,0;                                          11P      7
124,0.2588190451,0.9659258263,0.0,28.0,-0.9659258263,                 13P      8
0.2588190451,0.0,0.0,0.0,0.0,1.0,1.5,0,0;                             13P      9
100,0.0,0.0,0.0,8.0,0.0,-8.0,-1.443289932E-014,0,0;                   15P     10
110,25.92944764,7.72740661,1.5,25.92944764,7.72740661,0.0,0,0;        17P     11
124,-0.2588190451,0.9659258263,0.0,28.0,0.9659258263,                 19P     12
0.2588190451,0.0,0.0,0.0,0.0,-1.0,0.0,0,0;                            19P     13
100,0.0,0.0,0.0,8.0,0.0,-8.0,-1.443289932E-014,0,0;                   21P     14
110,30.07055236,-7.72740661,0.0,30.07055236,-7.72740661,1.5,0,0;      23P     15
102,4,15,17,21,23,0,0;                                                25P     16
142,0,11,0,25,2,0,0;                                                  27P     17
144,11,1,0,27,0,1,5;                                                  29P     18
110,28.0,0.0,0.75,28.0,0.0,1.75,0,0;                                  31P     19
110,24.8,3.918740332E-016,0.0,24.8,3.918740332E-016,1.5,0,0;          33P     20
120,31,33,0.0,6.283185307,0,0;                                        35P     21
110,24.8,3.918740332E-016,1.5,24.8,3.918740332E-016,0.0,0,0;          37P     22
124,-1.0,-1.224606354E-016,0.0,28.0,1.224606354E-016,-1.0,0.0,        39P     23
0.0,0.0,0.0,1.0,0.0,0,0;                                              39P     24
100,0.0,0.0,0.0,3.2,0.0,-3.2,-3.918740332E-016,0,0;                   41P     25
110,31.2,0.0,0.0,31.2,0.0,1.5,0,0;                                    43P     26
124,1.0,0.0,0.0,28.0,0.0,-1.0,0.0,0.0,0.0,0.0,-1.0,1.5,0,0;           45P     27
100,0.0,0.0,0.0,3.2,0.0,-3.2,-3.918740332E-016,0,0;                   47P     28
102,4,37,41,43,47,0,0;                                                49P     29
142,0,35,0,49,2,0,0;                                                  51P     30
144,35,1,0,51,0,1,5;                                                  53P     31
110,28.0,0.0,0.75,28.0,0.0,1.75,0,0;                                  55P     32
110,31.2,0.0,0.0,31.2,0.0,1.5,0,0;                                    57P     33
120,55,57,0.0,6.283185307,0,0;                                        59P     34
110,31.2,0.0,1.5,31.2,0.0,0.0,0,0;                                    61P     35
124,1.0,0.0,0.0,28.0,0.0,1.0,0.0,0.0,0.0,0.0,1.0,0.0,0,0;             63P     36
100,0.0,0.0,0.0,3.2,0.0,-3.2,3.918740332E-016,0,0;                    65P     37
110,24.8,3.918740332E-016,0.0,24.8,3.918740332E-016,1.5,0,0;          67P     38
124,-1.0,1.224606354E-016,0.0,28.0,1.224606354E-016,1.0,0.0,0.0,      69P     39
0.0,0.0,-1.0,1.5,0,0;                                                 69P     40
100,0.0,0.0,0.0,3.2,0.0,-3.2,3.918740332E-016,0,0;                    71P     41
102,4,61,65,67,71,0,0;                                                73P     42
142,0,59,0,73,2,0,0;                                                  75P     43
144,59,1,0,75,0,1,5;                                                  77P     44
108,0.0,0.0,1.0,1.5,0,0.0,0.0,1.5,1.0,0,0;                            79P     45
126,11,5,0,0,1,0,7.26490022,7.26490022,7.26490022,7.26490022,         81P     46
7.26490022,7.26490022,7.715754308,7.715754308,7.715754308,            81P     47
15.61315389,15.61315389,15.61315389,21.59844618,21.59844618,          81P     48
21.59844618,21.59844618,21.59844618,21.59844618,1.0,1.0,1.0,1.0,      81P     49
1.0,1.0,1.0,1.0,1.0,1.0,1.0,1.0,18.30954606,-10.87875875,1.5,         81P     50
18.31601623,-10.81532743,1.5,18.32213431,-10.75186023,1.5,            81P     51
18.32790029,-10.68835976,1.5,18.428147,-9.51198389,1.5,               81P     52
18.40769625,-8.325995931,1.5,18.2805725,-7.20947265,1.5,              81P     53
17.8726367,-5.280144605,1.5,17.15464332,-3.447476373,1.5,             81P     54
16.78946029,-2.680686092,1.5,16.37126712,-1.942326306,1.5,            81P     55
15.90317728,-1.23708424,1.5,7.26490022,21.59844618,0.0,0.0,0.0,       81P     56
0,0;                                                                  81P     57
126,5,5,0,0,1,0,0.0,0.0,0.0,0.0,0.0,0.0,10.27538917,10.27538917,      83P     58
10.27538917,10.27538917,10.27538917,10.27538917,1.0,1.0,1.0,1.0,      83P     59
1.0,1.0,15.90317728,-1.23708424,1.5,15.09957319,-0.02634358675,       83P     60
1.5,14.14890859,1.086788183,1.5,13.06675868,2.078744249,1.5,          83P     61
11.87392759,2.928108194,1.5,10.59531925,3.618639291,1.5,0.0,          83P     62
10.27538917,0.0,0.0,0.0,0,0;                                          83P     63
110,10.59531925,3.618639291,1.5,25.92944764,7.72740661,1.5,0,0;       85P     64
124,-0.2588190451,0.9659258263,0.0,28.0,0.9659258263,                 87P     65
0.2588190451,0.0,0.0,0.0,0.0,-1.0,1.5,0,0;                            87P     66
100,0.0,0.0,0.0,8.0,0.0,-8.0,-1.443289932E-014,0,0;                   89P     67
110,30.07055236,-7.72740661,1.5,18.30954609,-10.87875874,1.5,0,       91P     68
0;                                                                    91P     69
102,5,81,83,85,89,91,0,0;                                             93P     70
142,0,79,0,93,2,0,0;                                                  95P     71
124,1.0,0.0,0.0,28.0,0.0,1.0,0.0,0.0,0.0,0.0,1.0,1.5,0,0;             97P     72
100,0.0,0.0,0.0,3.2,0.0,-3.2,3.918740332E-016,0,0;                    99P     73
124,-1.0,-1.224606354E-016,0.0,28.0,1.224606354E-016,-1.0,0.0,       101P     74
0.0,0.0,0.0,1.0,1.5,0,0;                                             101P     75
100,0.0,0.0,0.0,3.2,0.0,-3.2,-3.918740332E-016,0,0;                  103P     76
102,2,99,103,0,0;                                                    105P     77
142,0,79,0,105,2,0,0;                                                107P     78
144,79,1,1,95,107,0,1,5;                                             109P     79
108,0.0,0.0,1.0,0.0,0,0.0,0.0,0.0,1.0,0,0;                           111P     80
110,18.04687315,-10.94914175,0.0,30.07055236,-7.72740661,0.0,0,      113P     81
0;                                                                   113P     82
124,0.2588190451,0.9659258263,0.0,28.0,-0.9659258263,                115P     83
0.2588190451,0.0,0.0,0.0,0.0,1.0,0.0,0,0;                            115P     84
100,0.0,0.0,0.0,8.0,0.0,-8.0,-1.443289932E-014,0,0;                  117P     85
110,25.92944764,7.72740661,0.0,10.84091515,3.684446516,0.0,0,0;      119P     86
126,5,5,0,0,1,0,15.89562815,15.89562815,15.89562815,15.89562815,     121P     87
15.89562815,15.89562815,25.42067235,25.42067235,25.42067235,         121P     88
25.42067235,25.42067235,25.42067235,1.0,1.0,1.0,1.0,1.0,1.0,         121P     89
10.84091511,3.684446505,0.0,12.00219076,3.001822835,0.0,             121P     90
13.08511413,2.185855627,0.0,14.07035091,1.250058893,0.0,             121P     91
14.94163996,0.2116046601,0.0,15.68656206,-0.9107234623,0.0,          121P     92
15.89562815,25.42067235,0.0,0.0,0.0,0,0;                             121P     93
126,11,5,0,0,1,0,0.0,0.0,0.0,0.0,0.0,0.0,6.529571338,                123P     94
6.529571338,6.529571338,14.41456935,14.41456935,14.41456935,         123P     95
14.89839928,14.89839928,14.89839928,14.89839928,14.89839928,         123P     96
14.89839928,1.0,1.0,1.0,1.0,1.0,1.0,1.0,1.0,1.0,1.0,1.0,1.0,         123P     97
15.68656206,-0.9107234623,0.0,16.19721816,-1.680097482,0.0,          123P     98
16.64849015,-2.488886274,0.0,17.036338,-3.331009156,0.0,             123P     99
17.74513686,-5.248932334,0.0,18.11657482,-7.262492467,0.0,           123P    100
18.21448301,-8.380192696,0.0,18.20397866,-9.569244696,0.0,           123P    101
18.07216688,-10.74543391,0.0,18.06414096,-10.8133871,0.0,            123P    102
18.05570968,-10.8812908,0.0,18.04687312,-10.94914175,0.0,0.0,        123P    103
14.89839928,0.0,0.0,0.0,0,0;                                         123P    104
102,5,113,117,119,121,123,0,0;                                       125P    105
142,0,111,0,125,2,0,0;                                               127P    106
124,1.0,0.0,0.0,28.0,0.0,-1.0,0.0,0.0,0.0,0.0,-1.0,0.0,0,0;          129P    107
100,0.0,0.0,0.0,3.2,0.0,-3.2,-3.918740332E-016,0,0;                  131P    108
124,-1.0,1.224606354E-016,0.0,28.0,1.224606354E-016,1.0,0.0,0.0,     133P    109
0.0,0.0,-1.0,0.0,0,0;                                                133P    110
100,0.0,0.0,0.0,3.2,0.0,-3.2,3.918740332E-016,0,0;                   135P    111
102,2,131,135,0,0;                                                   137P    112
142,0,111,0,137,2,0,0;                                               139P    113
144,111,1,1,127,139,0,1,5;                                           141P    114
108,-0.2588190451,0.9659258263,0.0,-15.24693326,0,30.07055236,       143P    115
-7.72740661,0.0,1.0,0,0;                                             143P    116
110,18.30954609,-10.87875874,1.5,30.07055236,-7.72740661,1.5,0,      145P    117
0;                                                                   145P    118
110,30.07055236,-7.72740661,1.5,30.07055236,-7.72740661,0.0,0,0;     147P    119
110,30.07055236,-7.72740661,0.0,18.04687315,-10.94914175,0.0,0,      149P    120
0;                                                                   149P    121
126,5,5,0,0,1,0,0.0,0.0,0.0,0.0,0.0,0.0,2.1559016,2.1559016,         151P    122
2.1559016,2.1559016,2.1559016,2.1559016,1.0,1.0,1.0,1.0,1.0,1.0,     151P    123
18.04687315,-10.94914175,1.110223025E-016,18.10053259,               151P    124
-10.93476374,0.2997868776,18.15362375,-10.92053801,0.5996827749,     151P    125
18.20615299,-10.90646284,0.8996870623,18.25812521,-10.89253693,      151P    126
1.199792923,18.30954609,-10.87875874,1.5,0.0,2.1559016,0.0,0.0,      151P    127
0.0,0,0;                                                             151P    128
102,4,145,147,149,151,0,0;                                           153P    129
142,0,143,0,153,2,0,0;                                               155P    130
144,143,1,0,155,0,1,5;                                               157P    131
108,-0.2588190451,0.9659258263,0.0,0.7530667371,0,25.92944764,       159P    132
7.72740661,0.0,1.0,0,0;                                              159P    133
126,5,5,0,0,1,0,0.0,0.0,0.0,0.0,0.0,0.0,2.151586916,2.151586916,     161P    134
2.151586916,2.151586916,2.151586916,2.151586916,1.0,1.0,1.0,1.0,     161P    135
1.0,1.0,10.59531925,3.618639291,1.5,10.6470622,3.632503773,          161P    136
1.200472091,10.697447,3.64600434,0.9006927198,10.74652444,           161P    137
3.659154601,0.6006650201,10.79433311,3.671964895,0.3004344313,       161P    138
10.84091515,3.684446516,-1.110223025E-016,0.0,2.151586916,0.0,       161P    139
0.0,0.0,0,0;                                                         161P    140
110,10.84091515,3.684446516,0.0,25.92944764,7.72740661,0.0,0,0;      163P    141
110,25.92944764,7.72740661,0.0,25.92944764,7.72740661,1.5,0,0;       165P    142
110,25.92944764,7.72740661,1.5,10.59531925,3.618639291,1.5,0,0;      167P    143
102,4,161,163,165,167,0,0;                                           169P    144
142,0,159,0,169,2,0,0;                                               171P    145
144,159,1,0,171,0,1,5;                                               173P    146
110,3.689032308,-8.151024661,-2.306183527,3.549307696,               175P    147
-7.940510216,-3.273737505,0,0;                                       175P    148
110,16.23375743,-1.735148937,3.789175348,15.68656206,                177P    149
-0.9107234623,8.806733121E-012,0,0;                                  177P    150
120,175,177,0.0,6.283185307,0,0;                                     179P    151
110,15.68656206,-0.9107234623,1.765447831E-015,15.90317728,          181P    152
-1.23708424,1.5,0,0;                                                 181P    153
126,4,4,0,0,1,0,0.0,0.0,0.0,0.0,0.0,14.33354596,14.33354596,         183P    154
14.33354596,14.33354596,14.33354596,1.0,1.0,1.0,1.0,1.0,             183P    155
15.90317728,-1.23708424,1.5,17.3044011,-3.348221652,1.5,             183P    156
18.22957639,-5.776181774,1.500000306,18.56666981,-8.358000046,       183P    157
1.499999967,18.30954609,-10.87875872,1.500000002,0.0,                183P    158
14.33354596,0.0,0.0,0.0,0,0;                                         183P    159
126,3,3,0,0,1,0,0.0,0.0,0.0,0.0,2.1559016,2.1559016,2.1559016,       185P    160
2.1559016,1.0,1.0,1.0,1.0,18.30954609,-10.87875874,1.5,              185P    161
18.22384462,-10.90172238,0.9996548712,18.13630554,-10.92517841,      185P    162
0.4996447959,18.04687315,-10.94914175,8.881784197E-016,0.0,          185P    163
2.1559016,0.0,0.0,0.0,0,0;                                           185P    164
126,4,4,0,0,1,0,7.220142899,7.220142899,7.220142899,7.220142899,     187P    165
7.220142899,22.11854218,22.11854218,22.11854218,22.11854218,         187P    166
22.11854218,1.0,1.0,1.0,1.0,1.0,18.04687315,-10.94914172,            187P    167
2.103192731E-009,18.38699867,-8.337505295,-2.988398813E-008,         187P    168
18.0852943,-5.641755012,2.925543705E-007,17.14300501,                187P    169
-3.105056127,8.466938264E-016,15.68656206,-0.9107234623,             187P    170
4.331802063E-016,7.220142899,22.11854218,0.0,0.0,0.0,0,0;            187P    171
102,4,181,183,185,187,0,0;                                           189P    172
142,0,179,0,189,2,0,0;                                               191P    173
144,179,1,0,191,0,1,5;                                               193P    174
110,3.689032308,-8.151024661,-2.306183527,3.549307696,               195P    175
-7.940510216,-3.273737505,0,0;                                       195P    176
110,10.84177088,3.247325838,3.206608814,10.39539169,3.91985779,      197P    177
0.1155574424,0,0;                                                    197P    178
120,195,197,0.0,6.283185307,0,0;                                     199P    179
110,15.90317728,-1.23708424,1.5,15.68656206,-0.9107234623,           201P    180
1.765447831E-015,0,0;                                                201P    181
126,4,4,0,0,1,0,0.0,0.0,0.0,0.0,0.0,9.5250442,9.5250442,             203P    182
9.5250442,9.5250442,9.5250442,1.0,1.0,1.0,1.0,1.0,15.68656206,       203P    183
-0.9107234623,8.772693765E-016,14.75540944,0.4921866907,             203P    184
6.128963558E-016,13.61359849,1.755483436,-1.224953528E-006,          203P    185
12.2925103,2.831167132,-4.543667818E-008,10.84091515,                203P    186
3.684446517,-3.384578839E-009,0.0,9.5250442,0.0,0.0,0.0,0,0;         203P    187
126,3,3,0,0,1,0,0.0,0.0,0.0,0.0,2.151586916,2.151586916,             205P    188
2.151586916,2.151586916,1.0,1.0,1.0,1.0,10.84091515,3.684446516,     205P    189
-4.996485926E-015,10.76327841,3.663643814,0.5007240521,              205P    190
10.6815575,3.641746761,1.000786818,10.59531925,3.618639291,1.5,      205P    191
0.0,2.151586916,0.0,0.0,0.0,0,0;                                     205P    192
126,4,4,0,0,1,0,15.46321229,15.46321229,15.46321229,15.46321229,     207P    193
15.46321229,25.73860145,25.73860145,25.73860145,25.73860145,         207P    194
25.73860145,1.0,1.0,1.0,1.0,1.0,10.59531925,3.618639291,1.5,         207P    195
12.19357969,2.755475419,1.499999998,13.64899357,1.627345191,         207P    196
1.499998459,14.89867217,0.2763415764,1.5,15.90317728,                207P    197
-1.23708424,1.5,15.46321229,25.73860145,0.0,0.0,0.0,0,0;             207P    198
102,4,201,203,205,207,0,0;                                           209P    199
142,0,199,0,209,2,0,0;                                               211P    200
144,199,1,0,211,0,1,5;                                               213P    201
406,1,10HEsquisse.2,0,0;                                             215P    202
116,0.0,0.0,0.0,0,0,2,215,215;                                       217P    203
S      1G      5D    218P    203                                        T      1
