START RECORD GO HERE.                                                   S      1
1H,,1H;,20HCNEXT - IGES PRODUCT,56H20M_FR_11012 (Throttle Pedal Spacer SG      1
tick & Tie-rod).igs,44HIBM CATIA IGES - CATIA Version 5 Release 19 ,27HCG      2
ATIA Version 5 Release 19 ,32,75,6,75,15,48HFR_11012 (Throttle Pedal SpaG      3
cer Stick & Tie-rod),1.0,2,2HMM,1000,1.0,15H20200217.143503,0.001,      G      4
10000.0,17HMartin Kawczynski,15HDESKTOP-UDLM1FC,11,0,15H20200217.143503,G      5
;                                                                       G      6
     406       1       0       0       0       0       0       000010201D      1
     406       0       0       1      15                               0D      2
     110       2       0       0       0       0       0       001010001D      3
     110       0       0       1       0                               0D      4
     110       3       0       0       0       0       0       001010001D      5
     110       0       0       1       0                               0D      6
     120       4       0       0       0       0       0       001010001D      7
     120       0       0       1       0                               0D      8
     124       5       0       0       0       0       0       001020201D      9
     124       0       0       1       0                               0D     10
     100       6       0       0       0       0       9       001010001D     11
     100       0       0       1       0                               0D     12
     110       7       0       0       0       0       0       001010001D     13
     110       0       0       1       0                               0D     14
     124       8       0       0       0       0       0       001020201D     15
     124       0       0       2       0                               0D     16
     100      10       0       0       0       0      15       001010001D     17
     100       0       0       1       0                               0D     18
     110      11       0       0       0       0       0       001010001D     19
     110       0       0       1       0                               0D     20
     102      12       0       0       0       0       0       001010001D     21
     102       0       0       1       0                               0D     22
     142      13       0       0       0       0       0       001010001D     23
     142       0       0       1       0                               0D     24
     144      14       0       0   10000       0       0       000000000D     25
     144       0       0       1       0                               0D     26
     110      15       0       0       0       0       0       001010001D     27
     110       0       0       1       0                               0D     28
     110      16       0       0       0       0       0       001010001D     29
     110       0       0       1       0                               0D     30
     120      17       0       0       0       0       0       001010001D     31
     120       0       0       1       0                               0D     32
     124      18       0       0       0       0       0       001020201D     33
     124       0       0       2       0                               0D     34
     100      20       0       0       0       0      33       001010001D     35
     100       0       0       1       0                               0D     36
     110      21       0       0       0       0       0       001010001D     37
     110       0       0       1       0                               0D     38
     124      22       0       0       0       0       0       001020201D     39
     124       0       0       1       0                               0D     40
     100      23       0       0       0       0      39       001010001D     41
     100       0       0       1       0                               0D     42
     110      24       0       0       0       0       0       001010001D     43
     110       0       0       1       0                               0D     44
     102      25       0       0       0       0       0       001010001D     45
     102       0       0       1       0                               0D     46
     142      26       0       0       0       0       0       001010001D     47
     142       0       0       1       0                               0D     48
     144      27       0       0   10000       0       0       000000000D     49
     144       0       0       1       0                               0D     50
     110      28       0       0       0       0       0       001010001D     51
     110       0       0       1       0                               0D     52
     110      29       0       0       0       0       0       001010001D     53
     110       0       0       1       0                               0D     54
     120      30       0       0       0       0       0       001010001D     55
     120       0       0       1       0                               0D     56
     110      31       0       0       0       0       0       001010001D     57
     110       0       0       1       0                               0D     58
     124      32       0       0       0       0       0       001020201D     59
     124       0       0       2       0                               0D     60
     100      34       0       0       0       0      59       001010001D     61
     100       0       0       1       0                               0D     62
     110      35       0       0       0       0       0       001010001D     63
     110       0       0       1       0                               0D     64
     124      36       0       0       0       0       0       001020201D     65
     124       0       0       1       0                               0D     66
     100      37       0       0       0       0      65       001010001D     67
     100       0       0       1       0                               0D     68
     102      38       0       0       0       0       0       001010001D     69
     102       0       0       1       0                               0D     70
     142      39       0       0       0       0       0       001010001D     71
     142       0       0       1       0                               0D     72
     144      40       0       0   10000       0       0       000000000D     73
     144       0       0       1       0                               0D     74
     110      41       0       0       0       0       0       001010001D     75
     110       0       0       1       0                               0D     76
     110      42       0       0       0       0       0       001010001D     77
     110       0       0       1       0                               0D     78
     120      43       0       0       0       0       0       001010001D     79
     120       0       0       1       0                               0D     80
     110      44       0       0       0       0       0       001010001D     81
     110       0       0       1       0                               0D     82
     124      45       0       0       0       0       0       001020201D     83
     124       0       0       1       0                               0D     84
     100      46       0       0       0       0      83       001010001D     85
     100       0       0       1       0                               0D     86
     110      47       0       0       0       0       0       001010001D     87
     110       0       0       1       0                               0D     88
     124      48       0       0       0       0       0       001020201D     89
     124       0       0       2       0                               0D     90
     100      50       0       0       0       0      89       001010001D     91
     100       0       0       1       0                               0D     92
     102      51       0       0       0       0       0       001010001D     93
     102       0       0       1       0                               0D     94
     142      52       0       0       0       0       0       001010001D     95
     142       0       0       1       0                               0D     96
     144      53       0       0   10000       0       0       000000000D     97
     144       0       0       1       0                               0D     98
     108      54       0       0       0       0       0       001010001D     99
     108       0       0       1       0                               0D    100
     124      55       0       0       0       0       0       001020201D    101
     124       0       0       1       0                               0D    102
     100      56       0       0       0       0     101       001010001D    103
     100       0       0       1       0                               0D    104
     124      57       0       0       0       0       0       001020201D    105
     124       0       0       2       0                               0D    106
     100      59       0       0       0       0     105       001010001D    107
     100       0       0       1       0                               0D    108
     102      60       0       0       0       0       0       001010001D    109
     102       0       0       1       0                               0D    110
     142      61       0       0       0       0       0       001010001D    111
     142       0       0       1       0                               0D    112
     124      62       0       0       0       0       0       001020201D    113
     124       0       0       1       0                               0D    114
     100      63       0       0       0       0     113       001010001D    115
     100       0       0       1       0                               0D    116
     124      64       0       0       0       0       0       001020201D    117
     124       0       0       2       0                               0D    118
     100      66       0       0       0       0     117       001010001D    119
     100       0       0       1       0                               0D    120
     102      67       0       0       0       0       0       001010001D    121
     102       0       0       1       0                               0D    122
     142      68       0       0       0       0       0       001010001D    123
     142       0       0       1       0                               0D    124
     144      69       0       0   10000       0       0       000000000D    125
     144       0       0       1       0                               0D    126
     108      70       0       0       0       0       0       001010001D    127
     108       0       0       1       0                               0D    128
     124      71       0       0       0       0       0       001020201D    129
     124       0       0       1       0                               0D    130
     100      72       0       0       0       0     129       001010001D    131
     100       0       0       1       0                               0D    132
     124      73       0       0       0       0       0       001020201D    133
     124       0       0       2       0                               0D    134
     100      75       0       0       0       0     133       001010001D    135
     100       0       0       1       0                               0D    136
     102      76       0       0       0       0       0       001010001D    137
     102       0       0       1       0                               0D    138
     142      77       0       0       0       0       0       001010001D    139
     142       0       0       1       0                               0D    140
     124      78       0       0       0       0       0       001020201D    141
     124       0       0       1       0                               0D    142
     100      79       0       0       0       0     141       001010001D    143
     100       0       0       1       0                               0D    144
     124      80       0       0       0       0       0       001020201D    145
     124       0       0       2       0                               0D    146
     100      82       0       0       0       0     145       001010001D    147
     100       0       0       1       0                               0D    148
     102      83       0       0       0       0       0       001010001D    149
     102       0       0       1       0                               0D    150
     142      84       0       0       0       0       0       001010001D    151
     142       0       0       1       0                               0D    152
     144      85       0       0   10000       0       0       000000000D    153
     144       0       0       1       0                               0D    154
406,1,15HCorps principal,0,0;                                          1P      1
110,0.0,2.2,0.0,0.0,3.2,0.0,0,0;                                       3P      2
110,-4.5,0.0,0.0,-4.5,4.4,0.0,0,0;                                     5P      3
120,3,5,0.0,6.283185307,0,0;                                           7P      4
124,-1.0,0.0,0.0,0.0,0.0,0.0,1.0,4.4,0.0,1.0,0.0,0.0,0,0;              9P      5
100,0.0,0.0,0.0,4.5,0.0,-4.5,5.510728592E-016,0,0;                    11P      6
110,4.5,4.4,5.510728592E-016,4.5,0.0,5.510728592E-016,0,0;            13P      7
124,1.0,-1.224606354E-016,0.0,0.0,0.0,0.0,-1.0,0.0,                   15P      8
1.224606354E-016,1.0,0.0,0.0,0,0;                                     15P      9
100,0.0,0.0,0.0,4.5,0.0,-4.5,5.510728592E-016,0,0;                    17P     10
110,-4.5,0.0,0.0,-4.5,4.4,0.0,0,0;                                    19P     11
102,4,11,13,17,19,0,0;                                                21P     12
142,0,7,0,21,2,0,0;                                                   23P     13
144,7,1,0,23,0,1,1;                                                   25P     14
110,0.0,2.2,0.0,0.0,3.2,0.0,0,0;                                      27P     15
110,4.5,0.0,5.510728592E-016,4.5,4.4,5.510728592E-016,0,0;            29P     16
120,27,29,0.0,6.283185307,0,0;                                        31P     17
124,1.0,1.224606354E-016,0.0,0.0,0.0,0.0,1.0,4.4,                     33P     18
1.224606354E-016,-1.0,0.0,0.0,0,0;                                    33P     19
100,0.0,0.0,0.0,4.5,0.0,-4.5,-5.510728592E-016,0,0;                   35P     20
110,-4.5,4.4,0.0,-4.5,0.0,0.0,0,0;                                    37P     21
124,-1.0,0.0,0.0,0.0,0.0,0.0,-1.0,0.0,0.0,-1.0,0.0,0.0,0,0;           39P     22
100,0.0,0.0,0.0,4.5,0.0,-4.5,-5.510728592E-016,0,0;                   41P     23
110,4.5,0.0,5.510728592E-016,4.5,4.4,5.510728592E-016,0,0;            43P     24
102,4,35,37,41,43,0,0;                                                45P     25
142,0,31,0,45,2,0,0;                                                  47P     26
144,31,1,0,47,0,1,1;                                                  49P     27
110,0.0,2.2,0.0,0.0,3.2,0.0,0,0;                                      51P     28
110,2.6,0.0,1.473029598E-015,2.6,4.4,1.473029598E-015,0,0;            53P     29
120,51,53,0.0,6.283185307,0,0;                                        55P     30
110,2.6,4.4,1.473029598E-015,2.6,0.0,1.473029598E-015,0,0;            57P     31
124,1.0,5.665498452E-016,0.0,0.0,0.0,0.0,1.0,0.0,                     59P     32
5.665498452E-016,-1.0,0.0,0.0,0,0;                                    59P     33
100,0.0,0.0,0.0,2.6,0.0,-2.6,-1.473029598E-015,0,0;                   61P     34
110,-2.6,0.0,0.0,-2.6,4.4,0.0,0,0;                                    63P     35
124,-1.0,0.0,0.0,0.0,0.0,0.0,-1.0,4.4,0.0,-1.0,0.0,0.0,0,0;           65P     36
100,0.0,0.0,0.0,2.6,0.0,-2.6,-1.473029598E-015,0,0;                   67P     37
102,4,57,61,63,67,0,0;                                                69P     38
142,0,55,0,69,2,0,0;                                                  71P     39
144,55,1,0,71,0,1,1;                                                  73P     40
110,0.0,2.2,0.0,0.0,3.2,0.0,0,0;                                      75P     41
110,-2.6,0.0,0.0,-2.6,4.4,0.0,0,0;                                    77P     42
120,75,77,0.0,6.283185307,0,0;                                        79P     43
110,-2.6,4.4,0.0,-2.6,0.0,0.0,0,0;                                    81P     44
124,-1.0,0.0,0.0,0.0,0.0,0.0,1.0,0.0,0.0,1.0,0.0,0.0,0,0;             83P     45
100,0.0,0.0,0.0,2.6,0.0,-2.6,1.473029598E-015,0,0;                    85P     46
110,2.6,0.0,1.473029598E-015,2.6,4.4,1.473029598E-015,0,0;            87P     47
124,1.0,-5.665498452E-016,0.0,0.0,0.0,0.0,-1.0,4.4,                   89P     48
5.665498452E-016,1.0,0.0,0.0,0,0;                                     89P     49
100,0.0,0.0,0.0,2.6,0.0,-2.6,1.473029598E-015,0,0;                    91P     50
102,4,81,85,87,91,0,0;                                                93P     51
142,0,79,0,93,2,0,0;                                                  95P     52
144,79,1,0,95,0,1,1;                                                  97P     53
108,0.0,1.0,0.0,0.0,0,0.0,0.0,0.0,1.0,0,0;                            99P     54
124,-1.0,0.0,0.0,0.0,0.0,0.0,1.0,0.0,0.0,1.0,0.0,0.0,0,0;            101P     55
100,0.0,0.0,0.0,4.5,0.0,-4.5,5.510728592E-016,0,0;                   103P     56
124,1.0,1.224606354E-016,0.0,0.0,0.0,0.0,1.0,0.0,                    105P     57
1.224606354E-016,-1.0,0.0,0.0,0,0;                                   105P     58
100,0.0,0.0,0.0,4.5,0.0,-4.5,-5.510728592E-016,0,0;                  107P     59
102,2,103,107,0,0;                                                   109P     60
142,0,99,0,109,2,0,0;                                                111P     61
124,-1.0,0.0,0.0,0.0,0.0,0.0,-1.0,0.0,0.0,-1.0,0.0,0.0,0,0;          113P     62
100,0.0,0.0,0.0,2.6,0.0,-2.6,-1.473029598E-015,0,0;                  115P     63
124,1.0,-5.665498452E-016,0.0,0.0,0.0,0.0,-1.0,0.0,                  117P     64
5.665498452E-016,1.0,0.0,0.0,0,0;                                    117P     65
100,0.0,0.0,0.0,2.6,0.0,-2.6,1.473029598E-015,0,0;                   119P     66
102,2,115,119,0,0;                                                   121P     67
142,0,99,0,121,2,0,0;                                                123P     68
144,99,1,1,111,123,0,1,1;                                            125P     69
108,0.0,1.0,0.0,4.4,0,0.0,4.4,0.0,1.0,0,0;                           127P     70
124,-1.0,0.0,0.0,0.0,0.0,0.0,-1.0,4.4,0.0,-1.0,0.0,0.0,0,0;          129P     71
100,0.0,0.0,0.0,4.5,0.0,-4.5,-5.510728592E-016,0,0;                  131P     72
124,1.0,-1.224606354E-016,0.0,0.0,0.0,0.0,-1.0,4.4,                  133P     73
1.224606354E-016,1.0,0.0,0.0,0,0;                                    133P     74
100,0.0,0.0,0.0,4.5,0.0,-4.5,5.510728592E-016,0,0;                   135P     75
102,2,131,135,0,0;                                                   137P     76
142,0,127,0,137,2,0,0;                                               139P     77
124,-1.0,0.0,0.0,0.0,0.0,0.0,1.0,4.4,0.0,1.0,0.0,0.0,0,0;            141P     78
100,0.0,0.0,0.0,2.6,0.0,-2.6,1.473029598E-015,0,0;                   143P     79
124,1.0,5.665498452E-016,0.0,0.0,0.0,0.0,1.0,4.4,                    145P     80
5.665498452E-016,-1.0,0.0,0.0,0,0;                                   145P     81
100,0.0,0.0,0.0,2.6,0.0,-2.6,-1.473029598E-015,0,0;                  147P     82
102,2,143,147,0,0;                                                   149P     83
142,0,127,0,149,2,0,0;                                               151P     84
144,127,1,1,139,151,0,1,1;                                           153P     85
S      1G      6D    154P     85                                        T      1
