START RECORD GO HERE.                                                   S      1
1H,,1H;,20HCNEXT - IGES PRODUCT,45H20C_FR_11013 (Axle Throttle Pedal SpaG      1
cer).igs,44HIBM CATIA IGES - CATIA Version 5 Release 19 ,27HCATIA VersioG      2
n 5 Release 19 ,32,75,6,75,15,37HFR_11013 (Axle Throttle Pedal Spacer), G      3
1.0,2,2HMM,1000,1.0,15H20200217.143629,0.001,10000.0,17HMartin KawczynskG      4
i,15HDESKTOP-UDLM1FC,11,0,15H20200217.143629,;                          G      5
     406       1       0       0       0       0       0       000010201D      1
     406       0       0       1      15                               0D      2
     110       2       0       0       0       0       0       001010001D      3
     110       0       0       2       0                               0D      4
     110       4       0       0       0       0       0       001010001D      5
     110       0       0       2       0                               0D      6
     120       6       0       0       0       0       0       001010001D      7
     120       0       0       1       0                               0D      8
     124       7       0       0       0       0       0       001020201D      9
     124       0       0       3       0                               0D     10
     100      10       0       0       0       0       9       001010001D     11
     100       0       0       1       0                               0D     12
     110      11       0       0       0       0       0       001010001D     13
     110       0       0       1       0                               0D     14
     124      12       0       0       0       0       0       001020201D     15
     124       0       0       3       0                               0D     16
     100      15       0       0       0       0      15       001010001D     17
     100       0       0       1       0                               0D     18
     110      16       0       0       0       0       0       001010001D     19
     110       0       0       1       0                               0D     20
     102      17       0       0       0       0       0       001010001D     21
     102       0       0       1       0                               0D     22
     142      18       0       0       0       0       0       001010001D     23
     142       0       0       1       0                               0D     24
     144      19       0       0   10000       0       0       000000000D     25
     144       0       0       1       0                               0D     26
     110      20       0       0       0       0       0       001010001D     27
     110       0       0       2       0                               0D     28
     110      22       0       0       0       0       0       001010001D     29
     110       0       0       2       0                               0D     30
     120      24       0       0       0       0       0       001010001D     31
     120       0       0       1       0                               0D     32
     124      25       0       0       0       0       0       001020201D     33
     124       0       0       3       0                               0D     34
     100      28       0       0       0       0      33       001010001D     35
     100       0       0       1       0                               0D     36
     110      29       0       0       0       0       0       001010001D     37
     110       0       0       1       0                               0D     38
     124      30       0       0       0       0       0       001020201D     39
     124       0       0       3       0                               0D     40
     100      33       0       0       0       0      39       001010001D     41
     100       0       0       1       0                               0D     42
     110      34       0       0       0       0       0       001010001D     43
     110       0       0       1       0                               0D     44
     102      35       0       0       0       0       0       001010001D     45
     102       0       0       1       0                               0D     46
     142      36       0       0       0       0       0       001010001D     47
     142       0       0       1       0                               0D     48
     144      37       0       0   10000       0       0       000000000D     49
     144       0       0       1       0                               0D     50
     110      38       0       0       0       0       0       001010001D     51
     110       0       0       1       0                               0D     52
     110      39       0       0       0       0       0       001010001D     53
     110       0       0       1       0                               0D     54
     120      40       0       0       0       0       0       001010001D     55
     120       0       0       1       0                               0D     56
     124      41       0       0       0       0       0       001020201D     57
     124       0       0       2       0                               0D     58
     100      43       0       0       0       0      57       001010001D     59
     100       0       0       1       0                               0D     60
     110      44       0       0       0       0       0       001010001D     61
     110       0       0       1       0                               0D     62
     124      45       0       0       0       0       0       001020201D     63
     124       0       0       2       0                               0D     64
     100      47       0       0       0       0      63       001010001D     65
     100       0       0       1       0                               0D     66
     110      48       0       0       0       0       0       001010001D     67
     110       0       0       1       0                               0D     68
     102      49       0       0       0       0       0       001010001D     69
     102       0       0       1       0                               0D     70
     142      50       0       0       0       0       0       001010001D     71
     142       0       0       1       0                               0D     72
     144      51       0       0   10000       0       0       000000000D     73
     144       0       0       1       0                               0D     74
     110      52       0       0       0       0       0       001010001D     75
     110       0       0       1       0                               0D     76
     110      53       0       0       0       0       0       001010001D     77
     110       0       0       1       0                               0D     78
     120      54       0       0       0       0       0       001010001D     79
     120       0       0       1       0                               0D     80
     124      55       0       0       0       0       0       001020201D     81
     124       0       0       2       0                               0D     82
     100      57       0       0       0       0      81       001010001D     83
     100       0       0       1       0                               0D     84
     110      58       0       0       0       0       0       001010001D     85
     110       0       0       1       0                               0D     86
     124      59       0       0       0       0       0       001020201D     87
     124       0       0       2       0                               0D     88
     100      61       0       0       0       0      87       001010001D     89
     100       0       0       1       0                               0D     90
     110      62       0       0       0       0       0       001010001D     91
     110       0       0       1       0                               0D     92
     102      63       0       0       0       0       0       001010001D     93
     102       0       0       1       0                               0D     94
     142      64       0       0       0       0       0       001010001D     95
     142       0       0       1       0                               0D     96
     144      65       0       0   10000       0       0       000000000D     97
     144       0       0       1       0                               0D     98
     110      66       0       0       0       0       0       001010001D     99
     110       0       0       2       0                               0D    100
     110      68       0       0       0       0       0       001010001D    101
     110       0       0       1       0                               0D    102
     120      69       0       0       0       0       0       001010001D    103
     120       0       0       1       0                               0D    104
     124      70       0       0       0       0       0       001020201D    105
     124       0       0       3       0                               0D    106
     100      73       0       0       0       0     105       001010001D    107
     100       0       0       1       0                               0D    108
     110      74       0       0       0       0       0       001010001D    109
     110       0       0       1       0                               0D    110
     124      75       0       0       0       0       0       001020201D    111
     124       0       0       3       0                               0D    112
     100      78       0       0       0       0     111       001010001D    113
     100       0       0       1       0                               0D    114
     110      79       0       0       0       0       0       001010001D    115
     110       0       0       1       0                               0D    116
     102      80       0       0       0       0       0       001010001D    117
     102       0       0       1       0                               0D    118
     142      81       0       0       0       0       0       001010001D    119
     142       0       0       1       0                               0D    120
     144      82       0       0   10000       0       0       000000000D    121
     144       0       0       1       0                               0D    122
     110      83       0       0       0       0       0       001010001D    123
     110       0       0       2       0                               0D    124
     110      85       0       0       0       0       0       001010001D    125
     110       0       0       1       0                               0D    126
     120      86       0       0       0       0       0       001010001D    127
     120       0       0       1       0                               0D    128
     124      87       0       0       0       0       0       001020201D    129
     124       0       0       3       0                               0D    130
     100      90       0       0       0       0     129       001010001D    131
     100       0       0       1       0                               0D    132
     110      91       0       0       0       0       0       001010001D    133
     110       0       0       1       0                               0D    134
     124      92       0       0       0       0       0       001020201D    135
     124       0       0       3       0                               0D    136
     100      95       0       0       0       0     135       001010001D    137
     100       0       0       1       0                               0D    138
     110      96       0       0       0       0       0       001010001D    139
     110       0       0       1       0                               0D    140
     102      97       0       0       0       0       0       001010001D    141
     102       0       0       1       0                               0D    142
     142      98       0       0       0       0       0       001010001D    143
     142       0       0       1       0                               0D    144
     144      99       0       0   10000       0       0       000000000D    145
     144       0       0       1       0                               0D    146
     108     100       0       0       0       0       0       001010001D    147
     108       0       0       1       0                               0D    148
     124     101       0       0       0       0       0       001020201D    149
     124       0       0       2       0                               0D    150
     100     103       0       0       0       0     149       001010001D    151
     100       0       0       1       0                               0D    152
     124     104       0       0       0       0       0       001020201D    153
     124       0       0       2       0                               0D    154
     100     106       0       0       0       0     153       001010001D    155
     100       0       0       1       0                               0D    156
     102     107       0       0       0       0       0       001010001D    157
     102       0       0       1       0                               0D    158
     142     108       0       0       0       0       0       001010001D    159
     142       0       0       1       0                               0D    160
     124     109       0       0       0       0       0       001020201D    161
     124       0       0       2       0                               0D    162
     100     111       0       0       0       0     161       001010001D    163
     100       0       0       1       0                               0D    164
     124     112       0       0       0       0       0       001020201D    165
     124       0       0       2       0                               0D    166
     100     114       0       0       0       0     165       001010001D    167
     100       0       0       1       0                               0D    168
     102     115       0       0       0       0       0       001010001D    169
     102       0       0       1       0                               0D    170
     142     116       0       0       0       0       0       001010001D    171
     142       0       0       1       0                               0D    172
     144     117       0       0   10000       0       0       000000000D    173
     144       0       0       1       0                               0D    174
     110     118       0       0       0       0       0       001010001D    175
     110       0       0       2       0                               0D    176
     110     120       0       0       0       0       0       001010001D    177
     110       0       0       2       0                               0D    178
     120     122       0       0       0       0       0       001010001D    179
     120       0       0       1       0                               0D    180
     124     123       0       0       0       0       0       001020201D    181
     124       0       0       3       0                               0D    182
     100     126       0       0       0       0     181       001010001D    183
     100       0       0       1       0                               0D    184
     110     127       0       0       0       0       0       001010001D    185
     110       0       0       1       0                               0D    186
     124     128       0       0       0       0       0       001020201D    187
     124       0       0       3       0                               0D    188
     100     131       0       0       0       0     187       001010001D    189
     100       0       0       1       0                               0D    190
     110     132       0       0       0       0       0       001010001D    191
     110       0       0       1       0                               0D    192
     102     133       0       0       0       0       0       001010001D    193
     102       0       0       1       0                               0D    194
     142     134       0       0       0       0       0       001010001D    195
     142       0       0       1       0                               0D    196
     144     135       0       0   10000       0       0       000000000D    197
     144       0       0       1       0                               0D    198
     110     136       0       0       0       0       0       001010001D    199
     110       0       0       2       0                               0D    200
     110     138       0       0       0       0       0       001010001D    201
     110       0       0       2       0                               0D    202
     120     140       0       0       0       0       0       001010001D    203
     120       0       0       1       0                               0D    204
     124     141       0       0       0       0       0       001020201D    205
     124       0       0       3       0                               0D    206
     100     144       0       0       0       0     205       001010001D    207
     100       0       0       1       0                               0D    208
     110     145       0       0       0       0       0       001010001D    209
     110       0       0       1       0                               0D    210
     124     146       0       0       0       0       0       001020201D    211
     124       0       0       3       0                               0D    212
     100     149       0       0       0       0     211       001010001D    213
     100       0       0       1       0                               0D    214
     110     150       0       0       0       0       0       001010001D    215
     110       0       0       1       0                               0D    216
     102     151       0       0       0       0       0       001010001D    217
     102       0       0       1       0                               0D    218
     142     152       0       0       0       0       0       001010001D    219
     142       0       0       1       0                               0D    220
     144     153       0       0   10000       0       0       000000000D    221
     144       0       0       1       0                               0D    222
     108     154       0       0       0       0       0       001010001D    223
     108       0       0       1       0                               0D    224
     124     155       0       0       0       0       0       001020201D    225
     124       0       0       2       0                               0D    226
     100     157       0       0       0       0     225       001010001D    227
     100       0       0       1       0                               0D    228
     124     158       0       0       0       0       0       001020201D    229
     124       0       0       2       0                               0D    230
     100     160       0       0       0       0     229       001010001D    231
     100       0       0       1       0                               0D    232
     102     161       0       0       0       0       0       001010001D    233
     102       0       0       1       0                               0D    234
     142     162       0       0       0       0       0       001010001D    235
     142       0       0       1       0                               0D    236
     124     163       0       0       0       0       0       001020201D    237
     124       0       0       2       0                               0D    238
     100     165       0       0       0       0     237       001010001D    239
     100       0       0       1       0                               0D    240
     124     166       0       0       0       0       0       001020201D    241
     124       0       0       2       0                               0D    242
     100     168       0       0       0       0     241       001010001D    243
     100       0       0       1       0                               0D    244
     102     169       0       0       0       0       0       001010001D    245
     102       0       0       1       0                               0D    246
     142     170       0       0       0       0       0       001010001D    247
     142       0       0       1       0                               0D    248
     144     171       0       0   10000       0       0       000000000D    249
     144       0       0       1       0                               0D    250
     110     172       0       0       0       0       0       001010001D    251
     110       0       0       1       0                               0D    252
     110     173       0       0       0       0       0       001010001D    253
     110       0       0       1       0                               0D    254
     120     174       0       0       0       0       0       001010001D    255
     120       0       0       1       0                               0D    256
     110     175       0       0       0       0       0       001010001D    257
     110       0       0       1       0                               0D    258
     124     176       0       0       0       0       0       001020201D    259
     124       0       0       2       0                               0D    260
     100     178       0       0       0       0     259       001010001D    261
     100       0       0       1       0                               0D    262
     110     179       0       0       0       0       0       001010001D    263
     110       0       0       1       0                               0D    264
     124     180       0       0       0       0       0       001020201D    265
     124       0       0       2       0                               0D    266
     100     182       0       0       0       0     265       001010001D    267
     100       0       0       1       0                               0D    268
     102     183       0       0       0       0       0       001010001D    269
     102       0       0       1       0                               0D    270
     142     184       0       0       0       0       0       001010001D    271
     142       0       0       1       0                               0D    272
     144     185       0       0   10000       0       0       000000000D    273
     144       0       0       1       0                               0D    274
     110     186       0       0       0       0       0       001010001D    275
     110       0       0       1       0                               0D    276
     110     187       0       0       0       0       0       001010001D    277
     110       0       0       1       0                               0D    278
     120     188       0       0       0       0       0       001010001D    279
     120       0       0       1       0                               0D    280
     110     189       0       0       0       0       0       001010001D    281
     110       0       0       1       0                               0D    282
     124     190       0       0       0       0       0       001020201D    283
     124       0       0       2       0                               0D    284
     100     192       0       0       0       0     283       001010001D    285
     100       0       0       1       0                               0D    286
     110     193       0       0       0       0       0       001010001D    287
     110       0       0       1       0                               0D    288
     124     194       0       0       0       0       0       001020201D    289
     124       0       0       2       0                               0D    290
     100     196       0       0       0       0     289       001010001D    291
     100       0       0       1       0                               0D    292
     102     197       0       0       0       0       0       001010001D    293
     102       0       0       1       0                               0D    294
     142     198       0       0       0       0       0       001010001D    295
     142       0       0       1       0                               0D    296
     144     199       0       0   10000       0       0       000000000D    297
     144       0       0       1       0                               0D    298
     110     200       0       0       0       0       0       001010001D    299
     110       0       0       2       0                               0D    300
     110     202       0       0       0       0       0       001010001D    301
     110       0       0       1       0                               0D    302
     120     203       0       0       0       0       0       001010001D    303
     120       0       0       1       0                               0D    304
     124     204       0       0       0       0       0       001020201D    305
     124       0       0       3       0                               0D    306
     100     207       0       0       0       0     305       001010001D    307
     100       0       0       1       0                               0D    308
     110     208       0       0       0       0       0       001010001D    309
     110       0       0       1       0                               0D    310
     124     209       0       0       0       0       0       001020201D    311
     124       0       0       3       0                               0D    312
     100     212       0       0       0       0     311       001010001D    313
     100       0       0       1       0                               0D    314
     110     213       0       0       0       0       0       001010001D    315
     110       0       0       1       0                               0D    316
     102     214       0       0       0       0       0       001010001D    317
     102       0       0       1       0                               0D    318
     142     215       0       0       0       0       0       001010001D    319
     142       0       0       1       0                               0D    320
     144     216       0       0   10000       0       0       000000000D    321
     144       0       0       1       0                               0D    322
     110     217       0       0       0       0       0       001010001D    323
     110       0       0       2       0                               0D    324
     110     219       0       0       0       0       0       001010001D    325
     110       0       0       1       0                               0D    326
     120     220       0       0       0       0       0       001010001D    327
     120       0       0       1       0                               0D    328
     124     221       0       0       0       0       0       001020201D    329
     124       0       0       3       0                               0D    330
     100     224       0       0       0       0     329       001010001D    331
     100       0       0       1       0                               0D    332
     110     225       0       0       0       0       0       001010001D    333
     110       0       0       1       0                               0D    334
     124     226       0       0       0       0       0       001020201D    335
     124       0       0       3       0                               0D    336
     100     229       0       0       0       0     335       001010001D    337
     100       0       0       1       0                               0D    338
     110     230       0       0       0       0       0       001010001D    339
     110       0       0       1       0                               0D    340
     102     231       0       0       0       0       0       001010001D    341
     102       0       0       1       0                               0D    342
     142     232       0       0       0       0       0       001010001D    343
     142       0       0       1       0                               0D    344
     144     233       0       0   10000       0       0       000000000D    345
     144       0       0       1       0                               0D    346
406,1,15HCorps principal,0,0;                                          1P      1
110,-3.552713679E-014,-9.5,-1.199040867E-013,-3.197442311E-014,        3P      2
-8.5,-1.074695888E-013,0,0;                                            3P      3
110,9.5,8.704148513E-014,2.938419406E-007,10.0,0.5,                    5P      4
3.093073122E-007,0,0;                                                  5P      5
120,3,5,0.0,3.141592685,0,0;                                           7P      6
124,1.0,-3.216285745E-016,-2.639639794E-015,2.271919407E-028,          9P      7
-6.394884622E-015,1.094044719E-014,1.0,0.5,-3.216285745E-016,          9P      8
-1.0,1.094044719E-014,4.440892099E-015,0,0;                            9P      9
100,0.0,0.0,0.0,10.0,0.0,-10.0,1.010639055E-014,0,0;                  11P     10
110,-10.0,0.5,-2.449212708E-015,-9.5,0.0,-1.165262548E-014,0,0;       13P     11
124,-1.0,1.039607225E-015,2.639639794E-015,-1.776356839E-015,         15P     12
-6.544472566E-015,1.094044719E-014,-1.0,6.217248938E-014,             15P     13
-1.039607225E-015,-1.0,-1.094044719E-014,-1.776356839E-015,0,0;       15P     14
100,0.0,0.0,0.0,9.5,0.0,-9.5,-7.623742208E-007,0,0;                   17P     15
110,9.5,0.0,7.623742289E-007,10.0,0.5,1.224606354E-015,0,0;           19P     16
102,4,11,13,17,19,0,0;                                                21P     17
142,0,7,0,21,2,0,0;                                                   23P     18
144,7,1,0,23,0,1,1;                                                   25P     19
110,8.437694987E-015,-9.5,-3.463895837E-014,7.549516567E-015,         27P     20
-8.5,-3.108624469E-014,0,0;                                           27P     21
110,-9.5,7.105427358E-015,5.510728592E-016,-10.0,0.5,                 29P     22
2.403179766E-015,0,0;                                                 29P     23
120,27,29,0.0,3.141592573,0,0;                                        31P     24
124,-1.0,-3.337391127E-016,-9.801057487E-032,-4.440892099E-016,       33P     25
-7.105427358E-016,-3.552713679E-015,1.0,0.5,-3.337391127E-016,        33P     26
1.0,3.552713679E-015,8.881784197E-016,0,0;                            33P     27
100,0.0,0.0,0.0,10.0,0.0,-10.0,-3.000963193E-015,0,0;                 35P     28
110,10.0,0.5,1.224606354E-015,9.5,0.0,7.623742289E-007,0,0;           37P     29
124,1.0,-8.024991893E-008,9.801057487E-032,-6.310887242E-030,         39P     30
-7.479397219E-016,-3.552713679E-015,-1.0,7.105427358E-015,            39P     31
8.024991893E-008,1.0,-3.552713679E-015,-8.881784197E-016,0,0;         39P     32
100,0.0,0.0,0.0,9.5,0.0,-9.5,7.62374219E-007,0,0;                     41P     33
110,-9.5,0.0,-1.165262548E-014,-10.0,0.5,-2.449212708E-015,0,0;       43P     34
102,4,35,37,41,43,0,0;                                                45P     35
142,0,31,0,45,2,0,0;                                                  47P     36
144,31,1,0,47,0,1,1;                                                  49P     37
110,0.0,1.5,0.0,0.0,2.5,0.0,0,0;                                      51P     38
110,-10.0,0.5,0.0,-10.0,2.5,0.0,0,0;                                  53P     39
120,51,53,0.0,6.283185307,0,0;                                        55P     40
124,-1.0,-2.449212708E-016,0.0,0.0,0.0,0.0,1.0,2.5,                   57P     41
-2.449212708E-016,1.0,0.0,0.0,0,0;                                    57P     42
100,0.0,0.0,0.0,10.0,0.0,-10.0,-1.224606354E-015,0,0;                 59P     43
110,10.0,2.5,1.224606354E-015,10.0,0.5,1.224606354E-015,0,0;          61P     44
124,1.0,-1.224606354E-016,0.0,0.0,0.0,0.0,-1.0,0.5,                   63P     45
1.224606354E-016,1.0,0.0,0.0,0,0;                                     63P     46
100,0.0,0.0,0.0,10.0,0.0,-10.0,-1.224606354E-015,0,0;                 65P     47
110,-10.0,0.5,-2.449212708E-015,-10.0,2.5,-2.449212708E-015,0,0;      67P     48
102,4,59,61,65,67,0,0;                                                69P     49
142,0,55,0,69,2,0,0;                                                  71P     50
144,55,1,0,71,0,1,1;                                                  73P     51
110,0.0,1.5,0.0,0.0,2.5,0.0,0,0;                                      75P     52
110,10.0,0.5,1.224606354E-015,10.0,2.5,1.224606354E-015,0,0;          77P     53
120,75,77,0.0,6.283185307,0,0;                                        79P     54
124,1.0,1.224606354E-016,0.0,0.0,0.0,0.0,1.0,2.5,                     81P     55
1.224606354E-016,-1.0,0.0,0.0,0,0;                                    81P     56
100,0.0,0.0,0.0,10.0,0.0,-10.0,1.224606354E-015,0,0;                  83P     57
110,-10.0,2.5,-2.449212708E-015,-10.0,0.5,-2.449212708E-015,0,0;      85P     58
124,-1.0,2.449212708E-016,0.0,0.0,0.0,0.0,-1.0,0.5,                   87P     59
-2.449212708E-016,-1.0,0.0,0.0,0,0;                                   87P     60
100,0.0,0.0,0.0,10.0,0.0,-10.0,1.224606354E-015,0,0;                  89P     61
110,10.0,0.5,1.224606354E-015,10.0,2.5,1.224606354E-015,0,0;          91P     62
102,4,83,85,89,91,0,0;                                                93P     63
142,0,79,0,93,2,0,0;                                                  95P     64
144,79,1,0,95,0,1,1;                                                  97P     65
110,-3.552713679E-014,12.5,-1.199040867E-013,-3.907985047E-014,       99P     66
13.5,-1.323385845E-013,0,0;                                           99P     67
110,9.5,3.0,8.881784197E-015,10.0,2.5,1.598721155E-014,0,0;          101P     68
120,99,101,0.0,3.141592654,0,0;                                      103P     69
124,1.0,8.024991902E-008,2.639639794E-015,-1.776356839E-015,         105P     70
6.544472566E-015,-1.09404474E-014,1.0,3.0,8.024991902E-008,-1.0,     105P     71
-1.094044719E-014,-1.776356839E-015,0,0;                             105P     72
100,0.0,0.0,0.0,9.5,0.0,-9.5,-7.623742208E-007,0,0;                  107P     73
110,-9.5,3.0,-1.165262548E-014,-10.0,2.5,-2.449212708E-015,0,0;      109P     74
124,-1.0,6.890104806E-016,-2.639639794E-015,2.271919407E-028,        111P     75
6.394884622E-015,-1.094044719E-014,-1.0,2.5,-6.890104806E-016,       111P     76
-1.0,1.094044719E-014,4.440892099E-015,0,0;                          111P     77
100,0.0,0.0,0.0,10.0,0.0,-10.0,1.010639055E-014,0,0;                 113P     78
110,10.0,2.5,1.224606354E-015,9.5,3.0,7.623742289E-007,0,0;          115P     79
102,4,107,109,113,115,0,0;                                           117P     80
142,0,103,0,117,2,0,0;                                               119P     81
144,103,1,0,119,0,1,1;                                               121P     82
110,8.437694987E-015,12.5,-3.463895837E-014,9.325873407E-015,        123P     83
13.5,-3.819167205E-014,0,0;                                          123P     84
110,-9.5,3.0,-1.731947918E-015,-10.0,2.5,2.524354897E-029,0,0;       125P     85
120,123,125,0.0,3.141592654,0,0;                                     127P     86
124,-1.0,-1.13309969E-015,9.801057487E-032,-6.310887242E-030,        129P     87
7.479397219E-016,3.552713679E-015,1.0,3.0,-1.13309969E-015,1.0,      129P     88
-3.552713679E-015,-8.881784197E-016,0,0;                             129P     89
100,0.0,0.0,0.0,9.5,0.0,-9.5,7.62374219E-007,0,0;                    131P     90
110,9.5,3.0,7.623742289E-007,10.0,2.5,1.224606354E-015,0,0;          133P     91
124,1.0,-3.364279341E-017,-9.801057487E-032,-4.440892099E-016,       135P     92
7.105427358E-016,3.552713679E-015,-1.0,2.5,3.364279341E-017,1.0,     135P     93
3.552713679E-015,8.881784197E-016,0,0;                               135P     94
100,0.0,0.0,0.0,10.0,0.0,-10.0,-3.000963193E-015,0,0;                137P     95
110,-10.0,2.5,-2.449212708E-015,-9.5,3.0,-1.165262548E-014,0,0;      139P     96
102,4,131,133,137,139,0,0;                                           141P     97
142,0,127,0,141,2,0,0;                                               143P     98
144,127,1,0,143,0,1,1;                                               145P     99
108,0.0,1.0,0.0,0.0,0,0.0,0.0,0.0,1.0,0,0;                           147P    100
124,1.0,8.024991893E-008,0.0,9.436895709E-016,0.0,0.0,1.0,0.0,       149P    101
8.024991893E-008,-1.0,0.0,-8.881784197E-016,0,0;                     149P    102
100,0.0,0.0,0.0,9.5,0.0,-9.5,-7.62374219E-007,0,0;                   151P    103
124,-1.0,-1.226592156E-015,0.0,-2.199629368E-015,0.0,0.0,1.0,        153P    104
0.0,-1.226592156E-015,1.0,0.0,0.0,0,0;                               153P    105
100,0.0,0.0,0.0,9.5,0.0,-9.5,7.623742173E-007,0,0;                   155P    106
102,2,151,155,0,0;                                                   157P    107
142,0,147,0,157,2,0,0;                                               159P    108
124,-1.0,2.449212708E-016,0.0,-4.440892099E-015,0.0,0.0,-1.0,        161P    109
0.0,-2.449212708E-016,-1.0,0.0,-1.998848678E-015,0,0;                161P    110
100,0.0,0.0,0.0,5.5,0.0,-5.5,8.255057114E-007,0,0;                   163P    111
124,1.0,1.500919472E-007,0.0,5.606626274E-015,0.0,0.0,-1.0,0.0,      165P    112
-1.500919472E-007,1.0,0.0,-2.442490654E-015,0,0;                     165P    113
100,0.0,0.0,0.0,5.5,0.0,-5.5,-8.255057105E-007,0,0;                  167P    114
102,2,163,167,0,0;                                                   169P    115
142,0,147,0,169,2,0,0;                                               171P    116
144,147,1,1,159,171,0,1,1;                                           173P    117
110,-7.416289804E-014,5.5,1.865174681E-014,-8.926193118E-014,        175P    118
6.5,2.220446049E-014,0,0;                                            175P    119
110,-5.0,0.5,2.587463769E-028,-5.5,9.769962617E-014,                 177P    120
-1.865174681E-015,0,0;                                               177P    121
120,175,177,0.0,3.141592654,0,0;                                     179P    122
124,-1.0,-4.468613177E-016,8.112717264E-031,8.881784197E-015,        181P    123
-1.776356839E-014,-3.552713679E-015,1.0,9.769962617E-014,            181P    124
-4.468613177E-016,1.0,3.552713679E-015,-8.881784197E-016,0,0;        181P    125
100,0.0,0.0,0.0,5.5,0.0,-5.5,-8.255057136E-007,0,0;                  183P    126
110,5.5,0.0,-8.25505712E-007,5.0,0.5,6.123031769E-016,0,0;           185P    127
124,1.0,5.517504856E-017,-8.112717264E-031,1.33226763E-015,          187P    128
-1.634248292E-014,-3.552713679E-015,-1.0,0.5,-5.517504856E-017,      187P    129
1.0,-3.552713679E-015,8.881784197E-016,0,0;                          187P    130
100,0.0,0.0,0.0,5.0,0.0,-5.0,-2.388660016E-015,0,0;                  189P    131
110,-5.0,0.5,-1.224606354E-015,-5.5,0.0,-3.345915667E-015,0,0;       191P    132
102,4,183,185,189,191,0,0;                                           193P    133
142,0,179,0,193,2,0,0;                                               195P    134
144,179,1,0,195,0,1,1;                                               197P    135
110,3.15303339E-014,5.5,2.781108677E-013,3.774758284E-014,6.5,       199P    136
3.336220189E-013,0,0;                                                199P    137
110,5.0,0.5,-1.110223025E-013,5.5,3.295141937E-013,                  201P    138
-1.498801083E-013,0,0;                                               201P    139
120,199,201,0.0,3.141592654,0,0;                                     203P    140
124,1.0,-1.500919427E-007,-2.424911437E-014,-2.664535259E-015,       205P    141
-3.568862377E-014,3.337603897E-014,1.0,1.962874308E-013,             205P    142
-1.500919427E-007,-1.0,3.337604261E-014,-2.72004641E-014,0,0;        205P    143
100,0.0,0.0,0.0,5.5,0.0,-5.5,8.255056609E-007,0,0;                   207P    144
110,-5.5,0.0,-3.345915667E-015,-5.0,0.5,-1.224606354E-015,0,0;       209P    145
124,-1.0,3.559435732E-016,2.424911437E-014,4.440892099E-016,         211P    146
-3.677058658E-014,3.337604261E-014,-1.0,0.5,-3.559435732E-016,       211P    147
-1.0,-3.337604261E-014,5.551115123E-016,0,0;                         211P    148
100,0.0,0.0,0.0,5.0,0.0,-5.0,1.722526202E-015,0,0;                   213P    149
110,5.0,0.5,6.123031769E-016,5.5,0.0,-8.25505712E-007,0,0;           215P    150
102,4,207,209,213,215,0,0;                                           217P    151
142,0,203,0,217,2,0,0;                                               219P    152
144,203,1,0,219,0,1,1;                                               221P    153
108,0.0,1.0,0.0,3.0,0,0.0,3.0,0.0,1.0,0,0;                           223P    154
124,1.0,-8.024991883E-008,0.0,-2.199629368E-015,0.0,0.0,-1.0,        225P    155
3.0,8.024991883E-008,1.0,0.0,0.0,0,0;                                225P    156
100,0.0,0.0,0.0,9.5,0.0,-9.5,7.623742173E-007,0,0;                   227P    157
124,-1.0,1.13309969E-015,0.0,9.436895709E-016,0.0,0.0,-1.0,3.0,      229P    158
-1.13309969E-015,-1.0,0.0,-8.881784197E-016,0,0;                     229P    159
100,0.0,0.0,0.0,9.5,0.0,-9.5,-7.62374219E-007,0,0;                   231P    160
102,2,227,231,0,0;                                                   233P    161
142,0,223,0,233,2,0,0;                                               235P    162
124,-1.0,-1.642590932E-016,0.0,5.606626274E-015,0.0,0.0,1.0,3.0,     237P    163
-1.642590932E-016,1.0,0.0,-2.442490654E-015,0,0;                     237P    164
100,0.0,0.0,0.0,5.5,0.0,-5.5,-8.255057105E-007,0,0;                  239P    165
124,1.0,-1.500919473E-007,0.0,-4.440892099E-015,0.0,0.0,1.0,3.0,     241P    166
-1.500919473E-007,-1.0,0.0,-1.998848678E-015,0,0;                    241P    167
100,0.0,0.0,0.0,5.5,0.0,-5.5,8.255057114E-007,0,0;                   243P    168
102,2,239,243,0,0;                                                   245P    169
142,0,223,0,245,2,0,0;                                               247P    170
144,223,1,1,235,247,0,1,1;                                           249P    171
110,0.0,1.5,0.0,0.0,2.5,0.0,0,0;                                     251P    172
110,5.0,0.5,6.123031769E-016,5.0,2.5,6.123031769E-016,0,0;           253P    173
120,251,253,0.0,6.283185307,0,0;                                     255P    174
110,5.0,2.5,6.123031769E-016,5.0,0.5,6.123031769E-016,0,0;           257P    175
124,1.0,1.224606354E-016,0.0,0.0,0.0,0.0,1.0,0.5,                    259P    176
1.224606354E-016,-1.0,0.0,0.0,0,0;                                   259P    177
100,0.0,0.0,0.0,5.0,0.0,-5.0,6.123031769E-016,0,0;                   261P    178
110,-5.0,0.5,-1.224606354E-015,-5.0,2.5,-1.224606354E-015,0,0;       263P    179
124,-1.0,2.449212708E-016,0.0,0.0,0.0,0.0,-1.0,2.5,                  265P    180
-2.449212708E-016,-1.0,0.0,0.0,0,0;                                  265P    181
100,0.0,0.0,0.0,5.0,0.0,-5.0,6.123031769E-016,0,0;                   267P    182
102,4,257,261,263,267,0,0;                                           269P    183
142,0,255,0,269,2,0,0;                                               271P    184
144,255,1,0,271,0,1,1;                                               273P    185
110,0.0,1.5,0.0,0.0,2.5,0.0,0,0;                                     275P    186
110,-5.0,0.5,0.0,-5.0,2.5,0.0,0,0;                                   277P    187
120,275,277,0.0,6.283185307,0,0;                                     279P    188
110,-5.0,2.5,-1.224606354E-015,-5.0,0.5,-1.224606354E-015,0,0;       281P    189
124,-1.0,-2.449212708E-016,0.0,0.0,0.0,0.0,1.0,0.5,                  283P    190
-2.449212708E-016,1.0,0.0,0.0,0,0;                                   283P    191
100,0.0,0.0,0.0,5.0,0.0,-5.0,-6.123031769E-016,0,0;                  285P    192
110,5.0,0.5,6.123031769E-016,5.0,2.5,6.123031769E-016,0,0;           287P    193
124,1.0,-1.224606354E-016,0.0,0.0,0.0,0.0,-1.0,2.5,                  289P    194
1.224606354E-016,1.0,0.0,0.0,0,0;                                    289P    195
100,0.0,0.0,0.0,5.0,0.0,-5.0,-6.123031769E-016,0,0;                  291P    196
102,4,281,285,287,291,0,0;                                           293P    197
142,0,279,0,293,2,0,0;                                               295P    198
144,279,1,0,295,0,1,1;                                               297P    199
110,-7.416289804E-014,-2.5,1.865174681E-014,-5.906386491E-014,       299P    200
-1.5,1.509903313E-014,0,0;                                           299P    201
110,-5.0,2.5,2.029941871E-015,-5.5,3.0,3.677613769E-016,0,0;         301P    202
120,299,301,0.0,3.141592804,0,0;                                     303P    203
124,-1.0,-4.225569547E-016,-8.112717264E-031,1.33226763E-015,        305P    204
1.634248292E-014,3.552713679E-015,1.0,2.5,-4.225569547E-016,1.0,     305P    205
-3.552713679E-015,8.881784197E-016,0,0;                              305P    206
100,0.0,0.0,0.0,5.0,0.0,-5.0,-2.388660016E-015,0,0;                  307P    207
110,5.0,2.5,6.123031769E-016,5.5,3.0,-8.25505712E-007,0,0;           309P    208
124,1.0,1.500919475E-007,8.112717264E-031,8.881784197E-015,          311P    209
1.776356839E-014,3.552713679E-015,-1.0,3.0,-1.500919475E-007,        311P    210
1.0,3.552713679E-015,-8.881784197E-016,0,0;                          311P    211
100,0.0,0.0,0.0,5.5,0.0,-5.5,-8.255057136E-007,0,0;                  313P    212
110,-5.5,3.0,-3.345915667E-015,-5.0,2.5,-1.224606354E-015,0,0;       315P    213
102,4,307,309,313,315,0,0;                                           317P    214
142,0,303,0,317,2,0,0;                                               319P    215
144,303,1,0,319,0,1,1;                                               321P    216
110,3.15303339E-014,-2.5,2.781108677E-013,2.531308496E-014,-1.5,     323P    217
2.225997164E-013,0,0;                                                323P    218
110,5.0,2.5,-8.482103908E-014,5.5,3.0,-1.214583989E-013,0,0;         325P    219
120,323,325,0.0,3.141592654,0,0;                                     327P    220
124,1.0,1.143833292E-017,2.424911437E-014,4.440892099E-016,          329P    221
3.677058658E-014,-3.337604261E-014,1.0,2.5,1.143833292E-017,         329P    222
-1.0,-3.337604261E-014,5.551115123E-016,0,0;                         329P    223
100,0.0,0.0,0.0,5.0,0.0,-5.0,1.722526202E-015,0,0;                   331P    224
110,-5.0,2.5,-1.224606354E-015,-5.5,3.0,-3.345915667E-015,0,0;       333P    225
124,-1.0,-4.337190625E-015,-2.424911437E-014,-2.664535259E-015,      335P    226
3.568862377E-014,-3.337604261E-014,-1.0,3.0,4.337190625E-015,        335P    227
-1.0,3.337604261E-014,-2.72004641E-014,0,0;                          335P    228
100,0.0,0.0,0.0,5.5,0.0,-5.5,8.255056609E-007,0,0;                   337P    229
110,5.5,3.0,-8.25505712E-007,5.0,2.5,6.123031769E-016,0,0;           339P    230
102,4,331,333,337,339,0,0;                                           341P    231
142,0,327,0,341,2,0,0;                                               343P    232
144,327,1,0,343,0,1,1;                                               345P    233
S      1G      5D    346P    233                                        T      1
