START RECORD GO HERE.                                                   S      1
1H,,1H;,20HCNEXT - IGES PRODUCT,13H20M_FU_RD.igs,44HIBM CATIA IGES - CATG      1
IA Version 5 Release 19 ,27HCATIA Version 5 Release 19 ,32,75,6,75,15,  G      2
19HChape_LFUA-ArmR_Low,1.0,2,2HMM,1000,1.0,15H20191216.212952,0.001,    G      3
10000.0,5Halexb,15HLAPTOP-PR6NE7IP,11,0,15H20191216.212952,;            G      4
     116       1       0       0   10000       0       0       000000001D      1
     116       0       0       1       0                origin         0D      2
     116       2       0       0   10000       0       0       000000001D      3
     116       0       0       1       0                Point.2        0D      4
     116       3       0       0   10000       0       0       000000001D      5
     116       0       0       1       0                Point.5        0D      6
     116       4       0       0   10000       0       0       000000001D      7
     116       0       0       1       0                Point.6        0D      8
     406       5       0       0       0       0       0       000010201D      9
     406       0       0       1      15                               0D     10
     110       6       0       0       0       0       0       001010001D     11
     110       0       0       1       0                               0D     12
     110       7       0       0       0       0       0       001010001D     13
     110       0       0       2       0                               0D     14
     120       9       0       0       0       0       0       001010001D     15
     120       0       0       1       0                               0D     16
     124      10       0       0       0       0       0       001020201D     17
     124       0       0       2       0                               0D     18
     100      12       0       0       0       0      17       001010001D     19
     100       0       0       1       0                               0D     20
     110      13       0       0       0       0       0       001010001D     21
     110       0       0       2       0                               0D     22
     124      15       0       0       0       0       0       001020201D     23
     124       0       0       2       0                               0D     24
     100      17       0       0       0       0      23       001010001D     25
     100       0       0       1       0                               0D     26
     110      18       0       0       0       0       0       001010001D     27
     110       0       0       2       0                               0D     28
     102      20       0       0       0       0       0       001010001D     29
     102       0       0       1       0                               0D     30
     142      21       0       0       0       0       0       001010001D     31
     142       0       0       1       0                               0D     32
     144      22       0       0   10000       0       0       000000000D     33
     144       0       0       1       0                               0D     34
     110      23       0       0       0       0       0       001010001D     35
     110       0       0       1       0                               0D     36
     110      24       0       0       0       0       0       001010001D     37
     110       0       0       1       0                               0D     38
     120      25       0       0       0       0       0       001010001D     39
     120       0       0       1       0                               0D     40
     110      26       0       0       0       0       0       001010001D     41
     110       0       0       1       0                               0D     42
     124      27       0       0       0       0       0       001020201D     43
     124       0       0       1       0                               0D     44
     100      28       0       0       0       0      43       001010001D     45
     100       0       0       1       0                               0D     46
     110      29       0       0       0       0       0       001010001D     47
     110       0       0       1       0                               0D     48
     124      30       0       0       0       0       0       001020201D     49
     124       0       0       2       0                               0D     50
     100      32       0       0       0       0      49       001010001D     51
     100       0       0       1       0                               0D     52
     102      33       0       0       0       0       0       001010001D     53
     102       0       0       1       0                               0D     54
     142      34       0       0       0       0       0       001010001D     55
     142       0       0       1       0                               0D     56
     144      35       0       0   10000       0       0       000000000D     57
     144       0       0       1       0                               0D     58
     110      36       0       0       0       0       0       001010001D     59
     110       0       0       1       0                               0D     60
     110      37       0       0       0       0       0       001010001D     61
     110       0       0       1       0                               0D     62
     120      38       0       0       0       0       0       001010001D     63
     120       0       0       1       0                               0D     64
     110      39       0       0       0       0       0       001010001D     65
     110       0       0       1       0                               0D     66
     124      40       0       0       0       0       0       001020201D     67
     124       0       0       2       0                               0D     68
     100      42       0       0       0       0      67       001010001D     69
     100       0       0       1       0                               0D     70
     110      43       0       0       0       0       0       001010001D     71
     110       0       0       1       0                               0D     72
     124      44       0       0       0       0       0       001020201D     73
     124       0       0       2       0                               0D     74
     100      46       0       0       0       0      73       001010001D     75
     100       0       0       1       0                               0D     76
     102      47       0       0       0       0       0       001010001D     77
     102       0       0       1       0                               0D     78
     142      48       0       0       0       0       0       001010001D     79
     142       0       0       1       0                               0D     80
     144      49       0       0   10000       0       0       000000000D     81
     144       0       0       1       0                               0D     82
     108      50       0       0       0       0       0       001010001D     83
     108       0       0       2       0                               0D     84
     110      52       0       0       0       0       0       001010001D     85
     110       0       0       2       0                               0D     86
     110      54       0       0       0       0       0       001010001D     87
     110       0       0       2       0                               0D     88
     110      56       0       0       0       0       0       001010001D     89
     110       0       0       2       0                               0D     90
     110      58       0       0       0       0       0       001010001D     91
     110       0       0       2       0                               0D     92
     102      60       0       0       0       0       0       001010001D     93
     102       0       0       1       0                               0D     94
     142      61       0       0       0       0       0       001010001D     95
     142       0       0       1       0                               0D     96
     144      62       0       0   10000       0       0       000000000D     97
     144       0       0       1       0                               0D     98
     110      63       0       0       0       0       0       001010001D     99
     110       0       0       2       0                               0D    100
     110      65       0       0       0       0       0       001010001D    101
     110       0       0       2       0                               0D    102
     120      67       0       0       0       0       0       001010001D    103
     120       0       0       1       0                               0D    104
     110      68       0       0       0       0       0       001010001D    105
     110       0       0       2       0                               0D    106
     124      70       0       0       0       0       0       001020201D    107
     124       0       0       2       0                               0D    108
     100      72       0       0       0       0     107       001010001D    109
     100       0       0       1       0                               0D    110
     110      73       0       0       0       0       0       001010001D    111
     110       0       0       2       0                               0D    112
     124      75       0       0       0       0       0       001020201D    113
     124       0       0       2       0                               0D    114
     100      77       0       0       0       0     113       001010001D    115
     100       0       0       1       0                               0D    116
     102      78       0       0       0       0       0       001010001D    117
     102       0       0       1       0                               0D    118
     142      79       0       0       0       0       0       001010001D    119
     142       0       0       1       0                               0D    120
     144      80       0       0   10000       0       0       000000000D    121
     144       0       0       1       0                               0D    122
     108      81       0       0       0       0       0       001010001D    123
     108       0       0       2       0                               0D    124
     110      83       0       0       0       0       0       001010001D    125
     110       0       0       2       0                               0D    126
     110      85       0       0       0       0       0       001010001D    127
     110       0       0       2       0                               0D    128
     110      87       0       0       0       0       0       001010001D    129
     110       0       0       2       0                               0D    130
     110      89       0       0       0       0       0       001010001D    131
     110       0       0       2       0                               0D    132
     102      91       0       0       0       0       0       001010001D    133
     102       0       0       1       0                               0D    134
     142      92       0       0       0       0       0       001010001D    135
     142       0       0       1       0                               0D    136
     144      93       0       0   10000       0       0       000000000D    137
     144       0       0       1       0                               0D    138
     110      94       0       0       0       0       0       001010001D    139
     110       0       0       2       0                               0D    140
     110      96       0       0       0       0       0       001010001D    141
     110       0       0       2       0                               0D    142
     120      98       0       0       0       0       0       001010001D    143
     120       0       0       1       0                               0D    144
     110      99       0       0       0       0       0       001010001D    145
     110       0       0       2       0                               0D    146
     124     101       0       0       0       0       0       001020201D    147
     124       0       0       3       0                               0D    148
     100     104       0       0       0       0     147       001010001D    149
     100       0       0       1       0                               0D    150
     110     105       0       0       0       0       0       001010001D    151
     110       0       0       2       0                               0D    152
     124     107       0       0       0       0       0       001020201D    153
     124       0       0       2       0                               0D    154
     100     109       0       0       0       0     153       001010001D    155
     100       0       0       1       0                               0D    156
     102     110       0       0       0       0       0       001010001D    157
     102       0       0       1       0                               0D    158
     142     111       0       0       0       0       0       001010001D    159
     142       0       0       1       0                               0D    160
     144     112       0       0   10000       0       0       000000000D    161
     144       0       0       1       0                               0D    162
     108     113       0       0       0       0       0       001010001D    163
     108       0       0       1       0                               0D    164
     124     114       0       0       0       0       0       001020201D    165
     124       0       0       2       0                               0D    166
     100     116       0       0       0       0     165       001010001D    167
     100       0       0       1       0                               0D    168
     110     117       0       0       0       0       0       001010001D    169
     110       0       0       2       0                               0D    170
     124     119       0       0       0       0       0       001020201D    171
     124       0       0       2       0                               0D    172
     100     121       0       0       0       0     171       001010001D    173
     100       0       0       1       0                               0D    174
     110     122       0       0       0       0       0       001010001D    175
     110       0       0       2       0                               0D    176
     124     124       0       0       0       0       0       001020201D    177
     124       0       0       2       0                               0D    178
     100     126       0       0       0       0     177       001010001D    179
     100       0       0       1       0                               0D    180
     126     127       0       0       0       0       0       001010001D    181
     126       0       0       9       0                               0D    182
     124     136       0       0       0       0       0       001020201D    183
     124       0       0       2       0                               0D    184
     100     138       0       0       0       0     183       001010001D    185
     100       0       0       1       0                               0D    186
     126     139       0       0       0       0       0       001010001D    187
     126       0       0       8       0                               0D    188
     102     147       0       0       0       0       0       001010001D    189
     102       0       0       1       0                               0D    190
     142     148       0       0       0       0       0       001010001D    191
     142       0       0       1       0                               0D    192
     124     149       0       0       0       0       0       001020201D    193
     124       0       0       2       0                               0D    194
     100     151       0       0       0       0     193       001010001D    195
     100       0       0       1       0                               0D    196
     124     152       0       0       0       0       0       001020201D    197
     124       0       0       2       0                               0D    198
     100     154       0       0       0       0     197       001010001D    199
     100       0       0       1       0                               0D    200
     102     155       0       0       0       0       0       001010001D    201
     102       0       0       1       0                               0D    202
     142     156       0       0       0       0       0       001010001D    203
     142       0       0       1       0                               0D    204
     144     157       0       0   10000       0       0       000000000D    205
     144       0       0       1       0                               0D    206
     108     158       0       0       0       0       0       001010001D    207
     108       0       0       1       0                               0D    208
     126     159       0       0       0       0       0       001010001D    209
     126       0       0       9       0                               0D    210
     124     168       0       0       0       0       0       001020201D    211
     124       0       0       2       0                               0D    212
     100     170       0       0       0       0     211       001010001D    213
     100       0       0       1       0                               0D    214
     126     171       0       0       0       0       0       001010001D    215
     126       0       0       9       0                               0D    216
     124     180       0       0       0       0       0       001020201D    217
     124       0       0       2       0                               0D    218
     100     182       0       0       0       0     217       001010001D    219
     100       0       0       1       0                               0D    220
     110     183       0       0       0       0       0       001010001D    221
     110       0       0       2       0                               0D    222
     124     185       0       0       0       0       0       001020201D    223
     124       0       0       2       0                               0D    224
     100     187       0       0       0       0     223       001010001D    225
     100       0       0       1       0                               0D    226
     110     188       0       0       0       0       0       001010001D    227
     110       0       0       2       0                               0D    228
     124     190       0       0       0       0       0       001020201D    229
     124       0       0       2       0                               0D    230
     100     192       0       0       0       0     229       001010001D    231
     100       0       0       1       0                               0D    232
     102     193       0       0       0       0       0       001010001D    233
     102       0       0       1       0                               0D    234
     142     194       0       0       0       0       0       001010001D    235
     142       0       0       1       0                               0D    236
     124     195       0       0       0       0       0       001020201D    237
     124       0       0       2       0                               0D    238
     100     197       0       0       0       0     237       001010001D    239
     100       0       0       1       0                               0D    240
     124     198       0       0       0       0       0       001020201D    241
     124       0       0       1       0                               0D    242
     100     199       0       0       0       0     241       001010001D    243
     100       0       0       1       0                               0D    244
     102     200       0       0       0       0       0       001010001D    245
     102       0       0       1       0                               0D    246
     142     201       0       0       0       0       0       001010001D    247
     142       0       0       1       0                               0D    248
     144     202       0       0   10000       0       0       000000000D    249
     144       0       0       1       0                               0D    250
     126     203       0       0       0       0       0       001010001D    251
     126       0       0       9       0                               0D    252
     122     212       0       0       0       0       0       001010001D    253
     122       0       0       1       0                               0D    254
     126     213       0       0       0       0       0       001010001D    255
     126       0       0       8       0                               0D    256
     110     221       0       0       0       0       0       001010001D    257
     110       0       0       2       0                               0D    258
     126     223       0       0       0       0       0       001010001D    259
     126       0       0       9       0                               0D    260
     110     232       0       0       0       0       0       001010001D    261
     110       0       0       2       0                               0D    262
     102     234       0       0       0       0       0       001010001D    263
     102       0       0       1       0                               0D    264
     142     235       0       0       0       0       0       001010001D    265
     142       0       0       1       0                               0D    266
     144     236       0       0   10000       0       0       000000000D    267
     144       0       0       1       0                               0D    268
     126     237       0       0       0       0       0       001010001D    269
     126       0       0       9       0                               0D    270
     122     246       0       0       0       0       0       001010001D    271
     122       0       0       1       0                               0D    272
     126     247       0       0       0       0       0       001010001D    273
     126       0       0       9       0                               0D    274
     110     256       0       0       0       0       0       001010001D    275
     110       0       0       2       0                               0D    276
     126     258       0       0       0       0       0       001010001D    277
     126       0       0       9       0                               0D    278
     110     267       0       0       0       0       0       001010001D    279
     110       0       0       2       0                               0D    280
     102     269       0       0       0       0       0       001010001D    281
     102       0       0       1       0                               0D    282
     142     270       0       0       0       0       0       001010001D    283
     142       0       0       1       0                               0D    284
     144     271       0       0   10000       0       0       000000000D    285
     144       0       0       1       0                               0D    286
     110     272       0       0       0       0       0       001010001D    287
     110       0       0       2       0                               0D    288
     110     274       0       0       0       0       0       001010001D    289
     110       0       0       2       0                               0D    290
     120     276       0       0       0       0       0       001010001D    291
     120       0       0       1       0                               0D    292
     124     277       0       0       0       0       0       001020201D    293
     124       0       0       2       0                               0D    294
     100     279       0       0       0       0     293       001010001D    295
     100       0       0       1       0                               0D    296
     110     280       0       0       0       0       0       001010001D    297
     110       0       0       2       0                               0D    298
     124     282       0       0       0       0       0       001020201D    299
     124       0       0       2       0                               0D    300
     100     284       0       0       0       0     299       001010001D    301
     100       0       0       1       0                               0D    302
     110     285       0       0       0       0       0       001010001D    303
     110       0       0       2       0                               0D    304
     102     287       0       0       0       0       0       001010001D    305
     102       0       0       1       0                               0D    306
     142     288       0       0       0       0       0       001010001D    307
     142       0       0       1       0                               0D    308
     144     289       0       0   10000       0       0       000000000D    309
     144       0       0       1       0                               0D    310
116,0.0,0.0,-10.0,0,0,0;                                               1P      1
116,-12.07879425,-35.05630438,-10.0,0,0,0;                             3P      2
116,-13.43170796,-34.8169513,-11.58938376,0,0,0;                       5P      3
116,-12.07879425,-35.05630438,-0.5091594669,0,0,0;                     7P      4
406,1,15HCorps principal,0,0;                                          9P      5
110,0.0,0.0,-12.0,0.0,0.0,-11.0,0,0;                                  11P      6
110,6.871119688,-1.337054314,-14.0,6.871119688,-1.337054314,          13P      7
-10.0,0,0;                                                            13P      8
120,11,13,0.0,6.283185307,0,0;                                        15P      9
124,0.9815885268,0.1910077591,0.0,0.0,-0.1910077591,                  17P     10
0.9815885268,0.0,0.0,0.0,0.0,1.0,-10.0,0,0;                           17P     11
100,0.0,0.0,0.0,7.0,0.0,-6.728831872,1.929461491,0,0;                 19P     12
110,-6.236402048,3.179196359,-10.0,-6.236402048,3.179196359,          21P     13
-14.0,0,0;                                                            21P     14
124,-0.8909145783,0.4541709085,0.0,0.0,0.4541709085,                  23P     15
0.8909145783,0.0,0.0,0.0,0.0,-1.0,-14.0,0,0;                          23P     16
100,0.0,0.0,0.0,7.0,0.0,-6.728831872,1.929461491,0,0;                 25P     17
110,6.871119688,-1.337054314,-14.0,6.871119688,-1.337054314,          27P     18
-10.0,0,0;                                                            27P     19
102,4,19,21,25,27,0,0;                                                29P     20
142,0,15,0,29,2,0,0;                                                  31P     21
144,15,1,0,31,0,1,9;                                                  33P     22
110,0.0,0.0,-12.0,0.0,0.0,-11.0,0,0;                                  35P     23
110,3.2,0.0,-14.0,3.2,0.0,-10.0,0,0;                                  37P     24
120,35,37,0.0,6.283185307,0,0;                                        39P     25
110,3.2,-7.837480664E-016,-10.0,3.2,0.0,-14.0,0,0;                    41P     26
124,1.0,0.0,0.0,0.0,0.0,1.0,0.0,0.0,0.0,0.0,1.0,-14.0,0,0;            43P     27
100,0.0,0.0,0.0,3.2,0.0,-3.2,3.918740332E-016,0,0;                    45P     28
110,-3.2,3.918740332E-016,-14.0,-3.2,3.918740332E-016,-10.0,0,0;      47P     29
124,-1.0,1.224606354E-016,0.0,0.0,1.224606354E-016,1.0,0.0,0.0,       49P     30
0.0,0.0,-1.0,-10.0,0,0;                                               49P     31
100,0.0,0.0,0.0,3.2,0.0,-3.2,-3.918740332E-016,0,0;                   51P     32
102,4,41,45,47,51,0,0;                                                53P     33
142,0,39,0,53,2,0,0;                                                  55P     34
144,39,1,0,55,0,1,9;                                                  57P     35
110,0.0,0.0,-12.0,0.0,0.0,-11.0,0,0;                                  59P     36
110,-3.2,3.918740332E-016,-14.0,-3.2,3.918740332E-016,-10.0,0,0;      61P     37
120,59,61,0.0,6.283185307,0,0;                                        63P     38
110,-3.2,3.918740332E-016,-10.0,-3.2,3.918740332E-016,-14.0,0,0;      65P     39
124,-1.0,-1.224606354E-016,0.0,0.0,1.224606354E-016,-1.0,0.0,         67P     40
0.0,0.0,0.0,1.0,-14.0,0,0;                                            67P     41
100,0.0,0.0,0.0,3.2,0.0,-3.2,-3.918740332E-016,0,0;                   69P     42
110,3.2,0.0,-14.0,3.2,-7.837480664E-016,-10.0,0,0;                    71P     43
124,1.0,-2.449212708E-016,0.0,0.0,-2.449212708E-016,-1.0,0.0,         73P     44
0.0,0.0,0.0,-1.0,-10.0,0,0;                                           73P     45
100,0.0,0.0,0.0,3.2,0.0,-3.2,3.918740332E-016,0,0;                    75P     46
102,4,65,69,71,75,0,0;                                                77P     47
142,0,63,0,77,2,0,0;                                                  79P     48
144,63,1,0,79,0,1,9;                                                  81P     49
108,0.9815885268,-0.1910077591,0.0,7.0,0,6.871119688,                 83P     50
-1.337054314,-10.0,1.0,0,0;                                           83P     51
110,1.478457911,-29.04993338,-14.0,1.478457911,-29.04993338,          85P     52
-10.0,0,0;                                                            85P     53
110,1.478457911,-29.04993338,-10.0,6.871119688,-1.337054314,          87P     54
-10.0,0,0;                                                            87P     55
110,6.871119688,-1.337054314,-10.0,6.871119688,-1.337054314,          89P     56
-14.0,0,0;                                                            89P     57
110,6.871119688,-1.337054314,-14.0,1.478457911,-29.04993338,          91P     58
-14.0,0,0;                                                            91P     59
102,4,85,87,89,91,0,0;                                                93P     60
142,0,83,0,93,2,0,0;                                                  95P     61
144,83,1,0,95,0,1,9;                                                  97P     62
110,0.9876636477,-28.9544295,-12.0,0.9876636477,-28.9544295,          99P     63
-11.0,0,0;                                                            99P     64
110,0.5163357737,-29.1213128,-14.0,0.5163357737,-29.1213128,         101P     65
-10.0,0,0;                                                           101P     66
120,99,101,0.0,6.283185307,0,0;                                      103P     67
110,1.478457911,-29.04993338,-10.0,1.478457911,-29.04993338,         105P     68
-14.0,0,0;                                                           105P     69
124,0.9815885268,-0.1910077591,0.0,0.9876636477,-0.1910077591,       107P     70
-0.9815885268,0.0,-28.9544295,0.0,0.0,-1.0,-14.0,0,0;                107P     71
100,0.0,0.0,0.0,0.5,0.0,-0.4307740286,0.2538380118,0,0;              109P     72
110,0.5163357737,-29.1213128,-14.0,0.5163357737,-29.1213128,         111P     73
-10.0,0,0;                                                           111P     74
124,-0.942655748,0.3337665964,0.0,0.9876636477,-0.3337665964,        113P     75
-0.942655748,0.0,-28.9544295,0.0,0.0,1.0,-10.0,0,0;                  113P     76
100,0.0,0.0,0.0,0.5,0.0,-0.4307740286,0.2538380118,0,0;              115P     77
102,4,105,109,111,115,0,0;                                           117P     78
142,0,103,0,117,2,0,0;                                               119P     79
144,103,1,0,119,0,1,9;                                               121P     80
108,0.8909145783,-0.4541709085,0.0,-7.0,0,-6.236402048,              123P     81
3.179196359,-10.0,1.0,0,0;                                           123P     82
110,-17.53728678,-18.98894071,-14.0,-6.236402048,3.179196359,        125P     83
-14.0,0,0;                                                           125P     84
110,-6.236402048,3.179196359,-14.0,-6.236402048,3.179196359,         127P     85
-10.0,0,0;                                                           127P     86
110,-6.236402048,3.179196359,-10.0,-17.53728678,-18.98894071,        129P     87
-10.0,0,0;                                                           129P     88
110,-17.53728678,-18.98894071,-10.0,-17.53728678,-18.98894071,       131P     89
-14.0,0,0;                                                           131P     90
102,4,125,127,129,131,0,0;                                           133P     91
142,0,123,0,133,2,0,0;                                               135P     92
144,123,1,0,135,0,1,9;                                               137P     93
110,-17.09182949,-19.21602617,-12.0,-17.09182949,-19.21602617,       139P     94
-13.0,0,0;                                                           139P     95
110,-16.97316502,-19.70174084,-10.0,-16.97316502,-19.70174084,       141P     96
-14.0,0,0;                                                           141P     97
120,139,141,0.0,6.283185307,0,0;                                     143P     98
110,-16.97316502,-19.70174084,-10.0,-16.97316502,-19.70174084,       145P     99
-14.0,0,0;                                                           145P    100
124,0.2373289307,-0.9714293482,0.0,-17.09182949,-0.9714293482,       147P    101
-0.2373289307,0.0,-19.21602617,3.552713679E-015,0.0,-1.0,-14.0,      147P    102
0,0;                                                                 147P    103
100,0.0,0.0,0.0,0.5,0.0,-0.3263173769,0.378836336,0,0;               149P    104
110,-17.53728678,-18.98894071,-14.0,-17.53728678,-18.98894071,       151P    105
-10.0,0,0;                                                           151P    106
124,-0.8909145783,-0.4541709085,0.0,-17.09182949,0.4541709085,       153P    107
-0.8909145783,0.0,-19.21602617,0.0,0.0,1.0,-10.0,0,0;                153P    108
100,0.0,0.0,0.0,0.5,0.0,-0.3263173769,0.378836336,0,0;               155P    109
102,4,145,149,151,155,0,0;                                           157P    110
142,0,143,0,157,2,0,0;                                               159P    111
144,143,1,0,159,0,1,9;                                               161P    112
108,0.0,0.0,1.0,-10.0,0,0.0,0.0,-10.0,1.0,0,0;                       163P    113
124,0.2373289307,-0.9714293482,0.0,-17.09182949,-0.9714293482,       165P    114
-0.2373289307,0.0,-19.21602617,0.0,0.0,-1.0,-10.0,0,0;               165P    115
100,0.0,0.0,0.0,0.5,0.0,-0.3263173769,0.378836336,0,0;               167P    116
110,-17.53728678,-18.98894071,-10.0,-6.236402048,3.179196359,        169P    117
-10.0,0,0;                                                           169P    118
124,-0.8909145783,0.4541709085,0.0,0.0,0.4541709085,                 171P    119
0.8909145783,0.0,0.0,0.0,0.0,-1.0,-10.0,0,0;                         171P    120
100,0.0,0.0,0.0,7.0,0.0,-6.728831872,1.929461491,0,0;                173P    121
110,6.871119688,-1.337054314,-10.0,1.478457911,-29.04993338,         175P    122
-10.0,0,0;                                                           175P    123
124,0.9815885268,-0.1910077591,0.0,0.9876636477,-0.1910077591,       177P    124
-0.9815885268,0.0,-28.9544295,0.0,0.0,-1.0,-10.0,0,0;                177P    125
100,0.0,0.0,0.0,0.5,0.0,-0.4307740286,0.2538380118,0,0;              179P    126
126,8,5,0,0,1,0,14.32163069,14.32163069,14.32163069,14.32163069,     181P    127
14.32163069,14.32163069,20.55985294,20.55985294,20.55985294,         181P    128
28.2017692,28.2017692,28.2017692,28.2017692,28.2017692,              181P    129
28.2017692,1.0,1.0,1.0,1.0,1.0,1.0,1.0,1.0,1.0,0.5163357737,         181P    130
-29.1213128,-10.0,0.2218725258,-28.28966135,-10.0,-0.1331898869,     181P    131
-27.47945917,-10.0,-0.5465833406,-26.69653934,-10.0,-1.58931199,     181P    132
-25.02739998,-10.0,-2.887099806,-23.54445089,-10.0,-3.672119792,     181P    133
-22.79338305,-10.0,-4.519266366,-22.1154974,-10.0,-5.419183819,      181P    134
-21.51700092,-10.0,14.32163069,28.2017692,0.0,0.0,0.0,0,0;           181P    135
124,0.5537719879,-0.8326683526,0.0,-5.696069813,0.8326683526,        183P    136
0.5537719879,0.0,-21.9333351,0.0,0.0,1.0,-10.0,0,0;                  183P    137
100,0.0,0.0,0.0,0.5,0.0,0.4996156336,0.01960149687,0,0;              185P    138
126,8,5,0,0,1,0,0.0,0.0,0.0,0.0,0.0,0.0,8.214846521,8.214846521,     187P    139
8.214846521,16.94846056,16.94846056,16.94846056,16.94846056,         187P    140
16.94846056,16.94846056,1.0,1.0,1.0,1.0,1.0,1.0,1.0,1.0,1.0,         187P    141
-5.435718216,-21.50646621,-10.0,-6.427575822,-20.90152236,-10.0,     187P    142
-7.476818358,-20.39060969,-10.0,-8.571557538,-19.98099891,-10.0,     187P    143
-10.89665234,-19.3556355,-10.0,-13.30041303,-19.19476789,-10.0,      187P    144
-14.54344532,-19.23842649,-10.0,-15.77333019,-19.4086104,-10.0,      187P    145
-16.97316502,-19.70174084,-10.0,0.0,16.94846056,0.0,0.0,0.0,0,0;     187P    146
102,8,167,169,173,175,179,181,185,187,0,0;                           189P    147
142,0,163,0,189,2,0,0;                                               191P    148
124,1.0,2.449212708E-016,0.0,0.0,-2.449212708E-016,1.0,0.0,0.0,      193P    149
0.0,0.0,1.0,-10.0,0,0;                                               193P    150
100,0.0,0.0,0.0,3.2,0.0,-3.2,-3.918740332E-016,0,0;                  195P    151
124,-1.0,-1.224606354E-016,0.0,0.0,1.224606354E-016,-1.0,0.0,        197P    152
0.0,0.0,0.0,1.0,-10.0,0,0;                                           197P    153
100,0.0,0.0,0.0,3.2,0.0,-3.2,3.918740332E-016,0,0;                   199P    154
102,2,195,199,0,0;                                                   201P    155
142,0,163,0,201,2,0,0;                                               203P    156
144,163,1,1,191,203,0,1,9;                                           205P    157
108,0.0,0.0,1.0,-14.0,0,0.0,0.0,-14.0,1.0,0,0;                       207P    158
126,8,5,0,0,1,0,10.92755895,10.92755895,10.92755895,10.92755895,     209P    159
10.92755895,10.92755895,19.66117299,19.66117299,19.66117299,         209P    160
27.87601951,27.87601951,27.87601951,27.87601951,27.87601951,         209P    161
27.87601951,1.0,1.0,1.0,1.0,1.0,1.0,1.0,1.0,1.0,-16.97316502,        209P    162
-19.70174084,-14.0,-15.77333019,-19.4086104,-14.0,-14.54344532,      209P    163
-19.23842649,-14.0,-13.30041303,-19.19476789,-14.0,-10.89665234,     209P    164
-19.3556355,-14.0,-8.571557538,-19.98099891,-14.0,-7.476818358,      209P    165
-20.39060969,-14.0,-6.427575822,-20.90152236,-14.0,-5.435718216,     209P    166
-21.50646621,-14.0,10.92755895,27.87601951,0.0,0.0,0.0,0,0;          209P    167
124,0.520703193,0.8537377729,0.0,-5.696069813,0.8537377729,          211P    168
-0.520703193,0.0,-21.9333351,0.0,0.0,-1.0,-14.0,0,0;                 211P    169
100,0.0,0.0,0.0,0.5,0.0,0.4996156336,0.01960149687,0,0;              213P    170
126,8,5,0,0,1,0,0.0,0.0,0.0,0.0,0.0,0.0,7.64191626,7.64191626,       215P    171
7.64191626,13.88013851,13.88013851,13.88013851,13.88013851,          215P    172
13.88013851,13.88013851,1.0,1.0,1.0,1.0,1.0,1.0,1.0,1.0,1.0,         215P    173
-5.419183819,-21.51700092,-14.0,-4.519266366,-22.1154974,-14.0,      215P    174
-3.672119792,-22.79338305,-14.0,-2.887099806,-23.54445089,-14.0,     215P    175
-1.58931199,-25.02739998,-14.0,-0.5465833406,-26.69653934,-14.0,     215P    176
-0.1331898869,-27.47945917,-14.0,0.2218725258,-28.28966135,          215P    177
-14.0,0.5163357737,-29.1213128,-14.0,0.0,13.88013851,0.0,0.0,        215P    178
0.0,0,0;                                                             215P    179
124,-0.942655748,0.3337665964,0.0,0.9876636477,-0.3337665964,        217P    180
-0.942655748,0.0,-28.9544295,0.0,0.0,1.0,-14.0,0,0;                  217P    181
100,0.0,0.0,0.0,0.5,0.0,-0.4307740286,0.2538380118,0,0;              219P    182
110,1.478457911,-29.04993338,-14.0,6.871119688,-1.337054314,         221P    183
-14.0,0,0;                                                           221P    184
124,0.9815885268,0.1910077591,0.0,0.0,-0.1910077591,                 223P    185
0.9815885268,0.0,0.0,0.0,0.0,1.0,-14.0,0,0;                          223P    186
100,0.0,0.0,0.0,7.0,0.0,-6.728831872,1.929461491,0,0;                225P    187
110,-6.236402048,3.179196359,-14.0,-17.53728678,-18.98894071,        227P    188
-14.0,0,0;                                                           227P    189
124,-0.8909145783,-0.4541709085,0.0,-17.09182949,0.4541709085,       229P    190
-0.8909145783,0.0,-19.21602617,0.0,0.0,1.0,-14.0,0,0;                229P    191
100,0.0,0.0,0.0,0.5,0.0,-0.3263173769,0.378836336,0,0;               231P    192
102,8,209,213,215,219,221,225,227,231,0,0;                           233P    193
142,0,207,0,233,2,0,0;                                               235P    194
124,-1.0,1.224606354E-016,0.0,0.0,1.224606354E-016,1.0,0.0,0.0,      237P    195
0.0,0.0,-1.0,-14.0,0,0;                                              237P    196
100,0.0,0.0,0.0,3.2,0.0,-3.2,3.918740332E-016,0,0;                   239P    197
124,1.0,0.0,0.0,0.0,0.0,-1.0,0.0,0.0,0.0,0.0,-1.0,-14.0,0,0;         241P    198
100,0.0,0.0,0.0,3.2,0.0,-3.2,-3.918740332E-016,0,0;                  243P    199
102,2,239,243,0,0;                                                   245P    200
142,0,207,0,245,2,0,0;                                               247P    201
144,207,1,1,235,247,0,1,9;                                           249P    202
126,8,5,0,0,1,0,10.92755895,10.92755895,10.92755895,10.92755895,     251P    203
10.92755895,10.92755895,19.66117299,19.66117299,19.66117299,         251P    204
27.87601951,27.87601951,27.87601951,27.87601951,27.87601951,         251P    205
27.87601951,1.0,1.0,1.0,1.0,1.0,1.0,1.0,1.0,1.0,-16.97316502,        251P    206
-19.70174084,-10.0,-15.77333019,-19.4086104,-10.0,-14.54344532,      251P    207
-19.23842649,-10.0,-13.30041303,-19.19476789,-10.0,-10.89665234,     251P    208
-19.3556355,-10.0,-8.571557538,-19.98099891,-10.0,-7.476818358,      251P    209
-20.39060969,-10.0,-6.427575822,-20.90152236,-10.0,-5.435718216,     251P    210
-21.50646621,-10.0,10.92755895,27.87601951,0.0,0.0,0.0,0,0;          251P    211
122,251,-16.97316502,-19.70174084,-14.0,0,0;                         253P    212
126,8,5,0,0,1,0,0.0,0.0,0.0,0.0,0.0,0.0,8.214846521,8.214846521,     255P    213
8.214846521,16.94846056,16.94846056,16.94846056,16.94846056,         255P    214
16.94846056,16.94846056,1.0,1.0,1.0,1.0,1.0,1.0,1.0,1.0,1.0,         255P    215
-5.435718216,-21.50646621,-14.0,-6.427575822,-20.90152236,-14.0,     255P    216
-7.476818358,-20.39060969,-14.0,-8.571557538,-19.98099891,-14.0,     255P    217
-10.89665234,-19.3556355,-14.0,-13.30041303,-19.19476789,-14.0,      255P    218
-14.54344532,-19.23842649,-14.0,-15.77333019,-19.4086104,-14.0,      255P    219
-16.97316502,-19.70174084,-14.0,0.0,16.94846056,0.0,0.0,0.0,0,0;     255P    220
110,-16.97316502,-19.70174084,-14.0,-16.97316502,-19.70174084,       257P    221
-10.0,0,0;                                                           257P    222
126,8,5,0,0,1,0,10.92755895,10.92755895,10.92755895,10.92755895,     259P    223
10.92755895,10.92755895,19.66117299,19.66117299,19.66117299,         259P    224
27.87601951,27.87601951,27.87601951,27.87601951,27.87601951,         259P    225
27.87601951,1.0,1.0,1.0,1.0,1.0,1.0,1.0,1.0,1.0,-16.97316502,        259P    226
-19.70174084,-10.0,-15.77333019,-19.4086104,-10.0,-14.54344532,      259P    227
-19.23842649,-10.0,-13.30041303,-19.19476789,-10.0,-10.89665234,     259P    228
-19.3556355,-10.0,-8.571557538,-19.98099891,-10.0,-7.476818358,      259P    229
-20.39060969,-10.0,-6.427575822,-20.90152236,-10.0,-5.435718216,     259P    230
-21.50646621,-10.0,10.92755895,27.87601951,0.0,0.0,0.0,0,0;          259P    231
110,-5.435718216,-21.50646621,-10.0,-5.435718216,-21.50646621,       261P    232
-14.0,0,0;                                                           261P    233
102,4,255,257,259,261,0,0;                                           263P    234
142,0,253,0,263,2,0,0;                                               265P    235
144,253,1,0,265,0,1,9;                                               267P    236
126,8,5,0,0,1,0,14.32163069,14.32163069,14.32163069,14.32163069,     269P    237
14.32163069,14.32163069,20.55985294,20.55985294,20.55985294,         269P    238
28.2017692,28.2017692,28.2017692,28.2017692,28.2017692,              269P    239
28.2017692,1.0,1.0,1.0,1.0,1.0,1.0,1.0,1.0,1.0,0.5163357737,         269P    240
-29.1213128,-14.0,0.2218725258,-28.28966135,-14.0,-0.1331898869,     269P    241
-27.47945917,-14.0,-0.5465833406,-26.69653934,-14.0,-1.58931199,     269P    242
-25.02739998,-14.0,-2.887099806,-23.54445089,-14.0,-3.672119792,     269P    243
-22.79338305,-14.0,-4.519266366,-22.1154974,-14.0,-5.419183819,      269P    244
-21.51700092,-14.0,14.32163069,28.2017692,0.0,0.0,0.0,0,0;           269P    245
122,269,0.5163357737,-29.1213128,-10.0,0,0;                          271P    246
126,8,5,0,0,1,0,0.0,0.0,0.0,0.0,0.0,0.0,7.64191626,7.64191626,       273P    247
7.64191626,13.88013851,13.88013851,13.88013851,13.88013851,          273P    248
13.88013851,13.88013851,1.0,1.0,1.0,1.0,1.0,1.0,1.0,1.0,1.0,         273P    249
-5.419183819,-21.51700092,-10.0,-4.519266366,-22.1154974,-10.0,      273P    250
-3.672119792,-22.79338305,-10.0,-2.887099806,-23.54445089,-10.0,     273P    251
-1.58931199,-25.02739998,-10.0,-0.5465833406,-26.69653934,-10.0,     273P    252
-0.1331898869,-27.47945917,-10.0,0.2218725258,-28.28966135,          273P    253
-10.0,0.5163357737,-29.1213128,-10.0,0.0,13.88013851,0.0,0.0,        273P    254
0.0,0,0;                                                             273P    255
110,0.5163357737,-29.1213128,-10.0,0.5163357737,-29.1213128,         275P    256
-14.0,0,0;                                                           275P    257
126,8,5,0,0,1,0,14.32163069,14.32163069,14.32163069,14.32163069,     277P    258
14.32163069,14.32163069,20.55985294,20.55985294,20.55985294,         277P    259
28.2017692,28.2017692,28.2017692,28.2017692,28.2017692,              277P    260
28.2017692,1.0,1.0,1.0,1.0,1.0,1.0,1.0,1.0,1.0,0.5163357737,         277P    261
-29.1213128,-14.0,0.2218725258,-28.28966135,-14.0,-0.1331898869,     277P    262
-27.47945917,-14.0,-0.5465833406,-26.69653934,-14.0,-1.58931199,     277P    263
-25.02739998,-14.0,-2.887099806,-23.54445089,-14.0,-3.672119792,     277P    264
-22.79338305,-14.0,-4.519266366,-22.1154974,-14.0,-5.419183819,      277P    265
-21.51700092,-14.0,14.32163069,28.2017692,0.0,0.0,0.0,0,0;           277P    266
110,-5.419183819,-21.51700092,-14.0,-5.419183819,-21.51700092,       279P    267
-10.0,0,0;                                                           279P    268
102,4,273,275,277,279,0,0;                                           281P    269
142,0,271,0,281,2,0,0;                                               283P    270
144,271,1,0,283,0,1,9;                                               285P    271
110,-5.696069813,-21.9333351,-12.0,-5.696069813,-21.9333351,         287P    272
-11.0,0,0;                                                           287P    273
110,-5.419183819,-21.51700092,-14.0,-5.419183819,-21.51700092,       289P    274
-10.0,0,0;                                                           289P    275
120,287,289,0.0,6.283185307,0,0;                                     291P    276
124,0.5537719879,-0.8326683526,0.0,-5.696069813,0.8326683526,        293P    277
0.5537719879,0.0,-21.9333351,0.0,0.0,1.0,-14.0,0,0;                  293P    278
100,0.0,0.0,0.0,0.5,0.0,0.4996156336,0.01960149687,0,0;              295P    279
110,-5.435718216,-21.50646621,-14.0,-5.435718216,-21.50646621,       297P    280
-10.0,0,0;                                                           297P    281
124,0.520703193,0.8537377729,0.0,-5.696069813,0.8537377729,          299P    282
-0.520703193,0.0,-21.9333351,0.0,0.0,-1.0,-10.0,0,0;                 299P    283
100,0.0,0.0,0.0,0.5,0.0,0.4996156336,0.01960149687,0,0;              301P    284
110,-5.419183819,-21.51700092,-10.0,-5.419183819,-21.51700092,       303P    285
-14.0,0,0;                                                           303P    286
102,4,295,297,301,303,0,0;                                           305P    287
142,0,291,0,305,2,0,0;                                               307P    288
144,291,1,0,307,0,1,9;                                               309P    289
S      1G      4D    310P    289                                        T      1
