START RECORD GO HERE.                                                   S      1
1H,,1H;,20HCNEXT - IGES PRODUCT,13H20M_RL_TU.igs,44HIBM CATIA IGES - CATG      1
IA Version 5 Release 19 ,27HCATIA Version 5 Release 19 ,32,75,6,75,15,  G      2
16HChape_Up_Tie_Rod,1.0,2,2HMM,1000,1.0,15H20191216.220633,0.001,       G      3
10000.0,5Halexb,15HLAPTOP-PR6NE7IP,11,0,15H20191216.220633,;            G      4
     116       1       0       0   10000       0       0       000000001D      1
     116       0       0       1       0                Point.1        0D      2
     116       2       0       0   10000       0       0       000000001D      3
     116       0       0       1       0                Point.2        0D      4
     406       3       0       0       0       0       0       000010201D      5
     406       0       0       1      15                               0D      6
     110       4       0       0       0       0       0       001010001D      7
     110       0       0       1       0                               0D      8
     110       5       0       0       0       0       0       001010001D      9
     110       0       0       1       0                               0D     10
     120       6       0       0       0       0       0       001010001D     11
     120       0       0       1       0                               0D     12
     110       7       0       0       0       0       0       001010001D     13
     110       0       0       1       0                               0D     14
     124       8       0       0       0       0       0       001020201D     15
     124       0       0       2       0                               0D     16
     100      10       0       0       0       0      15       001010001D     17
     100       0       0       1       0                               0D     18
     110      11       0       0       0       0       0       001010001D     19
     110       0       0       2       0                               0D     20
     124      13       0       0       0       0       0       001020201D     21
     124       0       0       2       0                               0D     22
     100      15       0       0       0       0      21       001010001D     23
     100       0       0       1       0                               0D     24
     102      16       0       0       0       0       0       001010001D     25
     102       0       0       1       0                               0D     26
     142      17       0       0       0       0       0       001010001D     27
     142       0       0       1       0                               0D     28
     144      18       0       0   10000       0       0       000000000D     29
     144       0       0       1       0                               0D     30
     110      19       0       0       0       0       0       001010001D     31
     110       0       0       1       0                               0D     32
     110      20       0       0       0       0       0       001010001D     33
     110       0       0       1       0                               0D     34
     120      21       0       0       0       0       0       001010001D     35
     120       0       0       1       0                               0D     36
     124      22       0       0       0       0       0       001020201D     37
     124       0       0       2       0                               0D     38
     100      24       0       0       0       0      37       001010001D     39
     100       0       0       1       0                               0D     40
     110      25       0       0       0       0       0       001010001D     41
     110       0       0       1       0                               0D     42
     124      26       0       0       0       0       0       001020201D     43
     124       0       0       2       0                               0D     44
     100      28       0       0       0       0      43       001010001D     45
     100       0       0       1       0                               0D     46
     110      29       0       0       0       0       0       001010001D     47
     110       0       0       1       0                               0D     48
     102      30       0       0       0       0       0       001010001D     49
     102       0       0       1       0                               0D     50
     142      31       0       0       0       0       0       001010001D     51
     142       0       0       1       0                               0D     52
     144      32       0       0   10000       0       0       000000000D     53
     144       0       0       1       0                               0D     54
     110      33       0       0       0       0       0       001010001D     55
     110       0       0       1       0                               0D     56
     110      34       0       0       0       0       0       001010001D     57
     110       0       0       1       0                               0D     58
     120      35       0       0       0       0       0       001010001D     59
     120       0       0       1       0                               0D     60
     124      36       0       0       0       0       0       001020201D     61
     124       0       0       2       0                               0D     62
     100      38       0       0       0       0      61       001010001D     63
     100       0       0       1       0                               0D     64
     110      39       0       0       0       0       0       001010001D     65
     110       0       0       1       0                               0D     66
     124      40       0       0       0       0       0       001020201D     67
     124       0       0       1       0                               0D     68
     100      41       0       0       0       0      67       001010001D     69
     100       0       0       1       0                               0D     70
     110      42       0       0       0       0       0       001010001D     71
     110       0       0       1       0                               0D     72
     102      43       0       0       0       0       0       001010001D     73
     102       0       0       1       0                               0D     74
     142      44       0       0       0       0       0       001010001D     75
     142       0       0       1       0                               0D     76
     144      45       0       0   10000       0       0       000000000D     77
     144       0       0       1       0                               0D     78
     108      46       0       0       0       0       0       001010001D     79
     108       0       0       2       0                               0D     80
     110      48       0       0       0       0       0       001010001D     81
     110       0       0       2       0                               0D     82
     110      50       0       0       0       0       0       001010001D     83
     110       0       0       2       0                               0D     84
     110      52       0       0       0       0       0       001010001D     85
     110       0       0       2       0                               0D     86
     110      54       0       0       0       0       0       001010001D     87
     110       0       0       2       0                               0D     88
     102      56       0       0       0       0       0       001010001D     89
     102       0       0       1       0                               0D     90
     142      57       0       0       0       0       0       001010001D     91
     142       0       0       1       0                               0D     92
     144      58       0       0   10000       0       0       000000000D     93
     144       0       0       1       0                               0D     94
     110      59       0       0       0       0       0       001010001D     95
     110       0       0       2       0                               0D     96
     110      61       0       0       0       0       0       001010001D     97
     110       0       0       2       0                               0D     98
     120      63       0       0       0       0       0       001010001D     99
     120       0       0       1       0                               0D    100
     110      64       0       0       0       0       0       001010001D    101
     110       0       0       2       0                               0D    102
     124      66       0       0       0       0       0       001020201D    103
     124       0       0       2       0                               0D    104
     100      68       0       0       0       0     103       001010001D    105
     100       0       0       1       0                               0D    106
     110      69       0       0       0       0       0       001010001D    107
     110       0       0       2       0                               0D    108
     124      71       0       0       0       0       0       001020201D    109
     124       0       0       2       0                               0D    110
     100      73       0       0       0       0     109       001010001D    111
     100       0       0       1       0                               0D    112
     102      74       0       0       0       0       0       001010001D    113
     102       0       0       1       0                               0D    114
     142      75       0       0       0       0       0       001010001D    115
     142       0       0       1       0                               0D    116
     144      76       0       0   10000       0       0       000000000D    117
     144       0       0       1       0                               0D    118
     126      77       0       0       0       0       0       001010001D    119
     126       0       0      12       0                               0D    120
     122      89       0       0       0       0       0       001010001D    121
     122       0       0       1       0                               0D    122
     126      90       0       0       0       0       0       001010001D    123
     126       0       0      11       0                               0D    124
     110     101       0       0       0       0       0       001010001D    125
     110       0       0       2       0                               0D    126
     126     103       0       0       0       0       0       001010001D    127
     126       0       0      12       0                               0D    128
     110     115       0       0       0       0       0       001010001D    129
     110       0       0       2       0                               0D    130
     102     117       0       0       0       0       0       001010001D    131
     102       0       0       1       0                               0D    132
     142     118       0       0       0       0       0       001010001D    133
     142       0       0       1       0                               0D    134
     144     119       0       0   10000       0       0       000000000D    135
     144       0       0       1       0                               0D    136
     110     120       0       0       0       0       0       001010001D    137
     110       0       0       2       0                               0D    138
     110     122       0       0       0       0       0       001010001D    139
     110       0       0       2       0                               0D    140
     120     124       0       0       0       0       0       001010001D    141
     120       0       0       1       0                               0D    142
     124     125       0       0       0       0       0       001020201D    143
     124       0       0       2       0                               0D    144
     100     127       0       0       0       0     143       001010001D    145
     100       0       0       1       0                               0D    146
     110     128       0       0       0       0       0       001010001D    147
     110       0       0       2       0                               0D    148
     124     130       0       0       0       0       0       001020201D    149
     124       0       0       2       0                               0D    150
     100     132       0       0       0       0     149       001010001D    151
     100       0       0       1       0                               0D    152
     110     133       0       0       0       0       0       001010001D    153
     110       0       0       2       0                               0D    154
     102     135       0       0       0       0       0       001010001D    155
     102       0       0       1       0                               0D    156
     142     136       0       0       0       0       0       001010001D    157
     142       0       0       1       0                               0D    158
     144     137       0       0   10000       0       0       000000000D    159
     144       0       0       1       0                               0D    160
     108     138       0       0       0       0       0       001010001D    161
     108       0       0       2       0                               0D    162
     110     140       0       0       0       0       0       001010001D    163
     110       0       0       2       0                               0D    164
     110     142       0       0       0       0       0       001010001D    165
     110       0       0       1       0                               0D    166
     110     143       0       0       0       0       0       001010001D    167
     110       0       0       2       0                               0D    168
     110     145       0       0       0       0       0       001010001D    169
     110       0       0       2       0                               0D    170
     102     147       0       0       0       0       0       001010001D    171
     102       0       0       1       0                               0D    172
     142     148       0       0       0       0       0       001010001D    173
     142       0       0       1       0                               0D    174
     144     149       0       0   10000       0       0       000000000D    175
     144       0       0       1       0                               0D    176
     108     150       0       0       0       0       0       001010001D    177
     108       0       0       1       0                               0D    178
     110     151       0       0       0       0       0       001010001D    179
     110       0       0       2       0                               0D    180
     124     153       0       0       0       0       0       001020201D    181
     124       0       0       2       0                               0D    182
     100     155       0       0       0       0     181       001010001D    183
     100       0       0       1       0                               0D    184
     110     156       0       0       0       0       0       001010001D    185
     110       0       0       2       0                               0D    186
     124     158       0       0       0       0       0       001020201D    187
     124       0       0       2       0                               0D    188
     100     160       0       0       0       0     187       001010001D    189
     100       0       0       1       0                               0D    190
     126     161       0       0       0       0       0       001010001D    191
     126       0       0      12       0                               0D    192
     124     173       0       0       0       0       0       001020201D    193
     124       0       0       2       0                               0D    194
     100     175       0       0       0       0     193       001010001D    195
     100       0       0       1       0                               0D    196
     126     176       0       0       0       0       0       001010001D    197
     126       0       0      11       0                               0D    198
     124     187       0       0       0       0       0       001020201D    199
     124       0       0       2       0                               0D    200
     100     189       0       0       0       0     199       001010001D    201
     100       0       0       1       0                               0D    202
     102     190       0       0       0       0       0       001010001D    203
     102       0       0       1       0                               0D    204
     142     191       0       0       0       0       0       001010001D    205
     142       0       0       1       0                               0D    206
     124     192       0       0       0       0       0       001020201D    207
     124       0       0       2       0                               0D    208
     100     194       0       0       0       0     207       001010001D    209
     100       0       0       1       0                               0D    210
     124     195       0       0       0       0       0       001020201D    211
     124       0       0       2       0                               0D    212
     100     197       0       0       0       0     211       001010001D    213
     100       0       0       1       0                               0D    214
     102     198       0       0       0       0       0       001010001D    215
     102       0       0       1       0                               0D    216
     142     199       0       0       0       0       0       001010001D    217
     142       0       0       1       0                               0D    218
     144     200       0       0   10000       0       0       000000000D    219
     144       0       0       1       0                               0D    220
     108     201       0       0       0       0       0       001010001D    221
     108       0       0       1       0                               0D    222
     124     202       0       0       0       0       0       001020201D    223
     124       0       0       2       0                               0D    224
     100     204       0       0       0       0     223       001010001D    225
     100       0       0       1       0                               0D    226
     126     205       0       0       0       0       0       001010001D    227
     126       0       0      12       0                               0D    228
     124     217       0       0       0       0       0       001020201D    229
     124       0       0       2       0                               0D    230
     100     219       0       0       0       0     229       001010001D    231
     100       0       0       1       0                               0D    232
     126     220       0       0       0       0       0       001010001D    233
     126       0       0      11       0                               0D    234
     124     231       0       0       0       0       0       001020201D    235
     124       0       0       2       0                               0D    236
     100     233       0       0       0       0     235       001010001D    237
     100       0       0       1       0                               0D    238
     110     234       0       0       0       0       0       001010001D    239
     110       0       0       2       0                               0D    240
     124     236       0       0       0       0       0       001020201D    241
     124       0       0       2       0                               0D    242
     100     238       0       0       0       0     241       001010001D    243
     100       0       0       1       0                               0D    244
     110     239       0       0       0       0       0       001010001D    245
     110       0       0       2       0                               0D    246
     102     241       0       0       0       0       0       001010001D    247
     102       0       0       1       0                               0D    248
     142     242       0       0       0       0       0       001010001D    249
     142       0       0       1       0                               0D    250
     124     243       0       0       0       0       0       001020201D    251
     124       0       0       2       0                               0D    252
     100     245       0       0       0       0     251       001010001D    253
     100       0       0       1       0                               0D    254
     124     246       0       0       0       0       0       001020201D    255
     124       0       0       1       0                               0D    256
     100     247       0       0       0       0     255       001010001D    257
     100       0       0       1       0                               0D    258
     102     248       0       0       0       0       0       001010001D    259
     102       0       0       1       0                               0D    260
     142     249       0       0       0       0       0       001010001D    261
     142       0       0       1       0                               0D    262
     144     250       0       0   10000       0       0       000000000D    263
     144       0       0       1       0                               0D    264
     126     251       0       0       0       0       0       001010001D    265
     126       0       0      12       0                               0D    266
     122     263       0       0       0       0       0       001010001D    267
     122       0       0       1       0                               0D    268
     126     264       0       0       0       0       0       001010001D    269
     126       0       0      12       0                               0D    270
     110     276       0       0       0       0       0       001010001D    271
     110       0       0       2       0                               0D    272
     126     278       0       0       0       0       0       001010001D    273
     126       0       0      11       0                               0D    274
     110     289       0       0       0       0       0       001010001D    275
     110       0       0       2       0                               0D    276
     102     291       0       0       0       0       0       001010001D    277
     102       0       0       1       0                               0D    278
     142     292       0       0       0       0       0       001010001D    279
     142       0       0       1       0                               0D    280
     144     293       0       0   10000       0       0       000000000D    281
     144       0       0       1       0                               0D    282
     110     294       0       0       0       0       0       001010001D    283
     110       0       0       2       0                               0D    284
     110     296       0       0       0       0       0       001010001D    285
     110       0       0       2       0                               0D    286
     120     298       0       0       0       0       0       001010001D    287
     120       0       0       1       0                               0D    288
     110     299       0       0       0       0       0       001010001D    289
     110       0       0       2       0                               0D    290
     124     301       0       0       0       0       0       001020201D    291
     124       0       0       2       0                               0D    292
     100     303       0       0       0       0     291       001010001D    293
     100       0       0       1       0                               0D    294
     110     304       0       0       0       0       0       001010001D    295
     110       0       0       2       0                               0D    296
     124     306       0       0       0       0       0       001020201D    297
     124       0       0       2       0                               0D    298
     100     308       0       0       0       0     297       001010001D    299
     100       0       0       1       0                               0D    300
     102     309       0       0       0       0       0       001010001D    301
     102       0       0       1       0                               0D    302
     142     310       0       0       0       0       0       001010001D    303
     142       0       0       1       0                               0D    304
     144     311       0       0   10000       0       0       000000000D    305
     144       0       0       1       0                               0D    306
116,0.0,0.0,30.0,0,0,0;                                                1P      1
116,16.131,-10.087,30.0,0,0,0;                                         3P      2
406,1,15HCorps principal,0,0;                                          5P      3
110,0.0,0.0,32.0,0.0,0.0,33.0,0,0;                                     7P      4
110,2.84921797,6.39389998,30.0,2.84921797,6.39389998,34.0,0,0;         9P      5
120,7,9,0.0,6.283185307,0,0;                                          11P      6
110,2.84921797,6.39389998,30.0,2.84921797,6.39389998,34.0,0,0;        13P      7
124,0.4070311386,-0.9134142829,0.0,0.0,0.9134142829,                  15P      8
0.4070311386,0.0,0.0,0.0,0.0,1.0,34.0,0,0;                            15P      9
100,0.0,0.0,0.0,7.0,0.0,-6.728831872,1.929461491,0,0;                 17P     10
110,-4.501241782,-5.360860231,34.0,-4.501241782,-5.360860231,         19P     11
30.0,0,0;                                                             19P     12
124,-0.6430345403,-0.7658371759,0.0,0.0,-0.7658371759,                21P     13
0.6430345403,0.0,0.0,0.0,0.0,-1.0,30.0,0,0;                           21P     14
100,0.0,0.0,0.0,7.0,0.0,-6.728831872,1.929461491,0,0;                 23P     15
102,4,13,17,19,23,0,0;                                                25P     16
142,0,11,0,25,2,0,0;                                                  27P     17
144,11,1,0,27,0,1,5;                                                  29P     18
110,0.0,0.0,32.0,0.0,0.0,33.0,0,0;                                    31P     19
110,3.2,0.0,30.0,3.2,0.0,34.0,0,0;                                    33P     20
120,31,33,0.0,6.283185307,0,0;                                        35P     21
124,1.0,2.449212708E-016,0.0,0.0,-2.449212708E-016,1.0,0.0,0.0,       37P     22
0.0,0.0,1.0,30.0,0,0;                                                 37P     23
100,0.0,0.0,0.0,3.2,0.0,-3.2,-3.918740332E-016,0,0;                   39P     24
110,-3.2,3.918740332E-016,30.0,-3.2,3.918740332E-016,34.0,0,0;        41P     25
124,-1.0,1.224606354E-016,0.0,0.0,1.224606354E-016,1.0,0.0,0.0,       43P     26
0.0,0.0,-1.0,34.0,0,0;                                                43P     27
100,0.0,0.0,0.0,3.2,0.0,-3.2,3.918740332E-016,0,0;                    45P     28
110,3.2,0.0,34.0,3.2,-7.837480664E-016,30.0,0,0;                      47P     29
102,4,39,41,45,47,0,0;                                                49P     30
142,0,35,0,49,2,0,0;                                                  51P     31
144,35,1,0,51,0,1,5;                                                  53P     32
110,0.0,0.0,32.0,0.0,0.0,33.0,0,0;                                    55P     33
110,-3.2,3.918740332E-016,30.0,-3.2,3.918740332E-016,34.0,0,0;        57P     34
120,55,57,0.0,6.283185307,0,0;                                        59P     35
124,-1.0,-1.224606354E-016,0.0,0.0,1.224606354E-016,-1.0,0.0,         61P     36
0.0,0.0,0.0,1.0,30.0,0,0;                                             61P     37
100,0.0,0.0,0.0,3.2,0.0,-3.2,3.918740332E-016,0,0;                    63P     38
110,3.2,-7.837480664E-016,30.0,3.2,0.0,34.0,0,0;                      65P     39
124,1.0,0.0,0.0,0.0,0.0,-1.0,0.0,0.0,0.0,0.0,-1.0,34.0,0,0;           67P     40
100,0.0,0.0,0.0,3.2,0.0,-3.2,-3.918740332E-016,0,0;                   69P     41
110,-3.2,3.918740332E-016,34.0,-3.2,3.918740332E-016,30.0,0,0;        71P     42
102,4,63,65,69,71,0,0;                                                73P     43
142,0,59,0,73,2,0,0;                                                  75P     44
144,59,1,0,75,0,1,5;                                                  77P     45
108,-0.6430345403,-0.7658371759,0.0,7.0,0,-4.501241782,               79P     46
-5.360860231,30.0,1.0,0,0;                                            79P     47
110,9.665414123,-17.25588094,34.0,9.665414123,-17.25588094,30.0,      81P     48
0,0;                                                                  81P     49
110,9.665414123,-17.25588094,30.0,-4.501241782,-5.360860231,          83P     50
30.0,0,0;                                                             83P     51
110,-4.501241782,-5.360860231,30.0,-4.501241782,-5.360860231,         85P     52
34.0,0,0;                                                             85P     53
110,-4.501241782,-5.360860231,34.0,9.665414123,-17.25588094,          87P     54
34.0,0,0;                                                             87P     55
102,4,81,83,85,87,0,0;                                                89P     56
142,0,79,0,89,2,0,0;                                                  91P     57
144,79,1,0,91,0,1,5;                                                  93P     58
110,9.986931393,-16.87296235,32.0,9.986931393,-16.87296235,31.0,      95P     59
0,0;                                                                  95P     60
110,10.47829968,-16.78045717,34.0,10.47829968,-16.78045717,30.0,      97P     61
0,0;                                                                  97P     62
120,95,97,0.0,6.283185307,0,0;                                        99P     63
110,9.665414123,-17.25588094,30.0,9.665414123,-17.25588094,34.0,     101P     64
0,0;                                                                 101P     65
124,-0.6430345403,0.7658371759,0.0,9.986931393,-0.7658371759,        103P     66
-0.6430345403,0.0,-16.87296235,0.0,0.0,1.0,34.0,0,0;                 103P     67
100,0.0,0.0,0.0,0.5,0.0,-0.3868106885,0.3168240699,0,0;              105P     68
110,10.47829968,-16.78045717,34.0,10.47829968,-16.78045717,30.0,     107P     69
0,0;                                                                 107P     70
124,0.9827365684,0.1850103702,0.0,9.986931393,0.1850103702,          109P     71
-0.9827365684,0.0,-16.87296235,0.0,0.0,-1.0,30.0,0,0;                109P     72
100,0.0,0.0,0.0,0.5,0.0,-0.3868106885,0.3168240699,0,0;              111P     73
102,4,101,105,107,111,0,0;                                           113P     74
142,0,99,0,113,2,0,0;                                                115P     75
144,99,1,0,115,0,1,5;                                                117P     76
126,11,5,0,0,1,0,2.284250938,2.284250938,2.284250938,                119P     77
2.284250938,2.284250938,2.284250938,4.77904282,4.77904282,           119P     78
4.77904282,10.30392628,10.30392628,10.30392628,13.6120146,           119P     79
13.6120146,13.6120146,13.6120146,13.6120146,13.6120146,1.0,1.0,      119P     80
1.0,1.0,1.0,1.0,1.0,1.0,1.0,1.0,1.0,1.0,10.47829968,                 119P     81
-16.78045717,34.0,10.41302087,-16.43370974,34.0,10.3579535,          119P     82
-16.08503989,34.0,10.3126729,-15.73495082,34.0,10.19734211,          119P     83
-14.60629827,34.0,10.17566753,-13.47050738,34.0,10.20150815,         119P     84
-12.68830712,34.0,10.30378689,-11.44196474,34.0,10.49854976,         119P     85
-10.20757629,34.0,10.58404485,-9.747395086,34.0,10.68176236,         119P     86
-9.289720312,34.0,10.7914415,-8.834930722,34.0,2.284250938,          119P     87
13.6120146,0.0,0.0,0.0,0,0;                                          119P     88
122,119,10.47829968,-16.78045717,30.0,0,0;                           121P     89
126,11,5,0,0,1,0,0.0,0.0,0.0,0.0,0.0,0.0,3.308088313,                123P     90
3.308088313,3.308088313,8.832971777,8.832971777,8.832971777,         123P     91
11.32776366,11.32776366,11.32776366,11.32776366,11.32776366,         123P     92
11.32776366,1.0,1.0,1.0,1.0,1.0,1.0,1.0,1.0,1.0,1.0,1.0,1.0,         123P     93
10.7914415,-8.834930722,30.0,10.68176236,-9.289720312,30.0,          123P     94
10.58404485,-9.747395086,30.0,10.49854976,-10.20757629,30.0,         123P     95
10.30378689,-11.44196474,30.0,10.20150815,-12.68830712,30.0,         123P     96
10.17566753,-13.47050738,30.0,10.19734211,-14.60629827,30.0,         123P     97
10.3126729,-15.73495082,30.0,10.3579535,-16.08503989,30.0,           123P     98
10.41302087,-16.43370974,30.0,10.47829968,-16.78045717,30.0,0.0,     123P     99
11.32776366,0.0,0.0,0.0,0,0;                                         123P    100
110,10.47829968,-16.78045717,30.0,10.47829968,-16.78045717,34.0,     125P    101
0,0;                                                                 125P    102
126,11,5,0,0,1,0,2.284250938,2.284250938,2.284250938,                127P    103
2.284250938,2.284250938,2.284250938,4.77904282,4.77904282,           127P    104
4.77904282,10.30392628,10.30392628,10.30392628,13.6120146,           127P    105
13.6120146,13.6120146,13.6120146,13.6120146,13.6120146,1.0,1.0,      127P    106
1.0,1.0,1.0,1.0,1.0,1.0,1.0,1.0,1.0,1.0,10.47829968,                 127P    107
-16.78045717,34.0,10.41302087,-16.43370974,34.0,10.3579535,          127P    108
-16.08503989,34.0,10.3126729,-15.73495082,34.0,10.19734211,          127P    109
-14.60629827,34.0,10.17566753,-13.47050738,34.0,10.20150815,         127P    110
-12.68830712,34.0,10.30378689,-11.44196474,34.0,10.49854976,         127P    111
-10.20757629,34.0,10.58404485,-9.747395086,34.0,10.68176236,         127P    112
-9.289720312,34.0,10.7914415,-8.834930722,34.0,2.284250938,          127P    113
13.6120146,0.0,0.0,0.0,0,0;                                          127P    114
110,10.7914415,-8.834930722,34.0,10.7914415,-8.834930722,30.0,0,     129P    115
0;                                                                   129P    116
102,4,123,125,127,129,0,0;                                           131P    117
142,0,121,0,131,2,0,0;                                               133P    118
144,121,1,0,133,0,1,5;                                               135P    119
110,11.2775064,-8.952152365,32.0,11.2775064,-8.952152365,31.0,0,     137P    120
0;                                                                   137P    121
110,10.7914415,-8.834930722,34.0,10.7914415,-8.834930722,30.0,0,     139P    122
0;                                                                   139P    123
120,137,139,0.0,6.283185307,0,0;                                     141P    124
124,-0.9721297987,0.2344432865,0.0,11.2775064,0.2344432865,          143P    125
0.9721297987,0.0,-8.952152365,0.0,0.0,-1.0,34.0,0,0;                 143P    126
100,0.0,0.0,0.0,0.5,0.0,0.4895499663,0.1016898742,0,0;               145P    127
110,10.8254408,-8.738524905,34.0,10.8254408,-8.738524905,30.0,0,     147P    128
0;                                                                   147P    129
124,-0.9041312037,-0.4272549199,0.0,11.2775064,0.4272549199,         149P    130
-0.9041312037,0.0,-8.952152365,0.0,0.0,1.0,30.0,0,0;                 149P    131
100,0.0,0.0,0.0,0.5,0.0,0.4895499663,0.1016898742,0,0;               151P    132
110,10.7914415,-8.834930722,30.0,10.7914415,-8.834930722,34.0,0,     153P    133
0;                                                                   153P    134
102,4,145,147,151,153,0,0;                                           155P    135
142,0,141,0,155,2,0,0;                                               157P    136
144,141,1,0,157,0,1,5;                                               159P    137
108,-0.4070311386,-0.9134142829,0.0,-7.0,0,2.84921797,               161P    138
6.39389998,30.0,1.0,0,0;                                             161P    139
110,17.42095882,-0.09948684185,34.0,2.84921797,6.39389998,34.0,      163P    140
0,0;                                                                 163P    141
110,2.84921797,6.39389998,34.0,2.84921797,6.39389998,30.0,0,0;       165P    142
110,2.84921797,6.39389998,30.0,17.42095882,-0.09948684185,30.0,      167P    143
0,0;                                                                 167P    144
110,17.42095882,-0.09948684185,30.0,17.42095882,-0.09948684185,      169P    145
34.0,0,0;                                                            169P    146
102,4,163,165,167,169,0,0;                                           171P    147
142,0,161,0,171,2,0,0;                                               173P    148
144,161,1,0,173,0,1,5;                                               175P    149
108,0.0,0.0,1.0,30.0,0,0.0,0.0,30.0,1.0,0,0;                         177P    150
110,17.42095882,-0.09948684185,30.0,2.84921797,6.39389998,30.0,      179P    151
0,0;                                                                 179P    152
124,0.4070311386,-0.9134142829,0.0,0.0,0.9134142829,                 181P    153
0.4070311386,0.0,0.0,0.0,0.0,1.0,30.0,0,0;                           181P    154
100,0.0,0.0,0.0,7.0,0.0,-6.728831872,1.929461491,0,0;                183P    155
110,-4.501241782,-5.360860231,30.0,9.665414123,-17.25588094,         185P    156
30.0,0,0;                                                            185P    157
124,-0.6430345403,0.7658371759,0.0,9.986931393,-0.7658371759,        187P    158
-0.6430345403,0.0,-16.87296235,0.0,0.0,1.0,30.0,0,0;                 187P    159
100,0.0,0.0,0.0,0.5,0.0,-0.3868106885,0.3168240699,0,0;              189P    160
126,11,5,0,0,1,0,2.284250938,2.284250938,2.284250938,                191P    161
2.284250938,2.284250938,2.284250938,4.77904282,4.77904282,           191P    162
4.77904282,10.30392628,10.30392628,10.30392628,13.6120146,           191P    163
13.6120146,13.6120146,13.6120146,13.6120146,13.6120146,1.0,1.0,      191P    164
1.0,1.0,1.0,1.0,1.0,1.0,1.0,1.0,1.0,1.0,10.47829968,                 191P    165
-16.78045717,30.0,10.41302087,-16.43370974,30.0,10.3579535,          191P    166
-16.08503989,30.0,10.3126729,-15.73495082,30.0,10.19734211,          191P    167
-14.60629827,30.0,10.17566753,-13.47050738,30.0,10.20150815,         191P    168
-12.68830712,30.0,10.30378689,-11.44196474,30.0,10.49854976,         191P    169
-10.20757629,30.0,10.58404485,-9.747395086,30.0,10.68176236,         191P    170
-9.289720312,30.0,10.7914415,-8.834930722,30.0,2.284250938,          191P    171
13.6120146,0.0,0.0,0.0,0,0;                                          191P    172
124,-0.9721297987,0.2344432865,0.0,11.2775064,0.2344432865,          193P    173
0.9721297987,0.0,-8.952152365,0.0,0.0,-1.0,30.0,0,0;                 193P    174
100,0.0,0.0,0.0,0.5,0.0,0.4895499663,0.1016898742,0,0;               195P    175
126,11,5,0,0,1,0,0.0,0.0,0.0,0.0,0.0,0.0,5.173390132,                197P    176
5.173390132,5.173390132,10.43028218,10.43028218,10.43028218,         197P    177
14.64708804,14.64708804,14.64708804,14.64708804,14.64708804,         197P    178
14.64708804,1.0,1.0,1.0,1.0,1.0,1.0,1.0,1.0,1.0,1.0,1.0,1.0,         197P    179
10.8254408,-8.738524905,30.0,11.13802154,-8.077060313,30.0,          197P    180
11.47780778,-7.428456056,30.0,11.84466955,-6.794458952,30.0,         197P    181
12.63922634,-5.549821085,30.0,13.54587471,-4.384237977,30.0,         197P    182
14.03167402,-3.819769423,30.0,14.96016615,-2.850667376,30.0,         197P    183
15.98546134,-1.985911397,30.0,16.46142673,-1.624269779,30.0,         197P    184
16.95691626,-1.289720006,30.0,17.47106799,-0.9870936113,30.0,        197P    185
0.0,14.64708804,0.0,0.0,0.0,0,0;                                     197P    186
124,0.5072494874,0.8617992559,0.0,17.21744325,-0.8617992559,         199P    187
0.5072494874,0.0,-0.5561939833,0.0,0.0,1.0,30.0,0,0;                 199P    188
100,0.0,0.0,0.0,0.5,0.0,-0.2903567065,0.4070540296,0,0;              201P    189
102,8,179,183,185,189,191,195,197,201,0,0;                           203P    190
142,0,177,0,203,2,0,0;                                               205P    191
124,1.0,-2.449212708E-016,0.0,0.0,-2.449212708E-016,-1.0,0.0,        207P    192
0.0,0.0,0.0,-1.0,30.0,0,0;                                           207P    193
100,0.0,0.0,0.0,3.2,0.0,-3.2,3.918740332E-016,0,0;                   209P    194
124,-1.0,1.224606354E-016,0.0,0.0,1.224606354E-016,1.0,0.0,0.0,      211P    195
0.0,0.0,-1.0,30.0,0,0;                                               211P    196
100,0.0,0.0,0.0,3.2,0.0,-3.2,-3.918740332E-016,0,0;                  213P    197
102,2,209,213,0,0;                                                   215P    198
142,0,177,0,215,2,0,0;                                               217P    199
144,177,1,1,205,217,0,1,5;                                           219P    200
108,0.0,0.0,1.0,34.0,0,0.0,0.0,34.0,1.0,0,0;                         221P    201
124,0.4070311386,0.9134142829,0.0,17.21744325,0.9134142829,          223P    202
-0.4070311386,0.0,-0.5561939833,0.0,0.0,-1.0,34.0,0,0;               223P    203
100,0.0,0.0,0.0,0.5,0.0,-0.2903567065,0.4070540296,0,0;              225P    204
126,11,5,0,0,1,0,5.77090491,5.77090491,5.77090491,5.77090491,        227P    205
5.77090491,5.77090491,9.98771077,9.98771077,9.98771077,              227P    206
15.24460282,15.24460282,15.24460282,20.41799295,20.41799295,         227P    207
20.41799295,20.41799295,20.41799295,20.41799295,1.0,1.0,1.0,1.0,     227P    208
1.0,1.0,1.0,1.0,1.0,1.0,1.0,1.0,17.47106799,-0.9870936113,34.0,      227P    209
16.95691626,-1.289720006,34.0,16.46142673,-1.624269779,34.0,         227P    210
15.98546134,-1.985911397,34.0,14.96016615,-2.850667376,34.0,         227P    211
14.03167402,-3.819769423,34.0,13.54587471,-4.384237977,34.0,         227P    212
12.63922634,-5.549821085,34.0,11.84466955,-6.794458952,34.0,         227P    213
11.47780778,-7.428456056,34.0,11.13802154,-8.077060313,34.0,         227P    214
10.8254408,-8.738524905,34.0,5.77090491,20.41799295,0.0,0.0,0.0,     227P    215
0,0;                                                                 227P    216
124,-0.9041312037,-0.4272549199,0.0,11.2775064,0.4272549199,         229P    217
-0.9041312037,0.0,-8.952152365,0.0,0.0,1.0,34.0,0,0;                 229P    218
100,0.0,0.0,0.0,0.5,0.0,0.4895499663,0.1016898742,0,0;               231P    219
126,11,5,0,0,1,0,0.0,0.0,0.0,0.0,0.0,0.0,3.308088313,                233P    220
3.308088313,3.308088313,8.832971777,8.832971777,8.832971777,         233P    221
11.32776366,11.32776366,11.32776366,11.32776366,11.32776366,         233P    222
11.32776366,1.0,1.0,1.0,1.0,1.0,1.0,1.0,1.0,1.0,1.0,1.0,1.0,         233P    223
10.7914415,-8.834930722,34.0,10.68176236,-9.289720312,34.0,          233P    224
10.58404485,-9.747395086,34.0,10.49854976,-10.20757629,34.0,         233P    225
10.30378689,-11.44196474,34.0,10.20150815,-12.68830712,34.0,         233P    226
10.17566753,-13.47050738,34.0,10.19734211,-14.60629827,34.0,         233P    227
10.3126729,-15.73495082,34.0,10.3579535,-16.08503989,34.0,           233P    228
10.41302087,-16.43370974,34.0,10.47829968,-16.78045717,34.0,0.0,     233P    229
11.32776366,0.0,0.0,0.0,0,0;                                         233P    230
124,0.9827365684,0.1850103702,0.0,9.986931393,0.1850103702,          235P    231
-0.9827365684,0.0,-16.87296235,0.0,0.0,-1.0,34.0,0,0;                235P    232
100,0.0,0.0,0.0,0.5,0.0,-0.3868106885,0.3168240699,0,0;              237P    233
110,9.665414123,-17.25588094,34.0,-4.501241782,-5.360860231,         239P    234
34.0,0,0;                                                            239P    235
124,-0.6430345403,-0.7658371759,0.0,0.0,-0.7658371759,               241P    236
0.6430345403,0.0,0.0,0.0,0.0,-1.0,34.0,0,0;                          241P    237
100,0.0,0.0,0.0,7.0,0.0,-6.728831872,1.929461491,0,0;                243P    238
110,2.84921797,6.39389998,34.0,17.42095882,-0.09948684185,34.0,      245P    239
0,0;                                                                 245P    240
102,8,225,227,231,233,237,239,243,245,0,0;                           247P    241
142,0,221,0,247,2,0,0;                                               249P    242
124,-1.0,-1.224606354E-016,0.0,0.0,1.224606354E-016,-1.0,0.0,        251P    243
0.0,0.0,0.0,1.0,34.0,0,0;                                            251P    244
100,0.0,0.0,0.0,3.2,0.0,-3.2,-3.918740332E-016,0,0;                  253P    245
124,1.0,0.0,0.0,0.0,0.0,1.0,0.0,0.0,0.0,0.0,1.0,34.0,0,0;            255P    246
100,0.0,0.0,0.0,3.2,0.0,-3.2,3.918740332E-016,0,0;                   257P    247
102,2,253,257,0,0;                                                   259P    248
142,0,221,0,259,2,0,0;                                               261P    249
144,221,1,1,249,261,0,1,5;                                           263P    250
126,11,5,0,0,1,0,5.77090491,5.77090491,5.77090491,5.77090491,        265P    251
5.77090491,5.77090491,9.98771077,9.98771077,9.98771077,              265P    252
15.24460282,15.24460282,15.24460282,20.41799295,20.41799295,         265P    253
20.41799295,20.41799295,20.41799295,20.41799295,1.0,1.0,1.0,1.0,     265P    254
1.0,1.0,1.0,1.0,1.0,1.0,1.0,1.0,17.47106799,-0.9870936113,30.0,      265P    255
16.95691626,-1.289720006,30.0,16.46142673,-1.624269779,30.0,         265P    256
15.98546134,-1.985911397,30.0,14.96016615,-2.850667376,30.0,         265P    257
14.03167402,-3.819769423,30.0,13.54587471,-4.384237977,30.0,         265P    258
12.63922634,-5.549821085,30.0,11.84466955,-6.794458952,30.0,         265P    259
11.47780778,-7.428456056,30.0,11.13802154,-8.077060313,30.0,         265P    260
10.8254408,-8.738524905,30.0,5.77090491,20.41799295,0.0,0.0,0.0,     265P    261
0,0;                                                                 265P    262
122,265,17.47106799,-0.9870936113,34.0,0,0;                          267P    263
126,11,5,0,0,1,0,5.77090491,5.77090491,5.77090491,5.77090491,        269P    264
5.77090491,5.77090491,9.98771077,9.98771077,9.98771077,              269P    265
15.24460282,15.24460282,15.24460282,20.41799295,20.41799295,         269P    266
20.41799295,20.41799295,20.41799295,20.41799295,1.0,1.0,1.0,1.0,     269P    267
1.0,1.0,1.0,1.0,1.0,1.0,1.0,1.0,17.47106799,-0.9870936113,30.0,      269P    268
16.95691626,-1.289720006,30.0,16.46142673,-1.624269779,30.0,         269P    269
15.98546134,-1.985911397,30.0,14.96016615,-2.850667376,30.0,         269P    270
14.03167402,-3.819769423,30.0,13.54587471,-4.384237977,30.0,         269P    271
12.63922634,-5.549821085,30.0,11.84466955,-6.794458952,30.0,         269P    272
11.47780778,-7.428456056,30.0,11.13802154,-8.077060313,30.0,         269P    273
10.8254408,-8.738524905,30.0,5.77090491,20.41799295,0.0,0.0,0.0,     269P    274
0,0;                                                                 269P    275
110,10.8254408,-8.738524905,30.0,10.8254408,-8.738524905,34.0,0,     271P    276
0;                                                                   271P    277
126,11,5,0,0,1,0,0.0,0.0,0.0,0.0,0.0,0.0,5.173390132,                273P    278
5.173390132,5.173390132,10.43028218,10.43028218,10.43028218,         273P    279
14.64708804,14.64708804,14.64708804,14.64708804,14.64708804,         273P    280
14.64708804,1.0,1.0,1.0,1.0,1.0,1.0,1.0,1.0,1.0,1.0,1.0,1.0,         273P    281
10.8254408,-8.738524905,34.0,11.13802154,-8.077060313,34.0,          273P    282
11.47780778,-7.428456056,34.0,11.84466955,-6.794458952,34.0,         273P    283
12.63922634,-5.549821085,34.0,13.54587471,-4.384237977,34.0,         273P    284
14.03167402,-3.819769423,34.0,14.96016615,-2.850667376,34.0,         273P    285
15.98546134,-1.985911397,34.0,16.46142673,-1.624269779,34.0,         273P    286
16.95691626,-1.289720006,34.0,17.47106799,-0.9870936113,34.0,        273P    287
0.0,14.64708804,0.0,0.0,0.0,0,0;                                     273P    288
110,17.47106799,-0.9870936113,34.0,17.47106799,-0.9870936113,        275P    289
30.0,0,0;                                                            275P    290
102,4,269,271,273,275,0,0;                                           277P    291
142,0,267,0,277,2,0,0;                                               279P    292
144,267,1,0,279,0,1,5;                                               281P    293
110,17.21744325,-0.5561939833,32.0,17.21744325,-0.5561939833,        283P    294
33.0,0,0;                                                            283P    295
110,17.47106799,-0.9870936113,30.0,17.47106799,-0.9870936113,        285P    296
34.0,0,0;                                                            285P    297
120,283,285,0.0,6.283185307,0,0;                                     287P    298
110,17.47106799,-0.9870936113,30.0,17.47106799,-0.9870936113,        289P    299
34.0,0,0;                                                            289P    300
124,0.5072494874,0.8617992559,0.0,17.21744325,-0.8617992559,         291P    301
0.5072494874,0.0,-0.5561939833,0.0,0.0,1.0,34.0,0,0;                 291P    302
100,0.0,0.0,0.0,0.5,0.0,-0.2903567065,0.4070540296,0,0;              293P    303
110,17.42095882,-0.09948684185,34.0,17.42095882,-0.09948684185,      295P    304
30.0,0,0;                                                            295P    305
124,0.4070311386,0.9134142829,0.0,17.21744325,0.9134142829,          297P    306
-0.4070311386,0.0,-0.5561939833,0.0,0.0,-1.0,30.0,0,0;               297P    307
100,0.0,0.0,0.0,0.5,0.0,-0.2903567065,0.4070540296,0,0;              299P    308
102,4,289,293,295,299,0,0;                                           301P    309
142,0,287,0,301,2,0,0;                                               303P    310
144,287,1,0,303,0,1,5;                                               305P    311
S      1G      4D    306P    311                                        T      1
