ISO-10303-21;
HEADER;
FILE_DESCRIPTION(('CATIA V5 STEP Exchange','CAx-IF Rec.Pracs.--- Model Styling and Organization---1.4--- 2014-01-23','CAx-IF Rec.Pracs.---3D Tessellated Data Validation Properties---0.5---2014-09-14'),'2;1');

FILE_NAME('E:\\EPSA\\STUF-2020\\MS_Miscelleanous\\MS_A0400 (PushBar)\\Tubes_Prod\\102.stp','2021-05-25T19:29:28+00:00',('none'),('none'),'CATIA Version 5-6 Release 2019','3DEXPERIENCE Platform STEP AP242 v1','none');

FILE_SCHEMA(('AP242_MANAGED_MODEL_BASED_3D_ENGINEERING_MIM_LF  {1 0 10303 442 1 1 4}'));

ENDSEC;
DATA;
#5=PRODUCT('102','','',(#2)) ;
#2=PRODUCT_CONTEXT(' ',#1,'mechanical') ;
#1=APPLICATION_CONTEXT('managed model based 3d engineering') ;
#10=PRODUCT_DEFINITION('',' ',#6,#3) ;
#3=PRODUCT_DEFINITION_CONTEXT('part definition',#1,' ') ;
#11=PRODUCT_DEFINITION_SHAPE(' ',' ',#10) ;
#759=MECHANICAL_DESIGN_GEOMETRIC_PRESENTATION_REPRESENTATION(' ',(#29),#16) ;
#19=SHAPE_REPRESENTATION(' ',(#18),#16) ;
#7=PRODUCT_CATEGORY('part','specification') ;
#17=CARTESIAN_POINT(' ',(0.,0.,0.)) ;
#31=CARTESIAN_POINT('Axis2P3D Location',(-2540.,-500209.978183,1130.)) ;
#36=CARTESIAN_POINT('Axis2P3D Location',(-2540.,-209.978183365,1130.)) ;
#40=CARTESIAN_POINT('Vertex',(-2540.,-209.978183365,1145.)) ;
#42=CARTESIAN_POINT('Vertex',(-2531.54994763,-209.978183365,1117.60658986)) ;
#45=CARTESIAN_POINT('Line Origine',(-2540.,0.,1145.)) ;
#49=CARTESIAN_POINT('Vertex',(-2540.,-218.428235735,1145.)) ;
#53=CARTESIAN_POINT('Control Point',(-2540.,-218.428235735,1145.)) ;
#54=CARTESIAN_POINT('Control Point',(-2538.90930613,-219.329396832,1145.)) ;
#55=CARTESIAN_POINT('Control Point',(-2537.79119025,-220.197368464,1144.90086557)) ;
#56=CARTESIAN_POINT('Control Point',(-2536.65016335,-221.022797599,1144.69260935)) ;
#57=CARTESIAN_POINT('Control Point',(-2534.74059274,-222.291757391,1144.1444823)) ;
#58=CARTESIAN_POINT('Control Point',(-2532.84845852,-223.337329805,1143.22538689)) ;
#59=CARTESIAN_POINT('Control Point',(-2532.10687819,-223.710155085,1142.79955164)) ;
#60=CARTESIAN_POINT('Control Point',(-2530.7503298,-224.314233453,1141.88226876)) ;
#61=CARTESIAN_POINT('Control Point',(-2529.48997319,-224.715704297,1140.7464118)) ;
#62=CARTESIAN_POINT('Control Point',(-2528.93091475,-224.853573357,1140.17119575)) ;
#63=CARTESIAN_POINT('Control Point',(-2527.51715061,-225.081721622,1138.50266935)) ;
#64=CARTESIAN_POINT('Control Point',(-2526.41553909,-224.91195755,1136.5856181)) ;
#65=CARTESIAN_POINT('Control Point',(-2525.87818565,-224.641600364,1135.3175781)) ;
#66=CARTESIAN_POINT('Control Point',(-2525.21867186,-223.939351571,1133.10370434)) ;
#67=CARTESIAN_POINT('Control Point',(-2524.98790137,-222.911875719,1130.94132997)) ;
#68=CARTESIAN_POINT('Control Point',(-2524.96148274,-222.428125859,1130.04386044)) ;
#69=CARTESIAN_POINT('Control Point',(-2525.04343834,-221.280936509,1128.12764435)) ;
#70=CARTESIAN_POINT('Control Point',(-2525.40296804,-219.979111032,1126.34403544)) ;
#71=CARTESIAN_POINT('Control Point',(-2525.67053556,-219.235299236,1125.41610013)) ;
#72=CARTESIAN_POINT('Control Point',(-2526.60865345,-217.049525637,1122.91195965)) ;
#73=CARTESIAN_POINT('Control Point',(-2528.00337641,-214.695337985,1120.77854658)) ;
#74=CARTESIAN_POINT('Control Point',(-2529.05846054,-213.135259845,1119.55665245)) ;
#75=CARTESIAN_POINT('Control Point',(-2530.2457161,-211.556721692,1118.49583863)) ;
#76=CARTESIAN_POINT('Control Point',(-2531.54994763,-209.978183365,1117.60658986)) ;
#84=CARTESIAN_POINT('Axis2P3D Location',(-2540.,-500209.978183,1130.)) ;
#89=CARTESIAN_POINT('Axis2P3D Location',(-2540.,-209.978183365,1130.)) ;
#93=CARTESIAN_POINT('Vertex',(-2548.45005237,-209.978183365,1142.39341014)) ;
#97=CARTESIAN_POINT('Control Point',(-2540.,-218.428235735,1145.)) ;
#98=CARTESIAN_POINT('Control Point',(-2542.37680915,-216.464451027,1145.)) ;
#99=CARTESIAN_POINT('Control Point',(-2544.61191557,-214.335633739,1144.4992236)) ;
#100=CARTESIAN_POINT('Control Point',(-2546.64879413,-212.158283377,1143.62154076)) ;
#101=CARTESIAN_POINT('Control Point',(-2548.45005237,-209.978183365,1142.39341014)) ;
#109=CARTESIAN_POINT('Axis2P3D Location',(-2540.,-209.978183365,1130.)) ;
#115=CARTESIAN_POINT('Control Point',(-2540.,-201.528130996,1115.)) ;
#116=CARTESIAN_POINT('Control Point',(-2541.09814279,-200.620815398,1115.)) ;
#117=CARTESIAN_POINT('Control Point',(-2542.22941265,-199.742740872,1115.10049328)) ;
#118=CARTESIAN_POINT('Control Point',(-2543.38969027,-198.904148736,1115.31361793)) ;
#119=CARTESIAN_POINT('Control Point',(-2545.32219979,-197.623545579,1115.87471927)) ;
#120=CARTESIAN_POINT('Control Point',(-2547.25106276,-196.567029631,1116.82825782)) ;
#121=CARTESIAN_POINT('Control Point',(-2547.99769795,-196.195779505,1117.26430295)) ;
#122=CARTESIAN_POINT('Control Point',(-2549.35460198,-195.600975921,1118.19857105)) ;
#123=CARTESIAN_POINT('Control Point',(-2550.61965384,-195.210951715,1119.36163407)) ;
#124=CARTESIAN_POINT('Control Point',(-2551.17578293,-195.080350036,1119.94545422)) ;
#125=CARTESIAN_POINT('Control Point',(-2552.18899252,-194.93161202,1121.1674646)) ;
#126=CARTESIAN_POINT('Control Point',(-2553.03901768,-194.99331834,1122.52370534)) ;
#127=CARTESIAN_POINT('Control Point',(-2553.40779638,-195.074240319,1123.20822836)) ;
#128=CARTESIAN_POINT('Control Point',(-2553.97823987,-195.304713259,1124.45399983)) ;
#129=CARTESIAN_POINT('Control Point',(-2554.39592129,-195.676111859,1125.72588263)) ;
#130=CARTESIAN_POINT('Control Point',(-2554.54926903,-195.863674665,1126.28374231)) ;
#131=CARTESIAN_POINT('Control Point',(-2554.88453866,-196.428333337,1127.77781756)) ;
#132=CARTESIAN_POINT('Control Point',(-2555.02280459,-197.140100515,1129.24409178)) ;
#133=CARTESIAN_POINT('Control Point',(-2555.03797497,-197.634274365,1130.14356793)) ;
#134=CARTESIAN_POINT('Control Point',(-2554.93135115,-198.806928647,1132.06880825)) ;
#135=CARTESIAN_POINT('Control Point',(-2554.54704165,-200.129152016,1133.85228184)) ;
#136=CARTESIAN_POINT('Control Point',(-2554.26525562,-200.885232534,1134.7811421)) ;
#137=CARTESIAN_POINT('Control Point',(-2553.50972963,-202.598653622,1136.71459437)) ;
#138=CARTESIAN_POINT('Control Point',(-2552.48513878,-204.404028518,1138.41664878)) ;
#139=CARTESIAN_POINT('Control Point',(-2551.85909025,-205.40425035,1139.27397498)) ;
#140=CARTESIAN_POINT('Control Point',(-2550.82932609,-206.920685322,1140.45553391)) ;
#141=CARTESIAN_POINT('Control Point',(-2549.67674588,-208.449216593,1141.47843525)) ;
#142=CARTESIAN_POINT('Control Point',(-2549.27986693,-208.959109673,1141.80147615)) ;
#143=CARTESIAN_POINT('Control Point',(-2548.87076629,-209.468984625,1142.10655974)) ;
#144=CARTESIAN_POINT('Control Point',(-2548.45005237,-209.978183365,1142.39341014)) ;
#145=CARTESIAN_POINT('Vertex',(-2540.,-201.528130996,1115.)) ;
#149=CARTESIAN_POINT('Control Point',(-2540.,-201.528130996,1115.)) ;
#150=CARTESIAN_POINT('Control Point',(-2538.17338234,-203.03733245,1115.)) ;
#151=CARTESIAN_POINT('Control Point',(-2536.39894229,-204.660055907,1115.27804426)) ;
#152=CARTESIAN_POINT('Control Point',(-2534.71503668,-206.346718814,1115.80237364)) ;
#153=CARTESIAN_POINT('Control Point',(-2533.10875937,-208.102742851,1116.56368337)) ;
#154=CARTESIAN_POINT('Control Point',(-2531.6406673,-209.868610885,1117.54513921)) ;
#155=CARTESIAN_POINT('Control Point',(-2531.61036764,-209.905131593,1117.56552897)) ;
#156=CARTESIAN_POINT('Control Point',(-2531.58012775,-209.941655739,1117.5860125)) ;
#157=CARTESIAN_POINT('Control Point',(-2531.54994763,-209.978183365,1117.60658986)) ;
#166=CARTESIAN_POINT('Control Point',(-2540.,-217.583230498,1143.5)) ;
#167=CARTESIAN_POINT('Control Point',(-2541.03763689,-216.725906531,1143.5)) ;
#168=CARTESIAN_POINT('Control Point',(-2542.04769707,-215.835206203,1143.40030657)) ;
#169=CARTESIAN_POINT('Control Point',(-2543.02429885,-214.921953728,1143.21150765)) ;
#170=CARTESIAN_POINT('Control Point',(-2544.57419057,-213.389950798,1142.76516719)) ;
#171=CARTESIAN_POINT('Control Point',(-2546.01482028,-211.830555327,1142.10995028)) ;
#172=CARTESIAN_POINT('Control Point',(-2546.56406812,-211.21399762,1141.82103943)) ;
#173=CARTESIAN_POINT('Control Point',(-2547.09451536,-210.596090509,1141.50215898)) ;
#174=CARTESIAN_POINT('Control Point',(-2547.60504713,-209.978183365,1141.15406913)) ;
#175=CARTESIAN_POINT('Vertex',(-2540.,-217.583230498,1143.5)) ;
#177=CARTESIAN_POINT('Vertex',(-2547.60504713,-209.978183365,1141.15406913)) ;
#181=CARTESIAN_POINT('Control Point',(-2540.,-217.583230498,1143.5)) ;
#182=CARTESIAN_POINT('Control Point',(-2538.9692329,-218.434878458,1143.5)) ;
#183=CARTESIAN_POINT('Control Point',(-2537.91125327,-219.253590233,1143.40162204)) ;
#184=CARTESIAN_POINT('Control Point',(-2536.83054745,-220.029793433,1143.1944538)) ;
#185=CARTESIAN_POINT('Control Point',(-2535.02969897,-221.210591105,1142.64928693)) ;
#186=CARTESIAN_POINT('Control Point',(-2533.25440978,-222.161794374,1141.73404548)) ;
#187=CARTESIAN_POINT('Control Point',(-2532.56485566,-222.494191401,1141.31274968)) ;
#188=CARTESIAN_POINT('Control Point',(-2531.30918431,-223.020655695,1140.40564458)) ;
#189=CARTESIAN_POINT('Control Point',(-2530.16035609,-223.340528757,1139.288515)) ;
#190=CARTESIAN_POINT('Control Point',(-2529.65556922,-223.439685379,1138.72417751)) ;
#191=CARTESIAN_POINT('Control Point',(-2528.85115195,-223.518366151,1137.68403466)) ;
#192=CARTESIAN_POINT('Control Point',(-2528.17998203,-223.43799536,1136.55698295)) ;
#193=CARTESIAN_POINT('Control Point',(-2527.92319231,-223.376072604,1136.07043666)) ;
#194=CARTESIAN_POINT('Control Point',(-2527.45464001,-223.194974066,1135.06175192)) ;
#195=CARTESIAN_POINT('Control Point',(-2527.09822964,-222.909062874,1134.03148519)) ;
#196=CARTESIAN_POINT('Control Point',(-2526.94600876,-222.73819311,1133.50491068)) ;
#197=CARTESIAN_POINT('Control Point',(-2526.61313071,-222.217430994,1132.09226548)) ;
#198=CARTESIAN_POINT('Control Point',(-2526.47664835,-221.548234635,1130.70417618)) ;
#199=CARTESIAN_POINT('Control Point',(-2526.46231872,-221.080162342,1129.85226698)) ;
#200=CARTESIAN_POINT('Control Point',(-2526.57013313,-219.963874136,1128.02883036)) ;
#201=CARTESIAN_POINT('Control Point',(-2526.95440085,-218.696883697,1126.3433415)) ;
#202=CARTESIAN_POINT('Control Point',(-2527.23595882,-217.970409516,1125.46670205)) ;
#203=CARTESIAN_POINT('Control Point',(-2527.98922047,-216.324333697,1123.64947582)) ;
#204=CARTESIAN_POINT('Control Point',(-2529.01054157,-214.585485752,1122.06072023)) ;
#205=CARTESIAN_POINT('Control Point',(-2529.63386416,-213.62264739,1121.26575677)) ;
#206=CARTESIAN_POINT('Control Point',(-2530.55371235,-212.313230029,1120.29047235)) ;
#207=CARTESIAN_POINT('Control Point',(-2531.57398919,-210.993516164,1119.44420555)) ;
#208=CARTESIAN_POINT('Control Point',(-2531.84154425,-210.655219734,1119.23609717)) ;
#209=CARTESIAN_POINT('Control Point',(-2532.11525988,-210.316701554,1119.03663063)) ;
#210=CARTESIAN_POINT('Control Point',(-2532.39495287,-209.978183365,1118.84593087)) ;
#211=CARTESIAN_POINT('Vertex',(-2532.39495287,-209.978183365,1118.84593087)) ;
#215=CARTESIAN_POINT('Control Point',(-2540.,-202.373136233,1116.5)) ;
#216=CARTESIAN_POINT('Control Point',(-2538.32137083,-203.760065553,1116.5)) ;
#217=CARTESIAN_POINT('Control Point',(-2536.69170332,-205.253519892,1116.76090694)) ;
#218=CARTESIAN_POINT('Control Point',(-2535.1476809,-206.806047748,1117.25229025)) ;
#219=CARTESIAN_POINT('Control Point',(-2533.70843086,-208.388453852,1117.9503777)) ;
#220=CARTESIAN_POINT('Control Point',(-2532.39495287,-209.978183365,1118.84593087)) ;
#221=CARTESIAN_POINT('Vertex',(-2540.,-202.373136233,1116.5)) ;
#225=CARTESIAN_POINT('Control Point',(-2540.,-202.373136233,1116.5)) ;
#226=CARTESIAN_POINT('Control Point',(-2541.03728815,-201.516100402,1116.5)) ;
#227=CARTESIAN_POINT('Control Point',(-2542.1074177,-200.688053507,1116.59962672)) ;
#228=CARTESIAN_POINT('Control Point',(-2543.20633881,-199.899457385,1116.81151159)) ;
#229=CARTESIAN_POINT('Control Point',(-2544.86462498,-198.815301183,1117.31913892)) ;
#230=CARTESIAN_POINT('Control Point',(-2546.51262974,-197.922529944,1118.15142138)) ;
#231=CARTESIAN_POINT('Control Point',(-2547.04754039,-197.654437549,1118.46005628)) ;
#232=CARTESIAN_POINT('Control Point',(-2548.17998328,-197.138457929,1119.20503805)) ;
#233=CARTESIAN_POINT('Control Point',(-2549.2534352,-196.770452166,1120.12617358)) ;
#234=CARTESIAN_POINT('Control Point',(-2549.80270228,-196.622344241,1120.66885345)) ;
#235=CARTESIAN_POINT('Control Point',(-2550.73774175,-196.452974853,1121.73959081)) ;
#236=CARTESIAN_POINT('Control Point',(-2551.53198118,-196.471131042,1122.93670504)) ;
#237=CARTESIAN_POINT('Control Point',(-2551.85595637,-196.518262226,1123.49553295)) ;
#238=CARTESIAN_POINT('Control Point',(-2552.39755975,-196.678246362,1124.57387832)) ;
#239=CARTESIAN_POINT('Control Point',(-2552.809566,-196.963546149,1125.68460035)) ;
#240=CARTESIAN_POINT('Control Point',(-2552.97335757,-197.122769056,1126.20747045)) ;
#241=CARTESIAN_POINT('Control Point',(-2553.25596363,-197.503712499,1127.29818611)) ;
#242=CARTESIAN_POINT('Control Point',(-2553.41997404,-197.976143344,1128.37736414)) ;
#243=CARTESIAN_POINT('Control Point',(-2553.47467049,-198.24402634,1128.93311461)) ;
#244=CARTESIAN_POINT('Control Point',(-2553.56376746,-199.225944075,1130.8068286)) ;
#245=CARTESIAN_POINT('Control Point',(-2553.33954963,-200.401603115,1132.56493155)) ;
#246=CARTESIAN_POINT('Control Point',(-2553.05162136,-201.298508991,1133.73476749)) ;
#247=CARTESIAN_POINT('Control Point',(-2552.29032846,-203.115725413,1135.84401255)) ;
#248=CARTESIAN_POINT('Control Point',(-2551.18644705,-205.050174743,1137.65889892)) ;
#249=CARTESIAN_POINT('Control Point',(-2550.58531893,-206.001673468,1138.46628487)) ;
#250=CARTESIAN_POINT('Control Point',(-2549.64448169,-207.370540194,1139.51631613)) ;
#251=CARTESIAN_POINT('Control Point',(-2548.59475141,-208.748506767,1140.42279106)) ;
#252=CARTESIAN_POINT('Control Point',(-2548.27345784,-209.158603155,1140.67953773)) ;
#253=CARTESIAN_POINT('Control Point',(-2547.94342613,-209.568636279,1140.92335617)) ;
#254=CARTESIAN_POINT('Control Point',(-2547.60504713,-209.978183365,1141.15406913)) ;
#263=CARTESIAN_POINT('Axis2P3D Location',(-2540.,-500209.978183,1130.)) ;
#268=CARTESIAN_POINT('Line Origine',(-2540.,0.,1143.5)) ;
#272=CARTESIAN_POINT('Vertex',(-2540.,-209.978183365,1143.5)) ;
#275=CARTESIAN_POINT('Axis2P3D Location',(-2540.,-209.978183365,1130.)) ;
#287=CARTESIAN_POINT('Control Point',(-2540.,-209.978183365,1116.5)) ;
#288=CARTESIAN_POINT('Control Point',(-2553.5,-209.978183365,1116.5)) ;
#289=CARTESIAN_POINT('Control Point',(-2560.25,-209.978183365,1130.)) ;
#290=CARTESIAN_POINT('Control Point',(-2553.5,-209.978183365,1143.5)) ;
#291=CARTESIAN_POINT('Control Point',(-2540.,-209.978183365,1143.5)) ;
#292=CARTESIAN_POINT('Control Point',(-2540.,-125.986910019,1116.5)) ;
#293=CARTESIAN_POINT('Control Point',(-2553.5,-125.986910019,1116.5)) ;
#294=CARTESIAN_POINT('Control Point',(-2560.25,-125.986910019,1130.)) ;
#295=CARTESIAN_POINT('Control Point',(-2553.5,-125.986910019,1143.5)) ;
#296=CARTESIAN_POINT('Control Point',(-2540.,-125.986910019,1143.5)) ;
#297=CARTESIAN_POINT('Control Point',(-2540.,-41.9934152323,1116.5)) ;
#298=CARTESIAN_POINT('Control Point',(-2553.5,-41.9934152323,1116.5)) ;
#299=CARTESIAN_POINT('Control Point',(-2560.25,-41.9934152323,1130.)) ;
#300=CARTESIAN_POINT('Control Point',(-2553.5,-41.9934152323,1143.5)) ;
#301=CARTESIAN_POINT('Control Point',(-2540.,-41.9934152323,1143.5)) ;
#302=CARTESIAN_POINT('Control Point',(-2540.,42.000077278,1116.5)) ;
#303=CARTESIAN_POINT('Control Point',(-2553.5,42.000077278,1116.5)) ;
#304=CARTESIAN_POINT('Control Point',(-2560.25,42.000077278,1130.)) ;
#305=CARTESIAN_POINT('Control Point',(-2553.5,42.000077278,1143.5)) ;
#306=CARTESIAN_POINT('Control Point',(-2540.,42.000077278,1143.5)) ;
#307=CARTESIAN_POINT('Control Point',(-2540.,125.986910019,1116.5)) ;
#308=CARTESIAN_POINT('Control Point',(-2553.5,125.986910019,1116.5)) ;
#309=CARTESIAN_POINT('Control Point',(-2560.25,125.986910019,1130.)) ;
#310=CARTESIAN_POINT('Control Point',(-2553.5,125.986910019,1143.5)) ;
#311=CARTESIAN_POINT('Control Point',(-2540.,125.986910019,1143.5)) ;
#312=CARTESIAN_POINT('Control Point',(-2540.,209.978183365,1116.5)) ;
#313=CARTESIAN_POINT('Control Point',(-2553.5,209.978183365,1116.5)) ;
#314=CARTESIAN_POINT('Control Point',(-2560.25,209.978183365,1130.)) ;
#315=CARTESIAN_POINT('Control Point',(-2553.5,209.978183365,1143.5)) ;
#316=CARTESIAN_POINT('Control Point',(-2540.,209.978183365,1143.5)) ;
#318=CARTESIAN_POINT('Control Point',(-2541.59385247,209.978183365,1116.59441779)) ;
#319=CARTESIAN_POINT('Control Point',(-2554.22880605,209.978183365,1118.09664661)) ;
#320=CARTESIAN_POINT('Control Point',(-2559.63403248,209.978183365,1131.16309511)) ;
#321=CARTESIAN_POINT('Control Point',(-2552.72394371,209.978183365,1143.5)) ;
#322=CARTESIAN_POINT('Control Point',(-2540.,209.978183365,1143.5)) ;
#323=CARTESIAN_POINT('Vertex',(-2541.59385247,209.978183365,1116.59441779)) ;
#325=CARTESIAN_POINT('Vertex',(-2540.,209.978183365,1143.5)) ;
#329=CARTESIAN_POINT('Control Point',(-2540.,-209.978183365,1143.5)) ;
#330=CARTESIAN_POINT('Control Point',(-2540.,-125.986910019,1143.5)) ;
#331=CARTESIAN_POINT('Control Point',(-2540.,-41.9934152323,1143.5)) ;
#332=CARTESIAN_POINT('Control Point',(-2540.,42.000077278,1143.5)) ;
#333=CARTESIAN_POINT('Control Point',(-2540.,125.986910019,1143.5)) ;
#334=CARTESIAN_POINT('Control Point',(-2540.,209.978183365,1143.5)) ;
#337=CARTESIAN_POINT('Control Point',(-2547.60504713,-209.978183365,1141.15406913)) ;
#338=CARTESIAN_POINT('Control Point',(-2545.92378384,-209.978183365,1142.30038501)) ;
#339=CARTESIAN_POINT('Control Point',(-2544.03914574,-209.978183365,1143.09411719)) ;
#340=CARTESIAN_POINT('Control Point',(-2542.03486765,-209.978183365,1143.5)) ;
#341=CARTESIAN_POINT('Control Point',(-2540.,-209.978183365,1143.5)) ;
#344=CARTESIAN_POINT('Control Point',(-2540.,-202.373136233,1116.5)) ;
#345=CARTESIAN_POINT('Control Point',(-2540.,-120.243371949,1116.5)) ;
#346=CARTESIAN_POINT('Control Point',(-2540.,-38.1116031679,1116.5)) ;
#347=CARTESIAN_POINT('Control Point',(-2540.,44.0199476711,1116.5)) ;
#348=CARTESIAN_POINT('Control Point',(-2540.,126.14537198,1116.5)) ;
#349=CARTESIAN_POINT('Control Point',(-2540.,208.274913917,1116.5)) ;
#350=CARTESIAN_POINT('Vertex',(-2540.,208.274913917,1116.5)) ;
#354=CARTESIAN_POINT('Control Point',(-2540.,208.274913917,1116.5)) ;
#355=CARTESIAN_POINT('Control Point',(-2540.53199365,208.839452457,1116.5)) ;
#356=CARTESIAN_POINT('Control Point',(-2541.06411392,209.408091425,1116.5314347)) ;
#357=CARTESIAN_POINT('Control Point',(-2541.59385247,209.978183365,1116.59441779)) ;
#368=CARTESIAN_POINT('Axis2P3D Location',(-2540.,-500209.978183,1130.)) ;
#374=CARTESIAN_POINT('Control Point',(-2540.,211.681452813,1143.5)) ;
#375=CARTESIAN_POINT('Control Point',(-2541.76007055,213.549196281,1143.5)) ;
#376=CARTESIAN_POINT('Control Point',(-2543.53820442,215.399917755,1143.21316219)) ;
#377=CARTESIAN_POINT('Control Point',(-2545.30309185,217.19913241,1142.62949785)) ;
#378=CARTESIAN_POINT('Control Point',(-2547.69562802,219.577099324,1141.35393788)) ;
#379=CARTESIAN_POINT('Control Point',(-2549.82029999,221.574853099,1139.31780414)) ;
#380=CARTESIAN_POINT('Control Point',(-2550.38217674,222.092217205,1138.69256212)) ;
#381=CARTESIAN_POINT('Control Point',(-2551.34180563,222.951932381,1137.43535282)) ;
#382=CARTESIAN_POINT('Control Point',(-2552.14343416,223.617843892,1135.97098431)) ;
#383=CARTESIAN_POINT('Control Point',(-2552.46685739,223.872351371,1135.26794342)) ;
#384=CARTESIAN_POINT('Control Point',(-2553.0208562,224.272928704,1133.78331543)) ;
#385=CARTESIAN_POINT('Control Point',(-2553.35865646,224.430591894,1132.1917726)) ;
#386=CARTESIAN_POINT('Control Point',(-2553.46721617,224.442969161,1131.37679813)) ;
#387=CARTESIAN_POINT('Control Point',(-2553.59406655,224.289044828,1129.08989199)) ;
#388=CARTESIAN_POINT('Control Point',(-2553.24993526,223.645421837,1126.88299737)) ;
#389=CARTESIAN_POINT('Control Point',(-2552.85356681,223.059097266,1125.56960426)) ;
#390=CARTESIAN_POINT('Control Point',(-2551.94178727,221.826752323,1123.470926)) ;
#391=CARTESIAN_POINT('Control Point',(-2550.73350656,220.325952746,1121.7382978)) ;
#392=CARTESIAN_POINT('Control Point',(-2550.16883182,219.640855083,1121.05762912)) ;
#393=CARTESIAN_POINT('Control Point',(-2548.323903,217.443548484,1119.15926395)) ;
#394=CARTESIAN_POINT('Control Point',(-2546.2101225,215.034698022,1117.84546331)) ;
#395=CARTESIAN_POINT('Control Point',(-2544.7133277,213.364825556,1117.1994236)) ;
#396=CARTESIAN_POINT('Control Point',(-2543.1673136,211.671504564,1116.78149396)) ;
#397=CARTESIAN_POINT('Control Point',(-2541.59385247,209.978183365,1116.59441779)) ;
#398=CARTESIAN_POINT('Vertex',(-2540.,211.681452813,1143.5)) ;
#401=CARTESIAN_POINT('Line Origine',(-2540.,0.,1143.5)) ;
#412=CARTESIAN_POINT('Axis2P3D Location',(-2540.,209.978183365,1130.)) ;
#418=CARTESIAN_POINT('Control Point',(-2540.,208.085661757,1115.)) ;
#419=CARTESIAN_POINT('Control Point',(-2540.35466243,208.462020778,1115.)) ;
#420=CARTESIAN_POINT('Control Point',(-2540.7092962,208.839671908,1115.01048212)) ;
#421=CARTESIAN_POINT('Control Point',(-2541.06390938,209.218625433,1115.03146022)) ;
#422=CARTESIAN_POINT('Control Point',(-2541.41778815,209.598122067,1115.06291993)) ;
#423=CARTESIAN_POINT('Control Point',(-2541.77094718,209.978183365,1115.10490866)) ;
#424=CARTESIAN_POINT('Vertex',(-2540.,208.085661757,1115.)) ;
#426=CARTESIAN_POINT('Vertex',(-2541.77094718,209.978183365,1115.10490866)) ;
#430=CARTESIAN_POINT('Control Point',(-2540.,211.870704974,1145.)) ;
#431=CARTESIAN_POINT('Control Point',(-2540.98913114,212.92034655,1145.)) ;
#432=CARTESIAN_POINT('Control Point',(-2541.98339652,213.965149747,1144.91846828)) ;
#433=CARTESIAN_POINT('Control Point',(-2542.97862494,215.000474809,1144.75371349)) ;
#434=CARTESIAN_POINT('Control Point',(-2544.85060986,216.927119996,1144.2792747)) ;
#435=CARTESIAN_POINT('Control Point',(-2546.68764002,218.775267886,1143.47666919)) ;
#436=CARTESIAN_POINT('Control Point',(-2547.53917788,219.621648515,1143.02290674)) ;
#437=CARTESIAN_POINT('Control Point',(-2549.06321951,221.1153768,1142.04368063)) ;
#438=CARTESIAN_POINT('Control Point',(-2550.49305729,222.472264751,1140.77219727)) ;
#439=CARTESIAN_POINT('Control Point',(-2551.11657336,223.053181567,1140.13223319)) ;
#440=CARTESIAN_POINT('Control Point',(-2552.19485361,224.034588246,1138.84159221)) ;
#441=CARTESIAN_POINT('Control Point',(-2553.1244214,224.830331089,1137.33018347)) ;
#442=CARTESIAN_POINT('Control Point',(-2553.50864955,225.146004846,1136.6005246)) ;
#443=CARTESIAN_POINT('Control Point',(-2554.14662675,225.639732711,1135.1478769)) ;
#444=CARTESIAN_POINT('Control Point',(-2554.59815292,225.920495923,1133.57548887)) ;
#445=CARTESIAN_POINT('Control Point',(-2554.76381095,226.000676481,1132.81767724)) ;
#446=CARTESIAN_POINT('Control Point',(-2555.00847837,226.055343576,1131.19311503)) ;
#447=CARTESIAN_POINT('Control Point',(-2555.03033465,225.872237818,1129.55800211)) ;
#448=CARTESIAN_POINT('Control Point',(-2554.97970246,225.711255095,1128.70792129)) ;
#449=CARTESIAN_POINT('Control Point',(-2554.75212661,225.249243455,1126.96014388)) ;
#450=CARTESIAN_POINT('Control Point',(-2554.29648057,224.56056432,1125.33406899)) ;
#451=CARTESIAN_POINT('Control Point',(-2554.0019764,224.145476658,1124.52112901)) ;
#452=CARTESIAN_POINT('Control Point',(-2553.09894593,222.930034835,1122.48283134)) ;
#453=CARTESIAN_POINT('Control Point',(-2551.9203282,221.462143057,1120.76154295)) ;
#454=CARTESIAN_POINT('Control Point',(-2551.10836701,220.480604912,1119.81118422)) ;
#455=CARTESIAN_POINT('Control Point',(-2549.43026464,218.496463849,1118.19920626)) ;
#456=CARTESIAN_POINT('Control Point',(-2547.58136315,216.3822436,1116.99278743)) ;
#457=CARTESIAN_POINT('Control Point',(-2546.66005555,215.342465527,1116.50051431)) ;
#458=CARTESIAN_POINT('Control Point',(-2545.14154954,213.648700873,1115.84770655)) ;
#459=CARTESIAN_POINT('Control Point',(-2543.57548744,211.931996592,1115.41306586)) ;
#460=CARTESIAN_POINT('Control Point',(-2542.97828268,211.281425653,1115.27965674)) ;
#461=CARTESIAN_POINT('Control Point',(-2542.37644398,210.629804521,1115.17689901)) ;
#462=CARTESIAN_POINT('Control Point',(-2541.77094718,209.978183365,1115.10490866)) ;
#463=CARTESIAN_POINT('Vertex',(-2540.,211.870704974,1145.)) ;
#467=CARTESIAN_POINT('Control Point',(-2540.,211.870704974,1145.)) ;
#468=CARTESIAN_POINT('Control Point',(-2539.64414742,211.493082991,1145.)) ;
#469=CARTESIAN_POINT('Control Point',(-2539.28895938,211.114834797,1144.98944742)) ;
#470=CARTESIAN_POINT('Control Point',(-2538.93438605,210.735915296,1144.96840378)) ;
#471=CARTESIAN_POINT('Control Point',(-2538.58110113,210.357049335,1144.93694802)) ;
#472=CARTESIAN_POINT('Control Point',(-2538.22905282,209.978183365,1144.89509134)) ;
#473=CARTESIAN_POINT('Vertex',(-2538.22905282,209.978183365,1144.89509134)) ;
#477=CARTESIAN_POINT('Control Point',(-2540.,208.085661757,1115.)) ;
#478=CARTESIAN_POINT('Control Point',(-2539.01253888,207.03779237,1115.)) ;
#479=CARTESIAN_POINT('Control Point',(-2538.01559937,205.990116741,1115.08125668)) ;
#480=CARTESIAN_POINT('Control Point',(-2537.01378093,204.947909802,1115.24689345)) ;
#481=CARTESIAN_POINT('Control Point',(-2535.12847863,203.007707878,1115.72589239)) ;
#482=CARTESIAN_POINT('Control Point',(-2533.26731704,201.135983295,1116.54459531)) ;
#483=CARTESIAN_POINT('Control Point',(-2532.4052618,200.279610663,1117.00762146)) ;
#484=CARTESIAN_POINT('Control Point',(-2530.87040524,198.776541265,1118.00377284)) ;
#485=CARTESIAN_POINT('Control Point',(-2529.4254293,197.407582956,1119.30691139)) ;
#486=CARTESIAN_POINT('Control Point',(-2528.80005279,196.82614806,1119.95841708)) ;
#487=CARTESIAN_POINT('Control Point',(-2527.83851772,195.953515607,1121.12927441)) ;
#488=CARTESIAN_POINT('Control Point',(-2526.99612886,195.230686957,1122.48535113)) ;
#489=CARTESIAN_POINT('Control Point',(-2526.69320158,194.978382645,1123.03346622)) ;
#490=CARTESIAN_POINT('Control Point',(-2526.08923221,194.494618504,1124.27905251)) ;
#491=CARTESIAN_POINT('Control Point',(-2525.61740951,194.165064187,1125.63543571)) ;
#492=CARTESIAN_POINT('Control Point',(-2525.40756528,194.038071701,1126.39386063)) ;
#493=CARTESIAN_POINT('Control Point',(-2525.09485311,193.89816694,1127.9151459)) ;
#494=CARTESIAN_POINT('Control Point',(-2524.98037614,193.972826598,1129.46973684)) ;
#495=CARTESIAN_POINT('Control Point',(-2524.97345045,194.06113155,1130.22788659)) ;
#496=CARTESIAN_POINT('Control Point',(-2525.0454263,194.306288791,1131.56561168)) ;
#497=CARTESIAN_POINT('Control Point',(-2525.25657951,194.692366702,1132.84967096)) ;
#498=CARTESIAN_POINT('Control Point',(-2525.37496021,194.887717273,1133.40232961)) ;
#499=CARTESIAN_POINT('Control Point',(-2525.75894075,195.479316217,1134.8617179)) ;
#500=CARTESIAN_POINT('Control Point',(-2526.29652954,196.218539383,1136.199197)) ;
#501=CARTESIAN_POINT('Control Point',(-2526.68690581,196.732702159,1136.99103816)) ;
#502=CARTESIAN_POINT('Control Point',(-2527.64855981,197.960958059,1138.63782828)) ;
#503=CARTESIAN_POINT('Control Point',(-2528.78051028,199.337481606,1140.02744743)) ;
#504=CARTESIAN_POINT('Control Point',(-2529.44463221,200.129524472,1140.71932637)) ;
#505=CARTESIAN_POINT('Control Point',(-2530.98413467,201.936709056,1142.09449586)) ;
#506=CARTESIAN_POINT('Control Point',(-2532.64792505,203.834141084,1143.13959913)) ;
#507=CARTESIAN_POINT('Control Point',(-2533.58725319,204.891504081,1143.61968195)) ;
#508=CARTESIAN_POINT('Control Point',(-2535.0735548,206.545179261,1144.22560815)) ;
#509=CARTESIAN_POINT('Control Point',(-2536.59467157,208.209640352,1144.62419928)) ;
#510=CARTESIAN_POINT('Control Point',(-2537.13717451,208.799919579,1144.73982659)) ;
#511=CARTESIAN_POINT('Control Point',(-2537.68225089,209.389728223,1144.8300795)) ;
#512=CARTESIAN_POINT('Control Point',(-2538.22905282,209.978183365,1144.89509134)) ;
#521=CARTESIAN_POINT('Control Point',(-2540.,208.274913917,1116.5)) ;
#522=CARTESIAN_POINT('Control Point',(-2539.06458136,207.282270724,1116.5)) ;
#523=CARTESIAN_POINT('Control Point',(-2538.119712,206.289820714,1116.58101932)) ;
#524=CARTESIAN_POINT('Control Point',(-2537.17022141,205.30310245,1116.74633638)) ;
#525=CARTESIAN_POINT('Control Point',(-2535.39350821,203.477797674,1117.22268067)) ;
#526=CARTESIAN_POINT('Control Point',(-2533.64457138,201.724758753,1118.0381777)) ;
#527=CARTESIAN_POINT('Control Point',(-2532.84085412,200.929729157,1118.49673525)) ;
#528=CARTESIAN_POINT('Control Point',(-2531.42398696,199.549949289,1119.4776854)) ;
#529=CARTESIAN_POINT('Control Point',(-2530.10473887,198.311909383,1120.76100203)) ;
#530=CARTESIAN_POINT('Control Point',(-2529.54214101,197.795143913,1121.39705429)) ;
#531=CARTESIAN_POINT('Control Point',(-2528.68827448,197.032818573,1122.53661932)) ;
#532=CARTESIAN_POINT('Control Point',(-2527.96150633,196.427261639,1123.84972066)) ;
#533=CARTESIAN_POINT('Control Point',(-2527.70501562,196.221666775,1124.37748277)) ;
#534=CARTESIAN_POINT('Control Point',(-2527.20121762,195.838774698,1125.58005244)) ;
#535=CARTESIAN_POINT('Control Point',(-2526.83569194,195.614434791,1126.87631452)) ;
#536=CARTESIAN_POINT('Control Point',(-2526.6840329,195.544762292,1127.59966954)) ;
#537=CARTESIAN_POINT('Control Point',(-2526.50862124,195.519345926,1128.87357434)) ;
#538=CARTESIAN_POINT('Control Point',(-2526.48468993,195.65494162,1130.1495784)) ;
#539=CARTESIAN_POINT('Control Point',(-2526.5016612,195.740573278,1130.68554714)) ;
#540=CARTESIAN_POINT('Control Point',(-2526.58985572,195.971311537,1131.77257625)) ;
#541=CARTESIAN_POINT('Control Point',(-2526.78044819,196.30532339,1132.81689583)) ;
#542=CARTESIAN_POINT('Control Point',(-2526.90340239,196.501680926,1133.33906879)) ;
#543=CARTESIAN_POINT('Control Point',(-2527.30157131,197.098950047,1134.72406288)) ;
#544=CARTESIAN_POINT('Control Point',(-2527.8512601,197.840773897,1135.98038404)) ;
#545=CARTESIAN_POINT('Control Point',(-2528.24952105,198.356963866,1136.72197614)) ;
#546=CARTESIAN_POINT('Control Point',(-2529.23134939,199.59328222,1138.2629862)) ;
#547=CARTESIAN_POINT('Control Point',(-2530.37676221,200.969536531,1139.53724223)) ;
#548=CARTESIAN_POINT('Control Point',(-2531.04959628,201.762920677,1140.16647598)) ;
#549=CARTESIAN_POINT('Control Point',(-2532.30493608,203.220551683,1141.1611438)) ;
#550=CARTESIAN_POINT('Control Point',(-2533.63453837,204.728953824,1141.93361301)) ;
#551=CARTESIAN_POINT('Control Point',(-2534.23232407,205.40105359,1142.23277201)) ;
#552=CARTESIAN_POINT('Control Point',(-2535.41259719,206.717060118,1142.73630496)) ;
#553=CARTESIAN_POINT('Control Point',(-2536.62100524,208.044217543,1143.09158178)) ;
#554=CARTESIAN_POINT('Control Point',(-2537.21284912,208.689720602,1143.22991249)) ;
#555=CARTESIAN_POINT('Control Point',(-2537.80835255,209.334850719,1143.33450756)) ;
#556=CARTESIAN_POINT('Control Point',(-2538.40614753,209.978183365,1143.40558221)) ;
#557=CARTESIAN_POINT('Vertex',(-2538.40614753,209.978183365,1143.40558221)) ;
#561=CARTESIAN_POINT('Control Point',(-2540.,211.681452813,1143.5)) ;
#562=CARTESIAN_POINT('Control Point',(-2539.67973268,211.341593028,1143.5)) ;
#563=CARTESIAN_POINT('Control Point',(-2539.36006344,211.001169655,1143.49050267)) ;
#564=CARTESIAN_POINT('Control Point',(-2539.04094745,210.660142102,1143.4715634)) ;
#565=CARTESIAN_POINT('Control Point',(-2538.72299102,210.319162738,1143.44325321)) ;
#566=CARTESIAN_POINT('Control Point',(-2538.40614753,209.978183365,1143.40558221)) ;
#575=CARTESIAN_POINT('Line Origine',(-2540.,0.,1145.)) ;
#579=CARTESIAN_POINT('Vertex',(-2540.,209.978183365,1145.)) ;
#582=CARTESIAN_POINT('Axis2P3D Location',(-2540.,209.978183365,1130.)) ;
#593=CARTESIAN_POINT('Axis2P3D Location',(-2540.,209.978183365,1130.)) ;
#604=CARTESIAN_POINT('Axis2P3D Location',(-2540.,209.978183365,1130.)) ;
#616=CARTESIAN_POINT('Control Point',(-2540.,-209.978183365,1143.5)) ;
#617=CARTESIAN_POINT('Control Point',(-2526.5,-209.978183365,1143.5)) ;
#618=CARTESIAN_POINT('Control Point',(-2519.75,-209.978183365,1130.)) ;
#619=CARTESIAN_POINT('Control Point',(-2526.5,-209.978183365,1116.5)) ;
#620=CARTESIAN_POINT('Control Point',(-2540.,-209.978183365,1116.5)) ;
#621=CARTESIAN_POINT('Control Point',(-2540.,-125.986910019,1143.5)) ;
#622=CARTESIAN_POINT('Control Point',(-2526.5,-125.986910019,1143.5)) ;
#623=CARTESIAN_POINT('Control Point',(-2519.75,-125.986910019,1130.)) ;
#624=CARTESIAN_POINT('Control Point',(-2526.5,-125.986910019,1116.5)) ;
#625=CARTESIAN_POINT('Control Point',(-2540.,-125.986910019,1116.5)) ;
#626=CARTESIAN_POINT('Control Point',(-2540.,-41.9934152323,1143.5)) ;
#627=CARTESIAN_POINT('Control Point',(-2526.5,-41.9934152323,1143.5)) ;
#628=CARTESIAN_POINT('Control Point',(-2519.75,-41.9934152323,1130.)) ;
#629=CARTESIAN_POINT('Control Point',(-2526.5,-41.9934152323,1116.5)) ;
#630=CARTESIAN_POINT('Control Point',(-2540.,-41.9934152323,1116.5)) ;
#631=CARTESIAN_POINT('Control Point',(-2540.,42.000077278,1143.5)) ;
#632=CARTESIAN_POINT('Control Point',(-2526.5,42.000077278,1143.5)) ;
#633=CARTESIAN_POINT('Control Point',(-2519.75,42.000077278,1130.)) ;
#634=CARTESIAN_POINT('Control Point',(-2526.5,42.000077278,1116.5)) ;
#635=CARTESIAN_POINT('Control Point',(-2540.,42.000077278,1116.5)) ;
#636=CARTESIAN_POINT('Control Point',(-2540.,125.986910019,1143.5)) ;
#637=CARTESIAN_POINT('Control Point',(-2526.5,125.986910019,1143.5)) ;
#638=CARTESIAN_POINT('Control Point',(-2519.75,125.986910019,1130.)) ;
#639=CARTESIAN_POINT('Control Point',(-2526.5,125.986910019,1116.5)) ;
#640=CARTESIAN_POINT('Control Point',(-2540.,125.986910019,1116.5)) ;
#641=CARTESIAN_POINT('Control Point',(-2540.,209.978183365,1143.5)) ;
#642=CARTESIAN_POINT('Control Point',(-2526.5,209.978183365,1143.5)) ;
#643=CARTESIAN_POINT('Control Point',(-2519.75,209.978183365,1130.)) ;
#644=CARTESIAN_POINT('Control Point',(-2526.5,209.978183365,1116.5)) ;
#645=CARTESIAN_POINT('Control Point',(-2540.,209.978183365,1116.5)) ;
#662=CARTESIAN_POINT('Control Point',(-2540.,-209.978183365,1115.)) ;
#663=CARTESIAN_POINT('Control Point',(-2555.,-209.978183365,1115.)) ;
#664=CARTESIAN_POINT('Control Point',(-2562.5,-209.978183365,1130.)) ;
#665=CARTESIAN_POINT('Control Point',(-2555.,-209.978183365,1145.)) ;
#666=CARTESIAN_POINT('Control Point',(-2540.,-209.978183365,1145.)) ;
#667=CARTESIAN_POINT('Control Point',(-2540.,-125.986910019,1115.)) ;
#668=CARTESIAN_POINT('Control Point',(-2555.,-125.986910019,1115.)) ;
#669=CARTESIAN_POINT('Control Point',(-2562.5,-125.986910019,1130.)) ;
#670=CARTESIAN_POINT('Control Point',(-2555.,-125.986910019,1145.)) ;
#671=CARTESIAN_POINT('Control Point',(-2540.,-125.986910019,1145.)) ;
#672=CARTESIAN_POINT('Control Point',(-2540.,-41.9934152323,1115.)) ;
#673=CARTESIAN_POINT('Control Point',(-2555.,-41.9934152323,1115.)) ;
#674=CARTESIAN_POINT('Control Point',(-2562.5,-41.9934152323,1130.)) ;
#675=CARTESIAN_POINT('Control Point',(-2555.,-41.9934152323,1145.)) ;
#676=CARTESIAN_POINT('Control Point',(-2540.,-41.9934152323,1145.)) ;
#677=CARTESIAN_POINT('Control Point',(-2540.,42.000077278,1115.)) ;
#678=CARTESIAN_POINT('Control Point',(-2555.,42.000077278,1115.)) ;
#679=CARTESIAN_POINT('Control Point',(-2562.5,42.000077278,1130.)) ;
#680=CARTESIAN_POINT('Control Point',(-2555.,42.000077278,1145.)) ;
#681=CARTESIAN_POINT('Control Point',(-2540.,42.000077278,1145.)) ;
#682=CARTESIAN_POINT('Control Point',(-2540.,125.986910019,1115.)) ;
#683=CARTESIAN_POINT('Control Point',(-2555.,125.986910019,1115.)) ;
#684=CARTESIAN_POINT('Control Point',(-2562.5,125.986910019,1130.)) ;
#685=CARTESIAN_POINT('Control Point',(-2555.,125.986910019,1145.)) ;
#686=CARTESIAN_POINT('Control Point',(-2540.,125.986910019,1145.)) ;
#687=CARTESIAN_POINT('Control Point',(-2540.,209.978183365,1115.)) ;
#688=CARTESIAN_POINT('Control Point',(-2555.,209.978183365,1115.)) ;
#689=CARTESIAN_POINT('Control Point',(-2562.5,209.978183365,1130.)) ;
#690=CARTESIAN_POINT('Control Point',(-2555.,209.978183365,1145.)) ;
#691=CARTESIAN_POINT('Control Point',(-2540.,209.978183365,1145.)) ;
#693=CARTESIAN_POINT('Control Point',(-2540.,-201.528130996,1115.)) ;
#694=CARTESIAN_POINT('Control Point',(-2540.,-119.605201878,1115.)) ;
#695=CARTESIAN_POINT('Control Point',(-2540.,-37.6802920442,1115.)) ;
#696=CARTESIAN_POINT('Control Point',(-2540.,44.2443778438,1115.)) ;
#697=CARTESIAN_POINT('Control Point',(-2540.,126.162978384,1115.)) ;
#698=CARTESIAN_POINT('Control Point',(-2540.,208.085661757,1115.)) ;
#701=CARTESIAN_POINT('Control Point',(-2540.,-209.978183365,1145.)) ;
#702=CARTESIAN_POINT('Control Point',(-2540.,-125.986910019,1145.)) ;
#703=CARTESIAN_POINT('Control Point',(-2540.,-41.9934152323,1145.)) ;
#704=CARTESIAN_POINT('Control Point',(-2540.,42.000077278,1145.)) ;
#705=CARTESIAN_POINT('Control Point',(-2540.,125.986910019,1145.)) ;
#706=CARTESIAN_POINT('Control Point',(-2540.,209.978183365,1145.)) ;
#718=CARTESIAN_POINT('Control Point',(-2540.,-209.978183365,1145.)) ;
#719=CARTESIAN_POINT('Control Point',(-2525.,-209.978183365,1145.)) ;
#720=CARTESIAN_POINT('Control Point',(-2517.5,-209.978183365,1130.)) ;
#721=CARTESIAN_POINT('Control Point',(-2525.,-209.978183365,1115.)) ;
#722=CARTESIAN_POINT('Control Point',(-2540.,-209.978183365,1115.)) ;
#723=CARTESIAN_POINT('Control Point',(-2540.,-125.986910019,1145.)) ;
#724=CARTESIAN_POINT('Control Point',(-2525.,-125.986910019,1145.)) ;
#725=CARTESIAN_POINT('Control Point',(-2517.5,-125.986910019,1130.)) ;
#726=CARTESIAN_POINT('Control Point',(-2525.,-125.986910019,1115.)) ;
#727=CARTESIAN_POINT('Control Point',(-2540.,-125.986910019,1115.)) ;
#728=CARTESIAN_POINT('Control Point',(-2540.,-41.9934152323,1145.)) ;
#729=CARTESIAN_POINT('Control Point',(-2525.,-41.9934152323,1145.)) ;
#730=CARTESIAN_POINT('Control Point',(-2517.5,-41.9934152323,1130.)) ;
#731=CARTESIAN_POINT('Control Point',(-2525.,-41.9934152323,1115.)) ;
#732=CARTESIAN_POINT('Control Point',(-2540.,-41.9934152323,1115.)) ;
#733=CARTESIAN_POINT('Control Point',(-2540.,42.000077278,1145.)) ;
#734=CARTESIAN_POINT('Control Point',(-2525.,42.000077278,1145.)) ;
#735=CARTESIAN_POINT('Control Point',(-2517.5,42.000077278,1130.)) ;
#736=CARTESIAN_POINT('Control Point',(-2525.,42.000077278,1115.)) ;
#737=CARTESIAN_POINT('Control Point',(-2540.,42.000077278,1115.)) ;
#738=CARTESIAN_POINT('Control Point',(-2540.,125.986910019,1145.)) ;
#739=CARTESIAN_POINT('Control Point',(-2525.,125.986910019,1145.)) ;
#740=CARTESIAN_POINT('Control Point',(-2517.5,125.986910019,1130.)) ;
#741=CARTESIAN_POINT('Control Point',(-2525.,125.986910019,1115.)) ;
#742=CARTESIAN_POINT('Control Point',(-2540.,125.986910019,1115.)) ;
#743=CARTESIAN_POINT('Control Point',(-2540.,209.978183365,1145.)) ;
#744=CARTESIAN_POINT('Control Point',(-2525.,209.978183365,1145.)) ;
#745=CARTESIAN_POINT('Control Point',(-2517.5,209.978183365,1130.)) ;
#746=CARTESIAN_POINT('Control Point',(-2525.,209.978183365,1115.)) ;
#747=CARTESIAN_POINT('Control Point',(-2540.,209.978183365,1115.)) ;
#8=PRODUCT_RELATED_PRODUCT_CATEGORY('part',$,(#5)) ;
#29=STYLED_ITEM(' ',(#28),#21) ;
#28=PRESENTATION_STYLE_ASSIGNMENT((#27)) ;
#27=SURFACE_STYLE_USAGE(.BOTH.,#26) ;
#26=SURFACE_SIDE_STYLE(' ',(#25)) ;
#25=SURFACE_STYLE_FILL_AREA(#24) ;
#24=FILL_AREA_STYLE(' ',(#23)) ;
#23=FILL_AREA_STYLE_COLOUR(' ',#22) ;
#47=VECTOR('Line Direction',#46,1.) ;
#270=VECTOR('Line Direction',#269,1.) ;
#403=VECTOR('Line Direction',#402,1.) ;
#577=VECTOR('Line Direction',#576,1.) ;
#32=DIRECTION('Axis2P3D Direction',(-1.77624315256E-15,1.,1.7763568394E-15)) ;
#33=DIRECTION('Axis2P3D XDirection',(-5.05321549807E-16,-1.7763568394E-15,1.)) ;
#37=DIRECTION('Axis2P3D Direction',(-1.77624315256E-15,1.,1.7763568394E-15)) ;
#46=DIRECTION('Vector Direction',(-1.77632491044E-15,1.,1.77632491044E-15)) ;
#85=DIRECTION('Axis2P3D Direction',(-1.77624315256E-15,1.,1.7763568394E-15)) ;
#86=DIRECTION('Axis2P3D XDirection',(1.07187543957E-15,1.7763568394E-15,-1.)) ;
#90=DIRECTION('Axis2P3D Direction',(-1.77624315256E-15,1.,1.7763568394E-15)) ;
#110=DIRECTION('Axis2P3D Direction',(-0.584230956901,-0.707106781187,-0.398339288796)) ;
#111=DIRECTION('Axis2P3D XDirection',(0.563336824642,1.2200121201E-15,-0.826227342807)) ;
#264=DIRECTION('Axis2P3D Direction',(-1.77624315256E-15,1.,1.7763568394E-15)) ;
#265=DIRECTION('Axis2P3D XDirection',(-6.12323399574E-17,-1.7763568394E-15,1.)) ;
#269=DIRECTION('Vector Direction',(-1.77632491044E-15,1.,1.77632491044E-15)) ;
#276=DIRECTION('Axis2P3D Direction',(-1.77624315256E-15,1.,1.7763568394E-15)) ;
#369=DIRECTION('Axis2P3D Direction',(-1.77624315256E-15,1.,1.7763568394E-15)) ;
#370=DIRECTION('Axis2P3D XDirection',(1.83697019872E-16,1.7763568394E-15,-1.)) ;
#402=DIRECTION('Vector Direction',(-1.77632491044E-15,1.,1.77632491044E-15)) ;
#413=DIRECTION('Axis2P3D Direction',(0.725063846754,0.683264884791,-0.0862062372588)) ;
#414=DIRECTION('Axis2P3D XDirection',(-0.11806314565,-2.54136989231E-16,-0.993006089427)) ;
#576=DIRECTION('Vector Direction',(-1.77632491044E-15,1.,1.77632491044E-15)) ;
#583=DIRECTION('Axis2P3D Direction',(-1.77624315256E-15,1.,1.7763568394E-15)) ;
#594=DIRECTION('Axis2P3D Direction',(-1.77624315256E-15,1.,1.7763568394E-15)) ;
#605=DIRECTION('Axis2P3D Direction',(-1.77624315256E-15,1.,1.7763568394E-15)) ;
#15=UNCERTAINTY_MEASURE_WITH_UNIT(LENGTH_MEASURE(0.005),#12,'distance_accuracy_value','CONFUSED CURVE UNCERTAINTY') ;
#18=AXIS2_PLACEMENT_3D(' ',#17,$,$) ;
#34=AXIS2_PLACEMENT_3D('Cylinder Axis2P3D',#31,#32,#33) ;
#38=AXIS2_PLACEMENT_3D('Circle Axis2P3D',#36,#37,$) ;
#87=AXIS2_PLACEMENT_3D('Cylinder Axis2P3D',#84,#85,#86) ;
#91=AXIS2_PLACEMENT_3D('Circle Axis2P3D',#89,#90,$) ;
#112=AXIS2_PLACEMENT_3D('Plane Axis2P3D',#109,#110,#111) ;
#266=AXIS2_PLACEMENT_3D('Cylinder Axis2P3D',#263,#264,#265) ;
#277=AXIS2_PLACEMENT_3D('Circle Axis2P3D',#275,#276,$) ;
#371=AXIS2_PLACEMENT_3D('Cylinder Axis2P3D',#368,#369,#370) ;
#415=AXIS2_PLACEMENT_3D('Plane Axis2P3D',#412,#413,#414) ;
#584=AXIS2_PLACEMENT_3D('Circle Axis2P3D',#582,#583,$) ;
#595=AXIS2_PLACEMENT_3D('Circle Axis2P3D',#593,#594,$) ;
#606=AXIS2_PLACEMENT_3D('Circle Axis2P3D',#604,#605,$) ;
#48=LINE('Line',#45,#47) ;
#271=LINE('Line',#268,#270) ;
#404=LINE('Line',#401,#403) ;
#578=LINE('Line',#575,#577) ;
#39=CIRCLE('generated circle',#38,15.) ;
#92=CIRCLE('generated circle',#91,15.) ;
#278=CIRCLE('generated circle',#277,13.5) ;
#585=CIRCLE('generated circle',#584,15.) ;
#596=CIRCLE('generated circle',#595,15.) ;
#607=CIRCLE('generated circle',#606,13.5) ;
#113=PLANE('',#112) ;
#416=PLANE('',#415) ;
#35=CYLINDRICAL_SURFACE('generated cylinder',#34,15.) ;
#88=CYLINDRICAL_SURFACE('generated cylinder',#87,15.) ;
#267=CYLINDRICAL_SURFACE('generated cylinder',#266,13.5) ;
#372=CYLINDRICAL_SURFACE('generated cylinder',#371,13.5) ;
#261=FACE_BOUND('',#256,.T.) ;
#573=FACE_BOUND('',#568,.T.) ;
#44=EDGE_CURVE('',#41,#43,#39,.T.) ;
#51=EDGE_CURVE('',#41,#50,#48,.F.) ;
#77=EDGE_CURVE('',#50,#43,#52,.T.) ;
#95=EDGE_CURVE('',#94,#41,#92,.T.) ;
#102=EDGE_CURVE('',#50,#94,#96,.T.) ;
#147=EDGE_CURVE('',#146,#94,#114,.T.) ;
#158=EDGE_CURVE('',#146,#43,#148,.T.) ;
#179=EDGE_CURVE('',#176,#178,#165,.T.) ;
#213=EDGE_CURVE('',#176,#212,#180,.T.) ;
#223=EDGE_CURVE('',#222,#212,#214,.T.) ;
#255=EDGE_CURVE('',#222,#178,#224,.T.) ;
#274=EDGE_CURVE('',#273,#176,#271,.F.) ;
#279=EDGE_CURVE('',#273,#212,#278,.T.) ;
#327=EDGE_CURVE('',#324,#326,#317,.T.) ;
#335=EDGE_CURVE('',#273,#326,#328,.T.) ;
#342=EDGE_CURVE('',#178,#273,#336,.T.) ;
#352=EDGE_CURVE('',#222,#351,#343,.T.) ;
#358=EDGE_CURVE('',#351,#324,#353,.T.) ;
#400=EDGE_CURVE('',#399,#324,#373,.T.) ;
#405=EDGE_CURVE('',#326,#399,#404,.T.) ;
#428=EDGE_CURVE('',#425,#427,#417,.T.) ;
#465=EDGE_CURVE('',#464,#427,#429,.T.) ;
#475=EDGE_CURVE('',#464,#474,#466,.T.) ;
#513=EDGE_CURVE('',#425,#474,#476,.T.) ;
#559=EDGE_CURVE('',#351,#558,#520,.T.) ;
#567=EDGE_CURVE('',#399,#558,#560,.T.) ;
#581=EDGE_CURVE('',#580,#464,#578,.T.) ;
#586=EDGE_CURVE('',#580,#474,#585,.T.) ;
#597=EDGE_CURVE('',#427,#580,#596,.T.) ;
#608=EDGE_CURVE('',#326,#558,#607,.T.) ;
#699=EDGE_CURVE('',#146,#425,#692,.T.) ;
#707=EDGE_CURVE('',#41,#580,#700,.T.) ;
#30=CLOSED_SHELL('Closed Shell',(#83,#108,#262,#285,#367,#411,#574,#592,#603,#614,#654,#660,#716,#756)) ;
#758=SHAPE_REPRESENTATION_RELATIONSHIP(' ',' ',#19,#757) ;
#78=EDGE_LOOP('',(#79,#80,#81)) ;
#103=EDGE_LOOP('',(#104,#105,#106)) ;
#159=EDGE_LOOP('',(#160,#161,#162,#163)) ;
#256=EDGE_LOOP('',(#257,#258,#259,#260)) ;
#280=EDGE_LOOP('',(#281,#282,#283)) ;
#359=EDGE_LOOP('',(#360,#361,#362,#363,#364,#365)) ;
#406=EDGE_LOOP('',(#407,#408,#409)) ;
#514=EDGE_LOOP('',(#515,#516,#517,#518)) ;
#568=EDGE_LOOP('',(#569,#570,#571,#572)) ;
#587=EDGE_LOOP('',(#588,#589,#590)) ;
#598=EDGE_LOOP('',(#599,#600,#601)) ;
#609=EDGE_LOOP('',(#610,#611,#612)) ;
#646=EDGE_LOOP('',(#647,#648,#649,#650,#651,#652)) ;
#655=EDGE_LOOP('',(#656,#657,#658)) ;
#708=EDGE_LOOP('',(#709,#710,#711,#712,#713,#714)) ;
#748=EDGE_LOOP('',(#749,#750,#751,#752,#753,#754)) ;
#79=ORIENTED_EDGE('',*,*,#44,.F.) ;
#80=ORIENTED_EDGE('',*,*,#51,.T.) ;
#81=ORIENTED_EDGE('',*,*,#77,.T.) ;
#104=ORIENTED_EDGE('',*,*,#51,.F.) ;
#105=ORIENTED_EDGE('',*,*,#95,.F.) ;
#106=ORIENTED_EDGE('',*,*,#102,.F.) ;
#160=ORIENTED_EDGE('',*,*,#77,.F.) ;
#161=ORIENTED_EDGE('',*,*,#102,.T.) ;
#162=ORIENTED_EDGE('',*,*,#147,.F.) ;
#163=ORIENTED_EDGE('',*,*,#158,.T.) ;
#257=ORIENTED_EDGE('',*,*,#179,.F.) ;
#258=ORIENTED_EDGE('',*,*,#213,.T.) ;
#259=ORIENTED_EDGE('',*,*,#223,.F.) ;
#260=ORIENTED_EDGE('',*,*,#255,.T.) ;
#281=ORIENTED_EDGE('',*,*,#213,.F.) ;
#282=ORIENTED_EDGE('',*,*,#274,.F.) ;
#283=ORIENTED_EDGE('',*,*,#279,.T.) ;
#360=ORIENTED_EDGE('',*,*,#327,.T.) ;
#361=ORIENTED_EDGE('',*,*,#335,.F.) ;
#362=ORIENTED_EDGE('',*,*,#342,.F.) ;
#363=ORIENTED_EDGE('',*,*,#255,.F.) ;
#364=ORIENTED_EDGE('',*,*,#352,.T.) ;
#365=ORIENTED_EDGE('',*,*,#358,.T.) ;
#407=ORIENTED_EDGE('',*,*,#400,.F.) ;
#408=ORIENTED_EDGE('',*,*,#405,.F.) ;
#409=ORIENTED_EDGE('',*,*,#327,.F.) ;
#515=ORIENTED_EDGE('',*,*,#428,.T.) ;
#516=ORIENTED_EDGE('',*,*,#465,.F.) ;
#517=ORIENTED_EDGE('',*,*,#475,.T.) ;
#518=ORIENTED_EDGE('',*,*,#513,.F.) ;
#569=ORIENTED_EDGE('',*,*,#559,.T.) ;
#570=ORIENTED_EDGE('',*,*,#567,.F.) ;
#571=ORIENTED_EDGE('',*,*,#400,.T.) ;
#572=ORIENTED_EDGE('',*,*,#358,.F.) ;
#588=ORIENTED_EDGE('',*,*,#581,.F.) ;
#589=ORIENTED_EDGE('',*,*,#586,.T.) ;
#590=ORIENTED_EDGE('',*,*,#475,.F.) ;
#599=ORIENTED_EDGE('',*,*,#597,.T.) ;
#600=ORIENTED_EDGE('',*,*,#581,.T.) ;
#601=ORIENTED_EDGE('',*,*,#465,.T.) ;
#610=ORIENTED_EDGE('',*,*,#567,.T.) ;
#611=ORIENTED_EDGE('',*,*,#608,.F.) ;
#612=ORIENTED_EDGE('',*,*,#405,.T.) ;
#647=ORIENTED_EDGE('',*,*,#352,.F.) ;
#648=ORIENTED_EDGE('',*,*,#223,.T.) ;
#649=ORIENTED_EDGE('',*,*,#279,.F.) ;
#650=ORIENTED_EDGE('',*,*,#335,.T.) ;
#651=ORIENTED_EDGE('',*,*,#608,.T.) ;
#652=ORIENTED_EDGE('',*,*,#559,.F.) ;
#656=ORIENTED_EDGE('',*,*,#179,.T.) ;
#657=ORIENTED_EDGE('',*,*,#342,.T.) ;
#658=ORIENTED_EDGE('',*,*,#274,.T.) ;
#709=ORIENTED_EDGE('',*,*,#428,.F.) ;
#710=ORIENTED_EDGE('',*,*,#699,.F.) ;
#711=ORIENTED_EDGE('',*,*,#147,.T.) ;
#712=ORIENTED_EDGE('',*,*,#95,.T.) ;
#713=ORIENTED_EDGE('',*,*,#707,.T.) ;
#714=ORIENTED_EDGE('',*,*,#597,.F.) ;
#749=ORIENTED_EDGE('',*,*,#513,.T.) ;
#750=ORIENTED_EDGE('',*,*,#586,.F.) ;
#751=ORIENTED_EDGE('',*,*,#707,.F.) ;
#752=ORIENTED_EDGE('',*,*,#44,.T.) ;
#753=ORIENTED_EDGE('',*,*,#158,.F.) ;
#754=ORIENTED_EDGE('',*,*,#699,.T.) ;
#21=MANIFOLD_SOLID_BREP('Corps principal',#30) ;
#41=VERTEX_POINT('',#40) ;
#43=VERTEX_POINT('',#42) ;
#50=VERTEX_POINT('',#49) ;
#94=VERTEX_POINT('',#93) ;
#146=VERTEX_POINT('',#145) ;
#176=VERTEX_POINT('',#175) ;
#178=VERTEX_POINT('',#177) ;
#212=VERTEX_POINT('',#211) ;
#222=VERTEX_POINT('',#221) ;
#273=VERTEX_POINT('',#272) ;
#324=VERTEX_POINT('',#323) ;
#326=VERTEX_POINT('',#325) ;
#351=VERTEX_POINT('',#350) ;
#399=VERTEX_POINT('',#398) ;
#425=VERTEX_POINT('',#424) ;
#427=VERTEX_POINT('',#426) ;
#464=VERTEX_POINT('',#463) ;
#474=VERTEX_POINT('',#473) ;
#558=VERTEX_POINT('',#557) ;
#580=VERTEX_POINT('',#579) ;
#757=ADVANCED_BREP_SHAPE_REPRESENTATION('NONE',(#21),#16) ;
#83=ADVANCED_FACE('Corps principal',(#82),#35,.T.) ;
#108=ADVANCED_FACE('Corps principal',(#107),#88,.T.) ;
#262=ADVANCED_FACE('Corps principal',(#164,#261),#113,.T.) ;
#285=ADVANCED_FACE('Corps principal',(#284),#267,.F.) ;
#367=ADVANCED_FACE('Corps principal',(#366),#286,.T.) ;
#411=ADVANCED_FACE('Corps principal',(#410),#372,.F.) ;
#574=ADVANCED_FACE('Corps principal',(#519,#573),#416,.T.) ;
#592=ADVANCED_FACE('Corps principal',(#591),#35,.T.) ;
#603=ADVANCED_FACE('Corps principal',(#602),#88,.T.) ;
#614=ADVANCED_FACE('Corps principal',(#613),#267,.F.) ;
#654=ADVANCED_FACE('Corps principal',(#653),#615,.T.) ;
#660=ADVANCED_FACE('Corps principal',(#659),#372,.F.) ;
#716=ADVANCED_FACE('Corps principal',(#715),#661,.F.) ;
#756=ADVANCED_FACE('Corps principal',(#755),#717,.F.) ;
#4=APPLICATION_PROTOCOL_DEFINITION('international standard','ap242_managed_model_based_3d_engineering',2014,#1) ;
#52=B_SPLINE_CURVE_WITH_KNOTS('',5,(#53,#54,#55,#56,#57,#58,#59,#60,#61,#62,#63,#64,#65,#66,#67,#68,#69,#70,#71,#72,#73,#74,#75,#76),.UNSPECIFIED.,.F.,.U.,(6,3,3,3,3,3,3,6),(0.,10.0042601823,16.5660229424,22.2895397047,32.0439734138,39.2192907951,47.8079890475,63.5933723144),.UNSPECIFIED.) ;
#96=B_SPLINE_CURVE_WITH_KNOTS('',4,(#97,#98,#99,#100,#101),.UNSPECIFIED.,.F.,.U.,(5,5),(0.,17.4408000909),.UNSPECIFIED.) ;
#114=B_SPLINE_CURVE_WITH_KNOTS('',5,(#115,#116,#117,#118,#119,#120,#121,#122,#123,#124,#125,#126,#127,#128,#129,#130,#131,#132,#133,#134,#135,#136,#137,#138,#139,#140,#141,#142,#143,#144),.UNSPECIFIED.,.F.,.U.,(6,3,3,3,3,3,3,3,3,6),(0.,10.4164515972,17.0761203427,22.7716453454,28.1687401313,32.3662544567,39.4443554729,47.9885537963,58.196470029,63.2965836706),.UNSPECIFIED.) ;
#148=B_SPLINE_CURVE_WITH_KNOTS('',5,(#149,#150,#151,#152,#153,#154,#155,#156,#157),.UNSPECIFIED.,.F.,.U.,(6,3,6),(0.,17.3264120516,17.6922712496),.UNSPECIFIED.) ;
#165=B_SPLINE_CURVE_WITH_KNOTS('',5,(#166,#167,#168,#169,#170,#171,#172,#173,#174),.UNSPECIFIED.,.F.,.U.,(6,3,6),(0.,9.51760131249,15.6966727509),.UNSPECIFIED.) ;
#180=B_SPLINE_CURVE_WITH_KNOTS('',5,(#181,#182,#183,#184,#185,#186,#187,#188,#189,#190,#191,#192,#193,#194,#195,#196,#197,#198,#199,#200,#201,#202,#203,#204,#205,#206,#207,#208,#209,#210),.UNSPECIFIED.,.F.,.U.,(6,3,3,3,3,3,3,3,3,6),(0.,9.4545889798,15.5958282736,20.9627306977,24.864611711,28.912554978,35.7483148009,44.0096022666,53.8475408668,57.2327227595),.UNSPECIFIED.) ;
#214=B_SPLINE_CURVE_WITH_KNOTS('',5,(#215,#216,#217,#218,#219,#220),.UNSPECIFIED.,.F.,.U.,(6,6),(0.,15.9226654232),.UNSPECIFIED.) ;
#224=B_SPLINE_CURVE_WITH_KNOTS('',5,(#225,#226,#227,#228,#229,#230,#231,#232,#233,#234,#235,#236,#237,#238,#239,#240,#241,#242,#243,#244,#245,#246,#247,#248,#249,#250,#251,#252,#253,#254),.UNSPECIFIED.,.F.,.U.,(6,3,3,3,3,3,3,3,3,6),(0.,9.83921428221,14.6160884421,20.1025267875,24.5811872659,28.5181456583,32.7964223103,43.1684467166,52.8616774667,56.9636842346),.UNSPECIFIED.) ;
#353=B_SPLINE_CURVE_WITH_KNOTS('',3,(#354,#355,#356,#357),.UNSPECIFIED.,.F.,.U.,(4,4),(0.,3.38027431561),.UNSPECIFIED.) ;
#373=B_SPLINE_CURVE_WITH_KNOTS('',5,(#374,#375,#376,#377,#378,#379,#380,#381,#382,#383,#384,#385,#386,#387,#388,#389,#390,#391,#392,#393,#394,#395,#396,#397),.UNSPECIFIED.,.F.,.U.,(6,3,3,3,3,3,3,6),(0.,18.1470576247,25.0900690036,30.8137328405,36.5845040851,46.9535715275,54.8321639133,71.2305085109),.UNSPECIFIED.) ;
#417=B_SPLINE_CURVE_WITH_KNOTS('',5,(#418,#419,#420,#421,#422,#423),.UNSPECIFIED.,.F.,.U.,(6,6),(0.,3.75586039515),.UNSPECIFIED.) ;
#429=B_SPLINE_CURVE_WITH_KNOTS('',5,(#430,#431,#432,#433,#434,#435,#436,#437,#438,#439,#440,#441,#442,#443,#444,#445,#446,#447,#448,#449,#450,#451,#452,#453,#454,#455,#456,#457,#458,#459,#460,#461,#462),.UNSPECIFIED.,.F.,.U.,(6,3,3,3,3,3,3,3,3,3,6),(0.,10.1983524483,19.2471709005,26.749833843,32.9585978481,38.4424232313,44.5305055753,51.2747321055,62.4376983986,72.8326235204,79.1430082673),.UNSPECIFIED.) ;
#466=B_SPLINE_CURVE_WITH_KNOTS('',5,(#467,#468,#469,#470,#471,#472),.UNSPECIFIED.,.F.,.U.,(6,6),(0.,3.66898774349),.UNSPECIFIED.) ;
#476=B_SPLINE_CURVE_WITH_KNOTS('',5,(#477,#478,#479,#480,#481,#482,#483,#484,#485,#486,#487,#488,#489,#490,#491,#492,#493,#494,#495,#496,#497,#498,#499,#500,#501,#502,#503,#504,#505,#506,#507,#508,#509,#510,#511,#512),.UNSPECIFIED.,.F.,.U.,(6,3,3,3,3,3,3,3,3,3,3,6),(0.,10.4571722751,19.676110807,27.191634313,31.8763407215,37.350926176,42.582745188,46.7080765819,53.7908226654,62.5133042755,73.1070742776,78.9223345393),.UNSPECIFIED.) ;
#520=B_SPLINE_CURVE_WITH_KNOTS('',5,(#521,#522,#523,#524,#525,#526,#527,#528,#529,#530,#531,#532,#533,#534,#535,#536,#537,#538,#539,#540,#541,#542,#543,#544,#545,#546,#547,#548,#549,#550,#551,#552,#553,#554,#555,#556),.UNSPECIFIED.,.F.,.U.,(6,3,3,3,3,3,3,3,3,3,3,6),(0.,9.90604437521,18.5428460083,25.4812717058,29.7850761238,34.874453214,38.6055268402,42.54740976,49.3980915663,57.9369918215,64.6715809736,71.0291543961),.UNSPECIFIED.) ;
#560=B_SPLINE_CURVE_WITH_KNOTS('',5,(#561,#562,#563,#564,#565,#566),.UNSPECIFIED.,.F.,.U.,(6,6),(0.,3.30208896917),.UNSPECIFIED.) ;
#22=COLOUR_RGB('Colour',0.580392156863,0.788235294118,0.749019607843) ;
#82=FACE_OUTER_BOUND('',#78,.T.) ;
#107=FACE_OUTER_BOUND('',#103,.T.) ;
#164=FACE_OUTER_BOUND('',#159,.T.) ;
#284=FACE_OUTER_BOUND('',#280,.T.) ;
#366=FACE_OUTER_BOUND('',#359,.T.) ;
#410=FACE_OUTER_BOUND('',#406,.T.) ;
#519=FACE_OUTER_BOUND('',#514,.T.) ;
#591=FACE_OUTER_BOUND('',#587,.T.) ;
#602=FACE_OUTER_BOUND('',#598,.T.) ;
#613=FACE_OUTER_BOUND('',#609,.T.) ;
#653=FACE_OUTER_BOUND('',#646,.T.) ;
#659=FACE_OUTER_BOUND('',#655,.T.) ;
#715=FACE_OUTER_BOUND('',#708,.T.) ;
#755=FACE_OUTER_BOUND('',#748,.T.) ;
#9=PRODUCT_CATEGORY_RELATIONSHIP(' ',' ',#7,#8) ;
#6=PRODUCT_DEFINITION_FORMATION_WITH_SPECIFIED_SOURCE('',' ',#5,.NOT_KNOWN.) ;
#20=SHAPE_DEFINITION_REPRESENTATION(#11,#19) ;
#317=(BOUNDED_CURVE()B_SPLINE_CURVE(4,(#318,#319,#320,#321,#322),.UNSPECIFIED.,.F.,.U.)B_SPLINE_CURVE_WITH_KNOTS((5,5),(1.75348737046,42.4115008235),.UNSPECIFIED.)CURVE()GEOMETRIC_REPRESENTATION_ITEM()RATIONAL_B_SPLINE_CURVE((0.954103491122,0.702517727942,0.670442166649,0.719216339917,1.))REPRESENTATION_ITEM('')) ;
#328=(BOUNDED_CURVE()B_SPLINE_CURVE(5,(#329,#330,#331,#332,#333,#334),.UNSPECIFIED.,.F.,.U.)B_SPLINE_CURVE_WITH_KNOTS((6,6),(0.,419.95636673),.UNSPECIFIED.)CURVE()GEOMETRIC_REPRESENTATION_ITEM()RATIONAL_B_SPLINE_CURVE((1.,1.,1.,1.,1.,1.))REPRESENTATION_ITEM('')) ;
#336=(BOUNDED_CURVE()B_SPLINE_CURVE(4,(#337,#338,#339,#340,#341),.UNSPECIFIED.,.F.,.U.)B_SPLINE_CURVE_WITH_KNOTS((5,5),(33.902104521,42.4115008235),.UNSPECIFIED.)CURVE()GEOMETRIC_REPRESENTATION_ITEM()RATIONAL_B_SPLINE_CURVE((0.820926345971,0.852805141478,0.892631204169,0.941234230697,1.))REPRESENTATION_ITEM('')) ;
#343=(BOUNDED_CURVE()B_SPLINE_CURVE(5,(#344,#345,#346,#347,#348,#349),.UNSPECIFIED.,.F.,.U.)B_SPLINE_CURVE_WITH_KNOTS((6,6),(7.60503998207,418.25309656),.UNSPECIFIED.)CURVE()GEOMETRIC_REPRESENTATION_ITEM()RATIONAL_B_SPLINE_CURVE((1.,1.,1.,1.,1.,1.))REPRESENTATION_ITEM('')) ;
#692=(BOUNDED_CURVE()B_SPLINE_CURVE(5,(#693,#694,#695,#696,#697,#698),.UNSPECIFIED.,.F.,.U.)B_SPLINE_CURVE_WITH_KNOTS((6,6),(8.45004356052,418.06384423),.UNSPECIFIED.)CURVE()GEOMETRIC_REPRESENTATION_ITEM()RATIONAL_B_SPLINE_CURVE((1.,1.,1.,1.,1.,1.))REPRESENTATION_ITEM('')) ;
#700=(BOUNDED_CURVE()B_SPLINE_CURVE(5,(#701,#702,#703,#704,#705,#706),.UNSPECIFIED.,.F.,.U.)B_SPLINE_CURVE_WITH_KNOTS((6,6),(0.,419.95636673),.UNSPECIFIED.)CURVE()GEOMETRIC_REPRESENTATION_ITEM()RATIONAL_B_SPLINE_CURVE((1.,1.,1.,1.,1.,1.))REPRESENTATION_ITEM('')) ;
#286=(BOUNDED_SURFACE()B_SPLINE_SURFACE(5,4,((#287,#288,#289,#290,#291),(#292,#293,#294,#295,#296),(#297,#298,#299,#300,#301),(#302,#303,#304,#305,#306),(#307,#308,#309,#310,#311),(#312,#313,#314,#315,#316)),.UNSPECIFIED.,.F.,.F.,.U.)B_SPLINE_SURFACE_WITH_KNOTS((6,6),(5,5),(0.,419.95636673),(0.,42.4115008235),.UNSPECIFIED.)GEOMETRIC_REPRESENTATION_ITEM()RATIONAL_B_SPLINE_SURFACE(((1.,0.707106781187,0.666666666667,0.707106781187,1.),(1.,0.707106781187,0.666666666667,0.707106781187,1.),(1.,0.707106781187,0.666666666667,0.707106781187,1.),(1.,0.707106781187,0.666666666667,0.707106781187,1.),(1.,0.707106781187,0.666666666667,0.707106781187,1.),(1.,0.707106781187,0.666666666667,0.707106781187,1.)))REPRESENTATION_ITEM('Rational BSpline Surface')SURFACE()) ;
#615=(BOUNDED_SURFACE()B_SPLINE_SURFACE(5,4,((#616,#617,#618,#619,#620),(#621,#622,#623,#624,#625),(#626,#627,#628,#629,#630),(#631,#632,#633,#634,#635),(#636,#637,#638,#639,#640),(#641,#642,#643,#644,#645)),.UNSPECIFIED.,.F.,.F.,.U.)B_SPLINE_SURFACE_WITH_KNOTS((6,6),(5,5),(0.,419.95636673),(42.4115008235,84.8230016469),.UNSPECIFIED.)GEOMETRIC_REPRESENTATION_ITEM()RATIONAL_B_SPLINE_SURFACE(((1.,0.707106781187,0.666666666667,0.707106781187,1.),(1.,0.707106781187,0.666666666667,0.707106781187,1.),(1.,0.707106781187,0.666666666667,0.707106781187,1.),(1.,0.707106781187,0.666666666667,0.707106781187,1.),(1.,0.707106781187,0.666666666667,0.707106781187,1.),(1.,0.707106781187,0.666666666667,0.707106781187,1.)))REPRESENTATION_ITEM('Rational BSpline Surface')SURFACE()) ;
#661=(BOUNDED_SURFACE()B_SPLINE_SURFACE(5,4,((#662,#663,#664,#665,#666),(#667,#668,#669,#670,#671),(#672,#673,#674,#675,#676),(#677,#678,#679,#680,#681),(#682,#683,#684,#685,#686),(#687,#688,#689,#690,#691)),.UNSPECIFIED.,.F.,.F.,.U.)B_SPLINE_SURFACE_WITH_KNOTS((6,6),(5,5),(0.,419.95636673),(0.,47.1238898038),.UNSPECIFIED.)GEOMETRIC_REPRESENTATION_ITEM()RATIONAL_B_SPLINE_SURFACE(((1.,0.707106781187,0.666666666667,0.707106781187,1.),(1.,0.707106781187,0.666666666667,0.707106781187,1.),(1.,0.707106781187,0.666666666667,0.707106781187,1.),(1.,0.707106781187,0.666666666667,0.707106781187,1.),(1.,0.707106781187,0.666666666667,0.707106781187,1.),(1.,0.707106781187,0.666666666667,0.707106781187,1.)))REPRESENTATION_ITEM('Rational BSpline Surface')SURFACE()) ;
#717=(BOUNDED_SURFACE()B_SPLINE_SURFACE(5,4,((#718,#719,#720,#721,#722),(#723,#724,#725,#726,#727),(#728,#729,#730,#731,#732),(#733,#734,#735,#736,#737),(#738,#739,#740,#741,#742),(#743,#744,#745,#746,#747)),.UNSPECIFIED.,.F.,.F.,.U.)B_SPLINE_SURFACE_WITH_KNOTS((6,6),(5,5),(0.,419.95636673),(47.1238898038,94.2477796077),.UNSPECIFIED.)GEOMETRIC_REPRESENTATION_ITEM()RATIONAL_B_SPLINE_SURFACE(((1.,0.707106781187,0.666666666667,0.707106781187,1.),(1.,0.707106781187,0.666666666667,0.707106781187,1.),(1.,0.707106781187,0.666666666667,0.707106781187,1.),(1.,0.707106781187,0.666666666667,0.707106781187,1.),(1.,0.707106781187,0.666666666667,0.707106781187,1.),(1.,0.707106781187,0.666666666667,0.707106781187,1.)))REPRESENTATION_ITEM('Rational BSpline Surface')SURFACE()) ;
#12=(LENGTH_UNIT()NAMED_UNIT(*)SI_UNIT(.MILLI.,.METRE.)) ;
#13=(NAMED_UNIT(*)PLANE_ANGLE_UNIT()SI_UNIT($,.RADIAN.)) ;
#14=(NAMED_UNIT(*)SI_UNIT($,.STERADIAN.)SOLID_ANGLE_UNIT()) ;
#16=(GEOMETRIC_REPRESENTATION_CONTEXT(3)GLOBAL_UNCERTAINTY_ASSIGNED_CONTEXT((#15))GLOBAL_UNIT_ASSIGNED_CONTEXT((#12,#13,#14))REPRESENTATION_CONTEXT(' ',' ')) ;
ENDSEC;
END-ISO-10303-21;
