START RECORD GO HERE.                                                   S      1
1H,,1H;,20HCNEXT - IGES PRODUCT,51H20M_FR_11017 (Throttle Front Fixing RG      1
ail Wedge).igs,44HIBM CATIA IGES - CATIA Version 5 Release 19 ,27HCATIA G      2
Version 5 Release 19 ,32,75,6,75,15,43HFR_11017 (Front Throttle Fixing RG      3
ail Wedge),1.0,2,2HMM,1000,1.0,15H20200207.150235,0.001,10000.0,17HMartiG      4
n Kawczynski,15HDESKTOP-UDLM1FC,11,0,15H20200207.150235,;               G      5
     406       1       0       0       0       0       0       000010201D      1
     406       0       0       1      15                               0D      2
     110       2       0       0       0       0       0       001010001D      3
     110       0       0       1       0                               0D      4
     110       3       0       0       0       0       0       001010001D      5
     110       0       0       2       0                               0D      6
     120       5       0       0       0       0       0       001010001D      7
     120       0       0       1       0                               0D      8
     124       6       0       0       0       0       0       001020201D      9
     124       0       0       2       0                               0D     10
     100       8       0       0       0       0       9       001010001D     11
     100       0       0       1       0                               0D     12
     110       9       0       0       0       0       0       001010001D     13
     110       0       0       2       0                               0D     14
     124      11       0       0       0       0       0       001020201D     15
     124       0       0       2       0                               0D     16
     100      13       0       0       0       0      15       001010001D     17
     100       0       0       1       0                               0D     18
     110      14       0       0       0       0       0       001010001D     19
     110       0       0       2       0                               0D     20
     102      16       0       0       0       0       0       001010001D     21
     102       0       0       1       0                               0D     22
     142      17       0       0       0       0       0       001010001D     23
     142       0       0       1       0                               0D     24
     144      18       0       0   10000       0       0       000000000D     25
     144       0       0       1       0                               0D     26
     110      19       0       0       0       0       0       001010001D     27
     110       0       0       1       0                               0D     28
     110      20       0       0       0       0       0       001010001D     29
     110       0       0       1       0                               0D     30
     120      21       0       0       0       0       0       001010001D     31
     120       0       0       1       0                               0D     32
     110      22       0       0       0       0       0       001010001D     33
     110       0       0       1       0                               0D     34
     124      23       0       0       0       0       0       001020201D     35
     124       0       0       2       0                               0D     36
     100      25       0       0       0       0      35       001010001D     37
     100       0       0       1       0                               0D     38
     110      26       0       0       0       0       0       001010001D     39
     110       0       0       1       0                               0D     40
     124      27       0       0       0       0       0       001020201D     41
     124       0       0       1       0                               0D     42
     100      28       0       0       0       0      41       001010001D     43
     100       0       0       1       0                               0D     44
     102      29       0       0       0       0       0       001010001D     45
     102       0       0       1       0                               0D     46
     142      30       0       0       0       0       0       001010001D     47
     142       0       0       1       0                               0D     48
     144      31       0       0   10000       0       0       000000000D     49
     144       0       0       1       0                               0D     50
     110      32       0       0       0       0       0       001010001D     51
     110       0       0       1       0                               0D     52
     110      33       0       0       0       0       0       001010001D     53
     110       0       0       1       0                               0D     54
     120      34       0       0       0       0       0       001010001D     55
     120       0       0       1       0                               0D     56
     110      35       0       0       0       0       0       001010001D     57
     110       0       0       1       0                               0D     58
     124      36       0       0       0       0       0       001020201D     59
     124       0       0       1       0                               0D     60
     100      37       0       0       0       0      59       001010001D     61
     100       0       0       1       0                               0D     62
     110      38       0       0       0       0       0       001010001D     63
     110       0       0       1       0                               0D     64
     124      39       0       0       0       0       0       001020201D     65
     124       0       0       2       0                               0D     66
     100      41       0       0       0       0      65       001010001D     67
     100       0       0       1       0                               0D     68
     102      42       0       0       0       0       0       001010001D     69
     102       0       0       1       0                               0D     70
     142      43       0       0       0       0       0       001010001D     71
     142       0       0       1       0                               0D     72
     144      44       0       0   10000       0       0       000000000D     73
     144       0       0       1       0                               0D     74
     108      45       0       0       0       0       0       001010001D     75
     108       0       0       2       0                               0D     76
     110      47       0       0       0       0       0       001010001D     77
     110       0       0       1       0                               0D     78
     110      48       0       0       0       0       0       001010001D     79
     110       0       0       2       0                               0D     80
     110      50       0       0       0       0       0       001010001D     81
     110       0       0       2       0                               0D     82
     110      52       0       0       0       0       0       001010001D     83
     110       0       0       2       0                               0D     84
     102      54       0       0       0       0       0       001010001D     85
     102       0       0       1       0                               0D     86
     142      55       0       0       0       0       0       001010001D     87
     142       0       0       1       0                               0D     88
     144      56       0       0   10000       0       0       000000000D     89
     144       0       0       1       0                               0D     90
     110      57       0       0       0       0       0       001010001D     91
     110       0       0       2       0                               0D     92
     110      59       0       0       0       0       0       001010001D     93
     110       0       0       2       0                               0D     94
     120      61       0       0       0       0       0       001010001D     95
     120       0       0       1       0                               0D     96
     110      62       0       0       0       0       0       001010001D     97
     110       0       0       1       0                               0D     98
     124      63       0       0       0       0       0       001020201D     99
     124       0       0       2       0                               0D    100
     100      65       0       0       0       0      99       001010001D    101
     100       0       0       1       0                               0D    102
     110      66       0       0       0       0       0       001010001D    103
     110       0       0       2       0                               0D    104
     124      68       0       0       0       0       0       001020201D    105
     124       0       0       2       0                               0D    106
     100      70       0       0       0       0     105       001010001D    107
     100       0       0       1       0                               0D    108
     102      71       0       0       0       0       0       001010001D    109
     102       0       0       1       0                               0D    110
     142      72       0       0       0       0       0       001010001D    111
     142       0       0       1       0                               0D    112
     144      73       0       0   10000       0       0       000000000D    113
     144       0       0       1       0                               0D    114
     108      74       0       0       0       0       0       001010001D    115
     108       0       0       2       0                               0D    116
     110      76       0       0       0       0       0       001010001D    117
     110       0       0       1       0                               0D    118
     110      77       0       0       0       0       0       001010001D    119
     110       0       0       2       0                               0D    120
     110      79       0       0       0       0       0       001010001D    121
     110       0       0       2       0                               0D    122
     110      81       0       0       0       0       0       001010001D    123
     110       0       0       2       0                               0D    124
     102      83       0       0       0       0       0       001010001D    125
     102       0       0       1       0                               0D    126
     142      84       0       0       0       0       0       001010001D    127
     142       0       0       1       0                               0D    128
     144      85       0       0   10000       0       0       000000000D    129
     144       0       0       1       0                               0D    130
     110      86       0       0       0       0       0       001010001D    131
     110       0       0       1       0                               0D    132
     110      87       0       0       0       0       0       001010001D    133
     110       0       0       2       0                               0D    134
     120      89       0       0       0       0       0       001010001D    135
     120       0       0       1       0                               0D    136
     124      90       0       0       0       0       0       001020201D    137
     124       0       0       2       0                               0D    138
     100      92       0       0       0       0     137       001010001D    139
     100       0       0       1       0                               0D    140
     110      93       0       0       0       0       0       001010001D    141
     110       0       0       2       0                               0D    142
     124      95       0       0       0       0       0       001020201D    143
     124       0       0       2       0                               0D    144
     100      97       0       0       0       0     143       001010001D    145
     100       0       0       1       0                               0D    146
     110      98       0       0       0       0       0       001010001D    147
     110       0       0       2       0                               0D    148
     102     100       0       0       0       0       0       001010001D    149
     102       0       0       1       0                               0D    150
     142     101       0       0       0       0       0       001010001D    151
     142       0       0       1       0                               0D    152
     144     102       0       0   10000       0       0       000000000D    153
     144       0       0       1       0                               0D    154
     108     103       0       0       0       0       0       001010001D    155
     108       0       0       1       0                               0D    156
     124     104       0       0       0       0       0       001020201D    157
     124       0       0       2       0                               0D    158
     100     106       0       0       0       0     157       001010001D    159
     100       0       0       1       0                               0D    160
     124     107       0       0       0       0       0       001020201D    161
     124       0       0       2       0                               0D    162
     100     109       0       0       0       0     161       001010001D    163
     100       0       0       1       0                               0D    164
     110     110       0       0       0       0       0       001010001D    165
     110       0       0       2       0                               0D    166
     124     112       0       0       0       0       0       001020201D    167
     124       0       0       2       0                               0D    168
     100     114       0       0       0       0     167       001010001D    169
     100       0       0       1       0                               0D    170
     110     115       0       0       0       0       0       001010001D    171
     110       0       0       2       0                               0D    172
     124     117       0       0       0       0       0       001020201D    173
     124       0       0       2       0                               0D    174
     100     119       0       0       0       0     173       001010001D    175
     100       0       0       1       0                               0D    176
     102     120       0       0       0       0       0       001010001D    177
     102       0       0       1       0                               0D    178
     142     121       0       0       0       0       0       001010001D    179
     142       0       0       1       0                               0D    180
     124     122       0       0       0       0       0       001020201D    181
     124       0       0       1       0                               0D    182
     100     123       0       0       0       0     181       001010001D    183
     100       0       0       1       0                               0D    184
     124     124       0       0       0       0       0       001020201D    185
     124       0       0       2       0                               0D    186
     100     126       0       0       0       0     185       001010001D    187
     100       0       0       1       0                               0D    188
     102     127       0       0       0       0       0       001010001D    189
     102       0       0       1       0                               0D    190
     142     128       0       0       0       0       0       001010001D    191
     142       0       0       1       0                               0D    192
     144     129       0       0   10000       0       0       000000000D    193
     144       0       0       1       0                               0D    194
     108     130       0       0       0       0       0       001010001D    195
     108       0       0       1       0                               0D    196
     124     131       0       0       0       0       0       001020201D    197
     124       0       0       2       0                               0D    198
     100     133       0       0       0       0     197       001010001D    199
     100       0       0       1       0                               0D    200
     110     134       0       0       0       0       0       001010001D    201
     110       0       0       2       0                               0D    202
     124     136       0       0       0       0       0       001020201D    203
     124       0       0       2       0                               0D    204
     100     138       0       0       0       0     203       001010001D    205
     100       0       0       1       0                               0D    206
     110     139       0       0       0       0       0       001010001D    207
     110       0       0       2       0                               0D    208
     124     141       0       0       0       0       0       001020201D    209
     124       0       0       2       0                               0D    210
     100     143       0       0       0       0     209       001010001D    211
     100       0       0       1       0                               0D    212
     124     144       0       0       0       0       0       001020201D    213
     124       0       0       2       0                               0D    214
     100     146       0       0       0       0     213       001010001D    215
     100       0       0       1       0                               0D    216
     102     147       0       0       0       0       0       001010001D    217
     102       0       0       1       0                               0D    218
     142     148       0       0       0       0       0       001010001D    219
     142       0       0       1       0                               0D    220
     124     149       0       0       0       0       0       001020201D    221
     124       0       0       1       0                               0D    222
     100     150       0       0       0       0     221       001010001D    223
     100       0       0       1       0                               0D    224
     124     151       0       0       0       0       0       001020201D    225
     124       0       0       2       0                               0D    226
     100     153       0       0       0       0     225       001010001D    227
     100       0       0       1       0                               0D    228
     102     154       0       0       0       0       0       001010001D    229
     102       0       0       1       0                               0D    230
     142     155       0       0       0       0       0       001010001D    231
     142       0       0       1       0                               0D    232
     144     156       0       0   10000       0       0       000000000D    233
     144       0       0       1       0                               0D    234
     110     157       0       0       0       0       0       001010001D    235
     110       0       0       2       0                               0D    236
     110     159       0       0       0       0       0       001010001D    237
     110       0       0       1       0                               0D    238
     120     160       0       0       0       0       0       001010001D    239
     120       0       0       1       0                               0D    240
     110     161       0       0       0       0       0       001010001D    241
     110       0       0       2       0                               0D    242
     124     163       0       0       0       0       0       001020201D    243
     124       0       0       2       0                               0D    244
     100     165       0       0       0       0     243       001010001D    245
     100       0       0       1       0                               0D    246
     110     166       0       0       0       0       0       001010001D    247
     110       0       0       1       0                               0D    248
     124     167       0       0       0       0       0       001020201D    249
     124       0       0       2       0                               0D    250
     100     169       0       0       0       0     249       001010001D    251
     100       0       0       1       0                               0D    252
     102     170       0       0       0       0       0       001010001D    253
     102       0       0       1       0                               0D    254
     142     171       0       0       0       0       0       001010001D    255
     142       0       0       1       0                               0D    256
     144     172       0       0   10000       0       0       000000000D    257
     144       0       0       1       0                               0D    258
406,1,15HCorps principal,0,0;                                          1P      1
110,0.0,1.5,0.0,0.0,2.5,0.0,0,0;                                       3P      2
110,-3.871762566,0.0,5.831762566,-3.871762566,3.0,5.831762566,0,       5P      3
0;                                                                     5P      4
120,3,5,0.0,6.283185307,0,0;                                           7P      5
124,-0.553108938,0.833108938,0.0,0.0,0.0,0.0,1.0,3.0,                  9P      6
0.833108938,0.553108938,0.0,0.0,0,0;                                   9P      7
100,0.0,0.0,0.0,7.0,0.0,-6.4512,2.716987037,0,0;                      11P      8
110,5.831762566,3.0,-3.871762566,5.831762566,0.0,-3.871762566,0,      13P      9
0;                                                                    13P     10
124,0.833108938,0.553108938,0.0,0.0,0.0,0.0,-1.0,0.0,                 15P     11
-0.553108938,0.833108938,0.0,0.0,0,0;                                 15P     12
100,0.0,0.0,0.0,7.0,0.0,-6.4512,2.716987037,0,0;                      17P     13
110,-3.871762566,0.0,5.831762566,-3.871762566,3.0,5.831762566,0,      19P     14
0;                                                                    19P     15
102,4,11,13,17,19,0,0;                                                21P     16
142,0,7,0,21,2,0,0;                                                   23P     17
144,7,1,0,23,0,1,1;                                                   25P     18
110,0.0,1.5,0.0,0.0,2.5,0.0,0,0;                                      27P     19
110,3.1,0.0,3.796279697E-016,3.1,3.0,3.796279697E-016,0,0;            29P     20
120,27,29,0.0,6.283185307,0,0;                                        31P     21
110,3.1,3.0,3.796279697E-016,3.1,0.0,3.796279697E-016,0,0;            33P     22
124,1.0,1.224606354E-016,0.0,0.0,0.0,0.0,1.0,0.0,                     35P     23
1.224606354E-016,-1.0,0.0,0.0,0,0;                                    35P     24
100,0.0,0.0,0.0,3.1,0.0,-3.1,-3.796279697E-016,0,0;                   37P     25
110,-3.1,0.0,0.0,-3.1,3.0,0.0,0,0;                                    39P     26
124,-1.0,0.0,0.0,0.0,0.0,0.0,-1.0,3.0,0.0,-1.0,0.0,0.0,0,0;           41P     27
100,0.0,0.0,0.0,3.1,0.0,-3.1,-3.796279697E-016,0,0;                   43P     28
102,4,33,37,39,43,0,0;                                                45P     29
142,0,31,0,45,2,0,0;                                                  47P     30
144,31,1,0,47,0,1,1;                                                  49P     31
110,0.0,1.5,0.0,0.0,2.5,0.0,0,0;                                      51P     32
110,-3.1,0.0,0.0,-3.1,3.0,0.0,0,0;                                    53P     33
120,51,53,0.0,6.283185307,0,0;                                        55P     34
110,-3.1,3.0,0.0,-3.1,0.0,0.0,0,0;                                    57P     35
124,-1.0,0.0,0.0,0.0,0.0,0.0,1.0,0.0,0.0,1.0,0.0,0.0,0,0;             59P     36
100,0.0,0.0,0.0,3.1,0.0,-3.1,3.796279697E-016,0,0;                    61P     37
110,3.1,0.0,3.796279697E-016,3.1,3.0,3.796279697E-016,0,0;            63P     38
124,1.0,-1.224606354E-016,0.0,0.0,0.0,0.0,-1.0,3.0,                   65P     39
1.224606354E-016,1.0,0.0,0.0,0,0;                                     65P     40
100,0.0,0.0,0.0,3.1,0.0,-3.1,3.796279697E-016,0,0;                    67P     41
102,4,57,61,63,67,0,0;                                                69P     42
142,0,55,0,69,2,0,0;                                                  71P     43
144,55,1,0,71,0,1,1;                                                  73P     44
108,-0.553108938,0.0,0.833108938,7.0,0,-32.74352513,0.0,              75P     45
-13.33647487,1.0,0,0;                                                 75P     46
110,-28.335127,0.0,-10.40969747,-28.335127,3.0,-10.40969747,0,0;      77P     47
110,-28.335127,3.0,-10.40969747,-3.871762566,3.0,5.831762566,0,       79P     48
0;                                                                    79P     49
110,-3.871762566,3.0,5.831762566,-3.871762566,0.0,5.831762566,0,      81P     50
0;                                                                    81P     51
110,-3.871762566,0.0,5.831762566,-28.335127,0.0,-10.40969747,0,       83P     52
0;                                                                    83P     53
102,4,77,79,81,83,0,0;                                                85P     54
142,0,75,0,85,2,0,0;                                                  87P     55
144,75,1,0,87,0,1,1;                                                  89P     56
110,-28.05857253,1.5,-10.82625194,-28.05857253,2.5,-10.82625194,      91P     57
0,0;                                                                  91P     58
110,-27.95310452,-2.220446049E-016,-11.31500187,-27.95310452,         93P     59
3.0,-11.31500187,0,0;                                                 93P     60
120,91,93,0.0,6.283185307,0,0;                                        95P     61
110,-28.335127,3.0,-10.40969747,-28.335127,0.0,-10.40969747,0,0;      97P     62
124,-0.553108938,-0.833108938,0.0,-28.05857253,0.0,0.0,-1.0,0.0,      99P     63
0.833108938,-0.553108938,0.0,-10.82625194,0,0;                        99P     64
100,0.0,0.0,0.0,0.5,0.0,-0.4655172414,0.1824656077,0,0;              101P     65
110,-27.95310452,0.0,-11.31500187,-27.95310452,3.0,-11.31500187,     103P     66
0,0;                                                                 103P     67
124,0.2109360368,-0.9774998662,0.0,-28.05857253,0.0,0.0,1.0,3.0,     105P     68
-0.9774998662,-0.2109360368,0.0,-10.82625194,0,0;                    105P     69
100,0.0,0.0,0.0,0.5,0.0,-0.4655172414,0.1824656077,0,0;              107P     70
102,4,97,101,103,107,0,0;                                            109P     71
142,0,95,0,109,2,0,0;                                                111P     72
144,95,1,0,111,0,1,1;                                                113P     73
108,0.833108938,0.0,-0.553108938,7.0,0,5.831762566,0.0,              115P     74
-3.871762566,1.0,0,0;                                                115P     75
110,-10.40969747,3.0,-28.335127,-10.40969747,0.0,-28.335127,0,0;     117P     76
110,-10.40969747,0.0,-28.335127,5.831762566,0.0,-3.871762566,0,      119P     77
0;                                                                   119P     78
110,5.831762566,0.0,-3.871762566,5.831762566,3.0,-3.871762566,0,     121P     79
0;                                                                   121P     80
110,5.831762566,3.0,-3.871762566,-10.40969747,3.0,-28.335127,0,      123P     81
0;                                                                   123P     82
102,4,117,119,121,123,0,0;                                           125P     83
142,0,115,0,125,2,0,0;                                               127P     84
144,115,1,0,127,0,1,1;                                               129P     85
110,-25.0,1.5,-25.0,-25.0,2.5,-25.0,0,0;                             131P     86
110,-27.95310452,0.0,-11.31500187,-27.95310452,3.0,-11.31500187,     133P     87
0,0;                                                                 133P     88
120,131,133,0.0,6.283185307,0,0;                                     135P     89
124,0.9774998662,0.2109360368,0.0,-25.0,0.0,0.0,-1.0,3.0,            137P     90
-0.2109360368,0.9774998662,0.0,-25.0,0,0;                            137P     91
100,0.0,0.0,0.0,14.0,0.0,-5.773318537,12.75416767,0,0;               139P     92
110,-27.95310452,3.0,-11.31500187,-27.95310452,0.0,-11.31500187,     141P     93
0,0;                                                                 141P     94
124,-0.2109360368,0.9774998662,0.0,-25.0,0.0,0.0,1.0,0.0,            143P     95
0.9774998662,0.2109360368,0.0,-25.0,0,0;                             143P     96
100,0.0,0.0,0.0,14.0,0.0,-5.773318537,12.75416767,0,0;               145P     97
110,-11.31500187,0.0,-27.95310452,-11.31500187,3.0,-27.95310452,     147P     98
0,0;                                                                 147P     99
102,4,139,141,145,147,0,0;                                           149P    100
142,0,135,0,149,2,0,0;                                               151P    101
144,135,1,0,151,0,1,1;                                               153P    102
108,0.0,1.0,0.0,0.0,0,0.0,0.0,0.0,1.0,0,0;                           155P    103
124,0.9774998662,0.2109360368,0.0,-25.0,0.0,0.0,-1.0,0.0,            157P    104
-0.2109360368,0.9774998662,0.0,-25.0,0,0;                            157P    105
100,0.0,0.0,0.0,14.0,0.0,-5.773318537,12.75416767,0,0;               159P    106
124,0.2109360368,-0.9774998662,0.0,-28.05857253,0.0,0.0,1.0,0.0,     161P    107
-0.9774998662,-0.2109360368,0.0,-10.82625194,0,0;                    161P    108
100,0.0,0.0,0.0,0.5,0.0,-0.4655172414,0.1824656077,0,0;              163P    109
110,-28.335127,0.0,-10.40969747,-3.871762566,0.0,5.831762566,0,      165P    110
0;                                                                   165P    111
124,-0.553108938,0.833108938,0.0,0.0,0.0,0.0,1.0,0.0,                167P    112
0.833108938,0.553108938,0.0,0.0,0,0;                                 167P    113
100,0.0,0.0,0.0,7.0,0.0,-6.4512,2.716987037,0,0;                     169P    114
110,5.831762566,0.0,-3.871762566,-10.40969747,0.0,-28.335127,0,      171P    115
0;                                                                   171P    116
124,0.833108938,-0.553108938,0.0,-10.82625194,0.0,0.0,1.0,0.0,       173P    117
-0.553108938,-0.833108938,0.0,-28.05857253,0,0;                      173P    118
100,0.0,0.0,0.0,0.5,0.0,-0.4655172414,0.1824656077,0,0;              175P    119
102,6,159,163,165,169,171,175,0,0;                                   177P    120
142,0,155,0,177,2,0,0;                                               179P    121
124,-1.0,0.0,0.0,0.0,0.0,0.0,-1.0,0.0,0.0,-1.0,0.0,0.0,0,0;          181P    122
100,0.0,0.0,0.0,3.1,0.0,-3.1,-3.796279697E-016,0,0;                  183P    123
124,1.0,-1.224606354E-016,0.0,0.0,0.0,0.0,-1.0,0.0,                  185P    124
1.224606354E-016,1.0,0.0,0.0,0,0;                                    185P    125
100,0.0,0.0,0.0,3.1,0.0,-3.1,3.796279697E-016,0,0;                   187P    126
102,2,183,187,0,0;                                                   189P    127
142,0,155,0,189,2,0,0;                                               191P    128
144,155,1,1,179,191,0,1,1;                                           193P    129
108,0.0,1.0,0.0,3.0,0,0.0,3.0,0.0,1.0,0,0;                           195P    130
124,-0.9774998662,-0.2109360368,0.0,-10.82625194,0.0,0.0,-1.0,       197P    131
3.0,0.2109360368,-0.9774998662,0.0,-28.05857253,0,0;                 197P    132
100,0.0,0.0,0.0,0.5,0.0,-0.4655172414,0.1824656077,0,0;              199P    133
110,-10.40969747,3.0,-28.335127,5.831762566,3.0,-3.871762566,0,      201P    134
0;                                                                   201P    135
124,0.833108938,0.553108938,0.0,0.0,0.0,0.0,-1.0,3.0,                203P    136
-0.553108938,0.833108938,0.0,0.0,0,0;                                203P    137
100,0.0,0.0,0.0,7.0,0.0,-6.4512,2.716987037,0,0;                     205P    138
110,-3.871762566,3.0,5.831762566,-28.335127,3.0,-10.40969747,0,      207P    139
0;                                                                   207P    140
124,-0.553108938,-0.833108938,0.0,-28.05857253,0.0,0.0,-1.0,3.0,     209P    141
0.833108938,-0.553108938,0.0,-10.82625194,0,0;                       209P    142
100,0.0,0.0,0.0,0.5,0.0,-0.4655172414,0.1824656077,0,0;              211P    143
124,-0.2109360368,0.9774998662,0.0,-25.0,0.0,0.0,1.0,3.0,            213P    144
0.9774998662,0.2109360368,0.0,-25.0,0,0;                             213P    145
100,0.0,0.0,0.0,14.0,0.0,-5.773318537,12.75416767,0,0;               215P    146
102,6,199,201,205,207,211,215,0,0;                                   217P    147
142,0,195,0,217,2,0,0;                                               219P    148
124,-1.0,0.0,0.0,0.0,0.0,0.0,1.0,3.0,0.0,1.0,0.0,0.0,0,0;            221P    149
100,0.0,0.0,0.0,3.1,0.0,-3.1,3.796279697E-016,0,0;                   223P    150
124,1.0,1.224606354E-016,0.0,0.0,0.0,0.0,1.0,3.0,                    225P    151
1.224606354E-016,-1.0,0.0,0.0,0,0;                                   225P    152
100,0.0,0.0,0.0,3.1,0.0,-3.1,-3.796279697E-016,0,0;                  227P    153
102,2,223,227,0,0;                                                   229P    154
142,0,195,0,229,2,0,0;                                               231P    155
144,195,1,1,219,231,0,1,1;                                           233P    156
110,-10.82625194,1.5,-28.05857253,-10.82625194,2.5,-28.05857253,     235P    157
0,0;                                                                 235P    158
110,-10.40969747,0.0,-28.335127,-10.40969747,3.0,-28.335127,0,0;     237P    159
120,235,237,0.0,6.283185307,0,0;                                     239P    160
110,-11.31500187,3.0,-27.95310452,-11.31500187,0.0,-27.95310452,     241P    161
0,0;                                                                 241P    162
124,-0.9774998662,-0.2109360368,0.0,-10.82625194,0.0,0.0,-1.0,       243P    163
0.0,0.2109360368,-0.9774998662,0.0,-28.05857253,0,0;                 243P    164
100,0.0,0.0,0.0,0.5,0.0,-0.4655172414,0.1824656077,0,0;              245P    165
110,-10.40969747,0.0,-28.335127,-10.40969747,3.0,-28.335127,0,0;     247P    166
124,0.833108938,-0.553108938,0.0,-10.82625194,8.881784197E-016,      249P    167
0.0,1.0,3.0,-0.553108938,-0.833108938,0.0,-28.05857253,0,0;          249P    168
100,0.0,0.0,0.0,0.5,0.0,-0.4655172414,0.1824656077,0,0;              251P    169
102,4,241,245,247,251,0,0;                                           253P    170
142,0,239,0,253,2,0,0;                                               255P    171
144,239,1,0,255,0,1,1;                                               257P    172
S      1G      5D    258P    172                                        T      1
