ISO-10303-21;
HEADER;
FILE_DESCRIPTION(('STEP AP214'),'1');
FILE_NAME('117.stp','2019-12-02T12:34:42',(' '),(' '),'Spatial InterOp 3D',' ',' ');
FILE_SCHEMA(('AUTOMOTIVE_DESIGN { 1 0 10303 214 1 1 1 1 }'));
ENDSEC;
DATA;
#1=MECHANICAL_DESIGN_GEOMETRIC_PRESENTATION_REPRESENTATION(' ',(#10,#11,#12,#13,#14,#15,#16,#17,#18,#19,#20,#21,#22,#23,#24,#25,#26,#27,#28,#29,#30,#31,#32,#33,#34,#35,#36,#37,#38,#39,#40),#6);
#2=PRODUCT_DEFINITION_CONTEXT('',#41,'design');
#3=APPLICATION_PROTOCOL_DEFINITION('INTERNATIONAL STANDARD','automotive_design',1994,#41);
#4=PRODUCT_CATEGORY_RELATIONSHIP('NONE','NONE',#42,#43);
#5=SHAPE_DEFINITION_REPRESENTATION(#44,#45);
#6= (GEOMETRIC_REPRESENTATION_CONTEXT(3)GLOBAL_UNCERTAINTY_ASSIGNED_CONTEXT((#48))GLOBAL_UNIT_ASSIGNED_CONTEXT((#50,#51,#52))REPRESENTATION_CONTEXT('NONE','WORKSPACE'));
#10=STYLED_ITEM('',(#54),#55);
#11=STYLED_ITEM('',(#56),#57);
#12=STYLED_ITEM('',(#58),#59);
#13=STYLED_ITEM('',(#60),#61);
#14=STYLED_ITEM('',(#62),#63);
#15=STYLED_ITEM('',(#64),#65);
#16=STYLED_ITEM('',(#66),#67);
#17=STYLED_ITEM('',(#68),#69);
#18=STYLED_ITEM('',(#70),#71);
#19=STYLED_ITEM('',(#72),#73);
#20=STYLED_ITEM('',(#74),#75);
#21=STYLED_ITEM('',(#76),#77);
#22=STYLED_ITEM('',(#78),#79);
#23=STYLED_ITEM('',(#80),#81);
#24=STYLED_ITEM('',(#82),#83);
#25=STYLED_ITEM('',(#84),#85);
#26=STYLED_ITEM('',(#86),#87);
#27=STYLED_ITEM('',(#88),#89);
#28=STYLED_ITEM('',(#90),#91);
#29=STYLED_ITEM('',(#92),#93);
#30=STYLED_ITEM('',(#94),#95);
#31=STYLED_ITEM('',(#96),#97);
#32=STYLED_ITEM('',(#98),#99);
#33=STYLED_ITEM('',(#100),#101);
#34=STYLED_ITEM('',(#102),#103);
#35=STYLED_ITEM('',(#104),#105);
#36=STYLED_ITEM('',(#106),#107);
#37=STYLED_ITEM('',(#108),#109);
#38=STYLED_ITEM('',(#110),#111);
#39=STYLED_ITEM('',(#112),#113);
#40=STYLED_ITEM('',(#114),#115);
#41=APPLICATION_CONTEXT(' ');
#42=PRODUCT_CATEGORY('part','NONE');
#43=PRODUCT_RELATED_PRODUCT_CATEGORY('detail',' ',(#116));
#44=PRODUCT_DEFINITION_SHAPE('NONE','NONE',#117);
#45=ADVANCED_BREP_SHAPE_REPRESENTATION('PartBody/Trim.1',(#115,#118),#6);
#48=UNCERTAINTY_MEASURE_WITH_UNIT(LENGTH_MEASURE(1.0E-008),#50,'','');
#50= (CONVERSION_BASED_UNIT('METRE',#121)LENGTH_UNIT()NAMED_UNIT(#124));
#51= (NAMED_UNIT(#126)PLANE_ANGLE_UNIT()SI_UNIT($,.RADIAN.));
#52= (NAMED_UNIT(#126)SOLID_ANGLE_UNIT()SI_UNIT($,.STERADIAN.));
#54=PRESENTATION_STYLE_ASSIGNMENT((#132));
#55=ADVANCED_FACE('',(#133),#134,.F.);
#56=PRESENTATION_STYLE_ASSIGNMENT((#135));
#57=ADVANCED_FACE('',(#136),#137,.F.);
#58=PRESENTATION_STYLE_ASSIGNMENT((#138));
#59=ADVANCED_FACE('',(#139),#140,.T.);
#60=PRESENTATION_STYLE_ASSIGNMENT((#141));
#61=ADVANCED_FACE('',(#142),#143,.F.);
#62=PRESENTATION_STYLE_ASSIGNMENT((#144));
#63=ADVANCED_FACE('0:47',(#145),#146,.F.);
#64=PRESENTATION_STYLE_ASSIGNMENT((#147));
#65=ADVANCED_FACE('0:48',(#148),#149,.T.);
#66=PRESENTATION_STYLE_ASSIGNMENT((#150));
#67=ADVANCED_FACE('0:50',(#151),#152,.F.);
#68=PRESENTATION_STYLE_ASSIGNMENT((#153));
#69=ADVANCED_FACE('0:52',(#154),#155,.F.);
#70=PRESENTATION_STYLE_ASSIGNMENT((#156));
#71=ADVANCED_FACE('0:53',(#157),#158,.F.);
#72=PRESENTATION_STYLE_ASSIGNMENT((#159));
#73=EDGE_CURVE('',#160,#161,#162,.F.);
#74=PRESENTATION_STYLE_ASSIGNMENT((#163));
#75=EDGE_CURVE('0:45',#164,#161,#165,.T.);
#76=PRESENTATION_STYLE_ASSIGNMENT((#166));
#77=EDGE_CURVE('',#167,#164,#168,.T.);
#78=PRESENTATION_STYLE_ASSIGNMENT((#169));
#79=EDGE_CURVE('',#170,#167,#171,.T.);
#80=PRESENTATION_STYLE_ASSIGNMENT((#172));
#81=EDGE_CURVE('',#173,#174,#175,.F.);
#82=PRESENTATION_STYLE_ASSIGNMENT((#176));
#83=EDGE_CURVE('',#177,#173,#178,.F.);
#84=PRESENTATION_STYLE_ASSIGNMENT((#179));
#85=EDGE_CURVE('',#180,#161,#181,.T.);
#86=PRESENTATION_STYLE_ASSIGNMENT((#182));
#87=EDGE_CURVE('0:42',#183,#160,#184,.F.);
#88=PRESENTATION_STYLE_ASSIGNMENT((#185));
#89=EDGE_CURVE('0:43',#183,#186,#187,.T.);
#90=PRESENTATION_STYLE_ASSIGNMENT((#188));
#91=EDGE_CURVE('0:830',#189,#190,#191,.F.);
#92=PRESENTATION_STYLE_ASSIGNMENT((#192));
#93=EDGE_CURVE('0:835',#189,#170,#193,.T.);
#94=PRESENTATION_STYLE_ASSIGNMENT((#194));
#95=EDGE_CURVE('',#195,#196,#197,.T.);
#96=PRESENTATION_STYLE_ASSIGNMENT((#198));
#97=EDGE_CURVE('',#196,#199,#200,.T.);
#98=PRESENTATION_STYLE_ASSIGNMENT((#201));
#99=EDGE_CURVE('',#199,#202,#203,.T.);
#100=PRESENTATION_STYLE_ASSIGNMENT((#204));
#101=EDGE_CURVE('',#174,#205,#206,.F.);
#102=PRESENTATION_STYLE_ASSIGNMENT((#207));
#103=EDGE_CURVE('0:881',#205,#177,#208,.F.);
#104=PRESENTATION_STYLE_ASSIGNMENT((#209));
#105=EDGE_CURVE('0:840',#210,#195,#211,.T.);
#106=PRESENTATION_STYLE_ASSIGNMENT((#212));
#107=EDGE_CURVE('',#202,#210,#213,.T.);
#108=PRESENTATION_STYLE_ASSIGNMENT((#214));
#109=EDGE_CURVE('',#190,#164,#215,.F.);
#110=PRESENTATION_STYLE_ASSIGNMENT((#216));
#111=EDGE_CURVE('',#186,#180,#217,.T.);
#112=PRESENTATION_STYLE_ASSIGNMENT((#218));
#113=EDGE_CURVE('0:44',#189,#183,#219,.T.);
#114=PRESENTATION_STYLE_ASSIGNMENT((#220));
#115=MANIFOLD_SOLID_BREP('PartBody/Trim.1',#221);
#116=PRODUCT('PartBody/Trim.1','','PART--DESC',(#222));
#117=PRODUCT_DEFINITION('','NONE',#223,#2);
#118=AXIS2_PLACEMENT_3D('',#224,#225,#226);
#121=LENGTH_MEASURE_WITH_UNIT(LENGTH_MEASURE(1.0),#227);
#124=DIMENSIONAL_EXPONENTS(1.0,0.0,0.0,0.0,0.0,0.0,0.0);
#126=DIMENSIONAL_EXPONENTS(0.0,0.0,0.0,0.0,0.0,0.0,0.0);
#132=SURFACE_STYLE_USAGE(.BOTH.,#228);
#133=FACE_OUTER_BOUND('',#229,.T.);
#134=CYLINDRICAL_SURFACE('',#230,0.0125);
#135=SURFACE_STYLE_USAGE(.BOTH.,#231);
#136=FACE_OUTER_BOUND('',#232,.T.);
#137=CYLINDRICAL_SURFACE('',#233,0.00675);
#138=SURFACE_STYLE_USAGE(.BOTH.,#234);
#139=FACE_OUTER_BOUND('',#235,.T.);
#140=CYLINDRICAL_SURFACE('',#236,0.0075);
#141=SURFACE_STYLE_USAGE(.BOTH.,#237);
#142=FACE_OUTER_BOUND('',#238,.T.);
#143=CYLINDRICAL_SURFACE('',#239,0.0075);
#144=SURFACE_STYLE_USAGE(.BOTH.,#240);
#145=FACE_OUTER_BOUND('',#241,.T.);
#146=CYLINDRICAL_SURFACE('',#242,0.0075);
#147=SURFACE_STYLE_USAGE(.BOTH.,#243);
#148=FACE_OUTER_BOUND('',#244,.T.);
#149=CYLINDRICAL_SURFACE('',#245,0.0075);
#150=SURFACE_STYLE_USAGE(.BOTH.,#246);
#151=FACE_OUTER_BOUND('',#247,.T.);
#152=CYLINDRICAL_SURFACE('',#248,0.00675);
#153=SURFACE_STYLE_USAGE(.BOTH.,#249);
#154=FACE_OUTER_BOUND('',#250,.T.);
#155=CYLINDRICAL_SURFACE('',#251,0.01);
#156=SURFACE_STYLE_USAGE(.BOTH.,#252);
#157=FACE_OUTER_BOUND('',#253,.T.);
#158=CYLINDRICAL_SURFACE('',#254,0.0125);
#159=CURVE_STYLE('',#255,POSITIVE_LENGTH_MEASURE(0.35),#256);
#160=VERTEX_POINT('',#257);
#161=VERTEX_POINT('',#258);
#162=B_SPLINE_CURVE_WITH_KNOTS('',3,(#259,#260,#261,#262,#263,#264,#265,#266,#267,#268,#269,#270,#271,#272,#273,#274,#275,#276,#277,#278,#279,#280,#281,#282,#283,#284,#285,#286,#287,#288,#289,#290,#291,#292,#293,#294,#295,#296,#297,#298),.UNSPECIFIED.,.F.,.F.,(4,3,3,3,3,3,3,3,3,3,3,3,3,4),(0.0217155674555544,0.0244466217145105,0.0258096626868103,0.0268142819194799,0.0275315201705045,0.0298573110178761,0.0319212637945899,0.0339604759511568,0.0362201182057624,0.0374290330219597,0.0382520251547177,0.0390345009124667,0.042199469435294,0.0435640015272037),.UNSPECIFIED.);
#163=CURVE_STYLE('',#299,POSITIVE_LENGTH_MEASURE(0.35),#300);
#164=VERTEX_POINT('',#301);
#165=B_SPLINE_CURVE_WITH_KNOTS('',3,(#302,#303,#304,#305),.UNSPECIFIED.,.F.,.F.,(4,4),(9.3640228244314,11.0803525343064),.UNSPECIFIED.);
#166=CURVE_STYLE('',#306,POSITIVE_LENGTH_MEASURE(0.35),#307);
#167=VERTEX_POINT('',#308);
#168=B_SPLINE_CURVE_WITH_KNOTS('',3,(#309,#310,#311,#312,#313,#314,#315,#316,#317,#318,#319,#320,#321,#322,#323,#324,#325,#326,#327,#328,#329),.UNSPECIFIED.,.F.,.F.,(4,2,2,2,2,2,2,2,2,1,4),(0.0,4.68779429699118,9.37558859398237,14.0633828909736,17.5792286137169,21.0909743996889,23.4307716114131,28.1103660348614,32.7899604583098,37.4695548817581,37.8180312886305),.UNSPECIFIED.);
#169=CURVE_STYLE('',#330,POSITIVE_LENGTH_MEASURE(0.35),#331);
#170=VERTEX_POINT('',#332);
#171=B_SPLINE_CURVE_WITH_KNOTS('',3,(#333,#334,#335,#336,#337,#338,#339,#340,#341,#342,#343,#344,#345,#346,#347,#348,#349,#350,#351,#352,#353),.UNSPECIFIED.,.F.,.F.,(4,2,2,2,2,2,2,2,2,1,4),(0.0,4.68779429699118,9.37558859398237,14.0633828909736,17.5792286137169,21.0909743996889,23.4307716114131,28.1103660348614,32.7899604583098,37.4695548817581,37.8180312886305),.UNSPECIFIED.);
#172=CURVE_STYLE('',#354,POSITIVE_LENGTH_MEASURE(0.35),#355);
#173=VERTEX_POINT('',#356);
#174=VERTEX_POINT('',#357);
#175=B_SPLINE_CURVE_WITH_KNOTS('',3,(#358,#359,#360,#361,#362,#363,#364,#365,#366,#367,#368,#369,#370,#371,#372),.UNSPECIFIED.,.F.,.F.,(4,2,2,2,1,2,2,4),(15.4510540992981,18.0118513685937,20.5726486378893,25.6942431764806,28.2550404457762,30.8158377150718,33.3766349843674,35.937432253663),.UNSPECIFIED.);
#176=CURVE_STYLE('',#373,POSITIVE_LENGTH_MEASURE(0.35),#374);
#177=VERTEX_POINT('',#375);
#178=B_SPLINE_CURVE_WITH_KNOTS('',3,(#376,#377,#378,#379,#380,#381,#382,#383,#384,#385,#386,#387,#388),.UNSPECIFIED.,.F.,.F.,(4,2,2,2,1,2,4),(35.937432253663,38.0797961350981,40.2221600165331,44.5068877794031,48.7916155422732,50.9339794237082,53.0763433051432),.UNSPECIFIED.);
#179=CURVE_STYLE('',#389,POSITIVE_LENGTH_MEASURE(0.35),#390);
#180=VERTEX_POINT('',#391);
#181=B_SPLINE_CURVE_WITH_KNOTS('',3,(#392,#393,#394,#395,#396,#397,#398,#399,#400,#401,#402,#403,#404,#405,#406,#407,#408,#409,#410,#411,#412,#413,#414,#415,#416,#417,#418,#419,#420),.UNSPECIFIED.,.F.,.F.,(4,2,2,2,2,2,2,2,2,2,2,2,2,1,4),(0.0,3.37208792865313,10.1390742311654,16.9060605336777,21.9813002605619,25.3647934118181,27.0565399874462,28.7482865630742,30.4400331387023,32.9776530021444,37.2070194412146,43.9740057437269,50.7409920462392,54.1244851974953,57.5079783487515),.UNSPECIFIED.);
#182=CURVE_STYLE('',#421,POSITIVE_LENGTH_MEASURE(0.35),#422);
#183=VERTEX_POINT('',#423);
#184=B_SPLINE_CURVE_WITH_KNOTS('',3,(#424,#425,#426,#427,#428,#429,#430,#431,#432,#433,#434,#435,#436,#437,#438,#439,#440,#441,#442,#443,#444,#445,#446,#447,#448,#449,#450,#451,#452,#453,#454,#455,#456,#457,#458,#459,#460,#461,#462,#463),.UNSPECIFIED.,.F.,.F.,(4,3,3,3,3,3,3,3,3,3,3,3,3,4),(0.0217155674555544,0.0244466217145105,0.0258096626868103,0.0268142819194799,0.0275315201705045,0.0298573110178761,0.0319212637945899,0.0339604759511568,0.0362201182057624,0.0374290330219597,0.0382520251547177,0.0390345009124667,0.042199469435294,0.0435640015272037),.UNSPECIFIED.);
#185=CURVE_STYLE('',#464,POSITIVE_LENGTH_MEASURE(0.35),#465);
#186=VERTEX_POINT('',#466);
#187=B_SPLINE_CURVE_WITH_KNOTS('',3,(#467,#468,#469,#470,#471,#472,#473,#474,#475,#476,#477,#478,#479,#480,#481,#482,#483,#484,#485,#486,#487,#488,#489,#490,#491,#492,#493,#494,#495),.UNSPECIFIED.,.F.,.F.,(4,2,2,2,2,2,2,2,2,2,2,2,2,1,4),(0.0,3.37208792865313,10.1390742311654,16.9060605336777,21.9813002605619,25.3647934118181,27.0565399874462,28.7482865630742,30.4400331387023,32.9776530021444,37.2070194412146,43.9740057437269,50.7409920462392,54.1244851974953,57.5079783487515),.UNSPECIFIED.);
#188=CURVE_STYLE('',#496,POSITIVE_LENGTH_MEASURE(0.35),#497);
#189=VERTEX_POINT('',#498);
#190=VERTEX_POINT('',#499);
#191=B_SPLINE_CURVE_WITH_KNOTS('',5,(#500,#501,#502,#503,#504,#505,#506,#507,#508,#509,#510,#511,#512,#513,#514,#515,#516,#517,#518,#519,#520,#521,#522,#523,#524,#525,#526,#527,#528,#529,#530,#531,#532,#533,#534,#535,#536,#537,#538,#539,#540,#541,#542,#543,#544,#545,#546,#547,#548,#549,#550,#551,#552,#553,#554,#555),.UNSPECIFIED.,.F.,.F.,(6,3,3,3,3,3,3,3,3,3,3,3,3,3,3,3,5,6),(0.51602570046612,4.00513306017432,9.584506547977,16.5004338320174,19.7897547451514,24.7004043023392,27.9894596456238,30.3505975067844,31.8141655184946,33.4282388603046,35.4947366817232,38.2727580039577,42.374807469259,45.1349357062584,48.4938343478705,55.4978493510971,61.5259535184842,64.0797454370377),.UNSPECIFIED.);
#192=CURVE_STYLE('',#556,POSITIVE_LENGTH_MEASURE(0.35),#557);
#193=B_SPLINE_CURVE_WITH_KNOTS('',3,(#558,#559,#560,#561,#562,#563,#564,#565,#566,#567,#568,#569,#570,#571,#572,#573,#574,#575,#576,#577,#578),.UNSPECIFIED.,.F.,.F.,(4,2,2,2,2,2,2,2,2,1,4),(0.0,4.68779429699118,9.37558859398237,14.0633828909736,17.5792286137169,21.0909743996889,23.4307716114131,28.1103660348614,32.7899604583098,37.4695548817581,37.8180312886305),.UNSPECIFIED.);
#194=CURVE_STYLE('',#579,POSITIVE_LENGTH_MEASURE(0.35),#580);
#195=VERTEX_POINT('',#581);
#196=VERTEX_POINT('',#582);
#197=B_SPLINE_CURVE_WITH_KNOTS('',3,(#583,#584,#585,#586,#587,#588,#589,#590,#591),.UNSPECIFIED.,.F.,.F.,(4,1,1,1,1,1,4),(0.0181175107984783,0.0625,0.125,0.1875,0.21875,0.25,0.273848769729789),.UNSPECIFIED.);
#198=CURVE_STYLE('',#592,POSITIVE_LENGTH_MEASURE(0.35),#593);
#199=VERTEX_POINT('',#594);
#200=B_SPLINE_CURVE_WITH_KNOTS('',3,(#595,#596,#597,#598,#599,#600,#601,#602,#603,#604,#605,#606,#607,#608,#609,#610,#611,#612,#613,#614,#615,#616,#617,#618,#619),.UNSPECIFIED.,.F.,.F.,(4,1,1,1,1,1,1,1,1,1,1,1,1,1,1,1,1,1,1,1,1,1,4),(0.273848769729789,0.28125,0.3125,0.34375,0.375,0.40625,0.4375,0.46875,0.484375,0.5,0.515625,0.53125,0.5390625,0.546875,0.5546875,0.55859375,0.5625,0.56640625,0.568359375,0.5703125,0.57421875,0.578125,0.579687934140645),.UNSPECIFIED.);
#201=CURVE_STYLE('',#620,POSITIVE_LENGTH_MEASURE(0.35),#621);
#202=VERTEX_POINT('',#622);
#203=B_SPLINE_CURVE_WITH_KNOTS('',3,(#623,#624,#625,#626,#627,#628,#629,#630,#631,#632,#633,#634),.UNSPECIFIED.,.F.,.F.,(4,1,1,1,1,1,1,1,1,4),(0.579687934140645,0.5859375,0.59375,0.609375,0.625,0.65625,0.6875,0.71875,0.75,0.793817685195092),.UNSPECIFIED.);
#204=CURVE_STYLE('',#635,POSITIVE_LENGTH_MEASURE(0.35),#636);
#205=VERTEX_POINT('',#637);
#206=B_SPLINE_CURVE_WITH_KNOTS('',3,(#638,#639,#640,#641,#642,#643,#644,#645,#646,#647,#648,#649),.UNSPECIFIED.,.F.,.F.,(4,2,2,2,2,4),(0.0,3.86276352482453,7.72552704964906,11.5882905744736,13.5196723368858,15.4510540992981),.UNSPECIFIED.);
#207=CURVE_STYLE('',#650,POSITIVE_LENGTH_MEASURE(0.35),#651);
#208=B_SPLINE_CURVE_WITH_KNOTS('',3,(#652,#653,#654,#655,#656,#657,#658,#659,#660,#661,#662,#663),.UNSPECIFIED.,.F.,.F.,(4,2,2,1,1,2,4),(53.0763433051432,55.0044205758366,56.9324978465301,58.8605751172235,60.7886523879169,64.6448069293037,68.5009614706906),.UNSPECIFIED.);
#209=CURVE_STYLE('',#664,POSITIVE_LENGTH_MEASURE(0.35),#665);
#210=VERTEX_POINT('',#666);
#211=B_SPLINE_CURVE_WITH_KNOTS('',3,(#667,#668,#669,#670),.UNSPECIFIED.,.F.,.F.,(4,4),(0.0,0.0181175107984783),.UNSPECIFIED.);
#212=CURVE_STYLE('',#671,POSITIVE_LENGTH_MEASURE(0.35),#672);
#213=B_SPLINE_CURVE_WITH_KNOTS('',3,(#673,#674,#675,#676,#677,#678,#679),.UNSPECIFIED.,.F.,.F.,(4,1,1,1,4),(0.793817685195092,0.8125,0.875,0.9375,1.0),.UNSPECIFIED.);
#214=CURVE_STYLE('',#680,POSITIVE_LENGTH_MEASURE(0.35),#681);
#215=B_SPLINE_CURVE_WITH_KNOTS('',5,(#682,#683,#684,#685,#686,#687,#688,#689,#690,#691,#692,#693,#694,#695,#696,#697,#698,#699,#700,#701,#702,#703,#704,#705,#706,#707,#708,#709,#710,#711,#712,#713,#714,#715,#716,#717,#718,#719,#720,#721,#722,#723,#724,#725,#726,#727,#728,#729,#730,#731,#732,#733,#734,#735,#736,#737),.UNSPECIFIED.,.F.,.F.,(6,3,3,3,3,3,3,3,3,3,3,3,3,3,3,3,5,6),(0.51602570046612,4.00513306017432,9.584506547977,16.5004338320174,19.7897547451514,24.7004043023392,27.9894596456238,30.3505975067844,31.8141655184946,33.4282388603046,35.4947366817232,38.2727580039577,42.374807469259,45.1349357062584,48.4938343478705,55.4978493510971,61.5259535184842,64.0797454370377),.UNSPECIFIED.);
#216=CURVE_STYLE('',#738,POSITIVE_LENGTH_MEASURE(0.35),#739);
#217=B_SPLINE_CURVE_WITH_KNOTS('',3,(#740,#741,#742,#743,#744,#745,#746,#747,#748,#749,#750,#751,#752,#753,#754,#755,#756,#757,#758,#759,#760,#761,#762,#763,#764,#765,#766,#767,#768),.UNSPECIFIED.,.F.,.F.,(4,2,2,2,2,2,2,2,2,2,2,2,2,1,4),(0.0,3.37208792865313,10.1390742311654,16.9060605336777,21.9813002605619,25.3647934118181,27.0565399874462,28.7482865630742,30.4400331387023,32.9776530021444,37.2070194412146,43.9740057437269,50.7409920462392,54.1244851974953,57.5079783487515),.UNSPECIFIED.);
#218=CURVE_STYLE('',#769,POSITIVE_LENGTH_MEASURE(0.35),#770);
#219=B_SPLINE_CURVE_WITH_KNOTS('',3,(#771,#772,#773,#774),.UNSPECIFIED.,.F.,.F.,(4,4),(9.96392899538492,11.6803208457284),.UNSPECIFIED.);
#220=SURFACE_STYLE_USAGE(.BOTH.,#775);
#221=CLOSED_SHELL('',(#55,#57,#59,#61,#63,#65,#67,#69,#71));
#222=PRODUCT_CONTEXT('',#41,'mechanical');
#223=PRODUCT_DEFINITION_FORMATION_WITH_SPECIFIED_SOURCE(' ','NONE',#116,.NOT_KNOWN.);
#224=CARTESIAN_POINT('',(0.0,0.0,0.0));
#225=DIRECTION('',(0.0,0.0,1.0));
#226=DIRECTION('',(1.0,0.0,0.0));
#227= (NAMED_UNIT(#124)LENGTH_UNIT()SI_UNIT($,.METRE.));
#228=SURFACE_SIDE_STYLE('',(#777));
#229=EDGE_LOOP('',(#778,#779,#780,#781,#782));
#230=AXIS2_PLACEMENT_3D('',#783,#784,#785);
#231=SURFACE_SIDE_STYLE('',(#786));
#232=EDGE_LOOP('',(#787,#788,#789,#790,#791,#792,#793,#794));
#233=AXIS2_PLACEMENT_3D('',#795,#796,#797);
#234=SURFACE_SIDE_STYLE('',(#798));
#235=EDGE_LOOP('',(#799,#800,#801,#802,#803,#804,#805));
#236=AXIS2_PLACEMENT_3D('',#806,#807,#808);
#237=SURFACE_SIDE_STYLE('',(#809));
#238=EDGE_LOOP('',(#810,#811,#812,#813,#814,#815));
#239=AXIS2_PLACEMENT_3D('',#816,#817,#818);
#240=SURFACE_SIDE_STYLE('',(#819));
#241=EDGE_LOOP('',(#820,#821,#822,#823,#824,#825,#826));
#242=AXIS2_PLACEMENT_3D('',#827,#828,#829);
#243=SURFACE_SIDE_STYLE('',(#830));
#244=EDGE_LOOP('',(#831,#832,#833,#834,#835,#836,#837));
#245=AXIS2_PLACEMENT_3D('',#838,#839,#840);
#246=SURFACE_SIDE_STYLE('',(#841));
#247=EDGE_LOOP('',(#842,#843,#844,#845,#846));
#248=AXIS2_PLACEMENT_3D('',#847,#848,#849);
#249=SURFACE_SIDE_STYLE('',(#850));
#250=EDGE_LOOP('',(#851,#852,#853,#854,#855,#856,#857));
#251=AXIS2_PLACEMENT_3D('',#858,#859,#860);
#252=SURFACE_SIDE_STYLE('',(#861));
#253=EDGE_LOOP('',(#862,#863,#864,#865));
#254=AXIS2_PLACEMENT_3D('',#866,#867,#868);
#255=DRAUGHTING_PRE_DEFINED_CURVE_FONT('continuous');
#256=COLOUR_RGB('',0.0,0.0,0.0);
#257=CARTESIAN_POINT('',(-1.6447227738438,-0.178894512157817,-0.0463385301313243));
#258=CARTESIAN_POINT('',(-1.65324674032754,-0.180104088587459,-0.0523751938141545));
#259=CARTESIAN_POINT('',(-1.65324674033927,-0.180104088964983,-0.0523751937590696));
#260=CARTESIAN_POINT('',(-1.65230856790269,-0.180132502977381,-0.0523701125044021));
#261=CARTESIAN_POINT('',(-1.65133046362009,-0.180071877340569,-0.0522253301603969));
#262=CARTESIAN_POINT('',(-1.65039956394532,-0.179962808453644,-0.0519602343976839));
#263=CARTESIAN_POINT('',(-1.64993496153266,-0.179908373298723,-0.0518279278406187));
#264=CARTESIAN_POINT('',(-1.6494818607359,-0.179842417852024,-0.0516658615322458));
#265=CARTESIAN_POINT('',(-1.64905056633494,-0.179771511864025,-0.0514782779462565));
#266=CARTESIAN_POINT('',(-1.64873268399761,-0.179719251131807,-0.051340020856376));
#267=CARTESIAN_POINT('',(-1.64842666516891,-0.179664318242523,-0.0511879294052158));
#268=CARTESIAN_POINT('',(-1.64813630676168,-0.179609222397881,-0.0510243809102555));
#269=CARTESIAN_POINT('',(-1.64792900816595,-0.179569887248836,-0.0509076170332876));
#270=CARTESIAN_POINT('',(-1.6477278956051,-0.17953015293221,-0.0507843105993028));
#271=CARTESIAN_POINT('',(-1.64752713353737,-0.179489250881189,-0.0506493710527052));
#272=CARTESIAN_POINT('',(-1.64687612171674,-0.179356617665142,-0.0502118021389208));
#273=CARTESIAN_POINT('',(-1.64625818897125,-0.179216804931363,-0.0496642646972184));
#274=CARTESIAN_POINT('',(-1.64577561134489,-0.179107666836959,-0.0490279037785938));
#275=CARTESIAN_POINT('',(-1.64534736241914,-0.179010815534424,-0.0484631845191335));
#276=CARTESIAN_POINT('',(-1.64502541751355,-0.178938834170235,-0.047827168554018));
#277=CARTESIAN_POINT('',(-1.64485515156659,-0.17890952584608,-0.0471580097008474));
#278=CARTESIAN_POINT('',(-1.64468692659903,-0.178880568841064,-0.0464968720607545));
#279=CARTESIAN_POINT('',(-1.64466752595066,-0.178893627381167,-0.0458049171763034));
#280=CARTESIAN_POINT('',(-1.6447940168803,-0.178945446395642,-0.0451299768579606));
#281=CARTESIAN_POINT('',(-1.64493418093754,-0.179002866823585,-0.0443820783826828));
#282=CARTESIAN_POINT('',(-1.64525221401857,-0.179107095565499,-0.0436579886448581));
#283=CARTESIAN_POINT('',(-1.64568461359791,-0.179229237555683,-0.0430079887830105));
#284=CARTESIAN_POINT('',(-1.64591594856118,-0.179294583856103,-0.0426602370705824));
#285=CARTESIAN_POINT('',(-1.64617936129111,-0.179364767621394,-0.0423331495466255));
#286=CARTESIAN_POINT('',(-1.64646063719452,-0.179434365982762,-0.0420321338493036));
#287=CARTESIAN_POINT('',(-1.6466521212036,-0.17948174641279,-0.0418272115938946));
#288=CARTESIAN_POINT('',(-1.64685181530933,-0.179528844405736,-0.041634334651963));
#289=CARTESIAN_POINT('',(-1.6470547608012,-0.179574122214826,-0.0414545713974354));
#290=CARTESIAN_POINT('',(-1.64724771517003,-0.179617170971389,-0.0412836579910938));
#291=CARTESIAN_POINT('',(-1.64745030729992,-0.179660113948104,-0.0411185457308835));
#292=CARTESIAN_POINT('',(-1.64766310271119,-0.179702256832223,-0.0409589649192499));
#293=CARTESIAN_POINT('',(-1.64852382046737,-0.179872716939618,-0.040313490295064));
#294=CARTESIAN_POINT('',(-1.64954185717306,-0.180027059220405,-0.0397714674524978));
#295=CARTESIAN_POINT('',(-1.65059988481038,-0.18008557765807,-0.0394036480333129));
#296=CARTESIAN_POINT('',(-1.65105603868832,-0.180110807067332,-0.0392450678143043));
#297=CARTESIAN_POINT('',(-1.65151936241302,-0.180118285618898,-0.0391184890818854));
#298=CARTESIAN_POINT('',(-1.65197925055821,-0.180104088965653,-0.0390277661032244));
#299=DRAUGHTING_PRE_DEFINED_CURVE_FONT('continuous');
#300=COLOUR_RGB('',0.0,0.0,0.0);
#301=CARTESIAN_POINT('',(-1.65411241128913,-0.180574439852675,-0.053083087230239));
#302=CARTESIAN_POINT('',(-1.65411241128913,-0.180574439852675,-0.053083087230239));
#303=CARTESIAN_POINT('',(-1.65381168783398,-0.180415467963249,-0.0528640451774678));
#304=CARTESIAN_POINT('',(-1.65352278002214,-0.180257622213138,-0.0526279556539288));
#305=CARTESIAN_POINT('',(-1.65324674068296,-0.180104088785144,-0.052375194139603));
#306=DRAUGHTING_PRE_DEFINED_CURVE_FONT('continuous');
#307=COLOUR_RGB('',0.0,0.0,0.0);
#308=CARTESIAN_POINT('',(-1.65386652503867,-0.180587268206896,-0.0530925152092834));
#309=CARTESIAN_POINT('',(-1.65269619989218,-0.180574445052296,-0.0381695890885422));
#310=CARTESIAN_POINT('',(-1.65160364798795,-0.180641912258822,-0.038322402311192));
#311=CARTESIAN_POINT('',(-1.65053384272479,-0.180573571055541,-0.0386498696789877));
#312=CARTESIAN_POINT('',(-1.64853002839774,-0.180307613418093,-0.0395437972790775));
#313=CARTESIAN_POINT('',(-1.64759059036095,-0.18011024185222,-0.0401120538446032));
#314=CARTESIAN_POINT('',(-1.64591489923624,-0.179691691557267,-0.0414910897139214));
#315=CARTESIAN_POINT('',(-1.64517344614215,-0.179467765988541,-0.0423063267964553));
#316=CARTESIAN_POINT('',(-1.64424092989091,-0.179154557308571,-0.0439728913390056));
#317=CARTESIAN_POINT('',(-1.64396540798278,-0.179047587085793,-0.0447674542808567));
#318=CARTESIAN_POINT('',(-1.64381532663888,-0.17895407413272,-0.0464140169285796));
#319=CARTESIAN_POINT('',(-1.64394953170518,-0.178971043003996,-0.0472567170517601));
#320=CARTESIAN_POINT('',(-1.64447643160713,-0.179094036047624,-0.0485254173009709));
#321=CARTESIAN_POINT('',(-1.64476331432417,-0.179166650732086,-0.0489977620662264));
#322=CARTESIAN_POINT('',(-1.64577437254981,-0.179424129961412,-0.0502828170148624));
#323=CARTESIAN_POINT('',(-1.64663930783662,-0.17964590418339,-0.0509656498138882));
#324=CARTESIAN_POINT('',(-1.64851810059455,-0.180066804458183,-0.0520431507373286));
#325=CARTESIAN_POINT('',(-1.64953808511575,-0.180268688080925,-0.0524419916574822));
#326=CARTESIAN_POINT('',(-1.65165837152131,-0.18055255262978,-0.0529807291630095));
#327=CARTESIAN_POINT('',(-1.65284754249651,-0.180640997475891,-0.0531322811574882));
#328=CARTESIAN_POINT('',(-1.65403053166412,-0.180579458578485,-0.0530872125844312));
#329=CARTESIAN_POINT('',(-1.65411241132266,-0.180574444694014,-0.0530830832690488));
#330=DRAUGHTING_PRE_DEFINED_CURVE_FONT('continuous');
#331=COLOUR_RGB('',0.0,0.0,0.0);
#332=CARTESIAN_POINT('',(-1.64388230756414,-0.178974323970977,-0.0464183419444842));
#333=CARTESIAN_POINT('',(-1.65269619989218,-0.180574445052296,-0.0381695890885422));
#334=CARTESIAN_POINT('',(-1.65160364798795,-0.180641912258822,-0.038322402311192));
#335=CARTESIAN_POINT('',(-1.65053384272479,-0.180573571055541,-0.0386498696789877));
#336=CARTESIAN_POINT('',(-1.64853002839774,-0.180307613418093,-0.0395437972790775));
#337=CARTESIAN_POINT('',(-1.64759059036095,-0.18011024185222,-0.0401120538446032));
#338=CARTESIAN_POINT('',(-1.64591489923624,-0.179691691557267,-0.0414910897139214));
#339=CARTESIAN_POINT('',(-1.64517344614215,-0.179467765988541,-0.0423063267964553));
#340=CARTESIAN_POINT('',(-1.64424092989091,-0.179154557308571,-0.0439728913390056));
#341=CARTESIAN_POINT('',(-1.64396540798278,-0.179047587085793,-0.0447674542808567));
#342=CARTESIAN_POINT('',(-1.64381532663888,-0.17895407413272,-0.0464140169285796));
#343=CARTESIAN_POINT('',(-1.64394953170518,-0.178971043003996,-0.0472567170517601));
#344=CARTESIAN_POINT('',(-1.64447643160713,-0.179094036047624,-0.0485254173009709));
#345=CARTESIAN_POINT('',(-1.64476331432417,-0.179166650732086,-0.0489977620662264));
#346=CARTESIAN_POINT('',(-1.64577437254981,-0.179424129961412,-0.0502828170148624));
#347=CARTESIAN_POINT('',(-1.64663930783662,-0.17964590418339,-0.0509656498138882));
#348=CARTESIAN_POINT('',(-1.64851810059455,-0.180066804458183,-0.0520431507373286));
#349=CARTESIAN_POINT('',(-1.64953808511575,-0.180268688080925,-0.0524419916574822));
#350=CARTESIAN_POINT('',(-1.65165837152131,-0.18055255262978,-0.0529807291630095));
#351=CARTESIAN_POINT('',(-1.65284754249651,-0.180640997475891,-0.0531322811574882));
#352=CARTESIAN_POINT('',(-1.65403053166412,-0.180579458578485,-0.0530872125844312));
#353=CARTESIAN_POINT('',(-1.65411241132266,-0.180574444694014,-0.0530830832690488));
#354=DRAUGHTING_PRE_DEFINED_CURVE_FONT('continuous');
#355=COLOUR_RGB('',0.0,0.0,0.0);
#356=CARTESIAN_POINT('',(-1.53685421453495,-0.0132054708562959,-0.0572912280558655));
#357=CARTESIAN_POINT('',(-1.53799647082433,-0.00276739447373877,-0.0498265549963233));
#358=CARTESIAN_POINT('',(-1.53799647082433,-0.00276739447373869,-0.0498265549963233));
#359=CARTESIAN_POINT('',(-1.53759023698785,-0.00321374358185812,-0.0498186653317665));
#360=CARTESIAN_POINT('',(-1.53731778886207,-0.0037681703606317,-0.0498778589614464));
#361=CARTESIAN_POINT('',(-1.53694239272473,-0.00490054721451336,-0.0500643676502378));
#362=CARTESIAN_POINT('',(-1.53682860812099,-0.00548375750774079,-0.0501926628816486));
#363=CARTESIAN_POINT('',(-1.5365760533644,-0.00721399283526707,-0.0506631815502018));
#364=CARTESIAN_POINT('',(-1.53652284205408,-0.00835384063100331,-0.0510912938889867));
#365=CARTESIAN_POINT('',(-1.53649539126244,-0.00994432180070571,-0.0519564069787612));
#366=CARTESIAN_POINT('',(-1.53649944847283,-0.0109645642893885,-0.0526088969221198));
#367=CARTESIAN_POINT('',(-1.53654120759693,-0.011842415897424,-0.0534499587447452));
#368=CARTESIAN_POINT('',(-1.53660178122401,-0.0125850601582015,-0.0544025812670053));
#369=CARTESIAN_POINT('',(-1.5366416331414,-0.0128865371265704,-0.0549356047414651));
#370=CARTESIAN_POINT('',(-1.53673808219238,-0.0132456992010517,-0.0560836752704226));
#371=CARTESIAN_POINT('',(-1.53679470765492,-0.0132970146863195,-0.0566975999219318));
#372=CARTESIAN_POINT('',(-1.53685421453495,-0.0132054708562943,-0.0572912280559009));
#373=DRAUGHTING_PRE_DEFINED_CURVE_FONT('continuous');
#374=COLOUR_RGB('',0.0,0.0,0.0);
#375=CARTESIAN_POINT('',(-1.53863335553242,-0.0037447890140539,-0.0632842054202954));
#376=CARTESIAN_POINT('',(-1.53685421453495,-0.0132054708562943,-0.0572912280559009));
#377=CARTESIAN_POINT('',(-1.53690399801137,-0.0131288852564245,-0.0577878575581531));
#378=CARTESIAN_POINT('',(-1.53695547517319,-0.0129557935234263,-0.0582675234379834));
#379=CARTESIAN_POINT('',(-1.53705706009318,-0.0124745676186684,-0.0591495967388358));
#380=CARTESIAN_POINT('',(-1.53710728250787,-0.0121678596484352,-0.0595535210516083));
#381=CARTESIAN_POINT('',(-1.53725617348203,-0.0111303436444237,-0.0606510764363088));
#382=CARTESIAN_POINT('',(-1.53735201648125,-0.0102921684150138,-0.0612309303801384));
#383=CARTESIAN_POINT('',(-1.53756386418428,-0.00851742129023353,-0.0621712561564531));
#384=CARTESIAN_POINT('',(-1.53773332538088,-0.00710367698837883,-0.0627144991226637));
#385=CARTESIAN_POINT('',(-1.53801571871302,-0.00565012085849097,-0.0630471026980056));
#386=CARTESIAN_POINT('',(-1.53826314847258,-0.00468424024654695,-0.0632138414770823));
#387=CARTESIAN_POINT('',(-1.53841627936412,-0.00420050407763813,-0.0632705551778777));
#388=CARTESIAN_POINT('',(-1.53863335553242,-0.00374478901405389,-0.0632842054202954));
#389=DRAUGHTING_PRE_DEFINED_CURVE_FONT('continuous');
#390=COLOUR_RGB('',0.0,0.0,0.0);
#391=CARTESIAN_POINT('',(-1.65327172200312,-0.179674454267232,-0.0523979912947287));
#392=CARTESIAN_POINT('',(-1.65197925053647,-0.180104088483714,-0.0390277660759736));
#393=CARTESIAN_POINT('',(-1.65202430271113,-0.179312859754584,-0.0389672607214483));
#394=CARTESIAN_POINT('',(-1.65202590267109,-0.178515610570728,-0.0389654569813689));
#395=CARTESIAN_POINT('',(-1.65194649995318,-0.176129505813741,-0.0390713458626533));
#396=CARTESIAN_POINT('',(-1.65178482216262,-0.174550220285782,-0.0392861895704933));
#397=CARTESIAN_POINT('',(-1.65138520981695,-0.171448549094877,-0.039908618324255));
#398=CARTESIAN_POINT('',(-1.6511435709296,-0.16992068664267,-0.0403185221785482));
#399=CARTESIAN_POINT('',(-1.65071327574214,-0.167329382001323,-0.0412643510500534));
#400=CARTESIAN_POINT('',(-1.65052485416469,-0.166242952815074,-0.0417404806519971));
#401=CARTESIAN_POINT('',(-1.65024479337692,-0.164554146342599,-0.042760582548207));
#402=CARTESIAN_POINT('',(-1.65014039836481,-0.163905450129783,-0.0432294589455315));
#403=CARTESIAN_POINT('',(-1.65003566956655,-0.163098413331525,-0.0441062667957886));
#404=CARTESIAN_POINT('',(-1.65000983493683,-0.16285784344619,-0.0444299619434453));
#405=CARTESIAN_POINT('',(-1.64999465449391,-0.1625053896318,-0.0451462963018575));
#406=CARTESIAN_POINT('',(-1.65000669168781,-0.162398398878705,-0.0455408754404289));
#407=CARTESIAN_POINT('',(-1.65008140496556,-0.162395757240029,-0.0463342525856713));
#408=CARTESIAN_POINT('',(-1.65014349223916,-0.162500581737382,-0.0467256548292352));
#409=CARTESIAN_POINT('',(-1.65032967525353,-0.162936386105893,-0.0476027362805703));
#410=CARTESIAN_POINT('',(-1.65046645912864,-0.163339810884517,-0.0480455564095561));
#411=CARTESIAN_POINT('',(-1.65083620949274,-0.164523994370376,-0.0490595548376232));
#412=CARTESIAN_POINT('',(-1.65107396527825,-0.165377390248331,-0.0495323233229914));
#413=CARTESIAN_POINT('',(-1.65167055351593,-0.16766791813596,-0.0505833153901284));
#414=CARTESIAN_POINT('',(-1.65202038036475,-0.169164174903266,-0.0510460403266398));
#415=CARTESIAN_POINT('',(-1.65263407909098,-0.172207304720516,-0.0517802758009266));
#416=CARTESIAN_POINT('',(-1.65290108244859,-0.1737616808947,-0.0520475119789062));
#417=CARTESIAN_POINT('',(-1.65317086405445,-0.176124407060348,-0.0523060534092322));
#418=CARTESIAN_POINT('',(-1.65330605789451,-0.177710669709712,-0.0524291895906143));
#419=CARTESIAN_POINT('',(-1.65330257544009,-0.179310021364393,-0.0524263204517589));
#420=CARTESIAN_POINT('',(-1.65324674029396,-0.180104088583117,-0.0523751937834057));
#421=DRAUGHTING_PRE_DEFINED_CURVE_FONT('continuous');
#422=COLOUR_RGB('',0.0,0.0,0.0);
#423=CARTESIAN_POINT('',(-1.65197925053765,-0.180104088483903,-0.0390277660743877));
#424=CARTESIAN_POINT('',(-1.65324674033927,-0.180104088964983,-0.0523751937590696));
#425=CARTESIAN_POINT('',(-1.65230856790269,-0.180132502977381,-0.0523701125044021));
#426=CARTESIAN_POINT('',(-1.65133046362009,-0.180071877340569,-0.0522253301603969));
#427=CARTESIAN_POINT('',(-1.65039956394532,-0.179962808453644,-0.0519602343976839));
#428=CARTESIAN_POINT('',(-1.64993496153266,-0.179908373298723,-0.0518279278406187));
#429=CARTESIAN_POINT('',(-1.6494818607359,-0.179842417852024,-0.0516658615322458));
#430=CARTESIAN_POINT('',(-1.64905056633494,-0.179771511864025,-0.0514782779462565));
#431=CARTESIAN_POINT('',(-1.64873268399761,-0.179719251131807,-0.051340020856376));
#432=CARTESIAN_POINT('',(-1.64842666516891,-0.179664318242523,-0.0511879294052158));
#433=CARTESIAN_POINT('',(-1.64813630676168,-0.179609222397881,-0.0510243809102555));
#434=CARTESIAN_POINT('',(-1.64792900816595,-0.179569887248836,-0.0509076170332876));
#435=CARTESIAN_POINT('',(-1.6477278956051,-0.17953015293221,-0.0507843105993028));
#436=CARTESIAN_POINT('',(-1.64752713353737,-0.179489250881189,-0.0506493710527052));
#437=CARTESIAN_POINT('',(-1.64687612171674,-0.179356617665142,-0.0502118021389208));
#438=CARTESIAN_POINT('',(-1.64625818897125,-0.179216804931363,-0.0496642646972184));
#439=CARTESIAN_POINT('',(-1.64577561134489,-0.179107666836959,-0.0490279037785938));
#440=CARTESIAN_POINT('',(-1.64534736241914,-0.179010815534424,-0.0484631845191335));
#441=CARTESIAN_POINT('',(-1.64502541751355,-0.178938834170235,-0.047827168554018));
#442=CARTESIAN_POINT('',(-1.64485515156659,-0.17890952584608,-0.0471580097008474));
#443=CARTESIAN_POINT('',(-1.64468692659903,-0.178880568841064,-0.0464968720607545));
#444=CARTESIAN_POINT('',(-1.64466752595066,-0.178893627381167,-0.0458049171763034));
#445=CARTESIAN_POINT('',(-1.6447940168803,-0.178945446395642,-0.0451299768579606));
#446=CARTESIAN_POINT('',(-1.64493418093754,-0.179002866823585,-0.0443820783826828));
#447=CARTESIAN_POINT('',(-1.64525221401857,-0.179107095565499,-0.0436579886448581));
#448=CARTESIAN_POINT('',(-1.64568461359791,-0.179229237555683,-0.0430079887830105));
#449=CARTESIAN_POINT('',(-1.64591594856118,-0.179294583856103,-0.0426602370705824));
#450=CARTESIAN_POINT('',(-1.64617936129111,-0.179364767621394,-0.0423331495466255));
#451=CARTESIAN_POINT('',(-1.64646063719452,-0.179434365982762,-0.0420321338493036));
#452=CARTESIAN_POINT('',(-1.6466521212036,-0.17948174641279,-0.0418272115938946));
#453=CARTESIAN_POINT('',(-1.64685181530933,-0.179528844405736,-0.041634334651963));
#454=CARTESIAN_POINT('',(-1.6470547608012,-0.179574122214826,-0.0414545713974354));
#455=CARTESIAN_POINT('',(-1.64724771517003,-0.179617170971389,-0.0412836579910938));
#456=CARTESIAN_POINT('',(-1.64745030729992,-0.179660113948104,-0.0411185457308835));
#457=CARTESIAN_POINT('',(-1.64766310271119,-0.179702256832223,-0.0409589649192499));
#458=CARTESIAN_POINT('',(-1.64852382046737,-0.179872716939618,-0.040313490295064));
#459=CARTESIAN_POINT('',(-1.64954185717306,-0.180027059220405,-0.0397714674524978));
#460=CARTESIAN_POINT('',(-1.65059988481038,-0.18008557765807,-0.0394036480333129));
#461=CARTESIAN_POINT('',(-1.65105603868832,-0.180110807067332,-0.0392450678143043));
#462=CARTESIAN_POINT('',(-1.65151936241302,-0.180118285618898,-0.0391184890818854));
#463=CARTESIAN_POINT('',(-1.65197925055821,-0.180104088965653,-0.0390277661032244));
#464=DRAUGHTING_PRE_DEFINED_CURVE_FONT('continuous');
#465=COLOUR_RGB('',0.0,0.0,0.0);
#466=CARTESIAN_POINT('',(-1.65199949464402,-0.177722031703075,-0.0390006738670743));
#467=CARTESIAN_POINT('',(-1.65197925053647,-0.180104088483714,-0.0390277660759736));
#468=CARTESIAN_POINT('',(-1.65202430271113,-0.179312859754584,-0.0389672607214483));
#469=CARTESIAN_POINT('',(-1.65202590267109,-0.178515610570728,-0.0389654569813689));
#470=CARTESIAN_POINT('',(-1.65194649995318,-0.176129505813741,-0.0390713458626533));
#471=CARTESIAN_POINT('',(-1.65178482216262,-0.174550220285782,-0.0392861895704933));
#472=CARTESIAN_POINT('',(-1.65138520981695,-0.171448549094877,-0.039908618324255));
#473=CARTESIAN_POINT('',(-1.6511435709296,-0.16992068664267,-0.0403185221785482));
#474=CARTESIAN_POINT('',(-1.65071327574214,-0.167329382001323,-0.0412643510500534));
#475=CARTESIAN_POINT('',(-1.65052485416469,-0.166242952815074,-0.0417404806519971));
#476=CARTESIAN_POINT('',(-1.65024479337692,-0.164554146342599,-0.042760582548207));
#477=CARTESIAN_POINT('',(-1.65014039836481,-0.163905450129783,-0.0432294589455315));
#478=CARTESIAN_POINT('',(-1.65003566956655,-0.163098413331525,-0.0441062667957886));
#479=CARTESIAN_POINT('',(-1.65000983493683,-0.16285784344619,-0.0444299619434453));
#480=CARTESIAN_POINT('',(-1.64999465449391,-0.1625053896318,-0.0451462963018575));
#481=CARTESIAN_POINT('',(-1.65000669168781,-0.162398398878705,-0.0455408754404289));
#482=CARTESIAN_POINT('',(-1.65008140496556,-0.162395757240029,-0.0463342525856713));
#483=CARTESIAN_POINT('',(-1.65014349223916,-0.162500581737382,-0.0467256548292352));
#484=CARTESIAN_POINT('',(-1.65032967525353,-0.162936386105893,-0.0476027362805703));
#485=CARTESIAN_POINT('',(-1.65046645912864,-0.163339810884517,-0.0480455564095561));
#486=CARTESIAN_POINT('',(-1.65083620949274,-0.164523994370376,-0.0490595548376232));
#487=CARTESIAN_POINT('',(-1.65107396527825,-0.165377390248331,-0.0495323233229914));
#488=CARTESIAN_POINT('',(-1.65167055351593,-0.16766791813596,-0.0505833153901284));
#489=CARTESIAN_POINT('',(-1.65202038036475,-0.169164174903266,-0.0510460403266398));
#490=CARTESIAN_POINT('',(-1.65263407909098,-0.172207304720516,-0.0517802758009266));
#491=CARTESIAN_POINT('',(-1.65290108244859,-0.1737616808947,-0.0520475119789062));
#492=CARTESIAN_POINT('',(-1.65317086405445,-0.176124407060348,-0.0523060534092322));
#493=CARTESIAN_POINT('',(-1.65330605789451,-0.177710669709712,-0.0524291895906143));
#494=CARTESIAN_POINT('',(-1.65330257544009,-0.179310021364393,-0.0524263204517589));
#495=CARTESIAN_POINT('',(-1.65324674029396,-0.180104088583117,-0.0523751937834057));
#496=DRAUGHTING_PRE_DEFINED_CURVE_FONT('continuous');
#497=COLOUR_RGB('',0.0,0.0,0.0);
#498=CARTESIAN_POINT('',(-1.65269620068598,-0.180574443136068,-0.038169588915698));
#499=CARTESIAN_POINT('',(-1.65268194941174,-0.178769360294197,-0.038184859826289));
#500=CARTESIAN_POINT('',(-1.65411240649708,-0.180574437319446,-0.0530830837397856));
#501=CARTESIAN_POINT('',(-1.65413002974588,-0.180081465632062,-0.053095920242351));
#502=CARTESIAN_POINT('',(-1.65413052850738,-0.179587500592567,-0.0530962100217927));
#503=CARTESIAN_POINT('',(-1.65411675883804,-0.179093872761927,-0.053086305007499));
#504=CARTESIAN_POINT('',(-1.65404981711426,-0.177813621298696,-0.0530376236087224));
#505=CARTESIAN_POINT('',(-1.65391338398491,-0.176541367712707,-0.0529354539513176));
#506=CARTESIAN_POINT('',(-1.65381021093833,-0.175763343415426,-0.0528560580015081));
#507=CARTESIAN_POINT('',(-1.65354434442485,-0.174028784971202,-0.052643048459504));
#508=CARTESIAN_POINT('',(-1.65321500178307,-0.17231619668168,-0.0523524418651735));
#509=CARTESIAN_POINT('',(-1.65301883591283,-0.171376921867123,-0.0521683054379947));
#510=CARTESIAN_POINT('',(-1.65271197226707,-0.17000023038253,-0.0518587542093448));
#511=CARTESIAN_POINT('',(-1.65238483696111,-0.168645097655371,-0.0514845010432641));
#512=CARTESIAN_POINT('',(-1.65227746413316,-0.168210559688581,-0.051356602751985));
#513=CARTESIAN_POINT('',(-1.6520057562276,-0.167134845121725,-0.0510184323060712));
#514=CARTESIAN_POINT('',(-1.65172486541279,-0.166079793711689,-0.0506260089741176));
#515=CARTESIAN_POINT('',(-1.65155465482082,-0.165459478610724,-0.0503693516573701));
#516=CARTESIAN_POINT('',(-1.65126601070671,-0.164439264902114,-0.0498948236234783));
#517=CARTESIAN_POINT('',(-1.65097583627361,-0.163473418409695,-0.0493206136920192));
#518=CARTESIAN_POINT('',(-1.65085988789228,-0.163097952641302,-0.0490719005039307));
#519=CARTESIAN_POINT('',(-1.65066179351199,-0.162477110385487,-0.0486048558809217));
#520=CARTESIAN_POINT('',(-1.65047240633224,-0.161929688726373,-0.0480524219738343));
#521=CARTESIAN_POINT('',(-1.6503952925603,-0.161716709075957,-0.0478035938647749));
#522=CARTESIAN_POINT('',(-1.65027686322505,-0.161410488379321,-0.0473688672308483));
#523=CARTESIAN_POINT('',(-1.6501758580609,-0.161193908192591,-0.0468819608322488));
#524=CARTESIAN_POINT('',(-1.65014041858316,-0.161126670856826,-0.046688053142244));
#525=CARTESIAN_POINT('',(-1.65007479098542,-0.161025272135705,-0.0462675081568411));
#526=CARTESIAN_POINT('',(-1.65003065167764,-0.161014381584314,-0.0458318326181272));
#527=CARTESIAN_POINT('',(-1.65001436280719,-0.161035644133307,-0.0456034951386498));
#528=CARTESIAN_POINT('',(-1.64999257517313,-0.16114146059516,-0.0450915628094675));
#529=CARTESIAN_POINT('',(-1.65000221550215,-0.161358939106238,-0.0446139084372023));
#530=CARTESIAN_POINT('',(-1.65001606545123,-0.161509320321934,-0.0443600417449889));
#531=CARTESIAN_POINT('',(-1.65006294926753,-0.161906343459953,-0.0438015035912392));
#532=CARTESIAN_POINT('',(-1.65013720717626,-0.162388108756583,-0.0433155852496638));
#533=CARTESIAN_POINT('',(-1.6501856784698,-0.162681601014177,-0.0430574674298043));
#534=CARTESIAN_POINT('',(-1.65031654206898,-0.163440095452128,-0.0424605860038109));
#535=CARTESIAN_POINT('',(-1.65046796966318,-0.164259471498103,-0.0419538732357928));
#536=CARTESIAN_POINT('',(-1.65056205517677,-0.164759103908309,-0.0416769689460898));
#537=CARTESIAN_POINT('',(-1.65072471859224,-0.165614200760821,-0.0412466312988372));
#538=CARTESIAN_POINT('',(-1.6508924142019,-0.166491135411211,-0.0408656731203129));
#539=CARTESIAN_POINT('',(-1.65096041667902,-0.166847021393722,-0.0407194722626681));
#540=CARTESIAN_POINT('',(-1.65111166414211,-0.167641030725561,-0.040410072703359));
#541=CARTESIAN_POINT('',(-1.65126320012353,-0.168446014496927,-0.0401304458894915));
#542=CARTESIAN_POINT('',(-1.65134613413857,-0.168890912910503,-0.0399849992350174));
#543=CARTESIAN_POINT('',(-1.65159996382022,-0.170270454388778,-0.039559819102052));
#544=CARTESIAN_POINT('',(-1.65184467253417,-0.171671417441131,-0.039202636546942));
#545=CARTESIAN_POINT('',(-1.65200255416603,-0.172624563559841,-0.0389889719053592));
#546=CARTESIAN_POINT('',(-1.65227729901512,-0.174414286706052,-0.0386398148957374));
#547=CARTESIAN_POINT('',(-1.65249612184624,-0.176227586442804,-0.0383876559067737));
#548=CARTESIAN_POINT('',(-1.6525816319199,-0.177070185204792,-0.0382930735899485));
#549=CARTESIAN_POINT('',(-1.65264659735121,-0.177918437262082,-0.0382228206254216));
#550=CARTESIAN_POINT('',(-1.65268194941172,-0.178769360294209,-0.038184859826289));
#551=CARTESIAN_POINT('',(-1.65269692622763,-0.179129851802207,-0.0381687778244972));
#552=CARTESIAN_POINT('',(-1.65270665376381,-0.179490896110437,-0.0381583665306364));
#553=CARTESIAN_POINT('',(-1.65271031801945,-0.179852202948783,-0.038154469146615));
#554=CARTESIAN_POINT('',(-1.65270710499377,-0.180213482047306,-0.0381579288743349));
#555=CARTESIAN_POINT('',(-1.65269620068598,-0.180574443136068,-0.038169588915698));
#556=DRAUGHTING_PRE_DEFINED_CURVE_FONT('continuous');
#557=COLOUR_RGB('',0.0,0.0,0.0);
#558=CARTESIAN_POINT('',(-1.65269619989218,-0.180574445052296,-0.0381695890885422));
#559=CARTESIAN_POINT('',(-1.65160364798795,-0.180641912258822,-0.038322402311192));
#560=CARTESIAN_POINT('',(-1.65053384272479,-0.180573571055541,-0.0386498696789877));
#561=CARTESIAN_POINT('',(-1.64853002839774,-0.180307613418093,-0.0395437972790775));
#562=CARTESIAN_POINT('',(-1.64759059036095,-0.18011024185222,-0.0401120538446032));
#563=CARTESIAN_POINT('',(-1.64591489923624,-0.179691691557267,-0.0414910897139214));
#564=CARTESIAN_POINT('',(-1.64517344614215,-0.179467765988541,-0.0423063267964553));
#565=CARTESIAN_POINT('',(-1.64424092989091,-0.179154557308571,-0.0439728913390056));
#566=CARTESIAN_POINT('',(-1.64396540798278,-0.179047587085793,-0.0447674542808567));
#567=CARTESIAN_POINT('',(-1.64381532663888,-0.17895407413272,-0.0464140169285796));
#568=CARTESIAN_POINT('',(-1.64394953170518,-0.178971043003996,-0.0472567170517601));
#569=CARTESIAN_POINT('',(-1.64447643160713,-0.179094036047624,-0.0485254173009709));
#570=CARTESIAN_POINT('',(-1.64476331432417,-0.179166650732086,-0.0489977620662264));
#571=CARTESIAN_POINT('',(-1.64577437254981,-0.179424129961412,-0.0502828170148624));
#572=CARTESIAN_POINT('',(-1.64663930783662,-0.17964590418339,-0.0509656498138882));
#573=CARTESIAN_POINT('',(-1.64851810059455,-0.180066804458183,-0.0520431507373286));
#574=CARTESIAN_POINT('',(-1.64953808511575,-0.180268688080925,-0.0524419916574822));
#575=CARTESIAN_POINT('',(-1.65165837152131,-0.18055255262978,-0.0529807291630095));
#576=CARTESIAN_POINT('',(-1.65284754249651,-0.180640997475891,-0.0531322811574882));
#577=CARTESIAN_POINT('',(-1.65403053166412,-0.180579458578485,-0.0530872125844312));
#578=CARTESIAN_POINT('',(-1.65411241132266,-0.180574444694014,-0.0530830832690488));
#579=DRAUGHTING_PRE_DEFINED_CURVE_FONT('continuous');
#580=COLOUR_RGB('',0.0,0.0,0.0);
#581=CARTESIAN_POINT('',(-1.53705066073003,-0.00131590786932158,-0.0641855785331557));
#582=CARTESIAN_POINT('',(-1.53640698882889,-0.0138888247809431,-0.0573334955915927));
#583=CARTESIAN_POINT('',(-1.53705066073003,-0.00131590786932155,-0.0641855785331557));
#584=CARTESIAN_POINT('',(-1.53704751376146,-0.00220184875567983,-0.0641472354737481));
#585=CARTESIAN_POINT('',(-1.53702911836469,-0.00433044641824013,-0.0639410163882326));
#586=CARTESIAN_POINT('',(-1.53695702552544,-0.0076346016461657,-0.0631624359769074));
#587=CARTESIAN_POINT('',(-1.53683261731765,-0.0104899425401075,-0.0618355806938464));
#588=CARTESIAN_POINT('',(-1.53668346323839,-0.0124322453607575,-0.0602534888576572));
#589=CARTESIAN_POINT('',(-1.53655191384535,-0.0134795965738057,-0.0588620457150143));
#590=CARTESIAN_POINT('',(-1.53645147268261,-0.0138205036579387,-0.0578023382725393));
#591=CARTESIAN_POINT('',(-1.53640698882889,-0.0138888247809431,-0.0573334955915926));
#592=DRAUGHTING_PRE_DEFINED_CURVE_FONT('continuous');
#593=COLOUR_RGB('',0.0,0.0,0.0);
#594=CARTESIAN_POINT('',(-1.53634235247301,-0.000228903244347298,-0.0492325824039376));
#595=CARTESIAN_POINT('',(-1.53640698882889,-0.0138888247809431,-0.0573334955915926));
#596=CARTESIAN_POINT('',(-1.536393183704,-0.0139100275670576,-0.05718799489359));
#597=CARTESIAN_POINT('',(-1.53632058199495,-0.0139809015684775,-0.0564230395107121));
#598=CARTESIAN_POINT('',(-1.53618755609367,-0.0137063028654746,-0.0550238110385002));
#599=CARTESIAN_POINT('',(-1.53603790713219,-0.0126457922720488,-0.0534541432494535));
#600=CARTESIAN_POINT('',(-1.53591977968765,-0.0112303427020257,-0.0522184848790701));
#601=CARTESIAN_POINT('',(-1.53582745925922,-0.00961965137077811,-0.0512558540665982));
#602=CARTESIAN_POINT('',(-1.53575638466725,-0.00789593994309599,-0.0505170889696233));
#603=CARTESIAN_POINT('',(-1.5357118745386,-0.00640254796222772,-0.0500584483658718));
#604=CARTESIAN_POINT('',(-1.5356844252129,-0.00518652470343454,-0.0497743182966881));
#605=CARTESIAN_POINT('',(-1.53566703072295,-0.00426613620842194,-0.0496005466780449));
#606=CARTESIAN_POINT('',(-1.53565421315127,-0.0033394219319802,-0.04946446093806));
#607=CARTESIAN_POINT('',(-1.53564602324976,-0.0025632552704812,-0.0493814908672486));
#608=CARTESIAN_POINT('',(-1.5356374756991,-0.00194064272961229,-0.0493332743663588));
#609=CARTESIAN_POINT('',(-1.53564248524681,-0.00147338603383631,-0.049304871191039));
#610=CARTESIAN_POINT('',(-1.53563134318633,-0.00108327817266581,-0.0492903735557098));
#611=CARTESIAN_POINT('',(-1.53563789616713,-0.000771175384428414,-0.0492811366950477));
#612=CARTESIAN_POINT('',(-1.53565331824406,-0.000538781936054483,-0.0492759641742176));
#613=CARTESIAN_POINT('',(-1.53556499920202,-0.000341895358907568,-0.0492827976726849));
#614=CARTESIAN_POINT('',(-1.53565507913785,-0.000196825930441369,-0.0492742020925025));
#615=CARTESIAN_POINT('',(-1.53582555923179,-0.000239336695786833,-0.0492593614401311));
#616=CARTESIAN_POINT('',(-1.53601214472527,-0.000230214239780908,-0.0492462167678466));
#617=CARTESIAN_POINT('',(-1.53620144229082,-0.000228527473702789,-0.0492370880706157));
#618=CARTESIAN_POINT('',(-1.53631107149592,-0.000228769628778823,-0.0492334754149465));
#619=CARTESIAN_POINT('',(-1.53634235247301,-0.000228903244347283,-0.0492325824039376));
#620=DRAUGHTING_PRE_DEFINED_CURVE_FONT('continuous');
#621=COLOUR_RGB('',0.0,0.0,0.0);
#622=CARTESIAN_POINT('',(-1.54528667243947,-0.000225341486099556,-0.0564901295530742));
#623=CARTESIAN_POINT('',(-1.53634235247301,-0.000228903244347283,-0.0492325824039376));
#624=CARTESIAN_POINT('',(-1.53646743293633,-0.000229437521047247,-0.0492290116001732));
#625=CARTESIAN_POINT('',(-1.53674715269073,-0.000232957097645512,-0.0492259914130943));
#626=CARTESIAN_POINT('',(-1.53734132450061,-0.000226987999243055,-0.049243108633323));
#627=CARTESIAN_POINT('',(-1.53811860603662,-0.000229901590869369,-0.0493174169402802));
#628=CARTESIAN_POINT('',(-1.53934759552891,-0.000227637316916289,-0.0495483301657825));
#629=CARTESIAN_POINT('',(-1.54083359663597,-0.000227680126531977,-0.0500498072660695));
#630=CARTESIAN_POINT('',(-1.54246143691847,-0.000226557051672564,-0.0509996747322826));
#631=CARTESIAN_POINT('',(-1.54383358369247,-0.000225940425586012,-0.0522943952479901));
#632=CARTESIAN_POINT('',(-1.54497189966608,-0.000225386321283675,-0.0541134036694273));
#633=CARTESIAN_POINT('',(-1.54528299481495,-0.000225295786315894,-0.0556153420340074));
#634=CARTESIAN_POINT('',(-1.54528667243947,-0.000225341486099557,-0.0564901295530742));
#635=DRAUGHTING_PRE_DEFINED_CURVE_FONT('continuous');
#636=COLOUR_RGB('',0.0,0.0,0.0);
#637=CARTESIAN_POINT('',(-1.54484457689069,-0.000913306101866866,-0.0565324524537755));
#638=CARTESIAN_POINT('',(-1.54484457689069,-0.000913306101867051,-0.0565324524537755));
#639=CARTESIAN_POINT('',(-1.5448493986445,-0.000905888441746085,-0.0556220333448167));
#640=CARTESIAN_POINT('',(-1.54463984896157,-0.000914881329447152,-0.0547128146349936));
#641=CARTESIAN_POINT('',(-1.54385278386772,-0.000970604800101451,-0.0530718364530089));
#642=CARTESIAN_POINT('',(-1.54327969241423,-0.00101622427099282,-0.0523416499192892));
#643=CARTESIAN_POINT('',(-1.54191736089487,-0.00117849537383573,-0.0511443649272532));
#644=CARTESIAN_POINT('',(-1.54112617174927,-0.0012882579781645,-0.0506737920624454));
#645=CARTESIAN_POINT('',(-1.53989565345088,-0.00162124343515053,-0.0501824313219774));
#646=CARTESIAN_POINT('',(-1.53947767334145,-0.00176232370850158,-0.050054426584472));
#647=CARTESIAN_POINT('',(-1.53867973837402,-0.00216408663636757,-0.0498786746259037));
#648=CARTESIAN_POINT('',(-1.53830285689888,-0.00243075301546034,-0.0498325054690214));
#649=CARTESIAN_POINT('',(-1.53799647082433,-0.00276739447373869,-0.0498265549963233));
#650=DRAUGHTING_PRE_DEFINED_CURVE_FONT('continuous');
#651=COLOUR_RGB('',0.0,0.0,0.0);
#652=CARTESIAN_POINT('',(-1.53863335553242,-0.00374478901405389,-0.0632842054202954));
#653=CARTESIAN_POINT('',(-1.53882871899506,-0.00333465613997798,-0.0632964903184741));
#654=CARTESIAN_POINT('',(-1.53908270474985,-0.00294769450497772,-0.0632718363811668));
#655=CARTESIAN_POINT('',(-1.53971250210518,-0.00231278223481035,-0.0631167799586111));
#656=CARTESIAN_POINT('',(-1.54008314839666,-0.00206817470957127,-0.0629864981159375));
#657=CARTESIAN_POINT('',(-1.54083849616947,-0.00169910280050916,-0.0626407123136678));
#658=CARTESIAN_POINT('',(-1.54160566734181,-0.00143935666690501,-0.0622126902793603));
#659=CARTESIAN_POINT('',(-1.54301550853434,-0.00113849390397906,-0.0610936967000238));
#660=CARTESIAN_POINT('',(-1.54384737412128,-0.00103770283085932,-0.0599873647456475));
#661=CARTESIAN_POINT('',(-1.54462252597984,-0.000944225544388253,-0.0583457311487574));
#662=CARTESIAN_POINT('',(-1.54483976338667,-0.000920711070754198,-0.0574413138837979));
#663=CARTESIAN_POINT('',(-1.54484457689069,-0.000913306101867051,-0.0565324524537755));
#664=DRAUGHTING_PRE_DEFINED_CURVE_FONT('continuous');
#665=COLOUR_RGB('',0.0,0.0,0.0);
#666=CARTESIAN_POINT('',(-1.5370522814777,-0.000230297552130634,-0.0642090217441127));
#667=CARTESIAN_POINT('',(-1.5370522814777,-0.000230297552130634,-0.0642090217441127));
#668=CARTESIAN_POINT('',(-1.53705248151983,-0.000592261025601802,-0.0642090027478409));
#669=CARTESIAN_POINT('',(-1.53705194536363,-0.00095425524766419,-0.0642012306699637));
#670=CARTESIAN_POINT('',(-1.53705066073003,-0.00131590786932155,-0.0641855785331557));
#671=DRAUGHTING_PRE_DEFINED_CURVE_FONT('continuous');
#672=COLOUR_RGB('',0.0,0.0,0.0);
#673=CARTESIAN_POINT('',(-1.54528667243947,-0.000225341486099557,-0.0564901295530742));
#674=CARTESIAN_POINT('',(-1.54528824044879,-0.000225360970874736,-0.0568631080832235));
#675=CARTESIAN_POINT('',(-1.54515451501951,-0.000225523485373856,-0.0584823458893157));
#676=CARTESIAN_POINT('',(-1.54381091238396,-0.000226399685746138,-0.0611396246072629));
#677=CARTESIAN_POINT('',(-1.54074192774865,-0.00022821744437735,-0.0634205295488678));
#678=CARTESIAN_POINT('',(-1.53829535510402,-0.000229604362022004,-0.0640909777934968));
#679=CARTESIAN_POINT('',(-1.5370522814777,-0.000230297552130636,-0.0642090217441127));
#680=DRAUGHTING_PRE_DEFINED_CURVE_FONT('continuous');
#681=COLOUR_RGB('',0.0,0.0,0.0);
#682=CARTESIAN_POINT('',(-1.65411240649708,-0.180574437319446,-0.0530830837397856));
#683=CARTESIAN_POINT('',(-1.65413002974588,-0.180081465632062,-0.053095920242351));
#684=CARTESIAN_POINT('',(-1.65413052850738,-0.179587500592567,-0.0530962100217927));
#685=CARTESIAN_POINT('',(-1.65411675883804,-0.179093872761927,-0.053086305007499));
#686=CARTESIAN_POINT('',(-1.65404981711426,-0.177813621298696,-0.0530376236087224));
#687=CARTESIAN_POINT('',(-1.65391338398491,-0.176541367712707,-0.0529354539513176));
#688=CARTESIAN_POINT('',(-1.65381021093833,-0.175763343415426,-0.0528560580015081));
#689=CARTESIAN_POINT('',(-1.65354434442485,-0.174028784971202,-0.052643048459504));
#690=CARTESIAN_POINT('',(-1.65321500178307,-0.17231619668168,-0.0523524418651735));
#691=CARTESIAN_POINT('',(-1.65301883591283,-0.171376921867123,-0.0521683054379947));
#692=CARTESIAN_POINT('',(-1.65271197226707,-0.17000023038253,-0.0518587542093448));
#693=CARTESIAN_POINT('',(-1.65238483696111,-0.168645097655371,-0.0514845010432641));
#694=CARTESIAN_POINT('',(-1.65227746413316,-0.168210559688581,-0.051356602751985));
#695=CARTESIAN_POINT('',(-1.6520057562276,-0.167134845121725,-0.0510184323060712));
#696=CARTESIAN_POINT('',(-1.65172486541279,-0.166079793711689,-0.0506260089741176));
#697=CARTESIAN_POINT('',(-1.65155465482082,-0.165459478610724,-0.0503693516573701));
#698=CARTESIAN_POINT('',(-1.65126601070671,-0.164439264902114,-0.0498948236234783));
#699=CARTESIAN_POINT('',(-1.65097583627361,-0.163473418409695,-0.0493206136920192));
#700=CARTESIAN_POINT('',(-1.65085988789228,-0.163097952641302,-0.0490719005039307));
#701=CARTESIAN_POINT('',(-1.65066179351199,-0.162477110385487,-0.0486048558809217));
#702=CARTESIAN_POINT('',(-1.65047240633224,-0.161929688726373,-0.0480524219738343));
#703=CARTESIAN_POINT('',(-1.6503952925603,-0.161716709075957,-0.0478035938647749));
#704=CARTESIAN_POINT('',(-1.65027686322505,-0.161410488379321,-0.0473688672308483));
#705=CARTESIAN_POINT('',(-1.6501758580609,-0.161193908192591,-0.0468819608322488));
#706=CARTESIAN_POINT('',(-1.65014041858316,-0.161126670856826,-0.046688053142244));
#707=CARTESIAN_POINT('',(-1.65007479098542,-0.161025272135705,-0.0462675081568411));
#708=CARTESIAN_POINT('',(-1.65003065167764,-0.161014381584314,-0.0458318326181272));
#709=CARTESIAN_POINT('',(-1.65001436280719,-0.161035644133307,-0.0456034951386498));
#710=CARTESIAN_POINT('',(-1.64999257517313,-0.16114146059516,-0.0450915628094675));
#711=CARTESIAN_POINT('',(-1.65000221550215,-0.161358939106238,-0.0446139084372023));
#712=CARTESIAN_POINT('',(-1.65001606545123,-0.161509320321934,-0.0443600417449889));
#713=CARTESIAN_POINT('',(-1.65006294926753,-0.161906343459953,-0.0438015035912392));
#714=CARTESIAN_POINT('',(-1.65013720717626,-0.162388108756583,-0.0433155852496638));
#715=CARTESIAN_POINT('',(-1.6501856784698,-0.162681601014177,-0.0430574674298043));
#716=CARTESIAN_POINT('',(-1.65031654206898,-0.163440095452128,-0.0424605860038109));
#717=CARTESIAN_POINT('',(-1.65046796966318,-0.164259471498103,-0.0419538732357928));
#718=CARTESIAN_POINT('',(-1.65056205517677,-0.164759103908309,-0.0416769689460898));
#719=CARTESIAN_POINT('',(-1.65072471859224,-0.165614200760821,-0.0412466312988372));
#720=CARTESIAN_POINT('',(-1.6508924142019,-0.166491135411211,-0.0408656731203129));
#721=CARTESIAN_POINT('',(-1.65096041667902,-0.166847021393722,-0.0407194722626681));
#722=CARTESIAN_POINT('',(-1.65111166414211,-0.167641030725561,-0.040410072703359));
#723=CARTESIAN_POINT('',(-1.65126320012353,-0.168446014496927,-0.0401304458894915));
#724=CARTESIAN_POINT('',(-1.65134613413857,-0.168890912910503,-0.0399849992350174));
#725=CARTESIAN_POINT('',(-1.65159996382022,-0.170270454388778,-0.039559819102052));
#726=CARTESIAN_POINT('',(-1.65184467253417,-0.171671417441131,-0.039202636546942));
#727=CARTESIAN_POINT('',(-1.65200255416603,-0.172624563559841,-0.0389889719053592));
#728=CARTESIAN_POINT('',(-1.65227729901512,-0.174414286706052,-0.0386398148957374));
#729=CARTESIAN_POINT('',(-1.65249612184624,-0.176227586442804,-0.0383876559067737));
#730=CARTESIAN_POINT('',(-1.6525816319199,-0.177070185204792,-0.0382930735899485));
#731=CARTESIAN_POINT('',(-1.65264659735121,-0.177918437262082,-0.0382228206254216));
#732=CARTESIAN_POINT('',(-1.65268194941172,-0.178769360294209,-0.038184859826289));
#733=CARTESIAN_POINT('',(-1.65269692622763,-0.179129851802207,-0.0381687778244972));
#734=CARTESIAN_POINT('',(-1.65270665376381,-0.179490896110437,-0.0381583665306364));
#735=CARTESIAN_POINT('',(-1.65271031801945,-0.179852202948783,-0.038154469146615));
#736=CARTESIAN_POINT('',(-1.65270710499377,-0.180213482047306,-0.0381579288743349));
#737=CARTESIAN_POINT('',(-1.65269620068598,-0.180574443136068,-0.038169588915698));
#738=DRAUGHTING_PRE_DEFINED_CURVE_FONT('continuous');
#739=COLOUR_RGB('',0.0,0.0,0.0);
#740=CARTESIAN_POINT('',(-1.65197925053647,-0.180104088483714,-0.0390277660759736));
#741=CARTESIAN_POINT('',(-1.65202430271113,-0.179312859754584,-0.0389672607214483));
#742=CARTESIAN_POINT('',(-1.65202590267109,-0.178515610570728,-0.0389654569813689));
#743=CARTESIAN_POINT('',(-1.65194649995318,-0.176129505813741,-0.0390713458626533));
#744=CARTESIAN_POINT('',(-1.65178482216262,-0.174550220285782,-0.0392861895704933));
#745=CARTESIAN_POINT('',(-1.65138520981695,-0.171448549094877,-0.039908618324255));
#746=CARTESIAN_POINT('',(-1.6511435709296,-0.16992068664267,-0.0403185221785482));
#747=CARTESIAN_POINT('',(-1.65071327574214,-0.167329382001323,-0.0412643510500534));
#748=CARTESIAN_POINT('',(-1.65052485416469,-0.166242952815074,-0.0417404806519971));
#749=CARTESIAN_POINT('',(-1.65024479337692,-0.164554146342599,-0.042760582548207));
#750=CARTESIAN_POINT('',(-1.65014039836481,-0.163905450129783,-0.0432294589455315));
#751=CARTESIAN_POINT('',(-1.65003566956655,-0.163098413331525,-0.0441062667957886));
#752=CARTESIAN_POINT('',(-1.65000983493683,-0.16285784344619,-0.0444299619434453));
#753=CARTESIAN_POINT('',(-1.64999465449391,-0.1625053896318,-0.0451462963018575));
#754=CARTESIAN_POINT('',(-1.65000669168781,-0.162398398878705,-0.0455408754404289));
#755=CARTESIAN_POINT('',(-1.65008140496556,-0.162395757240029,-0.0463342525856713));
#756=CARTESIAN_POINT('',(-1.65014349223916,-0.162500581737382,-0.0467256548292352));
#757=CARTESIAN_POINT('',(-1.65032967525353,-0.162936386105893,-0.0476027362805703));
#758=CARTESIAN_POINT('',(-1.65046645912864,-0.163339810884517,-0.0480455564095561));
#759=CARTESIAN_POINT('',(-1.65083620949274,-0.164523994370376,-0.0490595548376232));
#760=CARTESIAN_POINT('',(-1.65107396527825,-0.165377390248331,-0.0495323233229914));
#761=CARTESIAN_POINT('',(-1.65167055351593,-0.16766791813596,-0.0505833153901284));
#762=CARTESIAN_POINT('',(-1.65202038036475,-0.169164174903266,-0.0510460403266398));
#763=CARTESIAN_POINT('',(-1.65263407909098,-0.172207304720516,-0.0517802758009266));
#764=CARTESIAN_POINT('',(-1.65290108244859,-0.1737616808947,-0.0520475119789062));
#765=CARTESIAN_POINT('',(-1.65317086405445,-0.176124407060348,-0.0523060534092322));
#766=CARTESIAN_POINT('',(-1.65330605789451,-0.177710669709712,-0.0524291895906143));
#767=CARTESIAN_POINT('',(-1.65330257544009,-0.179310021364393,-0.0524263204517589));
#768=CARTESIAN_POINT('',(-1.65324674029396,-0.180104088583117,-0.0523751937834057));
#769=DRAUGHTING_PRE_DEFINED_CURVE_FONT('continuous');
#770=COLOUR_RGB('',0.0,0.0,0.0);
#771=CARTESIAN_POINT('',(-1.65269620124088,-0.180574443483201,-0.038169588322341));
#772=CARTESIAN_POINT('',(-1.65244208336149,-0.180415473195509,-0.0384413180422733));
#773=CARTESIAN_POINT('',(-1.65220279194039,-0.180257632941492,-0.0387275485162399));
#774=CARTESIAN_POINT('',(-1.65197925069714,-0.18010408859345,-0.0390277658601954));
#775=SURFACE_SIDE_STYLE('',(#869));
#777=SURFACE_STYLE_FILL_AREA(#870);
#778=ORIENTED_EDGE('',*,*,#871,.F.);
#779=ORIENTED_EDGE('',*,*,#73,.T.);
#780=ORIENTED_EDGE('',*,*,#75,.F.);
#781=ORIENTED_EDGE('',*,*,#77,.F.);
#782=ORIENTED_EDGE('',*,*,#79,.F.);
#783=CARTESIAN_POINT('',(-1.5942758172026,-0.196241257174084,-0.0512412571740836));
#784=DIRECTION('',(-0.991102514324759,0.0941164334724288,0.0941164334724288));
#785=DIRECTION('',(-0.0945360604220661,-0.995521437880609,-1.63265986619832E-018));
#786=SURFACE_STYLE_FILL_AREA(#872);
#787=ORIENTED_EDGE('',*,*,#873,.F.);
#788=ORIENTED_EDGE('',*,*,#81,.F.);
#789=ORIENTED_EDGE('',*,*,#83,.F.);
#790=ORIENTED_EDGE('',*,*,#874,.F.);
#791=ORIENTED_EDGE('',*,*,#85,.T.);
#792=ORIENTED_EDGE('',*,*,#73,.F.);
#793=ORIENTED_EDGE('',*,*,#87,.F.);
#794=ORIENTED_EDGE('',*,*,#89,.T.);
#795=CARTESIAN_POINT('',(-1.59817163051227,-0.0951151487760653,-0.050871305480004));
#796=DIRECTION('',(-0.54520687501271,-0.836701236834547,0.0517735812786273));
#797=DIRECTION('',(0.0282652203914532,0.0433771948682392,0.998658848797519));
#798=SURFACE_STYLE_FILL_AREA(#875);
#799=ORIENTED_EDGE('',*,*,#876,.F.);
#800=ORIENTED_EDGE('',*,*,#91,.F.);
#801=ORIENTED_EDGE('',*,*,#93,.T.);
#802=ORIENTED_EDGE('',*,*,#79,.T.);
#803=ORIENTED_EDGE('',*,*,#877,.F.);
#804=ORIENTED_EDGE('',*,*,#95,.T.);
#805=ORIENTED_EDGE('',*,*,#97,.T.);
#806=CARTESIAN_POINT('',(-1.59817163051227,-0.0951151487760653,-0.050871305480004));
#807=DIRECTION('',(-0.54520687501271,-0.836701236834547,0.0517735812786273));
#808=DIRECTION('',(0.0282652203914532,0.0433771948682392,0.998658848797519));
#809=SURFACE_STYLE_FILL_AREA(#878);
#810=ORIENTED_EDGE('',*,*,#879,.F.);
#811=ORIENTED_EDGE('',*,*,#99,.F.);
#812=ORIENTED_EDGE('',*,*,#97,.F.);
#813=ORIENTED_EDGE('',*,*,#880,.F.);
#814=ORIENTED_EDGE('',*,*,#81,.T.);
#815=ORIENTED_EDGE('',*,*,#101,.T.);
#816=CARTESIAN_POINT('',(-1.5283675,-0.0125000000000002,-0.0575));
#817=DIRECTION('',(-0.544281719393915,0.837308781473176,0.0516857272514306));
#818=DIRECTION('',(0.838429426623047,0.545010180246708,-1.30113050344205E-016));
#819=SURFACE_STYLE_FILL_AREA(#881);
#820=ORIENTED_EDGE('',*,*,#879,.T.);
#821=ORIENTED_EDGE('',*,*,#103,.T.);
#822=ORIENTED_EDGE('',*,*,#83,.T.);
#823=ORIENTED_EDGE('',*,*,#880,.T.);
#824=ORIENTED_EDGE('',*,*,#95,.F.);
#825=ORIENTED_EDGE('',*,*,#105,.F.);
#826=ORIENTED_EDGE('',*,*,#107,.F.);
#827=CARTESIAN_POINT('',(-1.5283675,-0.0125000000000002,-0.0575));
#828=DIRECTION('',(-0.544281719393915,0.837308781473176,0.0516857272514306));
#829=DIRECTION('',(0.838429426623047,0.545010180246708,-1.30113050344205E-016));
#830=SURFACE_STYLE_FILL_AREA(#882);
#831=ORIENTED_EDGE('',*,*,#876,.T.);
#832=ORIENTED_EDGE('',*,*,#99,.T.);
#833=ORIENTED_EDGE('',*,*,#107,.T.);
#834=ORIENTED_EDGE('',*,*,#105,.T.);
#835=ORIENTED_EDGE('',*,*,#877,.T.);
#836=ORIENTED_EDGE('',*,*,#77,.T.);
#837=ORIENTED_EDGE('',*,*,#109,.F.);
#838=CARTESIAN_POINT('',(-1.59817163051227,-0.0951151487760653,-0.050871305480004));
#839=DIRECTION('',(-0.54520687501271,-0.836701236834547,0.0517735812786273));
#840=DIRECTION('',(0.0282652203914532,0.0433771948682392,0.998658848797519));
#841=SURFACE_STYLE_FILL_AREA(#883);
#842=ORIENTED_EDGE('',*,*,#873,.T.);
#843=ORIENTED_EDGE('',*,*,#111,.T.);
#844=ORIENTED_EDGE('',*,*,#874,.T.);
#845=ORIENTED_EDGE('',*,*,#103,.F.);
#846=ORIENTED_EDGE('',*,*,#101,.F.);
#847=CARTESIAN_POINT('',(-1.59817163051227,-0.0951151487760653,-0.050871305480004));
#848=DIRECTION('',(-0.54520687501271,-0.836701236834547,0.0517735812786273));
#849=DIRECTION('',(0.0282652203914532,0.0433771948682392,0.998658848797519));
#850=SURFACE_STYLE_FILL_AREA(#884);
#851=ORIENTED_EDGE('',*,*,#89,.F.);
#852=ORIENTED_EDGE('',*,*,#113,.F.);
#853=ORIENTED_EDGE('',*,*,#91,.T.);
#854=ORIENTED_EDGE('',*,*,#109,.T.);
#855=ORIENTED_EDGE('',*,*,#75,.T.);
#856=ORIENTED_EDGE('',*,*,#85,.F.);
#857=ORIENTED_EDGE('',*,*,#111,.F.);
#858=CARTESIAN_POINT('',(-1.66,0.0,-0.0450000000000002));
#859=DIRECTION('',(-0.0,1.0,0.0));
#860=DIRECTION('',(1.83697019872103E-016,0.0,1.0));
#861=SURFACE_STYLE_FILL_AREA(#885);
#862=ORIENTED_EDGE('',*,*,#871,.T.);
#863=ORIENTED_EDGE('',*,*,#93,.F.);
#864=ORIENTED_EDGE('',*,*,#113,.T.);
#865=ORIENTED_EDGE('',*,*,#87,.T.);
#866=CARTESIAN_POINT('',(-1.5942758172026,-0.196241257174084,-0.0512412571740836));
#867=DIRECTION('',(-0.991102514324759,0.0941164334724288,0.0941164334724288));
#868=DIRECTION('',(-0.0945360604220661,-0.995521437880609,-1.63265986619832E-018));
#869=SURFACE_STYLE_FILL_AREA(#886);
#870=FILL_AREA_STYLE('',(#887));
#871=EDGE_CURVE('',#160,#170,#888,.T.);
#872=FILL_AREA_STYLE('',(#889));
#873=EDGE_CURVE('',#174,#186,#890,.T.);
#874=EDGE_CURVE('',#180,#177,#891,.T.);
#875=FILL_AREA_STYLE('',(#892));
#876=EDGE_CURVE('',#190,#199,#893,.T.);
#877=EDGE_CURVE('',#195,#167,#894,.T.);
#878=FILL_AREA_STYLE('',(#895));
#879=EDGE_CURVE('',#202,#205,#896,.T.);
#880=EDGE_CURVE('',#173,#196,#897,.T.);
#881=FILL_AREA_STYLE('',(#898));
#882=FILL_AREA_STYLE('',(#899));
#883=FILL_AREA_STYLE('',(#900));
#884=FILL_AREA_STYLE('',(#901));
#885=FILL_AREA_STYLE('',(#902));
#886=FILL_AREA_STYLE('',(#903));
#887=FILL_AREA_STYLE_COLOUR('',#904);
#888=LINE('',#905,#906);
#889=FILL_AREA_STYLE_COLOUR('',#907);
#890=LINE('',#908,#909);
#891=LINE('',#910,#911);
#892=FILL_AREA_STYLE_COLOUR('',#912);
#893=LINE('',#913,#914);
#894=LINE('',#915,#916);
#895=FILL_AREA_STYLE_COLOUR('',#917);
#896=LINE('',#918,#919);
#897=LINE('',#920,#921);
#898=FILL_AREA_STYLE_COLOUR('',#922);
#899=FILL_AREA_STYLE_COLOUR('',#923);
#900=FILL_AREA_STYLE_COLOUR('',#924);
#901=FILL_AREA_STYLE_COLOUR('',#925);
#902=FILL_AREA_STYLE_COLOUR('',#926);
#903=FILL_AREA_STYLE_COLOUR('',#927);
#904=COLOUR_RGB('',0.560784339904785,0.686274528503418,0.662745118141174);
#905=CARTESIAN_POINT('',(-1.64889084820324,-0.178498706186701,-0.0459427241602081));
#906=VECTOR('',#928,1.0);
#907=COLOUR_RGB('',0.560784339904785,0.686274528503418,0.662745118141174);
#908=CARTESIAN_POINT('',(-1.59798084027463,-0.0948223527107047,-0.0441303582506208));
#909=VECTOR('',#929,1.0);
#910=CARTESIAN_POINT('',(-1.59836242074991,-0.095407944841426,-0.0576122527093873));
#911=VECTOR('',#930,1.0);
#912=COLOUR_RGB('',0.560784339904785,0.686274528503418,0.662745118141174);
#913=CARTESIAN_POINT('',(-1.59795964135933,-0.0947898198145536,-0.0433813641140226));
#914=VECTOR('',#931,1.0);
#915=CARTESIAN_POINT('',(-1.59838361966521,-0.0954404777375772,-0.0583612468459854));
#916=VECTOR('',#932,1.0);
#917=COLOUR_RGB('',0.560784339904785,0.686274528503418,0.662745118141174);
#918=CARTESIAN_POINT('',(-1.5407357350078,-0.00723424113906962,-0.0569226336288407));
#919=VECTOR('',#933,1.0);
#920=CARTESIAN_POINT('',(-1.5407357350078,-0.00723424113906962,-0.0569226336288407));
#921=VECTOR('',#934,1.0);
#922=COLOUR_RGB('',0.560784339904785,0.686274528503418,0.662745118141174);
#923=COLOUR_RGB('',0.560784339904785,0.686274528503418,0.662745118141174);
#924=COLOUR_RGB('',0.560784339904785,0.686274528503418,0.662745118141174);
#925=COLOUR_RGB('',0.560784339904785,0.686274528503418,0.662745118141174);
#926=COLOUR_RGB('',0.560784339904785,0.686274528503418,0.662745118141174);
#927=COLOUR_RGB('',0.560784339904785,0.686274528503418,0.662745118141174);
#928=DIRECTION('',(0.991102514324759,-0.0941164334724288,-0.0941164334724288));
#929=DIRECTION('',(-0.54520687501271,-0.836701236834547,0.0517735812786272));
#930=DIRECTION('',(0.54520687501271,0.836701236834547,-0.0517735812786272));
#931=DIRECTION('',(0.54520687501271,0.836701236834547,-0.0517735812786272));
#932=DIRECTION('',(-0.54520687501271,-0.836701236834547,0.0517735812786272));
#933=DIRECTION('',(0.544281719393915,-0.837308781473176,-0.0516857272514306));
#934=DIRECTION('',(0.544281719393915,-0.837308781473176,-0.0516857272514306));
#935=PRESENTATION_LAYER_ASSIGNMENT('9','Calque0',(#115));
#936=PRESENTATION_LAYER_ASSIGNMENT('1023','',(#55,#57,#59,#61,#63,#65,#67,#69,#71,#73,#75,#77,#79,#81,#83,#85,#87,#89,#91,#93,#95,#97,#99,#101,#103,#105,#107,#109,#111,#113));
ENDSEC;
END-ISO-10303-21;
