ISO-10303-21;
HEADER;
FILE_DESCRIPTION(('STEP AP214'),'1');
FILE_NAME('27.stp','2019-12-01T19:16:41',(' '),(' '),'Spatial InterOp 3D',' ',' ');
FILE_SCHEMA(('AUTOMOTIVE_DESIGN { 1 0 10303 214 1 1 1 1 }'));
ENDSEC;
DATA;
#1=MECHANICAL_DESIGN_GEOMETRIC_PRESENTATION_REPRESENTATION(' ',(#10,#11,#12,#13,#14,#15,#16,#17,#18,#19,#20,#21,#22,#23,#24,#25,#26,#27,#28,#29,#30,#31,#32,#33,#34,#35),#6);
#2=PRODUCT_DEFINITION_CONTEXT('',#36,'design');
#3=APPLICATION_PROTOCOL_DEFINITION('INTERNATIONAL STANDARD','automotive_design',1994,#36);
#4=PRODUCT_CATEGORY_RELATIONSHIP('NONE','NONE',#37,#38);
#5=SHAPE_DEFINITION_REPRESENTATION(#39,#40);
#6= (GEOMETRIC_REPRESENTATION_CONTEXT(3)GLOBAL_UNCERTAINTY_ASSIGNED_CONTEXT((#43))GLOBAL_UNIT_ASSIGNED_CONTEXT((#45,#46,#47))REPRESENTATION_CONTEXT('NONE','WORKSPACE'));
#10=STYLED_ITEM('',(#49),#50);
#11=STYLED_ITEM('',(#51),#52);
#12=STYLED_ITEM('',(#53),#54);
#13=STYLED_ITEM('',(#55),#56);
#14=STYLED_ITEM('',(#57),#58);
#15=STYLED_ITEM('',(#59),#60);
#16=STYLED_ITEM('',(#61),#62);
#17=STYLED_ITEM('',(#63),#64);
#18=STYLED_ITEM('',(#65),#66);
#19=STYLED_ITEM('',(#67),#68);
#20=STYLED_ITEM('',(#69),#70);
#21=STYLED_ITEM('',(#71),#72);
#22=STYLED_ITEM('',(#73),#74);
#23=STYLED_ITEM('',(#75),#76);
#24=STYLED_ITEM('',(#77),#78);
#25=STYLED_ITEM('',(#79),#80);
#26=STYLED_ITEM('',(#81),#82);
#27=STYLED_ITEM('',(#83),#84);
#28=STYLED_ITEM('',(#85),#86);
#29=STYLED_ITEM('',(#87),#88);
#30=STYLED_ITEM('',(#89),#90);
#31=STYLED_ITEM('',(#91),#92);
#32=STYLED_ITEM('',(#93),#94);
#33=STYLED_ITEM('',(#95),#96);
#34=STYLED_ITEM('',(#97),#98);
#35=STYLED_ITEM('',(#99),#100);
#36=APPLICATION_CONTEXT(' ');
#37=PRODUCT_CATEGORY('part','NONE');
#38=PRODUCT_RELATED_PRODUCT_CATEGORY('detail',' ',(#101));
#39=PRODUCT_DEFINITION_SHAPE('NONE','NONE',#102);
#40=ADVANCED_BREP_SHAPE_REPRESENTATION('PartBody/Pocket.2',(#100,#103),#6);
#43=UNCERTAINTY_MEASURE_WITH_UNIT(LENGTH_MEASURE(1.0E-008),#45,'','');
#45= (CONVERSION_BASED_UNIT('METRE',#106)LENGTH_UNIT()NAMED_UNIT(#109));
#46= (NAMED_UNIT(#111)PLANE_ANGLE_UNIT()SI_UNIT($,.RADIAN.));
#47= (NAMED_UNIT(#111)SOLID_ANGLE_UNIT()SI_UNIT($,.STERADIAN.));
#49=PRESENTATION_STYLE_ASSIGNMENT((#117));
#50=ADVANCED_FACE('',(#118),#119,.F.);
#51=PRESENTATION_STYLE_ASSIGNMENT((#120));
#52=ADVANCED_FACE('',(#121),#122,.T.);
#53=PRESENTATION_STYLE_ASSIGNMENT((#123));
#54=ADVANCED_FACE('',(#124),#125,.F.);
#55=PRESENTATION_STYLE_ASSIGNMENT((#126));
#56=ADVANCED_FACE('',(#127),#128,.F.);
#57=PRESENTATION_STYLE_ASSIGNMENT((#129));
#58=ADVANCED_FACE('0:45',(#130),#131,.F.);
#59=PRESENTATION_STYLE_ASSIGNMENT((#132));
#60=ADVANCED_FACE('0:46',(#133),#134,.F.);
#61=PRESENTATION_STYLE_ASSIGNMENT((#135));
#62=ADVANCED_FACE('0:48',(#136),#137,.T.);
#63=PRESENTATION_STYLE_ASSIGNMENT((#138));
#64=ADVANCED_FACE('0:50',(#139),#140,.F.);
#65=PRESENTATION_STYLE_ASSIGNMENT((#141));
#66=EDGE_CURVE('',#142,#143,#144,.F.);
#67=PRESENTATION_STYLE_ASSIGNMENT((#145));
#68=EDGE_CURVE('',#143,#146,#147,.F.);
#69=PRESENTATION_STYLE_ASSIGNMENT((#148));
#70=EDGE_CURVE('',#149,#150,#151,.T.);
#71=PRESENTATION_STYLE_ASSIGNMENT((#152));
#72=EDGE_CURVE('',#150,#153,#154,.T.);
#73=PRESENTATION_STYLE_ASSIGNMENT((#155));
#74=EDGE_CURVE('',#156,#142,#157,.F.);
#75=PRESENTATION_STYLE_ASSIGNMENT((#158));
#76=EDGE_CURVE('',#159,#160,#161,.F.);
#77=PRESENTATION_STYLE_ASSIGNMENT((#162));
#78=EDGE_CURVE('',#160,#163,#164,.F.);
#79=PRESENTATION_STYLE_ASSIGNMENT((#165));
#80=EDGE_CURVE('',#166,#167,#168,.T.);
#81=PRESENTATION_STYLE_ASSIGNMENT((#169));
#82=EDGE_CURVE('',#170,#166,#171,.T.);
#83=PRESENTATION_STYLE_ASSIGNMENT((#172));
#84=EDGE_CURVE('0:31',#173,#170,#174,.T.);
#85=PRESENTATION_STYLE_ASSIGNMENT((#175));
#86=EDGE_CURVE('',#153,#176,#177,.T.);
#87=PRESENTATION_STYLE_ASSIGNMENT((#178));
#88=EDGE_CURVE('',#163,#179,#180,.F.);
#89=PRESENTATION_STYLE_ASSIGNMENT((#181));
#90=EDGE_CURVE('',#167,#182,#183,.T.);
#91=PRESENTATION_STYLE_ASSIGNMENT((#184));
#92=EDGE_CURVE('',#182,#173,#185,.T.);
#93=PRESENTATION_STYLE_ASSIGNMENT((#186));
#94=EDGE_CURVE('0:24',#179,#159,#187,.F.);
#95=PRESENTATION_STYLE_ASSIGNMENT((#188));
#96=EDGE_CURVE('0:37',#176,#149,#189,.T.);
#97=PRESENTATION_STYLE_ASSIGNMENT((#190));
#98=EDGE_CURVE('0:43',#146,#156,#191,.F.);
#99=PRESENTATION_STYLE_ASSIGNMENT((#192));
#100=MANIFOLD_SOLID_BREP('PartBody/Pocket.2',#193);
#101=PRODUCT('PartBody/Pocket.2','','PART--DESC',(#194));
#102=PRODUCT_DEFINITION('','NONE',#195,#2);
#103=AXIS2_PLACEMENT_3D('',#196,#197,#198);
#106=LENGTH_MEASURE_WITH_UNIT(LENGTH_MEASURE(1.0),#199);
#109=DIMENSIONAL_EXPONENTS(1.0,0.0,0.0,0.0,0.0,0.0,0.0);
#111=DIMENSIONAL_EXPONENTS(0.0,0.0,0.0,0.0,0.0,0.0,0.0);
#117=SURFACE_STYLE_USAGE(.BOTH.,#200);
#118=FACE_OUTER_BOUND('',#201,.T.);
#119=CYLINDRICAL_SURFACE('',#202,0.015);
#120=SURFACE_STYLE_USAGE(.BOTH.,#203);
#121=FACE_OUTER_BOUND('',#204,.T.);
#122=CYLINDRICAL_SURFACE('',#205,0.014);
#123=SURFACE_STYLE_USAGE(.BOTH.,#206);
#124=FACE_OUTER_BOUND('',#207,.T.);
#125=CYLINDRICAL_SURFACE('',#208,0.0125);
#126=SURFACE_STYLE_USAGE(.BOTH.,#209);
#127=FACE_OUTER_BOUND('',#210,.T.);
#128=CYLINDRICAL_SURFACE('',#211,0.015);
#129=SURFACE_STYLE_USAGE(.BOTH.,#212);
#130=FACE_OUTER_BOUND('',#213,.T.);
#131=CYLINDRICAL_SURFACE('',#214,0.015);
#132=SURFACE_STYLE_USAGE(.BOTH.,#215);
#133=FACE_OUTER_BOUND('',#216,.T.);
#134=CYLINDRICAL_SURFACE('',#217,0.0125);
#135=SURFACE_STYLE_USAGE(.BOTH.,#218);
#136=FACE_OUTER_BOUND('',#219,.T.);
#137=CYLINDRICAL_SURFACE('',#220,0.014);
#138=SURFACE_STYLE_USAGE(.BOTH.,#221);
#139=FACE_OUTER_BOUND('',#222,.T.);
#140=CYLINDRICAL_SURFACE('',#223,0.015);
#141=CURVE_STYLE('',#224,POSITIVE_LENGTH_MEASURE(0.35),#225);
#142=VERTEX_POINT('',#226);
#143=VERTEX_POINT('',#227);
#144=B_SPLINE_CURVE_WITH_KNOTS('',5,(#228,#229,#230,#231,#232,#233,#234,#235,#236,#237,#238,#239,#240,#241,#242),.UNSPECIFIED.,.F.,.F.,(6,3,3,3,6),(-103.321252287674,-100.72776436872,-97.8071711429979,-91.9688358608187,-85.8507654540832),.UNSPECIFIED.);
#145=CURVE_STYLE('',#243,POSITIVE_LENGTH_MEASURE(0.35),#244);
#146=VERTEX_POINT('',#245);
#147=B_SPLINE_CURVE_WITH_KNOTS('',5,(#246,#247,#248,#249,#250,#251,#252,#253,#254,#255,#256,#257,#258,#259,#260,#261,#262,#263,#264,#265,#266,#267,#268,#269,#270,#271,#272,#273,#274,#275,#276,#277,#278),.UNSPECIFIED.,.F.,.F.,(6,3,3,3,3,3,3,3,3,3,6),(-139.072119325372,-137.401794961712,-130.997505482563,-125.812554473616,-122.257671759564,-119.387470591537,-117.098719406946,-113.656674567198,-109.982811984155,-106.619043392795,-103.321252287674),.UNSPECIFIED.);
#148=CURVE_STYLE('',#279,POSITIVE_LENGTH_MEASURE(0.35),#280);
#149=VERTEX_POINT('',#281);
#150=VERTEX_POINT('',#282);
#151=B_SPLINE_CURVE_WITH_KNOTS('',5,(#283,#284,#285,#286,#287,#288,#289,#290,#291,#292,#293,#294,#295,#296,#297,#298,#299,#300,#301,#302,#303,#304,#305,#306),.UNSPECIFIED.,.F.,.F.,(6,3,3,3,3,3,3,6),(-29.3677718946826,-23.5019061967966,-18.2890897685931,-13.2845259190443,-9.49823919196238,-6.22391857204109,-2.76896167626903,0.0),.UNSPECIFIED.);
#152=CURVE_STYLE('',#307,POSITIVE_LENGTH_MEASURE(0.35),#308);
#153=VERTEX_POINT('',#309);
#154=B_SPLINE_CURVE_WITH_KNOTS('',5,(#310,#311,#312,#313,#314,#315,#316,#317,#318,#319,#320,#321),.UNSPECIFIED.,.F.,.F.,(6,3,3,6),(0.0,4.43518710479299,9.99528201736452,14.0165521439141),.UNSPECIFIED.);
#155=CURVE_STYLE('',#322,POSITIVE_LENGTH_MEASURE(0.35),#323);
#156=VERTEX_POINT('',#324);
#157=B_SPLINE_CURVE_WITH_KNOTS('',5,(#325,#326,#327,#328,#329,#330,#331,#332,#333,#334,#335,#336,#337,#338,#339,#340,#341,#342,#343,#344,#345,#346,#347,#348,#349,#350,#351,#352,#353,#354,#355,#356,#357,#358,#359,#360),.UNSPECIFIED.,.F.,.F.,(6,3,3,3,3,3,3,3,3,3,3,6),(-85.8507654540832,-78.1037487081886,-69.4648151001506,-63.1460961000247,-57.3438692012125,-54.4683762044815,-52.1508066961084,-48.6665102171482,-45.8974525759863,-42.9417564334848,-40.1040163465207,-35.9787476849452),.UNSPECIFIED.);
#158=CURVE_STYLE('',#361,POSITIVE_LENGTH_MEASURE(0.35),#362);
#159=VERTEX_POINT('',#363);
#160=VERTEX_POINT('',#364);
#161=B_SPLINE_CURVE_WITH_KNOTS('',5,(#365,#366,#367,#368,#369,#370,#371,#372,#373,#374,#375,#376,#377,#378,#379,#380,#381,#382,#383,#384,#385,#386,#387,#388,#389,#390,#391,#392,#393,#394,#395,#396,#397,#398,#399,#400),.UNSPECIFIED.,.F.,.F.,(6,3,3,3,3,3,3,3,3,3,3,6),(-108.929680734075,-102.365543519061,-94.7231856534838,-88.4918355035552,-79.9695945266059,-73.5257370433681,-67.6809003868346,-64.8543016744517,-62.5842423835834,-59.1626537796653,-56.4135125154932,-53.5144764780205),.UNSPECIFIED.);
#162=CURVE_STYLE('',#401,POSITIVE_LENGTH_MEASURE(0.35),#402);
#163=VERTEX_POINT('',#403);
#164=B_SPLINE_CURVE_WITH_KNOTS('',5,(#404,#405,#406,#407,#408,#409,#410,#411,#412,#413,#414,#415,#416,#417,#418),.UNSPECIFIED.,.F.,.F.,(6,3,3,3,6),(-121.154089749945,-118.192310160371,-114.198383763129,-111.468627959011,-108.929680734075),.UNSPECIFIED.);
#165=CURVE_STYLE('',#419,POSITIVE_LENGTH_MEASURE(0.35),#420);
#166=VERTEX_POINT('',#421);
#167=VERTEX_POINT('',#422);
#168=B_SPLINE_CURVE_WITH_KNOTS('',3,(#423,#424,#425,#426,#427,#428,#429),.UNSPECIFIED.,.F.,.F.,(4,3,4),(0.0341765613633264,0.0384136947257765,0.0389021358409956),.UNSPECIFIED.);
#169=CURVE_STYLE('',#430,POSITIVE_LENGTH_MEASURE(0.35),#431);
#170=VERTEX_POINT('',#432);
#171=B_SPLINE_CURVE_WITH_KNOTS('',3,(#433,#434,#435,#436,#437,#438,#439,#440,#441,#442,#443,#444,#445,#446,#447,#448,#449,#450,#451,#452,#453,#454,#455,#456,#457,#458,#459,#460,#461,#462,#463,#464,#465,#466,#467,#468,#469,#470,#471,#472,#473,#474,#475,#476,#477,#478),.UNSPECIFIED.,.F.,.F.,(4,3,3,3,3,3,3,3,3,3,3,3,3,3,3,4),(0.0,0.00269885260167571,0.00663356619688205,0.00865738292135979,0.0100577827527366,0.0110150606863143,0.0143918432247981,0.0175812863867114,0.0200419211996676,0.0213539919366031,0.0246237256394517,0.028048491962679,0.0294265582959843,0.030448442791622,0.0339061527971439,0.0341765613633264),.UNSPECIFIED.);
#172=CURVE_STYLE('',#479,POSITIVE_LENGTH_MEASURE(0.35),#480);
#173=VERTEX_POINT('',#481);
#174=B_SPLINE_CURVE_WITH_KNOTS('',3,(#482,#483,#484,#485),.UNSPECIFIED.,.F.,.F.,(4,4),(-0.00126341905462318,0.0),.UNSPECIFIED.);
#175=CURVE_STYLE('',#486,POSITIVE_LENGTH_MEASURE(0.35),#487);
#176=VERTEX_POINT('',#488);
#177=B_SPLINE_CURVE_WITH_KNOTS('',5,(#489,#490,#491,#492,#493,#494,#495,#496,#497,#498,#499,#500,#501,#502,#503,#504,#505,#506,#507,#508,#509,#510,#511,#512,#513,#514,#515,#516,#517,#518,#519,#520,#521),.UNSPECIFIED.,.F.,.F.,(6,3,3,3,3,3,3,3,3,3,6),(14.0165521439141,16.589786468855,22.8899063691794,29.5742272334775,35.3104439853761,40.6898836995628,44.8255407352317,48.2053888060837,50.9316280157552,54.8054725441182,58.1555667092313),.UNSPECIFIED.);
#178=CURVE_STYLE('',#522,POSITIVE_LENGTH_MEASURE(0.35),#523);
#179=VERTEX_POINT('',#524);
#180=B_SPLINE_CURVE_WITH_KNOTS('',5,(#525,#526,#527,#528,#529,#530,#531,#532,#533,#534,#535,#536,#537,#538,#539,#540,#541,#542),.UNSPECIFIED.,.F.,.F.,(6,3,3,3,3,6),(-138.241929647228,-133.931856484292,-131.229705977649,-127.286997257987,-124.386241089807,-121.154089749945),.UNSPECIFIED.);
#181=CURVE_STYLE('',#543,POSITIVE_LENGTH_MEASURE(0.35),#544);
#182=VERTEX_POINT('',#545);
#183=B_SPLINE_CURVE_WITH_KNOTS('',3,(#546,#547,#548,#549,#550,#551,#552,#553,#554,#555),.UNSPECIFIED.,.F.,.F.,(4,3,3,4),(0.0389021358409956,0.0403418826041873,0.0441503134761792,0.046350777370803),.UNSPECIFIED.);
#184=CURVE_STYLE('',#556,POSITIVE_LENGTH_MEASURE(0.35),#557);
#185=B_SPLINE_CURVE_WITH_KNOTS('',3,(#558,#559,#560,#561,#562,#563,#564,#565,#566,#567,#568,#569,#570,#571,#572,#573,#574,#575,#576,#577,#578,#579,#580,#581,#582,#583,#584,#585,#586,#587,#588,#589,#590,#591,#592,#593,#594,#595,#596,#597),.UNSPECIFIED.,.F.,.F.,(4,3,3,3,3,3,3,3,3,3,3,3,3,4),(0.046350777370803,0.0500331630885703,0.0514351539147951,0.0550693544599627,0.0583743265520192,0.0604741369866357,0.0621428108544577,0.0654383072301902,0.0689685023015736,0.0704832795459007,0.0719589837793281,0.0756810962801723,0.0799279134187701,0.0805087582761356),.UNSPECIFIED.);
#186=CURVE_STYLE('',#598,POSITIVE_LENGTH_MEASURE(0.35),#599);
#187=B_SPLINE_CURVE_WITH_KNOTS('',5,(#600,#601,#602,#603,#604,#605,#606,#607,#608,#609,#610,#611,#612,#613,#614,#615,#616,#617,#618,#619,#620,#621,#622,#623,#624,#625,#626,#627,#628,#629,#630,#631,#632),.UNSPECIFIED.,.F.,.F.,(6,3,3,3,3,3,3,3,3,3,6),(-53.5144764780205,-50.336461818417,-45.8688966998388,-42.7757726715816,-36.5495143634593,-30.1050393437247,-23.4417237149914,-16.9653076816393,-10.2002823302858,-4.88138704763151,-0.0),.UNSPECIFIED.);
#188=CURVE_STYLE('',#633,POSITIVE_LENGTH_MEASURE(0.35),#634);
#189=B_SPLINE_CURVE_WITH_KNOTS('',5,(#635,#636,#637,#638,#639,#640,#641,#642,#643,#644,#645,#646,#647,#648,#649,#650,#651,#652,#653,#654,#655),.UNSPECIFIED.,.F.,.F.,(6,3,3,3,3,3,6),(-61.4726653998937,-56.0677819362313,-50.7866867790716,-45.2120662783312,-39.2882445686263,-34.6509014724,-29.3677718946826),.UNSPECIFIED.);
#190=CURVE_STYLE('',#656,POSITIVE_LENGTH_MEASURE(0.35),#657);
#191=B_SPLINE_CURVE_WITH_KNOTS('',5,(#658,#659,#660,#661,#662,#663,#664,#665,#666,#667,#668,#669,#670,#671,#672,#673,#674,#675,#676,#677,#678,#679,#680,#681),.UNSPECIFIED.,.F.,.F.,(6,3,3,3,3,3,3,6),(-35.9787476849452,-32.7257437586095,-29.1003984419768,-23.9570792845204,-17.686971356453,-11.2739058956032,-5.07699448131861,-0.0),.UNSPECIFIED.);
#192=SURFACE_STYLE_USAGE(.BOTH.,#682);
#193=CLOSED_SHELL('',(#50,#52,#54,#56,#58,#60,#62,#64));
#194=PRODUCT_CONTEXT('',#36,'mechanical');
#195=PRODUCT_DEFINITION_FORMATION_WITH_SPECIFIED_SOURCE(' ','NONE',#101,.NOT_KNOWN.);
#196=CARTESIAN_POINT('',(0.0,0.0,0.0));
#197=DIRECTION('',(0.0,0.0,1.0));
#198=DIRECTION('',(1.0,0.0,0.0));
#199= (NAMED_UNIT(#109)LENGTH_UNIT()SI_UNIT($,.METRE.));
#200=SURFACE_SIDE_STYLE('',(#684));
#201=EDGE_LOOP('',(#685,#686,#687,#688,#689,#690));
#202=AXIS2_PLACEMENT_3D('',#691,#692,#693);
#203=SURFACE_SIDE_STYLE('',(#694));
#204=EDGE_LOOP('',(#695,#696,#697,#698,#699,#700));
#205=AXIS2_PLACEMENT_3D('',#701,#702,#703);
#206=SURFACE_SIDE_STYLE('',(#704));
#207=EDGE_LOOP('',(#705,#706,#707,#708,#709,#710,#711));
#208=AXIS2_PLACEMENT_3D('',#712,#713,#714);
#209=SURFACE_SIDE_STYLE('',(#715));
#210=EDGE_LOOP('',(#716,#717,#718,#719,#720,#721));
#211=AXIS2_PLACEMENT_3D('',#722,#723,#724);
#212=SURFACE_SIDE_STYLE('',(#725));
#213=EDGE_LOOP('',(#726,#727,#728,#729,#730,#731,#732));
#214=AXIS2_PLACEMENT_3D('',#733,#734,#735);
#215=SURFACE_SIDE_STYLE('',(#736));
#216=EDGE_LOOP('',(#737,#738,#739,#740,#741,#742));
#217=AXIS2_PLACEMENT_3D('',#743,#744,#745);
#218=SURFACE_SIDE_STYLE('',(#746));
#219=EDGE_LOOP('',(#747,#748,#749,#750,#751,#752));
#220=AXIS2_PLACEMENT_3D('',#753,#754,#755);
#221=SURFACE_SIDE_STYLE('',(#756));
#222=EDGE_LOOP('',(#757,#758,#759,#760,#761,#762));
#223=AXIS2_PLACEMENT_3D('',#763,#764,#765);
#224=DRAUGHTING_PRE_DEFINED_CURVE_FONT('continuous');
#225=COLOUR_RGB('',0.0,0.0,0.0);
#226=CARTESIAN_POINT('',(-1.41820044106745,0.337627384589041,0.221742765283138));
#227=CARTESIAN_POINT('',(-1.42315032534821,0.342455520130428,0.211852291525607));
#228=CARTESIAN_POINT('',(-1.42315032534821,0.342455520130428,0.211852291525564));
#229=CARTESIAN_POINT('',(-1.42298473386138,0.342435917994828,0.212178969972186));
#230=CARTESIAN_POINT('',(-1.42281490578776,0.342406004116802,0.212502882158142));
#231=CARTESIAN_POINT('',(-1.42264228597136,0.34236623796909,0.212824712095045));
#232=CARTESIAN_POINT('',(-1.42227247922682,0.342261573056897,0.213503535973646));
#233=CARTESIAN_POINT('',(-1.42189989287159,0.3421148654736,0.214173073387053));
#234=CARTESIAN_POINT('',(-1.42170288977431,0.342025583574423,0.214525547143303));
#235=CARTESIAN_POINT('',(-1.42111668858223,0.341723852887638,0.21557481086543));
#236=CARTESIAN_POINT('',(-1.42055037677033,0.341320227017974,0.216602309233507));
#237=CARTESIAN_POINT('',(-1.42018808946621,0.341006330899912,0.217277049360995));
#238=CARTESIAN_POINT('',(-1.41948726002152,0.340270582149505,0.218633153783175));
#239=CARTESIAN_POINT('',(-1.41889173435162,0.339344276496774,0.219921575401591));
#240=CARTESIAN_POINT('',(-1.4186202141091,0.338820156667058,0.220559170396343));
#241=CARTESIAN_POINT('',(-1.41838804002899,0.338246820480125,0.221168551458415));
#242=CARTESIAN_POINT('',(-1.41820044106745,0.337627384589041,0.221742765283138));
#243=DRAUGHTING_PRE_DEFINED_CURVE_FONT('continuous');
#244=COLOUR_RGB('',0.0,0.0,0.0);
#245=CARTESIAN_POINT('',(-1.415241188618,0.327856183496382,0.197641588166979));
#246=CARTESIAN_POINT('',(-1.415241188618,0.327856183496382,0.197641588166979));
#247=CARTESIAN_POINT('',(-1.41530961025362,0.328082105945433,0.197650374314655));
#248=CARTESIAN_POINT('',(-1.415381636614,0.328306772954315,0.197663370405364));
#249=CARTESIAN_POINT('',(-1.41545716022645,0.328530242708444,0.197680465484334));
#250=CARTESIAN_POINT('',(-1.41583771026041,0.329602368752912,0.197782153155544));
#251=CARTESIAN_POINT('',(-1.41629066818468,0.330637491516555,0.19797328065683));
#252=CARTESIAN_POINT('',(-1.41668651126079,0.331430862865318,0.198174100697256));
#253=CARTESIAN_POINT('',(-1.4174548927692,0.332813184061344,0.198615089678752));
#254=CARTESIAN_POINT('',(-1.41829895979415,0.334100328908346,0.19918362737203));
#255=CARTESIAN_POINT('',(-1.41868856686942,0.334657113053376,0.19946135087382));
#256=CARTESIAN_POINT('',(-1.4193610460647,0.335564129885877,0.199966482729879));
#257=CARTESIAN_POINT('',(-1.42005194973029,0.336419195241313,0.200532454729107));
#258=CARTESIAN_POINT('',(-1.42033526555306,0.336758734625264,0.200772709265794));
#259=CARTESIAN_POINT('',(-1.42084909965741,0.337357020987241,0.201224622270597));
#260=CARTESIAN_POINT('',(-1.42136252222576,0.337928601663529,0.201710105644556));
#261=CARTESIAN_POINT('',(-1.42159125679732,0.338178829898662,0.201934006545574));
#262=CARTESIAN_POINT('',(-1.42199932145922,0.338618974810255,0.202349167096564));
#263=CARTESIAN_POINT('',(-1.42239851140618,0.339042378392925,0.202789471175528));
#264=CARTESIAN_POINT('',(-1.42257342062908,0.339227100245584,0.202990237132598));
#265=CARTESIAN_POINT('',(-1.42300318720993,0.339680925720211,0.203506575657853));
#266=CARTESIAN_POINT('',(-1.42340652237167,0.340113476915266,0.204061566631792));
#267=CARTESIAN_POINT('',(-1.42363603039267,0.340365832104303,0.204411372014848));
#268=CARTESIAN_POINT('',(-1.42406984579642,0.340868480780202,0.20517147292052));
#269=CARTESIAN_POINT('',(-1.42438022589993,0.341322311222365,0.206018306542248));
#270=CARTESIAN_POINT('',(-1.42449604251988,0.341540352717002,0.206480588699542));
#271=CARTESIAN_POINT('',(-1.42459851001429,0.341910980679358,0.207407312512901));
#272=CARTESIAN_POINT('',(-1.4244848278687,0.342175183574965,0.208367183194995));
#273=CARTESIAN_POINT('',(-1.42438343243987,0.342274290197849,0.208825914751633));
#274=CARTESIAN_POINT('',(-1.42411860356181,0.342420913920959,0.209720535371467));
#275=CARTESIAN_POINT('',(-1.42375835285581,0.342479244896582,0.210591525408141));
#276=CARTESIAN_POINT('',(-1.42356459608867,0.342488698071724,0.211017032305417));
#277=CARTESIAN_POINT('',(-1.42336088585558,0.342480445539921,0.211436898314331));
#278=CARTESIAN_POINT('',(-1.42315032534821,0.342455520130428,0.211852291525607));
#279=DRAUGHTING_PRE_DEFINED_CURVE_FONT('continuous');
#280=COLOUR_RGB('',0.0,0.0,0.0);
#281=CARTESIAN_POINT('',(-1.41543053492247,0.328481388965921,0.199183690065453));
#282=CARTESIAN_POINT('',(-1.42116489604288,0.340710018839751,0.211803646824723));
#283=CARTESIAN_POINT('',(-1.41543053492247,0.328481388965921,0.199183690065453));
#284=CARTESIAN_POINT('',(-1.41567012633158,0.329272499517802,0.199253744751963));
#285=CARTESIAN_POINT('',(-1.41595126244974,0.330045980322346,0.19938080143947));
#286=CARTESIAN_POINT('',(-1.41626553933452,0.330796636546048,0.19955893985546));
#287=CARTESIAN_POINT('',(-1.4169066170498,0.332166152050674,0.199981050034869));
#288=CARTESIAN_POINT('',(-1.41761487085844,0.333444004191169,0.200553851187473));
#289=CARTESIAN_POINT('',(-1.4179583322295,0.334024485507511,0.200854427735284));
#290=CARTESIAN_POINT('',(-1.41864337989805,0.335121807484535,0.201502262177419));
#291=CARTESIAN_POINT('',(-1.41933181844722,0.336139025583799,0.202266466315121));
#292=CARTESIAN_POINT('',(-1.41966524327341,0.336617867586329,0.202669013914584));
#293=CARTESIAN_POINT('',(-1.42023472887375,0.337424177938589,0.203428607897164));
#294=CARTESIAN_POINT('',(-1.42074774768852,0.338162353288836,0.204289328438221));
#295=CARTESIAN_POINT('',(-1.42095463293566,0.338467068909184,0.204680527322988));
#296=CARTESIAN_POINT('',(-1.42130273119931,0.339005629341246,0.205449359623265));
#297=CARTESIAN_POINT('',(-1.42155891886647,0.339478507074151,0.206293010464075));
#298=CARTESIAN_POINT('',(-1.42165382611932,0.339681513529141,0.206700260813635));
#299=CARTESIAN_POINT('',(-1.42179055024931,0.340058691246265,0.207566780716579));
#300=CARTESIAN_POINT('',(-1.42180302732368,0.34034366808124,0.208478451803455));
#301=CARTESIAN_POINT('',(-1.42177535161808,0.340462694404449,0.208953437735121));
#302=CARTESIAN_POINT('',(-1.42167077193322,0.340627300358769,0.209814323604533));
#303=CARTESIAN_POINT('',(-1.42148438341391,0.340704590119789,0.210672731437937));
#304=CARTESIAN_POINT('',(-1.42138784205955,0.340722146537576,0.211052757461556));
#305=CARTESIAN_POINT('',(-1.42128060516672,0.340723716077332,0.211429792896649));
#306=CARTESIAN_POINT('',(-1.42116489604288,0.340710018839751,0.211803646824723));
#307=DRAUGHTING_PRE_DEFINED_CURVE_FONT('continuous');
#308=COLOUR_RGB('',0.0,0.0,0.0);
#309=CARTESIAN_POINT('',(-1.41801109476298,0.337002179119502,0.220200663384664));
#310=CARTESIAN_POINT('',(-1.42116489604288,0.340710018839751,0.211803646824684));
#311=CARTESIAN_POINT('',(-1.42097955883919,0.340688079275901,0.212402467724084));
#312=CARTESIAN_POINT('',(-1.42077248568644,0.340626971227378,0.2129931261605));
#313=CARTESIAN_POINT('',(-1.42055298464303,0.340529623244421,0.213574548621626));
#314=CARTESIAN_POINT('',(-1.42004539886797,0.340233545643756,0.214862503015708));
#315=CARTESIAN_POINT('',(-1.41953281756815,0.339770290578154,0.216099526485111));
#316=CARTESIAN_POINT('',(-1.41925571589238,0.339463190765807,0.216771100739607));
#317=CARTESIAN_POINT('',(-1.41880361325501,0.338850181568153,0.217895994517173));
#318=CARTESIAN_POINT('',(-1.41841374281259,0.338095936716618,0.218954362243725));
#319=CARTESIAN_POINT('',(-1.41826340067569,0.33775489670106,0.219385479486586));
#320=CARTESIAN_POINT('',(-1.41812853789483,0.337389966399533,0.219801614008221));
#321=CARTESIAN_POINT('',(-1.41801109476298,0.337002179119502,0.220200663384664));
#322=DRAUGHTING_PRE_DEFINED_CURVE_FONT('continuous');
#323=COLOUR_RGB('',0.0,0.0,0.0);
#324=CARTESIAN_POINT('',(-1.42462965548755,0.314435138669826,0.211811512151453));
#325=CARTESIAN_POINT('',(-1.41820044106745,0.337627384589041,0.221742765283138));
#326=CARTESIAN_POINT('',(-1.41796289357291,0.336843022870035,0.22246986448601));
#327=CARTESIAN_POINT('',(-1.41779681786146,0.33598474530608,0.223140576719117));
#328=CARTESIAN_POINT('',(-1.41771304891461,0.335059415179243,0.223740143366123));
#329=CARTESIAN_POINT('',(-1.41772715656231,0.332990735030402,0.224822757282578));
#330=CARTESIAN_POINT('',(-1.4181386891593,0.330781497751711,0.225471987968919));
#331=CARTESIAN_POINT('',(-1.41846392439328,0.329607653542923,0.225680830220227));
#332=CARTESIAN_POINT('',(-1.41918603283519,0.327608359860964,0.225818477062724));
#333=CARTESIAN_POINT('',(-1.42012894424638,0.325718697519556,0.225598495645137));
#334=CARTESIAN_POINT('',(-1.4205598059161,0.324946303242984,0.225445586191062));
#335=CARTESIAN_POINT('',(-1.42143473390052,0.323522028049562,0.225047062778486));
#336=CARTESIAN_POINT('',(-1.42237930389247,0.32221275512225,0.22446038305155));
#337=CARTESIAN_POINT('',(-1.42284233261095,0.321613595398679,0.224139329268308));
#338=CARTESIAN_POINT('',(-1.42354396636114,0.320759024143114,0.223602400217341));
#339=CARTESIAN_POINT('',(-1.42424471631565,0.319965097409519,0.222981216114671));
#340=CARTESIAN_POINT('',(-1.42447618239911,0.319708416388524,0.222766001794265));
#341=CARTESIAN_POINT('',(-1.4248905920762,0.319256861099582,0.222360809592219));
#342=CARTESIAN_POINT('',(-1.42529478303779,0.318825809606216,0.221924367999393));
#343=CARTESIAN_POINT('',(-1.42547261103706,0.318637256766957,0.22172302950151));
#344=CARTESIAN_POINT('',(-1.42590844450945,0.318175396729129,0.221202932518151));
#345=CARTESIAN_POINT('',(-1.42631433890655,0.317737131915598,0.220639361388609));
#346=CARTESIAN_POINT('',(-1.42654365600808,0.317481585353291,0.22028349425677));
#347=CARTESIAN_POINT('',(-1.42691641235712,0.31703745217121,0.219612284459385));
#348=CARTESIAN_POINT('',(-1.42718700570835,0.316619550735286,0.218879376140197));
#349=CARTESIAN_POINT('',(-1.42728184626176,0.316439630295199,0.218542031557163));
#350=CARTESIAN_POINT('',(-1.42741020284118,0.316081795539955,0.217823155138119));
#351=CARTESIAN_POINT('',(-1.4273870373603,0.315759478832624,0.217076364486626));
#352=CARTESIAN_POINT('',(-1.42733114990911,0.315605292068869,0.216690159780499));
#353=CARTESIAN_POINT('',(-1.42714623895411,0.315327579592151,0.215938885014091));
#354=CARTESIAN_POINT('',(-1.42684216405334,0.31509866847327,0.215210516349216));
#355=CARTESIAN_POINT('',(-1.4266705543446,0.314997726189694,0.214859947573723));
#356=CARTESIAN_POINT('',(-1.4262098321963,0.314776354560232,0.214017220547826));
#357=CARTESIAN_POINT('',(-1.42567037717347,0.314614192937367,0.213207193609491));
#358=CARTESIAN_POINT('',(-1.42533422577145,0.314536892969102,0.212736200903693));
#359=CARTESIAN_POINT('',(-1.42498612197951,0.314477335914667,0.212271411991896));
#360=CARTESIAN_POINT('',(-1.42462965548755,0.314435138669826,0.211811512151453));
#361=DRAUGHTING_PRE_DEFINED_CURVE_FONT('continuous');
#362=COLOUR_RGB('',0.0,0.0,0.0);
#363=CARTESIAN_POINT('',(-0.63875381398185,0.221405931027508,0.19412747449914));
#364=CARTESIAN_POINT('',(-0.639121338331758,0.247573171834207,0.201511965532214));
#365=CARTESIAN_POINT('',(-0.639121338331758,0.247573171834207,0.201511965532214));
#366=CARTESIAN_POINT('',(-0.63963163041336,0.247216049738097,0.202200314097604));
#367=CARTESIAN_POINT('',(-0.640140226910868,0.246807680420164,0.202863332073434));
#368=CARTESIAN_POINT('',(-0.640639743023793,0.246346299223887,0.203499528884692));
#369=CARTESIAN_POINT('',(-0.641687602441913,0.245229101791149,0.204808596531682));
#370=CARTESIAN_POINT('',(-0.642630192001354,0.243852563603937,0.205942065413915));
#371=CARTESIAN_POINT('',(-0.643096165464128,0.243035436840997,0.206491809952941));
#372=CARTESIAN_POINT('',(-0.643840798357277,0.241420725791169,0.207352189051291));
#373=CARTESIAN_POINT('',(-0.644363422967253,0.239607917153756,0.207922311935317));
#374=CARTESIAN_POINT('',(-0.644546783926947,0.238761154150637,0.208112790193913));
#375=CARTESIAN_POINT('',(-0.64484829715304,0.23670496653204,0.208396864872943));
#376=CARTESIAN_POINT('',(-0.644833579401852,0.234600908174575,0.208285463692955));
#377=CARTESIAN_POINT('',(-0.644718496249282,0.233402745102158,0.208088930014459));
#378=CARTESIAN_POINT('',(-0.644355020425526,0.231376232835739,0.207542266448275));
#379=CARTESIAN_POINT('',(-0.64375545040906,0.229524470391641,0.206691179315564));
#380=CARTESIAN_POINT('',(-0.643460072752634,0.228764768328608,0.206275054812393));
#381=CARTESIAN_POINT('',(-0.642839051917993,0.227392926736595,0.205399652877212));
#382=CARTESIAN_POINT('',(-0.642130504521355,0.226170008869668,0.204382820585145));
#383=CARTESIAN_POINT('',(-0.641778545374893,0.225622782618503,0.203870354042297));
#384=CARTESIAN_POINT('',(-0.641240888936038,0.224861978104204,0.203070166208685));
#385=CARTESIAN_POINT('',(-0.640694983907194,0.224178020395349,0.20221047071064));
#386=CARTESIAN_POINT('',(-0.640516804994018,0.223963146782248,0.201923690986208));
#387=CARTESIAN_POINT('',(-0.640197181660235,0.223590960629047,0.201395263132064));
#388=CARTESIAN_POINT('',(-0.63988428150248,0.223246379216285,0.200844687934679));
#389=CARTESIAN_POINT('',(-0.639746783063883,0.223098334346321,0.20059465483086));
#390=CARTESIAN_POINT('',(-0.639409453720696,0.222741833797312,0.199956294876111));
#391=CARTESIAN_POINT('',(-0.63909729993235,0.222422797965002,0.199285633495503));
#392=CARTESIAN_POINT('',(-0.638922354988398,0.222245005233201,0.198868844269036));
#393=CARTESIAN_POINT('',(-0.638642399700948,0.22195367079329,0.198092372696659));
#394=CARTESIAN_POINT('',(-0.638457475839725,0.221723680369008,0.197269307496435));
#395=CARTESIAN_POINT('',(-0.638398827966817,0.221634785507211,0.196893059902642));
#396=CARTESIAN_POINT('',(-0.638341627277318,0.221485476165687,0.196106779433396));
#397=CARTESIAN_POINT('',(-0.638422273697893,0.221408660961206,0.195311766839622));
#398=CARTESIAN_POINT('',(-0.638502228258591,0.221389716333469,0.194908402141553));
#399=CARTESIAN_POINT('',(-0.638615027190762,0.221389501937156,0.194512904791853));
#400=CARTESIAN_POINT('',(-0.63875381398185,0.221405931027508,0.19412747449914));
#401=DRAUGHTING_PRE_DEFINED_CURVE_FONT('continuous');
#402=COLOUR_RGB('',0.0,0.0,0.0);
#403=CARTESIAN_POINT('',(-0.635217670988046,0.249182834243821,0.194121970791382));
#404=CARTESIAN_POINT('',(-0.635217670988046,0.249182834243821,0.194121970791382));
#405=CARTESIAN_POINT('',(-0.635274493829755,0.249189560731213,0.194536902937367));
#406=CARTESIAN_POINT('',(-0.635367684883048,0.249185215758702,0.194947033921244));
#407=CARTESIAN_POINT('',(-0.635491105916316,0.249169837594898,0.195349848141603));
#408=CARTESIAN_POINT('',(-0.635831308068477,0.249109297272255,0.196272232637899));
#409=CARTESIAN_POINT('',(-0.63626595618709,0.248992513438394,0.197149576301277));
#410=CARTESIAN_POINT('',(-0.636534713398119,0.248907533055006,0.197640087690859));
#411=CARTESIAN_POINT('',(-0.637009540525151,0.248734621703456,0.198446471901235));
#412=CARTESIAN_POINT('',(-0.637510783592709,0.248511085396124,0.199223405207045));
#413=CARTESIAN_POINT('',(-0.63771750808299,0.248411881176093,0.199534528105261));
#414=CARTESIAN_POINT('',(-0.638120450960506,0.24820422526197,0.200126178023306));
#415=CARTESIAN_POINT('',(-0.638528800962473,0.247964716157727,0.200701827357211));
#416=CARTESIAN_POINT('',(-0.638726332237642,0.247841767916589,0.200975682232123));
#417=CARTESIAN_POINT('',(-0.638923962100571,0.247711303339564,0.201245718709115));
#418=CARTESIAN_POINT('',(-0.639121338331758,0.247573171834207,0.201511965532214));
#419=DRAUGHTING_PRE_DEFINED_CURVE_FONT('continuous');
#420=COLOUR_RGB('',0.0,0.0,0.0);
#421=CARTESIAN_POINT('',(-0.639465424082093,0.247332367344324,0.198709611987584));
#422=CARTESIAN_POINT('',(-0.638220515740902,0.248027827225428,0.194185573880289));
#423=CARTESIAN_POINT('',(-0.639465424082937,0.247332367343734,0.198709611987738));
#424=CARTESIAN_POINT('',(-0.638866158191788,0.24775175674633,0.197434278167833));
#425=CARTESIAN_POINT('',(-0.638385026227454,0.247983821702326,0.196063498155295));
#426=CARTESIAN_POINT('',(-0.638252399979356,0.248022229552319,0.194668662181196));
#427=CARTESIAN_POINT('',(-0.638237111314358,0.248026657067688,0.194507870631708));
#428=CARTESIAN_POINT('',(-0.638226401581354,0.248028523970442,0.194346794082614));
#429=CARTESIAN_POINT('',(-0.638220515740902,0.248027827225428,0.194185573880289));
#430=DRAUGHTING_PRE_DEFINED_CURVE_FONT('continuous');
#431=COLOUR_RGB('',0.0,0.0,0.0);
#432=CARTESIAN_POINT('',(-0.641142262604747,0.223261044026498,0.195423837064695));
#433=CARTESIAN_POINT('',(-0.641142262604747,0.223261044026498,0.195423837064695));
#434=CARTESIAN_POINT('',(-0.641033023400103,0.223337493838568,0.196313518990829));
#435=CARTESIAN_POINT('',(-0.6410633183267,0.223526921731979,0.197190709539974));
#436=CARTESIAN_POINT('',(-0.641197953815515,0.223815716912333,0.198033080130155));
#437=CARTESIAN_POINT('',(-0.641394241707603,0.224236757439579,0.199261189813258));
#438=CARTESIAN_POINT('',(-0.641801987590441,0.224868041144883,0.200415807454979));
#439=CARTESIAN_POINT('',(-0.642246439549012,0.22564959311114,0.201448745890824));
#440=CARTESIAN_POINT('',(-0.642475043050949,0.226051583726744,0.201980036931769));
#441=CARTESIAN_POINT('',(-0.642714053671522,0.226493327745356,0.202479199796065));
#442=CARTESIAN_POINT('',(-0.642945900486096,0.22696358261484,0.202939167466108));
#443=CARTESIAN_POINT('',(-0.643106329163311,0.227288980083872,0.203257446606594));
#444=CARTESIAN_POINT('',(-0.643263418586074,0.227627943089145,0.203556925745645));
#445=CARTESIAN_POINT('',(-0.643412835202177,0.227975779042723,0.20383566365879));
#446=CARTESIAN_POINT('',(-0.643514972624863,0.228213550910018,0.204026201851903));
#447=CARTESIAN_POINT('',(-0.643613927819537,0.228456008361712,0.204207795236794));
#448=CARTESIAN_POINT('',(-0.643711635895403,0.22871045058717,0.204385243638842));
#449=CARTESIAN_POINT('',(-0.644056299563999,0.229607991451573,0.205011190027555));
#450=CARTESIAN_POINT('',(-0.644371879018717,0.230630465650537,0.205561091532692));
#451=CARTESIAN_POINT('',(-0.644598355142502,0.231722019066015,0.205971118364997));
#452=CARTESIAN_POINT('',(-0.644812266674,0.232753014558673,0.206358397457327));
#453=CARTESIAN_POINT('',(-0.644946590610989,0.233846362192018,0.206621407703098));
#454=CARTESIAN_POINT('',(-0.644978323499979,0.23494087080072,0.206737456196721));
#455=CARTESIAN_POINT('',(-0.645002805219013,0.23578527712776,0.206826986860509));
#456=CARTESIAN_POINT('',(-0.644966638122939,0.236629499206838,0.206829376381591));
#457=CARTESIAN_POINT('',(-0.644874010108299,0.237441125436448,0.206750346755548));
#458=CARTESIAN_POINT('',(-0.64482461858267,0.237873904416731,0.206708206223708));
#459=CARTESIAN_POINT('',(-0.644758400458202,0.23830668189998,0.20664235014701));
#460=CARTESIAN_POINT('',(-0.644675147752215,0.238735804260117,0.206552117579001));
#461=CARTESIAN_POINT('',(-0.644467678618916,0.239805194655077,0.206327254345328));
#462=CARTESIAN_POINT('',(-0.644152245403933,0.2408466727229,0.205948462696984));
#463=CARTESIAN_POINT('',(-0.643756508019538,0.241795131596108,0.205440121748714));
#464=CARTESIAN_POINT('',(-0.643342006965296,0.242788561123748,0.204907678094713));
#465=CARTESIAN_POINT('',(-0.642839590315431,0.243681166245171,0.204233123863438));
#466=CARTESIAN_POINT('',(-0.642313047522058,0.244434580551669,0.203480002607994));
#467=CARTESIAN_POINT('',(-0.642101175870649,0.244737741349466,0.203176959728839));
#468=CARTESIAN_POINT('',(-0.641885799524052,0.245018639481448,0.202861687307575));
#469=CARTESIAN_POINT('',(-0.641671970413825,0.245276527327952,0.202539653014517));
#470=CARTESIAN_POINT('',(-0.641513408632599,0.245467760206651,0.202300853296981));
#471=CARTESIAN_POINT('',(-0.641356176301847,0.245646086794757,0.202059228872494));
#472=CARTESIAN_POINT('',(-0.641195455129583,0.245818280391598,0.201805916181687));
#473=CARTESIAN_POINT('',(-0.640651629278611,0.246400925030231,0.200948792084717));
#474=CARTESIAN_POINT('',(-0.640082417424607,0.246888303839187,0.199983305769243));
#475=CARTESIAN_POINT('',(-0.639581569806329,0.247249810338266,0.198952612738276));
#476=CARTESIAN_POINT('',(-0.63954240125659,0.247278081782062,0.19887200788008));
#477=CARTESIAN_POINT('',(-0.639503668142158,0.247305602674852,0.198791001472539));
#478=CARTESIAN_POINT('',(-0.639465424082673,0.247332367343918,0.198709611987177));
#479=DRAUGHTING_PRE_DEFINED_CURVE_FONT('continuous');
#480=COLOUR_RGB('',0.0,0.0,0.0);
#481=CARTESIAN_POINT('',(-0.641377786271084,0.223227020782292,0.194190487905075));
#482=CARTESIAN_POINT('',(-0.641377786271084,0.223227020782292,0.194190487905075));
#483=CARTESIAN_POINT('',(-0.641273244366196,0.223214645480669,0.194595931333937));
#484=CARTESIAN_POINT('',(-0.641193400963534,0.223225255429065,0.195007348554973));
#485=CARTESIAN_POINT('',(-0.641142262604747,0.223261044026498,0.195423837064695));
#486=DRAUGHTING_PRE_DEFINED_CURVE_FONT('continuous');
#487=COLOUR_RGB('',0.0,0.0,0.0);
#488=CARTESIAN_POINT('',(-1.42248572652445,0.315691821107074,0.211767236669248));
#489=CARTESIAN_POINT('',(-1.41801109476298,0.337002179119502,0.220200663384664));
#490=CARTESIAN_POINT('',(-1.41793594221451,0.336754031765967,0.220456017419707));
#491=CARTESIAN_POINT('',(-1.41786792270299,0.336496524955559,0.220704375436881));
#492=CARTESIAN_POINT('',(-1.41780754555692,0.336229933881762,0.220945180564883));
#493=CARTESIAN_POINT('',(-1.41762731895537,0.335280586600762,0.2217474077024));
#494=CARTESIAN_POINT('',(-1.41754822783267,0.334233280082358,0.222445333127318));
#495=CARTESIAN_POINT('',(-1.41754889559097,0.333447673718036,0.222879039624488));
#496=CARTESIAN_POINT('',(-1.41767288398808,0.33176429025496,0.223628258219976));
#497=CARTESIAN_POINT('',(-1.41803872055306,0.330005449874855,0.224061818641123));
#498=CARTESIAN_POINT('',(-1.418288141372,0.329095816021028,0.224196465128138));
#499=CARTESIAN_POINT('',(-1.41884876344236,0.327424322280798,0.224285860119087));
#500=CARTESIAN_POINT('',(-1.41955466018032,0.325820593521681,0.224091358967673));
#501=CARTESIAN_POINT('',(-1.41990530116712,0.32510011384253,0.223943644837155));
#502=CARTESIAN_POINT('',(-1.42061881501121,0.323750321165151,0.223552390313049));
#503=CARTESIAN_POINT('',(-1.42137096822399,0.322496116204047,0.222966049816354));
#504=CARTESIAN_POINT('',(-1.42173786810913,0.321912938318771,0.222638479592284));
#505=CARTESIAN_POINT('',(-1.42238020540197,0.320924352788612,0.221983298079834));
#506=CARTESIAN_POINT('',(-1.42297942768106,0.320013006441392,0.221192034263545));
#507=CARTESIAN_POINT('',(-1.42322735885357,0.319631417914392,0.220821886831934));
#508=CARTESIAN_POINT('',(-1.42364325618571,0.318966057656295,0.220100960793384));
#509=CARTESIAN_POINT('',(-1.42396840476578,0.3183552817457,0.219291806814373));
#510=CARTESIAN_POINT('',(-1.42409180032989,0.318092147692764,0.21890981710338));
#511=CARTESIAN_POINT('',(-1.42426214795154,0.317641167636125,0.21818997978303));
#512=CARTESIAN_POINT('',(-1.42432505227427,0.31723959343409,0.217426014109831));
#513=CARTESIAN_POINT('',(-1.42432964791023,0.3170712652355,0.217078111189468));
#514=CARTESIAN_POINT('',(-1.42428227231284,0.316691949222547,0.21622424616847));
#515=CARTESIAN_POINT('',(-1.42410032881141,0.316384063384697,0.215357424712355));
#516=CARTESIAN_POINT('',(-1.42395044371143,0.316229000908996,0.214850402910212));
#517=CARTESIAN_POINT('',(-1.42360847122326,0.315985733716529,0.213916537403001));
#518=CARTESIAN_POINT('',(-1.42317285851989,0.315822841980901,0.213005056863616));
#519=CARTESIAN_POINT('',(-1.42295505202746,0.315763678217876,0.212587458388729));
#520=CARTESIAN_POINT('',(-1.42272518903145,0.315720167833246,0.212175056223866));
#521=CARTESIAN_POINT('',(-1.42248572652445,0.315691821107074,0.211767236669248));
#522=DRAUGHTING_PRE_DEFINED_CURVE_FONT('continuous');
#523=COLOUR_RGB('',0.0,0.0,0.0);
#524=CARTESIAN_POINT('',(-0.641182243597357,0.246130870777872,0.184727239093934));
#525=CARTESIAN_POINT('',(-0.641182243597357,0.246130870777872,0.184727239093934));
#526=CARTESIAN_POINT('',(-0.640773468282469,0.246416947522062,0.185077378283067));
#527=CARTESIAN_POINT('',(-0.640362328670461,0.246684849916219,0.185439606354098));
#528=CARTESIAN_POINT('',(-0.639950616807693,0.24693516865446,0.18581356410223));
#529=CARTESIAN_POINT('',(-0.639282575400976,0.247314889590452,0.186441371497226));
#530=CARTESIAN_POINT('',(-0.638624526059417,0.2476511583378,0.18710302496671));
#531=CARTESIAN_POINT('',(-0.638372914551522,0.247774502052005,0.187363425465411));
#532=CARTESIAN_POINT('',(-0.637761804926038,0.248062363150163,0.188017123382847));
#533=CARTESIAN_POINT('',(-0.637175483667917,0.248313341485325,0.188708141445518));
#534=CARTESIAN_POINT('',(-0.636839853918242,0.248449629596025,0.189133193501003));
#535=CARTESIAN_POINT('',(-0.636288205760409,0.24866447514567,0.189901697068535));
#536=CARTESIAN_POINT('',(-0.635824283984381,0.248840398639216,0.190734088931577));
#537=CARTESIAN_POINT('',(-0.635647240507927,0.248908000734866,0.191100811154639));
#538=CARTESIAN_POINT('',(-0.635332548379408,0.249034084000165,0.191902944136909));
#539=CARTESIAN_POINT('',(-0.635170342087586,0.249121345707484,0.192754938082942));
#540=CARTESIAN_POINT('',(-0.635136962630916,0.249154968170054,0.193210633407458));
#541=CARTESIAN_POINT('',(-0.635155660963864,0.24917549371608,0.193669160765844));
#542=CARTESIAN_POINT('',(-0.635217670988046,0.249182834243821,0.194121970791382));
#543=DRAUGHTING_PRE_DEFINED_CURVE_FONT('continuous');
#544=COLOUR_RGB('',0.0,0.0,0.0);
#545=CARTESIAN_POINT('',(-0.640838157849747,0.246371675265847,0.18752959263632));
#546=CARTESIAN_POINT('',(-0.638220515740902,0.248027827225428,0.194185573880286));
#547=CARTESIAN_POINT('',(-0.638203166364465,0.248025773467496,0.193710353730758));
#548=CARTESIAN_POINT('',(-0.638228506292063,0.248001229731741,0.193231778187499));
#549=CARTESIAN_POINT('',(-0.638298156433336,0.24795479801537,0.192760361125673));
#550=CARTESIAN_POINT('',(-0.63848239560306,0.247831976428555,0.191513364544233));
#551=CARTESIAN_POINT('',(-0.638971540600598,0.247564017418296,0.190352597745136));
#552=CARTESIAN_POINT('',(-0.639610921443989,0.247172977027731,0.189285029898845));
#553=CARTESIAN_POINT('',(-0.639980347726909,0.24694703876347,0.188668202502003));
#554=CARTESIAN_POINT('',(-0.640398873419522,0.246679103466725,0.188082033460386));
#555=CARTESIAN_POINT('',(-0.640838157850662,0.246371675265206,0.187529592637404));
#556=DRAUGHTING_PRE_DEFINED_CURVE_FONT('continuous');
#557=COLOUR_RGB('',0.0,0.0,0.0);
#558=CARTESIAN_POINT('',(-0.640838157851299,0.246371675264761,0.187529592636604));
#559=CARTESIAN_POINT('',(-0.641573284731926,0.245857205097379,0.186605102556604));
#560=CARTESIAN_POINT('',(-0.642364876659036,0.24522954454382,0.185774886913568));
#561=CARTESIAN_POINT('',(-0.643108952489967,0.244521481246679,0.185065133119918));
#562=CARTESIAN_POINT('',(-0.643392243695434,0.244251901055177,0.184794909307465));
#563=CARTESIAN_POINT('',(-0.643666579975139,0.243974134137137,0.18454411506666));
#564=CARTESIAN_POINT('',(-0.643943762968341,0.243672727772653,0.184300367316279));
#565=CARTESIAN_POINT('',(-0.644662268800309,0.24289143081005,0.18366853136504));
#566=CARTESIAN_POINT('',(-0.645377157624922,0.241966373721091,0.183107935027768));
#567=CARTESIAN_POINT('',(-0.64599048665747,0.240933336331004,0.182690571281955));
#568=CARTESIAN_POINT('',(-0.64654825316227,0.239993883567776,0.182311017232859));
#569=CARTESIAN_POINT('',(-0.64702237210465,0.238964183779991,0.18204923775375));
#570=CARTESIAN_POINT('',(-0.647364321336651,0.237893907761105,0.181933126136883));
#571=CARTESIAN_POINT('',(-0.647581578410376,0.237213909053165,0.181859354747024));
#572=CARTESIAN_POINT('',(-0.647745891240179,0.236518227592969,0.181843952269175));
#573=CARTESIAN_POINT('',(-0.647852653086177,0.23582445943715,0.181886736111382));
#574=CARTESIAN_POINT('',(-0.647937494412594,0.235273136911622,0.181920735504031));
#575=CARTESIAN_POINT('',(-0.647986725073136,0.234722332463902,0.181990912635867));
#576=CARTESIAN_POINT('',(-0.648000239889891,0.234170128482026,0.182097908807376));
#577=CARTESIAN_POINT('',(-0.648026930563541,0.233079570131453,0.182309217621054));
#578=CARTESIAN_POINT('',(-0.647909494027829,0.231996395129059,0.182665725635929));
#579=CARTESIAN_POINT('',(-0.647667749891876,0.230983340936403,0.183140822304641));
#580=CARTESIAN_POINT('',(-0.6474087892195,0.229898139039568,0.183649754412918));
#581=CARTESIAN_POINT('',(-0.647008099564547,0.228893389762451,0.184294061657685));
#582=CARTESIAN_POINT('',(-0.646532339669914,0.228016413390595,0.185012904676479));
#583=CARTESIAN_POINT('',(-0.646328195069522,0.227640110148128,0.185321354216829));
#584=CARTESIAN_POINT('',(-0.646110792596645,0.2272872296896,0.185643050821994));
#585=CARTESIAN_POINT('',(-0.645887150170458,0.226959973312233,0.185971756034983));
#586=CARTESIAN_POINT('',(-0.645669276502012,0.226641158368778,0.186291982441984));
#587=CARTESIAN_POINT('',(-0.645448146113609,0.226349256734349,0.186614946632289));
#588=CARTESIAN_POINT('',(-0.645214797245572,0.226067876419441,0.186957676394348));
#589=CARTESIAN_POINT('',(-0.644626230296246,0.225358161583711,0.187822130600601));
#590=CARTESIAN_POINT('',(-0.643970284888827,0.224741143597728,0.188791481517578));
#591=CARTESIAN_POINT('',(-0.643345472271781,0.224267547692956,0.189830473884596));
#592=CARTESIAN_POINT('',(-0.642632580082229,0.22372718917217,0.191015932569718));
#593=CARTESIAN_POINT('',(-0.641960641899716,0.223369595505661,0.19229104701436));
#594=CARTESIAN_POINT('',(-0.641537037900814,0.223258458480861,0.193635114914009));
#595=CARTESIAN_POINT('',(-0.6414791008161,0.223243258069067,0.193818945510426));
#596=CARTESIAN_POINT('',(-0.641425848364169,0.223232710203192,0.194004089351887));
#597=CARTESIAN_POINT('',(-0.641377786271084,0.223227020782292,0.194190487905075));
#598=DRAUGHTING_PRE_DEFINED_CURVE_FONT('continuous');
#599=COLOUR_RGB('',0.0,0.0,0.0);
#600=CARTESIAN_POINT('',(-0.63875381398185,0.221405931027508,0.19412747449914));
#601=CARTESIAN_POINT('',(-0.638905956435731,0.221423941114071,0.193704953666467));
#602=CARTESIAN_POINT('',(-0.639089328513274,0.221461951999388,0.193294530809954));
#603=CARTESIAN_POINT('',(-0.639295900196136,0.221517337861971,0.192896250704776));
#604=CARTESIAN_POINT('',(-0.639828220028716,0.221685519511738,0.191968997080518));
#605=CARTESIAN_POINT('',(-0.64042600812187,0.221931084313659,0.191099462435678));
#606=CARTESIAN_POINT('',(-0.640785715956899,0.222097049208643,0.190607051493862));
#607=CARTESIAN_POINT('',(-0.641404961450497,0.222414386831222,0.189794214281671));
#608=CARTESIAN_POINT('',(-0.642030414753412,0.222791245032636,0.189012658385153));
#609=CARTESIAN_POINT('',(-0.642286276061822,0.22295528183917,0.188697440868028));
#610=CARTESIAN_POINT('',(-0.643053561857465,0.223478481642473,0.187761699667481));
#611=CARTESIAN_POINT('',(-0.643804353608906,0.224090011874263,0.186865232845123));
#612=CARTESIAN_POINT('',(-0.644292326698757,0.224538140201639,0.186282932072574));
#613=CARTESIAN_POINT('',(-0.645247878988166,0.225533222268811,0.185134371425888));
#614=CARTESIAN_POINT('',(-0.646102544584713,0.226701519032921,0.184072340293885));
#615=CARTESIAN_POINT('',(-0.646504933776052,0.227342003364293,0.183557548123186));
#616=CARTESIAN_POINT('',(-0.647241011588633,0.22873938399691,0.182574499653444));
#617=CARTESIAN_POINT('',(-0.64777291453685,0.230321621247463,0.181752204825034));
#618=CARTESIAN_POINT('',(-0.647980840385677,0.231172004283576,0.181383787214148));
#619=CARTESIAN_POINT('',(-0.648243483033672,0.232922573441966,0.180779132505042));
#620=CARTESIAN_POINT('',(-0.648193200382283,0.234761705446016,0.180445070569868));
#621=CARTESIAN_POINT('',(-0.648086960059364,0.235674482717314,0.180353848379));
#622=CARTESIAN_POINT('',(-0.647707143478334,0.237519882802198,0.180320826530441));
#623=CARTESIAN_POINT('',(-0.647032235224202,0.239260911448416,0.180581957128768));
#624=CARTESIAN_POINT('',(-0.646619897889967,0.240108417596598,0.18078698558573));
#625=CARTESIAN_POINT('',(-0.645789420725389,0.241532678814821,0.181261302452167));
#626=CARTESIAN_POINT('',(-0.644824267205198,0.242794138803052,0.181902935217864));
#627=CARTESIAN_POINT('',(-0.644378532114591,0.243317174492585,0.182213792517103));
#628=CARTESIAN_POINT('',(-0.643492510973588,0.244259142796352,0.182857633192733));
#629=CARTESIAN_POINT('',(-0.642559538321708,0.245088035181773,0.183584564221679));
#630=CARTESIAN_POINT('',(-0.642105130414855,0.245459564639635,0.183949642653811));
#631=CARTESIAN_POINT('',(-0.641645203378332,0.24580687365278,0.184330687843389));
#632=CARTESIAN_POINT('',(-0.641182243597357,0.246130870777872,0.184727239093934));
#633=DRAUGHTING_PRE_DEFINED_CURVE_FONT('continuous');
#634=COLOUR_RGB('',0.0,0.0,0.0);
#635=CARTESIAN_POINT('',(-1.42248572652445,0.315691821107074,0.211767236669209));
#636=CARTESIAN_POINT('',(-1.42209938904254,0.315646087839895,0.211109279890096));
#637=CARTESIAN_POINT('',(-1.42168806536041,0.315639824215736,0.210463251022327));
#638=CARTESIAN_POINT('',(-1.4212626574669,0.31567108345425,0.209827510708244));
#639=CARTESIAN_POINT('',(-1.42040552309579,0.315807077102964,0.208587845668468));
#640=CARTESIAN_POINT('',(-1.4195376226644,0.316093883690552,0.207381961845908));
#641=CARTESIAN_POINT('',(-1.41911095751746,0.316273455435075,0.206794075314255));
#642=CARTESIAN_POINT('',(-1.41824714179423,0.316724399094276,0.205604129927519));
#643=CARTESIAN_POINT('',(-1.4174310076545,0.317353265311002,0.204461795199087));
#644=CARTESIAN_POINT('',(-1.41702986027484,0.317726028279248,0.203890025705751));
#645=CARTESIAN_POINT('',(-1.41625461107955,0.318603284164912,0.202752637202098));
#646=CARTESIAN_POINT('',(-1.41562017524642,0.319707949968306,0.201730862292981));
#647=CARTESIAN_POINT('',(-1.41534013289399,0.320338486254988,0.201243479371517));
#648=CARTESIAN_POINT('',(-1.4149452396972,0.321564522717492,0.200467040188268));
#649=CARTESIAN_POINT('',(-1.41475395651912,0.322933186995895,0.199883900989589));
#650=CARTESIAN_POINT('',(-1.41471197479464,0.323555381111615,0.199669629160408));
#651=CARTESIAN_POINT('',(-1.41471156767123,0.324915844450008,0.199304664667506));
#652=CARTESIAN_POINT('',(-1.41489039385813,0.326304664746719,0.199137488670379));
#653=CARTESIAN_POINT('',(-1.41503265646377,0.32704205048776,0.199103738663216));
#654=CARTESIAN_POINT('',(-1.41521474538258,0.3277688701714,0.199120594862558));
#655=CARTESIAN_POINT('',(-1.41543053492247,0.328481388965921,0.199183690065453));
#656=DRAUGHTING_PRE_DEFINED_CURVE_FONT('continuous');
#657=COLOUR_RGB('',0.0,0.0,0.0);
#658=CARTESIAN_POINT('',(-1.42462965548755,0.314435138669826,0.211811512151431));
#659=CARTESIAN_POINT('',(-1.42434856182008,0.314401863793847,0.21144885553227));
#660=CARTESIAN_POINT('',(-1.42406226816821,0.314379383608013,0.211089238957193));
#661=CARTESIAN_POINT('',(-1.42377223666118,0.314367493020483,0.210731675578779));
#662=CARTESIAN_POINT('',(-1.42315421944724,0.314364791414752,0.209980132678792));
#663=CARTESIAN_POINT('',(-1.42252919860777,0.314409995916771,0.209235683606073));
#664=CARTESIAN_POINT('',(-1.4221988393063,0.314447318009892,0.208844643067479));
#665=CARTESIAN_POINT('',(-1.42140080497717,0.314570924357644,0.207902910701107));
#666=CARTESIAN_POINT('',(-1.42060926220962,0.314777895600151,0.206969720947372));
#667=CARTESIAN_POINT('',(-1.42014976443389,0.3149292576646,0.206425362457513));
#668=CARTESIAN_POINT('',(-1.41914609277492,0.315335555860087,0.205225712972126));
#669=CARTESIAN_POINT('',(-1.41819260450838,0.315908200652689,0.204052010011214));
#670=CARTESIAN_POINT('',(-1.41768897452139,0.316276888719521,0.203417396359457));
#671=CARTESIAN_POINT('',(-1.4167261687159,0.317140384058183,0.202165409494031));
#672=CARTESIAN_POINT('',(-1.41591247148779,0.318253451761305,0.201007774328802));
#673=CARTESIAN_POINT('',(-1.41554835211805,0.318883394231335,0.20045417609296));
#674=CARTESIAN_POINT('',(-1.41495230834851,0.320251004722875,0.199455260706763));
#675=CARTESIAN_POINT('',(-1.41462535934861,0.321834180838699,0.198675999134661));
#676=CARTESIAN_POINT('',(-1.41453805360383,0.322653662809518,0.198357341996381));
#677=CARTESIAN_POINT('',(-1.41451538007773,0.324192792721558,0.197904946826704));
#678=CARTESIAN_POINT('',(-1.41472198375177,0.325764745077317,0.197681722887029));
#679=CARTESIAN_POINT('',(-1.41485855320803,0.326471190552092,0.197627071203755));
#680=CARTESIAN_POINT('',(-1.41503321927145,0.327169486318291,0.197614882441893));
#681=CARTESIAN_POINT('',(-1.415241188618,0.327856183496382,0.197641588166979));
#682=SURFACE_SIDE_STYLE('',(#766));
#684=SURFACE_STYLE_FILL_AREA(#767);
#685=ORIENTED_EDGE('',*,*,#768,.F.);
#686=ORIENTED_EDGE('',*,*,#66,.T.);
#687=ORIENTED_EDGE('',*,*,#68,.T.);
#688=ORIENTED_EDGE('',*,*,#769,.F.);
#689=ORIENTED_EDGE('',*,*,#70,.T.);
#690=ORIENTED_EDGE('',*,*,#72,.T.);
#691=CARTESIAN_POINT('',(-1.43136024617462,0.329329631903439,0.211999999999999));
#692=DIRECTION('',(-0.113058948475305,0.373311077627699,0.920791243165412));
#693=DIRECTION('',(-0.957071084296007,-0.28985330704421,-1.33109848832742E-017));
#694=SURFACE_STYLE_FILL_AREA(#770);
#695=ORIENTED_EDGE('',*,*,#771,.F.);
#696=ORIENTED_EDGE('',*,*,#66,.F.);
#697=ORIENTED_EDGE('',*,*,#74,.F.);
#698=ORIENTED_EDGE('',*,*,#772,.F.);
#699=ORIENTED_EDGE('',*,*,#76,.T.);
#700=ORIENTED_EDGE('',*,*,#78,.T.);
#701=CARTESIAN_POINT('',(-1.03140166699702,0.28198394732386,0.203));
#702=DIRECTION('',(-0.992818438026008,0.117526341623232,0.0223407282839314));
#703=DIRECTION('',(0.117555681783523,0.993066292691687,-5.44472531487857E-017));
#704=SURFACE_STYLE_FILL_AREA(#773);
#705=ORIENTED_EDGE('',*,*,#774,.F.);
#706=ORIENTED_EDGE('',*,*,#80,.F.);
#707=ORIENTED_EDGE('',*,*,#82,.F.);
#708=ORIENTED_EDGE('',*,*,#84,.F.);
#709=ORIENTED_EDGE('',*,*,#775,.F.);
#710=ORIENTED_EDGE('',*,*,#86,.F.);
#711=ORIENTED_EDGE('',*,*,#72,.F.);
#712=CARTESIAN_POINT('',(-1.03140166699702,0.28198394732386,0.203));
#713=DIRECTION('',(-0.992818438026008,0.117526341623232,0.0223407282839314));
#714=DIRECTION('',(0.117555681783523,0.993066292691687,-5.51808296661791E-017));
#715=SURFACE_STYLE_FILL_AREA(#776);
#716=ORIENTED_EDGE('',*,*,#777,.F.);
#717=ORIENTED_EDGE('',*,*,#88,.F.);
#718=ORIENTED_EDGE('',*,*,#78,.F.);
#719=ORIENTED_EDGE('',*,*,#778,.F.);
#720=ORIENTED_EDGE('',*,*,#80,.T.);
#721=ORIENTED_EDGE('',*,*,#90,.T.);
#722=CARTESIAN_POINT('',(-0.63144308781942,0.234638262744282,0.194));
#723=DIRECTION('',(0.121428496586752,0.0849803490823021,0.988955742430636));
#724=DIRECTION('',(-0.57337359344859,0.819294038996899,0.0));
#725=SURFACE_STYLE_FILL_AREA(#779);
#726=ORIENTED_EDGE('',*,*,#777,.T.);
#727=ORIENTED_EDGE('',*,*,#92,.T.);
#728=ORIENTED_EDGE('',*,*,#84,.T.);
#729=ORIENTED_EDGE('',*,*,#82,.T.);
#730=ORIENTED_EDGE('',*,*,#778,.T.);
#731=ORIENTED_EDGE('',*,*,#76,.F.);
#732=ORIENTED_EDGE('',*,*,#94,.F.);
#733=CARTESIAN_POINT('',(-0.63144308781942,0.234638262744282,0.194));
#734=DIRECTION('',(0.121428496586752,0.0849803490823021,0.988955742430636));
#735=DIRECTION('',(-0.57337359344859,0.819294038996899,0.0));
#736=SURFACE_STYLE_FILL_AREA(#780);
#737=ORIENTED_EDGE('',*,*,#774,.T.);
#738=ORIENTED_EDGE('',*,*,#70,.F.);
#739=ORIENTED_EDGE('',*,*,#96,.F.);
#740=ORIENTED_EDGE('',*,*,#775,.T.);
#741=ORIENTED_EDGE('',*,*,#92,.F.);
#742=ORIENTED_EDGE('',*,*,#90,.F.);
#743=CARTESIAN_POINT('',(-1.03140166699702,0.28198394732386,0.203));
#744=DIRECTION('',(-0.992818438026008,0.117526341623232,0.0223407282839314));
#745=DIRECTION('',(0.117555681783523,0.993066292691687,-5.51808296661791E-017));
#746=SURFACE_STYLE_FILL_AREA(#781);
#747=ORIENTED_EDGE('',*,*,#771,.T.);
#748=ORIENTED_EDGE('',*,*,#88,.T.);
#749=ORIENTED_EDGE('',*,*,#94,.T.);
#750=ORIENTED_EDGE('',*,*,#772,.T.);
#751=ORIENTED_EDGE('',*,*,#98,.F.);
#752=ORIENTED_EDGE('',*,*,#68,.F.);
#753=CARTESIAN_POINT('',(-1.03140166699702,0.28198394732386,0.203));
#754=DIRECTION('',(-0.992818438026008,0.117526341623232,0.0223407282839314));
#755=DIRECTION('',(0.117555681783523,0.993066292691687,-5.44472531487857E-017));
#756=SURFACE_STYLE_FILL_AREA(#782);
#757=ORIENTED_EDGE('',*,*,#768,.T.);
#758=ORIENTED_EDGE('',*,*,#86,.T.);
#759=ORIENTED_EDGE('',*,*,#96,.T.);
#760=ORIENTED_EDGE('',*,*,#769,.T.);
#761=ORIENTED_EDGE('',*,*,#98,.T.);
#762=ORIENTED_EDGE('',*,*,#74,.T.);
#763=CARTESIAN_POINT('',(-1.43136024617462,0.329329631903439,0.211999999999999));
#764=DIRECTION('',(-0.113058948475305,0.373311077627699,0.920791243165412));
#765=DIRECTION('',(-0.957071084296007,-0.28985330704421,-1.33109848832742E-017));
#766=SURFACE_STYLE_FILL_AREA(#783);
#767=FILL_AREA_STYLE('',(#784));
#768=EDGE_CURVE('',#142,#153,#785,.T.);
#769=EDGE_CURVE('',#149,#146,#786,.T.);
#770=FILL_AREA_STYLE('',(#787));
#771=EDGE_CURVE('',#143,#163,#788,.T.);
#772=EDGE_CURVE('',#159,#156,#789,.T.);
#773=FILL_AREA_STYLE('',(#790));
#774=EDGE_CURVE('',#167,#150,#791,.T.);
#775=EDGE_CURVE('',#176,#173,#792,.T.);
#776=FILL_AREA_STYLE('',(#793));
#777=EDGE_CURVE('',#179,#182,#794,.T.);
#778=EDGE_CURVE('',#166,#160,#795,.T.);
#779=FILL_AREA_STYLE('',(#796));
#780=FILL_AREA_STYLE('',(#797));
#781=FILL_AREA_STYLE('',(#798));
#782=FILL_AREA_STYLE('',(#799));
#783=FILL_AREA_STYLE('',(#800));
#784=FILL_AREA_STYLE_COLOUR('',#801);
#785=LINE('',#802,#803);
#786=LINE('',#804,#805);
#787=FILL_AREA_STYLE_COLOUR('',#806);
#788=LINE('',#807,#808);
#789=LINE('',#809,#810);
#790=FILL_AREA_STYLE_COLOUR('',#811);
#791=LINE('',#812,#813);
#792=LINE('',#814,#815);
#793=FILL_AREA_STYLE_COLOUR('',#816);
#794=LINE('',#817,#818);
#795=LINE('',#819,#820);
#796=FILL_AREA_STYLE_COLOUR('',#821);
#797=FILL_AREA_STYLE_COLOUR('',#822);
#798=FILL_AREA_STYLE_COLOUR('',#823);
#799=FILL_AREA_STYLE_COLOUR('',#824);
#800=FILL_AREA_STYLE_COLOUR('',#825);
#801=COLOUR_RGB('',0.560784339904785,0.686274528503418,0.662745118141174);
#802=CARTESIAN_POINT('',(-1.41680367417501,0.333015378544014,0.210367011831957));
#803=VECTOR('',#826,1.0);
#804=CARTESIAN_POINT('',(-1.41680367417501,0.333015378544014,0.210367011831957));
#805=VECTOR('',#827,1.0);
#806=COLOUR_RGB('',0.560784339904785,0.686274528503418,0.662745118141174);
#807=CARTESIAN_POINT('',(-1.02975588745205,0.295886875421544,0.203));
#808=VECTOR('',#828,1.0);
#809=CARTESIAN_POINT('',(-1.03304744654199,0.268081019226177,0.203));
#810=VECTOR('',#829,1.0);
#811=COLOUR_RGB('',0.560784339904785,0.686274528503418,0.662745118141174);
#812=CARTESIAN_POINT('',(-1.02993222097473,0.294397275982506,0.203));
#813=VECTOR('',#830,1.0);
#814=CARTESIAN_POINT('',(-1.03287111301931,0.269570618665214,0.203));
#815=VECTOR('',#831,1.0);
#816=COLOUR_RGB('',0.560784339904785,0.686274528503418,0.662745118141174);
#817=CARTESIAN_POINT('',(-0.640144971180448,0.246856794054204,0.193175144997423));
#818=VECTOR('',#832,1.0);
#819=CARTESIAN_POINT('',(-0.640144971180448,0.246856794054204,0.193175144997423));
#820=VECTOR('',#833,1.0);
#821=COLOUR_RGB('',0.560784339904785,0.686274528503418,0.662745118141174);
#822=COLOUR_RGB('',0.560784339904785,0.686274528503418,0.662745118141174);
#823=COLOUR_RGB('',0.560784339904785,0.686274528503418,0.662745118141174);
#824=COLOUR_RGB('',0.560784339904785,0.686274528503418,0.662745118141174);
#825=COLOUR_RGB('',0.560784339904785,0.686274528503418,0.662745118141174);
#826=DIRECTION('',(0.113058948475305,-0.373311077627699,-0.920791243165412));
#827=DIRECTION('',(0.113058948475305,-0.373311077627699,-0.920791243165412));
#828=DIRECTION('',(0.992818438026008,-0.117526341623232,-0.0223407282839314));
#829=DIRECTION('',(-0.992818438026008,0.117526341623232,0.0223407282839314));
#830=DIRECTION('',(-0.992818438026008,0.117526341623232,0.0223407282839314));
#831=DIRECTION('',(0.992818438026008,-0.117526341623232,-0.0223407282839314));
#832=DIRECTION('',(0.121428496586752,0.0849803490823021,0.988955742430636));
#833=DIRECTION('',(0.121428496586752,0.0849803490823021,0.988955742430636));
#834=PRESENTATION_LAYER_ASSIGNMENT('9','Calque0',(#100));
#835=PRESENTATION_LAYER_ASSIGNMENT('1023','',(#50,#52,#54,#56,#58,#60,#62,#64,#66,#68,#70,#72,#74,#76,#78,#80,#82,#84,#86,#88,#90,#92,#94,#96,#98));
ENDSEC;
END-ISO-10303-21;
