ISO-10303-21;
HEADER;
FILE_DESCRIPTION(('STEP AP214'),'1');
FILE_NAME('3.stp','2019-12-01T17:25:08',(' '),(' '),'Spatial InterOp 3D',' ',' ');
FILE_SCHEMA(('AUTOMOTIVE_DESIGN { 1 0 10303 214 1 1 1 1 }'));
ENDSEC;
DATA;
#1=MECHANICAL_DESIGN_GEOMETRIC_PRESENTATION_REPRESENTATION(' ',(#10,#11,#12,#13,#14,#15,#16,#17,#18,#19,#20,#21,#22,#23,#24,#25,#26,#27,#28,#29,#30,#31,#32,#33,#34,#35,#36,#37,#38,#39,#40,#41,#42,#43,#44,#45,#46),#6);
#2=PRODUCT_DEFINITION_CONTEXT('',#47,'design');
#3=APPLICATION_PROTOCOL_DEFINITION('INTERNATIONAL STANDARD','automotive_design',1994,#47);
#4=PRODUCT_CATEGORY_RELATIONSHIP('NONE','NONE',#48,#49);
#5=SHAPE_DEFINITION_REPRESENTATION(#50,#51);
#6= (GEOMETRIC_REPRESENTATION_CONTEXT(3)GLOBAL_UNCERTAINTY_ASSIGNED_CONTEXT((#54))GLOBAL_UNIT_ASSIGNED_CONTEXT((#56,#57,#58))REPRESENTATION_CONTEXT('NONE','WORKSPACE'));
#10=STYLED_ITEM('',(#60),#61);
#11=STYLED_ITEM('',(#62),#63);
#12=STYLED_ITEM('',(#64),#65);
#13=STYLED_ITEM('',(#66),#67);
#14=STYLED_ITEM('',(#68),#69);
#15=STYLED_ITEM('',(#70),#71);
#16=STYLED_ITEM('',(#72),#73);
#17=STYLED_ITEM('',(#74),#75);
#18=STYLED_ITEM('',(#76),#77);
#19=STYLED_ITEM('',(#78),#79);
#20=STYLED_ITEM('',(#80),#81);
#21=STYLED_ITEM('',(#82),#83);
#22=STYLED_ITEM('',(#84),#85);
#23=STYLED_ITEM('',(#86),#87);
#24=STYLED_ITEM('',(#88),#89);
#25=STYLED_ITEM('',(#90),#91);
#26=STYLED_ITEM('',(#92),#93);
#27=STYLED_ITEM('',(#94),#95);
#28=STYLED_ITEM('',(#96),#97);
#29=STYLED_ITEM('',(#98),#99);
#30=STYLED_ITEM('',(#100),#101);
#31=STYLED_ITEM('',(#102),#103);
#32=STYLED_ITEM('',(#104),#105);
#33=STYLED_ITEM('',(#106),#107);
#34=STYLED_ITEM('',(#108),#109);
#35=STYLED_ITEM('',(#110),#111);
#36=STYLED_ITEM('',(#112),#113);
#37=STYLED_ITEM('',(#114),#115);
#38=STYLED_ITEM('',(#116),#117);
#39=STYLED_ITEM('',(#118),#119);
#40=STYLED_ITEM('',(#120),#121);
#41=STYLED_ITEM('',(#122),#123);
#42=STYLED_ITEM('',(#124),#125);
#43=STYLED_ITEM('',(#126),#127);
#44=STYLED_ITEM('',(#128),#129);
#45=STYLED_ITEM('',(#130),#131);
#46=STYLED_ITEM('',(#132),#133);
#47=APPLICATION_CONTEXT(' ');
#48=PRODUCT_CATEGORY('part','NONE');
#49=PRODUCT_RELATED_PRODUCT_CATEGORY('detail',' ',(#134));
#50=PRODUCT_DEFINITION_SHAPE('NONE','NONE',#135);
#51=ADVANCED_BREP_SHAPE_REPRESENTATION('PartBody/Trim.1',(#133,#136),#6);
#54=UNCERTAINTY_MEASURE_WITH_UNIT(LENGTH_MEASURE(1.0E-008),#56,'','');
#56= (CONVERSION_BASED_UNIT('METRE',#139)LENGTH_UNIT()NAMED_UNIT(#142));
#57= (NAMED_UNIT(#144)PLANE_ANGLE_UNIT()SI_UNIT($,.RADIAN.));
#58= (NAMED_UNIT(#144)SOLID_ANGLE_UNIT()SI_UNIT($,.STERADIAN.));
#60=PRESENTATION_STYLE_ASSIGNMENT((#150));
#61=ADVANCED_FACE('',(#151),#152,.F.);
#62=PRESENTATION_STYLE_ASSIGNMENT((#153));
#63=ADVANCED_FACE('',(#154),#155,.T.);
#64=PRESENTATION_STYLE_ASSIGNMENT((#156));
#65=ADVANCED_FACE('',(#157),#158,.F.);
#66=PRESENTATION_STYLE_ASSIGNMENT((#159));
#67=ADVANCED_FACE('',(#160),#161,.F.);
#68=PRESENTATION_STYLE_ASSIGNMENT((#162));
#69=ADVANCED_FACE('',(#163),#164,.F.);
#70=PRESENTATION_STYLE_ASSIGNMENT((#165));
#71=ADVANCED_FACE('0:49',(#166),#167,.F.);
#72=PRESENTATION_STYLE_ASSIGNMENT((#168));
#73=ADVANCED_FACE('0:51',(#169),#170,.F.);
#74=PRESENTATION_STYLE_ASSIGNMENT((#171));
#75=ADVANCED_FACE('0:53',(#172),#173,.F.);
#76=PRESENTATION_STYLE_ASSIGNMENT((#174));
#77=ADVANCED_FACE('0:55',(#175),#176,.T.);
#78=PRESENTATION_STYLE_ASSIGNMENT((#177));
#79=ADVANCED_FACE('0:57',(#178),#179,.F.);
#80=PRESENTATION_STYLE_ASSIGNMENT((#180));
#81=EDGE_CURVE('',#181,#182,#183,.T.);
#82=PRESENTATION_STYLE_ASSIGNMENT((#184));
#83=EDGE_CURVE('',#182,#185,#186,.T.);
#84=PRESENTATION_STYLE_ASSIGNMENT((#187));
#85=EDGE_CURVE('',#188,#189,#190,.T.);
#86=PRESENTATION_STYLE_ASSIGNMENT((#191));
#87=EDGE_CURVE('',#192,#188,#193,.T.);
#88=PRESENTATION_STYLE_ASSIGNMENT((#194));
#89=EDGE_CURVE('',#195,#196,#197,.T.);
#90=PRESENTATION_STYLE_ASSIGNMENT((#198));
#91=EDGE_CURVE('0:40',#199,#196,#200,.T.);
#92=PRESENTATION_STYLE_ASSIGNMENT((#201));
#93=EDGE_CURVE('0:39',#199,#202,#203,.T.);
#94=PRESENTATION_STYLE_ASSIGNMENT((#204));
#95=EDGE_CURVE('',#202,#205,#206,.T.);
#96=PRESENTATION_STYLE_ASSIGNMENT((#207));
#97=EDGE_CURVE('0:47',#208,#209,#210,.T.);
#98=PRESENTATION_STYLE_ASSIGNMENT((#211));
#99=EDGE_CURVE('',#185,#208,#212,.T.);
#100=PRESENTATION_STYLE_ASSIGNMENT((#213));
#101=EDGE_CURVE('',#189,#214,#215,.T.);
#102=PRESENTATION_STYLE_ASSIGNMENT((#216));
#103=EDGE_CURVE('0:42',#214,#217,#218,.T.);
#104=PRESENTATION_STYLE_ASSIGNMENT((#219));
#105=EDGE_CURVE('',#220,#221,#222,.T.);
#106=PRESENTATION_STYLE_ASSIGNMENT((#223));
#107=EDGE_CURVE('',#221,#224,#225,.T.);
#108=PRESENTATION_STYLE_ASSIGNMENT((#226));
#109=EDGE_CURVE('',#227,#224,#228,.T.);
#110=PRESENTATION_STYLE_ASSIGNMENT((#229));
#111=EDGE_CURVE('0:31',#224,#196,#230,.T.);
#112=PRESENTATION_STYLE_ASSIGNMENT((#231));
#113=EDGE_CURVE('',#232,#227,#233,.T.);
#114=PRESENTATION_STYLE_ASSIGNMENT((#234));
#115=EDGE_CURVE('0:27',#235,#195,#236,.T.);
#116=PRESENTATION_STYLE_ASSIGNMENT((#237));
#117=EDGE_CURVE('0:28',#235,#238,#239,.F.);
#118=PRESENTATION_STYLE_ASSIGNMENT((#240));
#119=EDGE_CURVE('',#238,#241,#242,.F.);
#120=PRESENTATION_STYLE_ASSIGNMENT((#243));
#121=EDGE_CURVE('0:26',#241,#244,#245,.T.);
#122=PRESENTATION_STYLE_ASSIGNMENT((#246));
#123=EDGE_CURVE('0:30',#244,#232,#247,.T.);
#124=PRESENTATION_STYLE_ASSIGNMENT((#248));
#125=EDGE_CURVE('0:33',#244,#220,#249,.T.);
#126=PRESENTATION_STYLE_ASSIGNMENT((#250));
#127=EDGE_CURVE('',#205,#241,#251,.T.);
#128=PRESENTATION_STYLE_ASSIGNMENT((#252));
#129=EDGE_CURVE('',#217,#192,#253,.T.);
#130=PRESENTATION_STYLE_ASSIGNMENT((#254));
#131=EDGE_CURVE('',#209,#181,#255,.T.);
#132=PRESENTATION_STYLE_ASSIGNMENT((#256));
#133=MANIFOLD_SOLID_BREP('PartBody/Trim.1',#257);
#134=PRODUCT('PartBody/Trim.1','','PART--DESC',(#258));
#135=PRODUCT_DEFINITION('','NONE',#259,#2);
#136=AXIS2_PLACEMENT_3D('',#260,#261,#262);
#139=LENGTH_MEASURE_WITH_UNIT(LENGTH_MEASURE(1.0),#263);
#142=DIMENSIONAL_EXPONENTS(1.0,0.0,0.0,0.0,0.0,0.0,0.0);
#144=DIMENSIONAL_EXPONENTS(0.0,0.0,0.0,0.0,0.0,0.0,0.0);
#150=SURFACE_STYLE_USAGE(.BOTH.,#264);
#151=FACE_OUTER_BOUND('',#265,.T.);
#152=TOROIDAL_SURFACE('',#266,0.100004267517115,0.0150003682838408);
#153=SURFACE_STYLE_USAGE(.BOTH.,#267);
#154=FACE_OUTER_BOUND('',#268,.T.);
#155=CYLINDRICAL_SURFACE('',#269,0.014);
#156=SURFACE_STYLE_USAGE(.BOTH.,#270);
#157=FACE_OUTER_BOUND('',#271,.T.);
#158=CYLINDRICAL_SURFACE('',#272,0.0125);
#159=SURFACE_STYLE_USAGE(.BOTH.,#273);
#160=FACE_OUTER_BOUND('',#274,.T.);
#161=CYLINDRICAL_SURFACE('',#275,0.014);
#162=SURFACE_STYLE_USAGE(.BOTH.,#276);
#163=FACE_OUTER_BOUND('',#277,.T.);
#164=CYLINDRICAL_SURFACE('',#278,0.014);
#165=SURFACE_STYLE_USAGE(.BOTH.,#279);
#166=FACE_OUTER_BOUND('',#280,.T.);
#167=CYLINDRICAL_SURFACE('',#281,0.014);
#168=SURFACE_STYLE_USAGE(.BOTH.,#282);
#169=FACE_OUTER_BOUND('',#283,.T.);
#170=CYLINDRICAL_SURFACE('',#284,0.014);
#171=SURFACE_STYLE_USAGE(.BOTH.,#285);
#172=FACE_OUTER_BOUND('',#286,.T.);
#173=CYLINDRICAL_SURFACE('',#287,0.0125);
#174=SURFACE_STYLE_USAGE(.BOTH.,#288);
#175=FACE_OUTER_BOUND('',#289,.T.);
#176=CYLINDRICAL_SURFACE('',#290,0.014);
#177=SURFACE_STYLE_USAGE(.BOTH.,#291);
#178=FACE_OUTER_BOUND('',#292,.T.);
#179=TOROIDAL_SURFACE('',#293,0.100004267517115,0.0150003682838408);
#180=CURVE_STYLE('',#294,POSITIVE_LENGTH_MEASURE(0.35),#295);
#181=VERTEX_POINT('',#296);
#182=VERTEX_POINT('',#297);
#183=B_SPLINE_CURVE_WITH_KNOTS('',3,(#298,#299,#300,#301,#302,#303,#304,#305,#306,#307,#308,#309,#310,#311,#312,#313,#314,#315,#316,#317,#318,#319,#320,#321,#322,#323,#324,#325,#326,#327,#328,#329,#330,#331,#332,#333,#334,#335,#336,#337,#338,#339,#340,#341,#342,#343,#344,#345,#346,#347,#348,#349),.UNSPECIFIED.,.F.,.F.,(4,3,3,3,3,3,3,3,3,3,3,3,3,3,3,3,3,4),(0.057932549978549,0.0599655193261669,0.0611866563641166,0.061971969537065,0.0637524751622757,0.064532358722504,0.0670712965585016,0.0684211996556236,0.0711760571412252,0.0722611410304713,0.0731575566369563,0.0762902077284987,0.0783608857954048,0.0820248493303917,0.0856055205341026,0.0876356428590418,0.0890732543101535,0.0904600595404359),.UNSPECIFIED.);
#184=CURVE_STYLE('',#350,POSITIVE_LENGTH_MEASURE(0.35),#351);
#185=VERTEX_POINT('',#352);
#186=B_SPLINE_CURVE_WITH_KNOTS('',3,(#353,#354,#355,#356,#357,#358,#359,#360,#361,#362,#363,#364,#365,#366,#367,#368,#369,#370,#371,#372,#373,#374,#375,#376,#377),.UNSPECIFIED.,.F.,.F.,(4,3,3,3,3,3,3,3,4),(0.0904600595404359,0.0923948680092945,0.0938241814060931,0.0962732698435697,0.0970634339344734,0.0993950115147166,0.100922630223002,0.102264798012007,0.102960209805064),.UNSPECIFIED.);
#187=CURVE_STYLE('',#378,POSITIVE_LENGTH_MEASURE(0.35),#379);
#188=VERTEX_POINT('',#380);
#189=VERTEX_POINT('',#381);
#190=B_SPLINE_CURVE_WITH_KNOTS('',3,(#382,#383,#384,#385,#386,#387,#388,#389,#390,#391,#392,#393,#394,#395,#396,#397,#398,#399,#400,#401,#402,#403),.UNSPECIFIED.,.F.,.F.,(4,3,3,3,3,3,3,4),(0.0700060688545234,0.0728282633283465,0.0744413898101401,0.0756232727437299,0.078459059746773,0.0798068144105157,0.0811469777570772,0.0812948467498161),.UNSPECIFIED.);
#191=CURVE_STYLE('',#404,POSITIVE_LENGTH_MEASURE(0.35),#405);
#192=VERTEX_POINT('',#406);
#193=B_SPLINE_CURVE_WITH_KNOTS('',3,(#407,#408,#409,#410,#411,#412,#413,#414,#415,#416,#417,#418,#419,#420,#421,#422,#423,#424,#425,#426,#427,#428,#429,#430,#431,#432,#433,#434,#435,#436,#437,#438,#439,#440,#441,#442,#443,#444,#445,#446,#447,#448,#449),.UNSPECIFIED.,.F.,.F.,(4,3,3,3,3,3,3,3,3,3,3,3,3,3,4),(0.0417345002783595,0.0429455196588813,0.0441109746034372,0.0457294179941301,0.0464337416341539,0.0471568206645267,0.0513475541366703,0.0540321866623766,0.0555892505057697,0.0581352598445114,0.0603133444751299,0.0626444381325618,0.0652802861459963,0.0673569853209705,0.0700060688545234),.UNSPECIFIED.);
#194=CURVE_STYLE('',#450,POSITIVE_LENGTH_MEASURE(0.35),#451);
#195=VERTEX_POINT('',#452);
#196=VERTEX_POINT('',#453);
#197=B_SPLINE_CURVE_WITH_KNOTS('',5,(#454,#455,#456,#457,#458,#459,#460,#461,#462,#463,#464,#465,#466,#467,#468,#469,#470),.UNSPECIFIED.,.F.,.F.,(6,5,3,3,6),(0.0,0.211719994027788,8.03632993309522,15.8609398721627,24.3232044588432),.UNSPECIFIED.);
#198=CURVE_STYLE('',#471,POSITIVE_LENGTH_MEASURE(0.35),#472);
#199=VERTEX_POINT('',#473);
#200=B_SPLINE_CURVE_WITH_KNOTS('',5,(#474,#475,#476,#477,#478,#479,#480,#481,#482,#483,#484,#485,#486,#487,#488),.UNSPECIFIED.,.F.,.F.,(6,3,3,3,6),(0.0,2.57169881032303,5.14339762064606,17.1458221468054,20.8044884898712),.UNSPECIFIED.);
#201=CURVE_STYLE('',#489,POSITIVE_LENGTH_MEASURE(0.35),#490);
#202=VERTEX_POINT('',#491);
#203=B_SPLINE_CURVE_WITH_KNOTS('',5,(#492,#493,#494,#495,#496,#497,#498,#499,#500,#501,#502,#503,#504,#505,#506,#507,#508,#509,#510,#511,#512,#513,#514,#515,#516,#517,#518,#519,#520,#521,#522,#523,#524,#525,#526,#527,#528,#529,#530,#531),.UNSPECIFIED.,.F.,.F.,(6,3,3,3,3,3,3,3,5,5,3,6),(0.0,1.35012209440925,2.7002441888185,4.05036628322775,5.40048837763699,20.4416159581857,25.7144645760875,30.9873131939893,35.4327169317352,35.9941281422229,41.1197949534246,48.8998353922797),.UNSPECIFIED.);
#204=CURVE_STYLE('',#532,POSITIVE_LENGTH_MEASURE(0.35),#533);
#205=VERTEX_POINT('',#534);
#206=B_SPLINE_CURVE_WITH_KNOTS('',5,(#535,#536,#537,#538,#539,#540,#541,#542,#543,#544,#545,#546,#547,#548,#549,#550,#551,#552,#553,#554,#555,#556,#557,#558,#559,#560,#561,#562,#563,#564,#565,#566,#567,#568,#569,#570,#571,#572,#573,#574),.UNSPECIFIED.,.F.,.F.,(6,3,3,3,3,3,3,3,5,5,3,6),(0.0,1.35012209440925,2.7002441888185,4.05036628322775,5.40048837763699,20.4416159581857,25.7144645760875,30.9873131939893,35.4327169317352,35.9941281422229,41.1197949534246,48.8998353922797),.UNSPECIFIED.);
#207=CURVE_STYLE('',#575,POSITIVE_LENGTH_MEASURE(0.35),#576);
#208=VERTEX_POINT('',#577);
#209=VERTEX_POINT('',#578);
#210=B_SPLINE_CURVE_WITH_KNOTS('',3,(#579,#580,#581,#582,#583,#584,#585,#586,#587,#588,#589,#590,#591,#592,#593,#594,#595,#596,#597,#598,#599,#600,#601,#602,#603,#604,#605,#606,#607,#608,#609,#610,#611,#612,#613,#614,#615),.UNSPECIFIED.,.F.,.F.,(4,3,3,3,3,3,3,3,3,3,3,3,4),(0.0,0.00261698911582248,0.00318709948735826,0.0078677877466012,0.0117028395745145,0.016154708334669,0.0177488210876802,0.0225577409630574,0.0284672842746427,0.0329630899834843,0.0374762137020789,0.0394293716929579,0.0418718258531596),.UNSPECIFIED.);
#211=CURVE_STYLE('',#616,POSITIVE_LENGTH_MEASURE(0.35),#617);
#212=B_SPLINE_CURVE_WITH_KNOTS('',3,(#618,#619,#620,#621),.UNSPECIFIED.,.F.,.F.,(4,4),(0.102960209805064,0.102968806208976),.UNSPECIFIED.);
#213=CURVE_STYLE('',#622,POSITIVE_LENGTH_MEASURE(0.35),#623);
#214=VERTEX_POINT('',#624);
#215=B_SPLINE_CURVE_WITH_KNOTS('',3,(#625,#626,#627,#628),.UNSPECIFIED.,.F.,.F.,(4,4),(0.0812948467498161,0.0813031645752715),.UNSPECIFIED.);
#216=CURVE_STYLE('',#629,POSITIVE_LENGTH_MEASURE(0.35),#630);
#217=VERTEX_POINT('',#631);
#218=B_SPLINE_CURVE_WITH_KNOTS('',3,(#632,#633,#634,#635,#636,#637,#638,#639,#640,#641,#642,#643,#644,#645,#646,#647,#648,#649,#650,#651,#652,#653,#654,#655,#656,#657,#658,#659,#660,#661,#662,#663,#664,#665,#666,#667,#668),.UNSPECIFIED.,.F.,.F.,(4,3,3,3,3,3,3,3,3,3,3,3,4),(0.0,0.00279860454004712,0.0049848307531625,0.00647239788327565,0.00929760334393918,0.011275580099689,0.0146435514028635,0.0165453614765985,0.0194309579047718,0.022094935581716,0.0257329929840699,0.0272983388597662,0.0308477806793412),.UNSPECIFIED.);
#219=CURVE_STYLE('',#669,POSITIVE_LENGTH_MEASURE(0.35),#670);
#220=VERTEX_POINT('',#671);
#221=VERTEX_POINT('',#672);
#222=B_SPLINE_CURVE_WITH_KNOTS('',3,(#673,#674,#675,#676,#677,#678,#679,#680,#681,#682,#683,#684,#685,#686,#687,#688,#689,#690,#691,#692,#693,#694,#695,#696),.UNSPECIFIED.,.F.,.F.,(4,2,1,1,2,1,2,2,1,2,2,2,2,4),(0.0,5.37151939919491,10.7430387983898,11.3044639412029,16.4815481355295,21.6586323298561,26.8357165241827,32.0128007185093,34.6013428156726,37.1898849128359,39.7784270099992,42.3669691071625,47.5440533014892,52.7211374958158),.UNSPECIFIED.);
#223=CURVE_STYLE('',#697,POSITIVE_LENGTH_MEASURE(0.35),#698);
#224=VERTEX_POINT('',#699);
#225=B_SPLINE_CURVE_WITH_KNOTS('',3,(#700,#701,#702,#703,#704,#705,#706,#707,#708,#709,#710,#711,#712,#713,#714,#715,#716,#717,#718,#719,#720,#721,#722,#723),.UNSPECIFIED.,.F.,.F.,(4,2,1,1,2,1,2,2,1,2,2,2,2,4),(0.0,5.37151939919491,10.7430387983898,11.3044639412029,16.4815481355295,21.6586323298561,26.8357165241827,32.0128007185093,34.6013428156726,37.1898849128359,39.7784270099992,42.3669691071625,47.5440533014892,52.7211374958158),.UNSPECIFIED.);
#226=CURVE_STYLE('',#724,POSITIVE_LENGTH_MEASURE(0.35),#725);
#227=VERTEX_POINT('',#726);
#228=B_SPLINE_CURVE_WITH_KNOTS('',3,(#727,#728,#729,#730,#731,#732,#733,#734,#735,#736,#737,#738,#739,#740,#741,#742,#743,#744,#745,#746,#747,#748,#749,#750,#751,#752,#753,#754,#755),.UNSPECIFIED.,.F.,.F.,(4,2,2,2,2,2,1,1,2,2,2,2,2,2,1,4),(0.0,6.55076284732357,13.1015256946471,17.6105822120935,22.1196387295399,26.6286952469863,31.1377517644327,35.6468082818791,40.1558647993255,44.6649213167719,48.0467137048567,51.5484249286806,53.9228720231429,58.6717662120674,63.420660400992,68.1695545899166),.UNSPECIFIED.);
#229=CURVE_STYLE('',#756,POSITIVE_LENGTH_MEASURE(0.35),#757);
#230=B_SPLINE_CURVE_WITH_KNOTS('',3,(#758,#759,#760,#761),.UNSPECIFIED.,.F.,.F.,(4,4),(21.253808322692,23.7726504624019),.UNSPECIFIED.);
#231=CURVE_STYLE('',#762,POSITIVE_LENGTH_MEASURE(0.35),#763);
#232=VERTEX_POINT('',#764);
#233=B_SPLINE_CURVE_WITH_KNOTS('',3,(#765,#766,#767,#768,#769,#770,#771,#772,#773,#774,#775,#776,#777,#778,#779,#780,#781,#782,#783,#784,#785,#786,#787,#788,#789,#790,#791,#792,#793),.UNSPECIFIED.,.F.,.F.,(4,2,2,2,2,2,1,1,2,2,2,2,2,2,1,4),(0.0,6.55076284732357,13.1015256946471,17.6105822120935,22.1196387295399,26.6286952469863,31.1377517644327,35.6468082818791,40.1558647993255,44.6649213167719,48.0467137048567,51.5484249286806,53.9228720231429,58.6717662120674,63.420660400992,68.1695545899166),.UNSPECIFIED.);
#234=CURVE_STYLE('',#794,POSITIVE_LENGTH_MEASURE(0.35),#795);
#235=VERTEX_POINT('',#796);
#236=B_SPLINE_CURVE_WITH_KNOTS('',5,(#797,#798,#799,#800,#801,#802,#803,#804,#805,#806,#807,#808,#809,#810,#811,#812,#813),.UNSPECIFIED.,.F.,.F.,(6,5,3,3,6),(0.0,0.211719994027788,8.03632993309522,15.8609398721627,24.3232044588432),.UNSPECIFIED.);
#237=CURVE_STYLE('',#814,POSITIVE_LENGTH_MEASURE(0.35),#815);
#238=VERTEX_POINT('',#816);
#239=B_SPLINE_CURVE_WITH_KNOTS('',5,(#817,#818,#819,#820,#821,#822,#823,#824,#825,#826,#827,#828,#829,#830,#831,#832,#833,#834,#835,#836,#837,#838,#839,#840,#841,#842,#843,#844,#845,#846,#847,#848,#849,#850,#851,#852,#853,#854),.UNSPECIFIED.,.F.,.F.,(6,3,5,3,3,3,3,3,3,3,3,6),(17.2998376334008,26.4304768532005,32.4298559597238,37.899868206147,43.9982244439991,49.0234443650812,54.0486642861633,62.0824325517793,70.1162008173954,73.0892707371799,74.8355805671317,76.5818903970835),.UNSPECIFIED.);
#240=CURVE_STYLE('',#855,POSITIVE_LENGTH_MEASURE(0.35),#856);
#241=VERTEX_POINT('',#857);
#242=B_SPLINE_CURVE_WITH_KNOTS('',5,(#858,#859,#860,#861,#862,#863,#864,#865,#866,#867,#868,#869,#870,#871,#872,#873,#874,#875,#876,#877,#878,#879,#880,#881,#882,#883,#884,#885,#886,#887,#888,#889,#890,#891,#892,#893,#894,#895),.UNSPECIFIED.,.F.,.F.,(6,3,5,3,3,3,3,3,3,3,3,6),(17.2998376334008,26.4304768532005,32.4298559597238,37.899868206147,43.9982244439991,49.0234443650812,54.0486642861633,62.0824325517793,70.1162008173954,73.0892707371799,74.8355805671317,76.5818903970835),.UNSPECIFIED.);
#243=CURVE_STYLE('',#896,POSITIVE_LENGTH_MEASURE(0.35),#897);
#244=VERTEX_POINT('',#898);
#245=B_SPLINE_CURVE_WITH_KNOTS('',3,(#899,#900,#901,#902),.UNSPECIFIED.,.F.,.F.,(4,4),(57.8157598713793,60.5382450842996),.UNSPECIFIED.);
#246=CURVE_STYLE('',#903,POSITIVE_LENGTH_MEASURE(0.35),#904);
#247=B_SPLINE_CURVE_WITH_KNOTS('',3,(#905,#906,#907,#908,#909,#910,#911,#912,#913,#914,#915,#916,#917,#918,#919,#920,#921,#922,#923,#924,#925,#926,#927,#928,#929,#930,#931,#932,#933),.UNSPECIFIED.,.F.,.F.,(4,2,2,2,2,2,1,1,2,2,2,2,2,2,1,4),(0.0,6.55076284732357,13.1015256946471,17.6105822120935,22.1196387295399,26.6286952469863,31.1377517644327,35.6468082818791,40.1558647993255,44.6649213167719,48.0467137048567,51.5484249286806,53.9228720231429,58.6717662120674,63.420660400992,68.1695545899166),.UNSPECIFIED.);
#248=CURVE_STYLE('',#934,POSITIVE_LENGTH_MEASURE(0.35),#935);
#249=B_SPLINE_CURVE_WITH_KNOTS('',3,(#936,#937,#938,#939,#940,#941,#942,#943,#944,#945,#946,#947,#948,#949,#950,#951,#952,#953,#954,#955,#956,#957,#958,#959),.UNSPECIFIED.,.F.,.F.,(4,2,1,1,2,1,2,2,1,2,2,2,2,4),(0.0,5.37151939919491,10.7430387983898,11.3044639412029,16.4815481355295,21.6586323298561,26.8357165241827,32.0128007185093,34.6013428156726,37.1898849128359,39.7784270099992,42.3669691071625,47.5440533014892,52.7211374958158),.UNSPECIFIED.);
#250=CURVE_STYLE('',#960,POSITIVE_LENGTH_MEASURE(0.35),#961);
#251=B_SPLINE_CURVE_WITH_KNOTS('',5,(#962,#963,#964,#965,#966,#967,#968,#969,#970,#971,#972,#973,#974,#975,#976,#977,#978,#979,#980,#981,#982,#983,#984,#985,#986,#987,#988,#989,#990,#991,#992,#993,#994,#995,#996,#997,#998,#999,#1000,#1001),.UNSPECIFIED.,.F.,.F.,(6,3,3,3,3,3,3,3,5,5,3,6),(0.0,1.35012209440925,2.7002441888185,4.05036628322775,5.40048837763699,20.4416159581857,25.7144645760875,30.9873131939893,35.4327169317352,35.9941281422229,41.1197949534246,48.8998353922797),.UNSPECIFIED.);
#252=CURVE_STYLE('',#1002,POSITIVE_LENGTH_MEASURE(0.35),#1003);
#253=B_SPLINE_CURVE_WITH_KNOTS('',3,(#1004,#1005,#1006,#1007,#1008,#1009,#1010,#1011,#1012,#1013,#1014,#1015,#1016,#1017,#1018,#1019,#1020,#1021,#1022),.UNSPECIFIED.,.F.,.F.,(4,3,3,3,3,3,4),(0.0308477806793412,0.0341275554979106,0.0379310278881351,0.0385803942240523,0.0404112771391707,0.0412447038609228,0.0417345002783595),.UNSPECIFIED.);
#254=CURVE_STYLE('',#1023,POSITIVE_LENGTH_MEASURE(0.35),#1024);
#255=B_SPLINE_CURVE_WITH_KNOTS('',3,(#1025,#1026,#1027,#1028,#1029,#1030,#1031,#1032,#1033,#1034,#1035,#1036,#1037,#1038,#1039,#1040,#1041,#1042,#1043),.UNSPECIFIED.,.F.,.F.,(4,3,3,3,3,3,4),(0.0418718258531596,0.0438122636404447,0.045364339316601,0.051648444647575,0.0529771882546133,0.0566024383829853,0.057932549978549),.UNSPECIFIED.);
#256=SURFACE_STYLE_USAGE(.BOTH.,#1044);
#257=CLOSED_SHELL('',(#61,#63,#65,#67,#69,#71,#73,#75,#77,#79));
#258=PRODUCT_CONTEXT('',#47,'mechanical');
#259=PRODUCT_DEFINITION_FORMATION_WITH_SPECIFIED_SOURCE(' ','NONE',#134,.NOT_KNOWN.);
#260=CARTESIAN_POINT('',(0.0,0.0,0.0));
#261=DIRECTION('',(0.0,0.0,1.0));
#262=DIRECTION('',(1.0,0.0,0.0));
#263= (NAMED_UNIT(#142)LENGTH_UNIT()SI_UNIT($,.METRE.));
#264=SURFACE_SIDE_STYLE('',(#1046));
#265=EDGE_LOOP('',(#1047,#1048,#1049,#1050,#1051,#1052));
#266=AXIS2_PLACEMENT_3D('',#1053,#1054,#1055);
#267=SURFACE_SIDE_STYLE('',(#1056));
#268=EDGE_LOOP('',(#1057,#1058,#1059,#1060,#1061,#1062,#1063,#1064,#1065));
#269=AXIS2_PLACEMENT_3D('',#1066,#1067,#1068);
#270=SURFACE_SIDE_STYLE('',(#1069));
#271=EDGE_LOOP('',(#1070,#1071,#1072,#1073,#1074,#1075,#1076,#1077));
#272=AXIS2_PLACEMENT_3D('',#1078,#1079,#1080);
#273=SURFACE_SIDE_STYLE('',(#1081));
#274=EDGE_LOOP('',(#1082,#1083,#1084,#1085,#1086));
#275=AXIS2_PLACEMENT_3D('',#1087,#1088,#1089);
#276=SURFACE_SIDE_STYLE('',(#1090));
#277=EDGE_LOOP('',(#1091,#1092,#1093,#1094,#1095,#1096,#1097));
#278=AXIS2_PLACEMENT_3D('',#1098,#1099,#1100);
#279=SURFACE_SIDE_STYLE('',(#1101));
#280=EDGE_LOOP('',(#1102,#1103,#1104,#1105));
#281=AXIS2_PLACEMENT_3D('',#1106,#1107,#1108);
#282=SURFACE_SIDE_STYLE('',(#1109));
#283=EDGE_LOOP('',(#1110,#1111,#1112,#1113,#1114,#1115));
#284=AXIS2_PLACEMENT_3D('',#1116,#1117,#1118);
#285=SURFACE_SIDE_STYLE('',(#1119));
#286=EDGE_LOOP('',(#1120,#1121,#1122,#1123,#1124,#1125,#1126));
#287=AXIS2_PLACEMENT_3D('',#1127,#1128,#1129);
#288=SURFACE_SIDE_STYLE('',(#1130));
#289=EDGE_LOOP('',(#1131,#1132,#1133,#1134,#1135,#1136,#1137,#1138));
#290=AXIS2_PLACEMENT_3D('',#1139,#1140,#1141);
#291=SURFACE_SIDE_STYLE('',(#1142));
#292=EDGE_LOOP('',(#1143,#1144,#1145,#1146,#1147,#1148,#1149,#1150));
#293=AXIS2_PLACEMENT_3D('',#1151,#1152,#1153);
#294=DRAUGHTING_PRE_DEFINED_CURVE_FONT('continuous');
#295=COLOUR_RGB('',0.0,0.0,0.0);
#296=CARTESIAN_POINT('',(-0.586136642638544,0.152691285146325,0.527788078921923));
#297=CARTESIAN_POINT('',(-0.575764617805107,0.162252369195744,0.550245952475895));
#298=CARTESIAN_POINT('',(-0.586136642638544,0.152691285146325,0.527788078921923));
#299=CARTESIAN_POINT('',(-0.586192890576378,0.152390266465439,0.528080576657008));
#300=CARTESIAN_POINT('',(-0.58619853980434,0.152092423419344,0.5283815753778));
#301=CARTESIAN_POINT('',(-0.586146427089743,0.151811795727633,0.528676984047509));
#302=CARTESIAN_POINT('',(-0.586115124716189,0.1516432320114,0.528854426205373));
#303=CARTESIAN_POINT('',(-0.586063713154689,0.151481023265138,0.529029650530929));
#304=CARTESIAN_POINT('',(-0.585994793318105,0.151326020252668,0.529201763427944));
#305=CARTESIAN_POINT('',(-0.585950470974367,0.151226337822476,0.529312449224099));
#306=CARTESIAN_POINT('',(-0.585899981970757,0.151131163703624,0.529420065516508));
#307=CARTESIAN_POINT('',(-0.585840466041667,0.151034682544224,0.529531399117515));
#308=CARTESIAN_POINT('',(-0.585705528222993,0.150815935103131,0.529783820838807));
#309=CARTESIAN_POINT('',(-0.585514741955984,0.150576885168485,0.530070261923779));
#310=CARTESIAN_POINT('',(-0.58523595531834,0.150321755327275,0.530404697936586));
#311=CARTESIAN_POINT('',(-0.58511384331126,0.150210005290619,0.530551185060604));
#312=CARTESIAN_POINT('',(-0.584973304085886,0.15009417003282,0.530708546234675));
#313=CARTESIAN_POINT('',(-0.584816675774127,0.149978749955916,0.530873396108424));
#314=CARTESIAN_POINT('',(-0.584306766901582,0.149602995913607,0.53141007055967));
#315=CARTESIAN_POINT('',(-0.583677340382812,0.149266813013491,0.531975732835306));
#316=CARTESIAN_POINT('',(-0.582989067275149,0.148989375538938,0.532579854173292));
#317=CARTESIAN_POINT('',(-0.582623126058894,0.148841867513792,0.532901053555814));
#318=CARTESIAN_POINT('',(-0.582239303893519,0.148710211732701,0.533233964180092));
#319=CARTESIAN_POINT('',(-0.58183822481731,0.148596257622883,0.533585613556543));
#320=CARTESIAN_POINT('',(-0.581019709993712,0.148363702165299,0.534303253155333));
#321=CARTESIAN_POINT('',(-0.580138343298132,0.14820856436657,0.535091875037245));
#322=CARTESIAN_POINT('',(-0.579259857632502,0.148171384277,0.535950732632503));
#323=CARTESIAN_POINT('',(-0.578913839499915,0.148156739774914,0.536289019656293));
#324=CARTESIAN_POINT('',(-0.578568199506991,0.148160382584885,0.536638125791039));
#325=CARTESIAN_POINT('',(-0.578226696586076,0.148184869459624,0.536997778659445));
#326=CARTESIAN_POINT('',(-0.577944572272,0.14820509869433,0.537294897110241));
#327=CARTESIAN_POINT('',(-0.57766662162862,0.14823970943456,0.537597978954549));
#328=CARTESIAN_POINT('',(-0.57740102793635,0.148287931573294,0.537899009484828));
#329=CARTESIAN_POINT('',(-0.576472873223313,0.148456450655791,0.538951003239114));
#330=CARTESIAN_POINT('',(-0.575671195252441,0.148791987535595,0.540004773284528));
#331=CARTESIAN_POINT('',(-0.575020899968138,0.149284867534322,0.541039440568742));
#332=CARTESIAN_POINT('',(-0.57459105567879,0.14961066053621,0.541723354221861));
#333=CARTESIAN_POINT('',(-0.574231002221718,0.1500030899468,0.542393067504233));
#334=CARTESIAN_POINT('',(-0.573944561303233,0.150452172512068,0.54303620208816));
#335=CARTESIAN_POINT('',(-0.573437718111609,0.151246802140709,0.544174197270154));
#336=CARTESIAN_POINT('',(-0.573158675370191,0.152225309810853,0.545237044188839));
#337=CARTESIAN_POINT('',(-0.573101002736983,0.153331875247464,0.546173441276301));
#338=CARTESIAN_POINT('',(-0.573044641167061,0.154413285298645,0.547088551389787));
#339=CARTESIAN_POINT('',(-0.573199300187089,0.155622482092096,0.547887390246856));
#340=CARTESIAN_POINT('',(-0.573537034218195,0.156897613055857,0.54853153289982));
#341=CARTESIAN_POINT('',(-0.573728518260553,0.15762057020257,0.548896740511977));
#342=CARTESIAN_POINT('',(-0.57397850195347,0.158365778109262,0.549213399138407));
#343=CARTESIAN_POINT('',(-0.574280798450377,0.159125813749718,0.549477506336031));
#344=CARTESIAN_POINT('',(-0.574494866785198,0.159664025623234,0.549664531288646));
#345=CARTESIAN_POINT('',(-0.574732129720522,0.160201889604056,0.549822370797512));
#346=CARTESIAN_POINT('',(-0.574986086791876,0.160732979294557,0.549951280171026));
#347=CARTESIAN_POINT('',(-0.575231068837997,0.161245299894094,0.550075633794728));
#348=CARTESIAN_POINT('',(-0.575492071602019,0.161752486927013,0.550173464847714));
#349=CARTESIAN_POINT('',(-0.575764617805499,0.162252369195513,0.550245952476006));
#350=DRAUGHTING_PRE_DEFINED_CURVE_FONT('continuous');
#351=COLOUR_RGB('',0.0,0.0,0.0);
#352=CARTESIAN_POINT('',(-0.58142732207291,0.173036722013162,0.546280651354398));
#353=CARTESIAN_POINT('',(-0.575764617805078,0.162252369194742,0.550245952475895));
#354=CARTESIAN_POINT('',(-0.576144862482394,0.162949783319267,0.55034708408033));
#355=CARTESIAN_POINT('',(-0.576547676998929,0.163632912725808,0.550398905075834));
#356=CARTESIAN_POINT('',(-0.576959823645542,0.164296520439248,0.550404066462341));
#357=CARTESIAN_POINT('',(-0.577264291365696,0.16478675159665,0.550407879366305));
#358=CARTESIAN_POINT('',(-0.577573459275714,0.165265605271689,0.550385898013095));
#359=CARTESIAN_POINT('',(-0.577875071427205,0.165722702492535,0.550340959015017));
#360=CARTESIAN_POINT('',(-0.578391875393692,0.16650592576665,0.550263957301587));
#361=CARTESIAN_POINT('',(-0.578891085340135,0.167232666277485,0.550119783566655));
#362=CARTESIAN_POINT('',(-0.57933909353223,0.167899591278674,0.549922566463527));
#363=CARTESIAN_POINT('',(-0.579483637102159,0.168114765291667,0.549858937126742));
#364=CARTESIAN_POINT('',(-0.579622368493012,0.16832286526928,0.549790367198138));
#365=CARTESIAN_POINT('',(-0.579762739726886,0.16853720973668,0.549711636330551));
#366=CARTESIAN_POINT('',(-0.580176940303169,0.169169686915017,0.549479321134439));
#367=CARTESIAN_POINT('',(-0.580586233024138,0.169824874435757,0.549166024133192));
#368=CARTESIAN_POINT('',(-0.580897764759813,0.170461294665344,0.548750466119512));
#369=CARTESIAN_POINT('',(-0.581101876221373,0.170878268759316,0.548478198020241));
#370=CARTESIAN_POINT('',(-0.5812608342183,0.171284987535404,0.548163126685065));
#371=CARTESIAN_POINT('',(-0.581356556124811,0.171668988039922,0.547810804403935));
#372=CARTESIAN_POINT('',(-0.581440657516685,0.1720063713839,0.547501253588331));
#373=CARTESIAN_POINT('',(-0.581474800650765,0.172320421573582,0.547168605185554));
#374=CARTESIAN_POINT('',(-0.581468133651909,0.172607709116741,0.546825516845329));
#375=CARTESIAN_POINT('',(-0.581464679307626,0.172756560212072,0.546647753915978));
#376=CARTESIAN_POINT('',(-0.581450527554145,0.1728994106413,0.546465949842419));
#377=CARTESIAN_POINT('',(-0.581427322072917,0.173036722013165,0.546280651354399));
#378=DRAUGHTING_PRE_DEFINED_CURVE_FONT('continuous');
#379=COLOUR_RGB('',0.0,0.0,0.0);
#380=CARTESIAN_POINT('',(-0.57511960041961,0.162270662865102,0.548506879111106));
#381=CARTESIAN_POINT('',(-0.578925645043445,0.171788538745144,0.544803499068419));
#382=CARTESIAN_POINT('',(-0.575119600419608,0.16227066286505,0.548506879111106));
#383=CARTESIAN_POINT('',(-0.575519975938531,0.163184291936211,0.548611938161894));
#384=CARTESIAN_POINT('',(-0.575950894396952,0.164076752832701,0.54861830929936));
#385=CARTESIAN_POINT('',(-0.576368733605965,0.164922228798087,0.548532978097263));
#386=CARTESIAN_POINT('',(-0.576607564593496,0.165405490912777,0.548484203987929));
#387=CARTESIAN_POINT('',(-0.576842537382117,0.165874565654659,0.548405619356669));
#388=CARTESIAN_POINT('',(-0.577066464242687,0.16632758596152,0.548298770292346));
#389=CARTESIAN_POINT('',(-0.577230527840841,0.166659498539542,0.548220485615342));
#390=CARTESIAN_POINT('',(-0.577387314131824,0.166979747213797,0.548128544814906));
#391=CARTESIAN_POINT('',(-0.577543925633974,0.167309018493692,0.548014846589384));
#392=CARTESIAN_POINT('',(-0.577919696236712,0.168099065620581,0.54774204127082));
#393=CARTESIAN_POINT('',(-0.57828171342942,0.168913525689728,0.547347623308949));
#394=CARTESIAN_POINT('',(-0.578539266930044,0.169701101803512,0.546791512077495));
#395=CARTESIAN_POINT('',(-0.578661673489936,0.170075410374383,0.546527211019289));
#396=CARTESIAN_POINT('',(-0.578757476360178,0.170437270490968,0.546230135541342));
#397=CARTESIAN_POINT('',(-0.57882139361923,0.170772931998652,0.54591295128635));
#398=CARTESIAN_POINT('',(-0.578884950860097,0.171106702870719,0.545597553592629));
#399=CARTESIAN_POINT('',(-0.578917508558845,0.171413392947675,0.545264609923842));
#400=CARTESIAN_POINT('',(-0.578924318118258,0.171695811453058,0.544918648929348));
#401=CARTESIAN_POINT('',(-0.578925069461514,0.171726972535048,0.54488047678868));
#402=CARTESIAN_POINT('',(-0.57892550993962,0.171757880861082,0.544842092630319));
#403=CARTESIAN_POINT('',(-0.578925645043446,0.171788538745144,0.544803499068419));
#404=DRAUGHTING_PRE_DEFINED_CURVE_FONT('continuous');
#405=COLOUR_RGB('',0.0,0.0,0.0);
#406=CARTESIAN_POINT('',(-0.583110287288072,0.153594893964212,0.528263487437518));
#407=CARTESIAN_POINT('',(-0.58311028729267,0.153594893999311,0.528263487400074));
#408=CARTESIAN_POINT('',(-0.583120724399798,0.153237569863357,0.528608984328516));
#409=CARTESIAN_POINT('',(-0.583078145479176,0.152899965509991,0.528962392934104));
#410=CARTESIAN_POINT('',(-0.582986781231653,0.152591060350554,0.529312980546384));
#411=CARTESIAN_POINT('',(-0.582898854551252,0.15229377770483,0.529650377348452));
#412=CARTESIAN_POINT('',(-0.582766080169603,0.152020918830229,0.529987309498273));
#413=CARTESIAN_POINT('',(-0.582599202305924,0.151773199709418,0.530321484904016));
#414=CARTESIAN_POINT('',(-0.582367462437483,0.151429197244374,0.530785547439665));
#415=CARTESIAN_POINT('',(-0.582076968237794,0.151142664529051,0.531232654686298));
#416=CARTESIAN_POINT('',(-0.581772104596666,0.150906840951994,0.5316544409811));
#417=CARTESIAN_POINT('',(-0.581639432258131,0.150804213871459,0.531837996402424));
#418=CARTESIAN_POINT('',(-0.581503973385875,0.150711156747131,0.532016701962588));
#419=CARTESIAN_POINT('',(-0.581368993633182,0.150626971980085,0.532189492751091));
#420=CARTESIAN_POINT('',(-0.58123041951306,0.150540545462119,0.532366884774741));
#421=CARTESIAN_POINT('',(-0.581086981888835,0.150460050541937,0.532544907156914));
#422=CARTESIAN_POINT('',(-0.580937848866492,0.150384648013661,0.532726017051614));
#423=CARTESIAN_POINT('',(-0.580073521839596,0.149947639213993,0.533775671744911));
#424=CARTESIAN_POINT('',(-0.579042301576105,0.149694419014725,0.534904092770153));
#425=CARTESIAN_POINT('',(-0.578028548017981,0.149687064117654,0.536114658475866));
#426=CARTESIAN_POINT('',(-0.577379125716781,0.149682352485184,0.536890160924223));
#427=CARTESIAN_POINT('',(-0.576736353219001,0.149778839721431,0.53769833921449));
#428=CARTESIAN_POINT('',(-0.576143032467485,0.149994029836191,0.538529408193707));
#429=CARTESIAN_POINT('',(-0.575798911519506,0.150118838257433,0.53901142107499));
#430=CARTESIAN_POINT('',(-0.575469911584983,0.150285454938643,0.539503968490815));
#431=CARTESIAN_POINT('',(-0.575175100120753,0.150487032589791,0.539983690460555));
#432=CARTESIAN_POINT('',(-0.574693043624301,0.150816639230189,0.540768100566883));
#433=CARTESIAN_POINT('',(-0.574293863693166,0.151241172435146,0.541529396606132));
#434=CARTESIAN_POINT('',(-0.573984860218291,0.151751566626869,0.542257391253922));
#435=CARTESIAN_POINT('',(-0.573720510944629,0.152188203573809,0.542880183138224));
#436=CARTESIAN_POINT('',(-0.573523629162452,0.152686448610773,0.543475773440007));
#437=CARTESIAN_POINT('',(-0.57339541535646,0.153232333393055,0.544030981751818));
#438=CARTESIAN_POINT('',(-0.573258194614098,0.153816566225783,0.544625193085952));
#439=CARTESIAN_POINT('',(-0.573198576706643,0.154459213153176,0.545177184647711));
#440=CARTESIAN_POINT('',(-0.573212345325738,0.155143569426778,0.545674284127296));
#441=CARTESIAN_POINT('',(-0.57322791397832,0.155917394673353,0.54623637165714));
#442=CARTESIAN_POINT('',(-0.573336549943379,0.156739929003322,0.546725749742664));
#443=CARTESIAN_POINT('',(-0.573523861909955,0.15759528347676,0.547135768328275));
#444=CARTESIAN_POINT('',(-0.573671438934301,0.158269189529098,0.547458808675868));
#445=CARTESIAN_POINT('',(-0.573869290983308,0.158966193822466,0.547732610900126));
#446=CARTESIAN_POINT('',(-0.574100087489933,0.159656296046726,0.54794829052248));
#447=CARTESIAN_POINT('',(-0.574394496633379,0.160536605752045,0.548223416233023));
#448=CARTESIAN_POINT('',(-0.574743783722849,0.161413075316967,0.548408264326823));
#449=CARTESIAN_POINT('',(-0.575119600419627,0.162270662865094,0.548506879111111));
#450=DRAUGHTING_PRE_DEFINED_CURVE_FONT('continuous');
#451=COLOUR_RGB('',0.0,0.0,0.0);
#452=CARTESIAN_POINT('',(0.0536812117725225,0.18010440473236,0.373507356509911));
#453=CARTESIAN_POINT('',(0.0413442234086285,0.19100352411496,0.371003523599296));
#454=CARTESIAN_POINT('',(0.0537846225716443,0.18,0.373478747419185));
#455=CARTESIAN_POINT('',(0.0537639625373286,0.18002088105147,0.373484548435391));
#456=CARTESIAN_POINT('',(0.0537432913884156,0.180041762102937,0.373490309867517));
#457=CARTESIAN_POINT('',(0.0537226091767483,0.180062643101905,0.373496031700615));
#458=CARTESIAN_POINT('',(0.0537019159541697,0.180083523995876,0.37350171391973));
#459=CARTESIAN_POINT('',(0.0536812117725227,0.180104404732352,0.373507356509911));
#460=CARTESIAN_POINT('',(0.0529160400831746,0.180876101420296,0.37371589169063));
#461=CARTESIAN_POINT('',(0.0521358998794854,0.181647582935416,0.373870299624248));
#462=CARTESIAN_POINT('',(0.0513438812909176,0.182415714234639,0.373969699762699));
#463=CARTESIAN_POINT('',(0.0497404605986584,0.183940577905635,0.374056034359536));
#464=CARTESIAN_POINT('',(0.0481086866965887,0.185430373381743,0.373908074835398));
#465=CARTESIAN_POINT('',(0.0472883274574943,0.186163436486113,0.373773227991846));
#466=CARTESIAN_POINT('',(0.0455778946592577,0.187656788469007,0.373358681902807));
#467=CARTESIAN_POINT('',(0.0438844441054826,0.189056430548652,0.372648375119651));
#468=CARTESIAN_POINT('',(0.043013163645954,0.189753046701902,0.372193583976079));
#469=CARTESIAN_POINT('',(0.0421613608671226,0.190407084255186,0.371646313994695));
#470=CARTESIAN_POINT('',(0.0413442234086284,0.19100352411496,0.371003523599296));
#471=DRAUGHTING_PRE_DEFINED_CURVE_FONT('continuous');
#472=COLOUR_RGB('',0.0,0.0,0.0);
#473=CARTESIAN_POINT('',(0.0496030984272538,0.193994372766993,0.36));
#474=CARTESIAN_POINT('',(0.0496030984272538,0.193994372766993,0.36));
#475=CARTESIAN_POINT('',(0.0493834952246358,0.193988144488101,0.360289841917882));
#476=CARTESIAN_POINT('',(0.0491638294568331,0.193977603384278,0.360579543119248));
#477=CARTESIAN_POINT('',(0.0489842655662742,0.193964480411346,0.360816822992505));
#478=CARTESIAN_POINT('',(0.0486651204244635,0.193938516665634,0.361238933372307));
#479=CARTESIAN_POINT('',(0.0483464593138174,0.193903393765187,0.361660747015059));
#480=CARTESIAN_POINT('',(0.0481672801500281,0.193882148987226,0.361897730151317));
#481=CARTESIAN_POINT('',(0.0469297306918014,0.193703912873702,0.363536455859082));
#482=CARTESIAN_POINT('',(0.0457030829796839,0.193385594924818,0.365166043678383));
#483=CARTESIAN_POINT('',(0.044706543399982,0.193026789270285,0.366493683303899));
#484=CARTESIAN_POINT('',(0.0434262587994649,0.192423805295285,0.368204654422382));
#485=CARTESIAN_POINT('',(0.0421915092259091,0.191627778063034,0.369862794567757));
#486=CARTESIAN_POINT('',(0.0419058445051952,0.191430994356149,0.370246883986994));
#487=CARTESIAN_POINT('',(0.0416232874294077,0.191223045444779,0.370627293144978));
#488=CARTESIAN_POINT('',(0.0413442278607584,0.191003527101504,0.371003522834741));
#489=DRAUGHTING_PRE_DEFINED_CURVE_FONT('continuous');
#490=COLOUR_RGB('',0.0,0.0,0.0);
#491=CARTESIAN_POINT('',(0.036,0.179999999999956,0.34939268391853));
#492=CARTESIAN_POINT('',(0.0496030984272538,0.193994372766993,0.36));
#493=CARTESIAN_POINT('',(0.0494509948116771,0.193990058878457,0.359884663648876));
#494=CARTESIAN_POINT('',(0.0492988803566824,0.193983676519113,0.359769419743389));
#495=CARTESIAN_POINT('',(0.0491541824164888,0.193975451719738,0.359659761134027));
#496=CARTESIAN_POINT('',(0.0488833283906148,0.193956852869043,0.359454342000188));
#497=CARTESIAN_POINT('',(0.0486458672396426,0.193935083765746,0.359273931178537));
#498=CARTESIAN_POINT('',(0.0485345629523012,0.193923722878387,0.35918928088142));
#499=CARTESIAN_POINT('',(0.0483194367752168,0.193899820383433,0.359025575164608));
#500=CARTESIAN_POINT('',(0.0481046702100259,0.193871745407927,0.358862059235196));
#501=CARTESIAN_POINT('',(0.0479937231888375,0.19385623154358,0.358777598725448));
#502=CARTESIAN_POINT('',(0.0477574676548515,0.193820707675353,0.358597787998315));
#503=CARTESIAN_POINT('',(0.0474891236500733,0.193774046346976,0.358393532927702));
#504=CARTESIAN_POINT('',(0.0473460791992929,0.193747428310891,0.358284628074517));
#505=CARTESIAN_POINT('',(0.0455254262732902,0.193380480633133,0.356897297076236));
#506=CARTESIAN_POINT('',(0.0437497953018606,0.192707659093707,0.355537505352194));
#507=CARTESIAN_POINT('',(0.042188944682297,0.191828117028014,0.354336002863818));
#508=CARTESIAN_POINT('',(0.0402428809158041,0.190271712122652,0.352828092008491));
#509=CARTESIAN_POINT('',(0.0386459859175039,0.188232224153011,0.351574354512256));
#510=CARTESIAN_POINT('',(0.0382579825107724,0.187670488728536,0.351268304413546));
#511=CARTESIAN_POINT('',(0.0375430178347026,0.186484729194288,0.350701125109296));
#512=CARTESIAN_POINT('',(0.0369661558631682,0.185184870334274,0.350236127437742));
#513=CARTESIAN_POINT('',(0.0367162567278679,0.18450901058517,0.350032258971753));
#514=CARTESIAN_POINT('',(0.0363339664385637,0.183222952194667,0.349714975235421));
#515=CARTESIAN_POINT('',(0.0361056888384118,0.181879641644086,0.349513151480456));
#516=CARTESIAN_POINT('',(0.0360352723098755,0.181256485797675,0.349446408566479));
#517=CARTESIAN_POINT('',(0.035999999999996,0.180628529928152,0.349406190107405));
#518=CARTESIAN_POINT('',(0.036,0.179999999999912,0.34939268391853));
#519=CARTESIAN_POINT('',(0.0359999999999985,0.179920622789856,0.349390978218256));
#520=CARTESIAN_POINT('',(0.0360005627337373,0.179841234128918,0.349389698635958));
#521=CARTESIAN_POINT('',(0.0360016881907785,0.17976184391585,0.349388845376305));
#522=CARTESIAN_POINT('',(0.0360033763606843,0.179682462049048,0.349388418644085));
#523=CARTESIAN_POINT('',(0.0360056272330169,0.179603098426909,0.349388418644085));
#524=CARTESIAN_POINT('',(0.0360261776270878,0.178878511036395,0.349388418644201));
#525=CARTESIAN_POINT('',(0.0360936242695322,0.178155253762493,0.349423978892862));
#526=CARTESIAN_POINT('',(0.0362077834901042,0.177439861538139,0.349495100699792));
#527=CARTESIAN_POINT('',(0.0366078302708189,0.175673368497869,0.349760242854982));
#528=CARTESIAN_POINT('',(0.0372720037479994,0.174025174383373,0.350228047028532));
#529=CARTESIAN_POINT('',(0.0377581701487291,0.173090134323139,0.350576308010027));
#530=CARTESIAN_POINT('',(0.0383151031081506,0.17222353335393,0.350979651485063));
#531=CARTESIAN_POINT('',(0.038930460255547,0.171428810476604,0.351428808861064));
#532=DRAUGHTING_PRE_DEFINED_CURVE_FONT('continuous');
#533=COLOUR_RGB('',0.0,0.0,0.0);
#534=CARTESIAN_POINT('',(0.0360056272330169,0.179603098426909,0.349388418644085));
#535=CARTESIAN_POINT('',(0.0496030984272538,0.193994372766993,0.36));
#536=CARTESIAN_POINT('',(0.0494509948116771,0.193990058878457,0.359884663648876));
#537=CARTESIAN_POINT('',(0.0492988803566824,0.193983676519113,0.359769419743389));
#538=CARTESIAN_POINT('',(0.0491541824164888,0.193975451719738,0.359659761134027));
#539=CARTESIAN_POINT('',(0.0488833283906148,0.193956852869043,0.359454342000188));
#540=CARTESIAN_POINT('',(0.0486458672396426,0.193935083765746,0.359273931178537));
#541=CARTESIAN_POINT('',(0.0485345629523012,0.193923722878387,0.35918928088142));
#542=CARTESIAN_POINT('',(0.0483194367752168,0.193899820383433,0.359025575164608));
#543=CARTESIAN_POINT('',(0.0481046702100259,0.193871745407927,0.358862059235196));
#544=CARTESIAN_POINT('',(0.0479937231888375,0.19385623154358,0.358777598725448));
#545=CARTESIAN_POINT('',(0.0477574676548515,0.193820707675353,0.358597787998315));
#546=CARTESIAN_POINT('',(0.0474891236500733,0.193774046346976,0.358393532927702));
#547=CARTESIAN_POINT('',(0.0473460791992929,0.193747428310891,0.358284628074517));
#548=CARTESIAN_POINT('',(0.0455254262732902,0.193380480633133,0.356897297076236));
#549=CARTESIAN_POINT('',(0.0437497953018606,0.192707659093707,0.355537505352194));
#550=CARTESIAN_POINT('',(0.042188944682297,0.191828117028014,0.354336002863818));
#551=CARTESIAN_POINT('',(0.0402428809158041,0.190271712122652,0.352828092008491));
#552=CARTESIAN_POINT('',(0.0386459859175039,0.188232224153011,0.351574354512256));
#553=CARTESIAN_POINT('',(0.0382579825107724,0.187670488728536,0.351268304413546));
#554=CARTESIAN_POINT('',(0.0375430178347026,0.186484729194288,0.350701125109296));
#555=CARTESIAN_POINT('',(0.0369661558631682,0.185184870334274,0.350236127437742));
#556=CARTESIAN_POINT('',(0.0367162567278679,0.18450901058517,0.350032258971753));
#557=CARTESIAN_POINT('',(0.0363339664385637,0.183222952194667,0.349714975235421));
#558=CARTESIAN_POINT('',(0.0361056888384118,0.181879641644086,0.349513151480456));
#559=CARTESIAN_POINT('',(0.0360352723098755,0.181256485797675,0.349446408566479));
#560=CARTESIAN_POINT('',(0.035999999999996,0.180628529928152,0.349406190107405));
#561=CARTESIAN_POINT('',(0.036,0.179999999999912,0.34939268391853));
#562=CARTESIAN_POINT('',(0.0359999999999985,0.179920622789856,0.349390978218256));
#563=CARTESIAN_POINT('',(0.0360005627337373,0.179841234128918,0.349389698635958));
#564=CARTESIAN_POINT('',(0.0360016881907785,0.17976184391585,0.349388845376305));
#565=CARTESIAN_POINT('',(0.0360033763606843,0.179682462049048,0.349388418644085));
#566=CARTESIAN_POINT('',(0.0360056272330169,0.179603098426909,0.349388418644085));
#567=CARTESIAN_POINT('',(0.0360261776270878,0.178878511036395,0.349388418644201));
#568=CARTESIAN_POINT('',(0.0360936242695322,0.178155253762493,0.349423978892862));
#569=CARTESIAN_POINT('',(0.0362077834901042,0.177439861538139,0.349495100699792));
#570=CARTESIAN_POINT('',(0.0366078302708189,0.175673368497869,0.349760242854982));
#571=CARTESIAN_POINT('',(0.0372720037479994,0.174025174383373,0.350228047028532));
#572=CARTESIAN_POINT('',(0.0377581701487291,0.173090134323139,0.350576308010027));
#573=CARTESIAN_POINT('',(0.0383151031081506,0.17222353335393,0.350979651485063));
#574=CARTESIAN_POINT('',(0.038930460255547,0.171428810476604,0.351428808861064));
#575=DRAUGHTING_PRE_DEFINED_CURVE_FONT('continuous');
#576=COLOUR_RGB('',0.0,0.0,0.0);
#577=CARTESIAN_POINT('',(-0.581426457357162,0.173041811632349,0.546273777999807));
#578=CARTESIAN_POINT('',(-0.579946553237442,0.162133763184584,0.522338207876356));
#579=CARTESIAN_POINT('',(-0.581426457357162,0.173041811632349,0.546273777999807));
#580=CARTESIAN_POINT('',(-0.581338289062155,0.17355802810003,0.545576134806653));
#581=CARTESIAN_POINT('',(-0.581131388465234,0.173959577619781,0.544875696509071));
#582=CARTESIAN_POINT('',(-0.580944359425293,0.174249828203476,0.544305936159864));
#583=CARTESIAN_POINT('',(-0.580903615199494,0.174313059214682,0.54418181402179));
#584=CARTESIAN_POINT('',(-0.580863968878255,0.174370731451346,0.544064785508784));
#585=CARTESIAN_POINT('',(-0.58082174376135,0.174428912025184,0.543943062115418));
#586=CARTESIAN_POINT('',(-0.580475069470176,0.17490658291573,0.542943695524935));
#587=CARTESIAN_POINT('',(-0.580014968581728,0.175320644717985,0.541814173918548));
#588=CARTESIAN_POINT('',(-0.579519289571824,0.175628037702495,0.540590237599329));
#589=CARTESIAN_POINT('',(-0.579113162398275,0.175879895540882,0.539587423705667));
#590=CARTESIAN_POINT('',(-0.578685842979712,0.176058130944729,0.538527951844354));
#591=CARTESIAN_POINT('',(-0.578273146870325,0.176143524572588,0.537441124888234));
#592=CARTESIAN_POINT('',(-0.577794074096536,0.176242652626456,0.536179496312987));
#593=CARTESIAN_POINT('',(-0.577333133270717,0.176217528158557,0.534878242236575));
#594=CARTESIAN_POINT('',(-0.576931796299466,0.176041283152217,0.533575887238464));
#595=CARTESIAN_POINT('',(-0.576788086675801,0.17597817383175,0.533109543591945));
#596=CARTESIAN_POINT('',(-0.576652300117736,0.175895458392178,0.532643725615056));
#597=CARTESIAN_POINT('',(-0.576528607179398,0.175795097520332,0.532190424546313));
#598=CARTESIAN_POINT('',(-0.576155465801226,0.175492341400716,0.53082296260556));
#599=CARTESIAN_POINT('',(-0.575884431167145,0.175026173965757,0.529543508012129));
#600=CARTESIAN_POINT('',(-0.575732790231327,0.1744137064771,0.528385182261038));
#601=CARTESIAN_POINT('',(-0.575546443047083,0.17366106279724,0.526961749063482));
#602=CARTESIAN_POINT('',(-0.575542675948672,0.172693013064963,0.525734261605126));
#603=CARTESIAN_POINT('',(-0.57573680843794,0.171559550701314,0.524756481309934));
#604=CARTESIAN_POINT('',(-0.575884498692078,0.170697246070217,0.524012614990434));
#605=CARTESIAN_POINT('',(-0.576145632768756,0.169742982489064,0.523415361740731));
#606=CARTESIAN_POINT('',(-0.576521478672744,0.168717108918058,0.522978218721051));
#607=CARTESIAN_POINT('',(-0.576898772349045,0.167687283644141,0.522539391810303));
#608=CARTESIAN_POINT('',(-0.577388786376533,0.166593917952482,0.522265542461663));
#609=CARTESIAN_POINT('',(-0.5779838956162,0.165458712530537,0.522162812980385));
#610=CARTESIAN_POINT('',(-0.578241442813968,0.164967426299666,0.522118354436865));
#611=CARTESIAN_POINT('',(-0.578518350446623,0.164469126654491,0.52210644300726));
#612=CARTESIAN_POINT('',(-0.578807076392759,0.163975239554051,0.522125689534221));
#613=CARTESIAN_POINT('',(-0.579168132636847,0.163357626125555,0.522149757612719));
#614=CARTESIAN_POINT('',(-0.579549801726106,0.162742827687464,0.522222049391993));
#615=CARTESIAN_POINT('',(-0.57994655323761,0.162133763184702,0.522338207876402));
#616=DRAUGHTING_PRE_DEFINED_CURVE_FONT('continuous');
#617=COLOUR_RGB('',0.0,0.0,0.0);
#618=CARTESIAN_POINT('',(-0.581427322072913,0.173036722013184,0.546280651354374));
#619=CARTESIAN_POINT('',(-0.581427035215987,0.173038419401733,0.546278360768187));
#620=CARTESIAN_POINT('',(-0.581426746976355,0.173040115941207,0.546276069649642));
#621=CARTESIAN_POINT('',(-0.581426457357162,0.173041811632349,0.546273777999807));
#622=DRAUGHTING_PRE_DEFINED_CURVE_FONT('continuous');
#623=COLOUR_RGB('',0.0,0.0,0.0);
#624=CARTESIAN_POINT('',(-0.578925664945043,0.171793710007095,0.544796984265065));
#625=CARTESIAN_POINT('',(-0.578925645043446,0.171788538745146,0.544803499068417));
#626=CARTESIAN_POINT('',(-0.578925652643214,0.171790263291474,0.544801328129766));
#627=CARTESIAN_POINT('',(-0.57892565927675,0.171791987045323,0.544799156528497));
#628=CARTESIAN_POINT('',(-0.578925664945044,0.171793710007095,0.544796984265065));
#629=DRAUGHTING_PRE_DEFINED_CURVE_FONT('continuous');
#630=COLOUR_RGB('',0.0,0.0,0.0);
#631=CARTESIAN_POINT('',(-0.579050718791986,0.162159170403832,0.52364463401973));
#632=CARTESIAN_POINT('',(-0.578925664945044,0.171793710007095,0.544796984265065));
#633=CARTESIAN_POINT('',(-0.578927572091772,0.172373415443718,0.544066107387044));
#634=CARTESIAN_POINT('',(-0.578821811124333,0.172847996145681,0.543284475251027));
#635=CARTESIAN_POINT('',(-0.578656975025793,0.173244437065278,0.542459624787221));
#636=CARTESIAN_POINT('',(-0.578528207636782,0.173554130527849,0.541815264471189));
#637=CARTESIAN_POINT('',(-0.578363123448058,0.173813505484824,0.541146233815788));
#638=CARTESIAN_POINT('',(-0.578182243670717,0.17402368148468,0.540467449750315));
#639=CARTESIAN_POINT('',(-0.578059168204116,0.174166690889219,0.540005586811254));
#640=CARTESIAN_POINT('',(-0.577927371368127,0.174288719695344,0.539534220676125));
#641=CARTESIAN_POINT('',(-0.577789497620984,0.174389930598857,0.539049556133157));
#642=CARTESIAN_POINT('',(-0.57752764613514,0.174582151569256,0.538129075379271));
#643=CARTESIAN_POINT('',(-0.577246132027725,0.174696848030638,0.53716815289761));
#644=CARTESIAN_POINT('',(-0.576973187021763,0.174720915429361,0.536188533876234));
#645=CARTESIAN_POINT('',(-0.57678209335268,0.174737765444664,0.535502685119126));
#646=CARTESIAN_POINT('',(-0.576595038068281,0.174709492365778,0.534806755886391));
#647=CARTESIAN_POINT('',(-0.576424399971101,0.174635227626492,0.534124969416337));
#648=CARTESIAN_POINT('',(-0.576133848419946,0.174508774416146,0.532964067368646));
#649=CARTESIAN_POINT('',(-0.575887681449006,0.174249935071527,0.531832107387225));
#650=CARTESIAN_POINT('',(-0.575714218571153,0.173858850392416,0.53076226077856));
#651=CARTESIAN_POINT('',(-0.575616268375376,0.173638014549274,0.530158144865875));
#652=CARTESIAN_POINT('',(-0.575541634921865,0.173374331190039,0.529573771508041));
#653=CARTESIAN_POINT('',(-0.575494816556353,0.17307486269991,0.529025054492335));
#654=CARTESIAN_POINT('',(-0.575423779542635,0.172620482308617,0.528192491933925));
#655=CARTESIAN_POINT('',(-0.575415568264517,0.172081628179808,0.527435147012221));
#656=CARTESIAN_POINT('',(-0.575476230971965,0.171468308288797,0.526766047725962));
#657=CARTESIAN_POINT('',(-0.575532234679514,0.170902092416568,0.526148336411638));
#658=CARTESIAN_POINT('',(-0.575646291003025,0.17027924202552,0.525613337555637));
#659=CARTESIAN_POINT('',(-0.575817197415284,0.169611462459854,0.525165467875966));
#660=CARTESIAN_POINT('',(-0.576050595519033,0.16869951022653,0.524553835272016));
#661=CARTESIAN_POINT('',(-0.576390789697866,0.167703616077516,0.524105263732581));
#662=CARTESIAN_POINT('',(-0.576824874205402,0.166656008757413,0.52382780824472));
#663=CARTESIAN_POINT('',(-0.57701164761726,0.166205255067598,0.523708427554538));
#664=CARTESIAN_POINT('',(-0.577216604410299,0.165742788985005,0.52362025969786));
#665=CARTESIAN_POINT('',(-0.57743591650879,0.165275425296316,0.523564239821695));
#666=CARTESIAN_POINT('',(-0.577933209500716,0.164215672146969,0.523437214035078));
#667=CARTESIAN_POINT('',(-0.578486189429695,0.163169317862136,0.523478212542799));
#668=CARTESIAN_POINT('',(-0.579050718792034,0.162159170403861,0.523644634019743));
#669=DRAUGHTING_PRE_DEFINED_CURVE_FONT('continuous');
#670=COLOUR_RGB('',0.0,0.0,0.0);
#671=CARTESIAN_POINT('',(0.0360056272330169,0.179603098426909,0.350946381162349));
#672=CARTESIAN_POINT('',(0.036,0.179999999999956,0.350951348133002));
#673=CARTESIAN_POINT('',(0.0380839234805523,0.172651046306945,0.352651044991451));
#674=CARTESIAN_POINT('',(0.0374820237757334,0.173627006045862,0.352114088244905));
#675=CARTESIAN_POINT('',(0.0369740962864467,0.174723342385062,0.351685236463246));
#676=CARTESIAN_POINT('',(0.0362528268354159,0.177078953395015,0.351100384926224));
#677=CARTESIAN_POINT('',(0.03601962842002,0.178469108651648,0.35093040814695));
#678=CARTESIAN_POINT('',(0.0359826193264266,0.181088126370153,0.350963261612204));
#679=CARTESIAN_POINT('',(0.0361626051581694,0.182434220354379,0.351154979668316));
#680=CARTESIAN_POINT('',(0.0367671160817715,0.184721197722344,0.351754291375488));
#681=CARTESIAN_POINT('',(0.0376475883970925,0.186864820972955,0.35260401250046));
#682=CARTESIAN_POINT('',(0.0388950434331168,0.188582790093557,0.35384975038433));
#683=CARTESIAN_POINT('',(0.0402164275239093,0.1900631036748,0.355270570854554));
#684=CARTESIAN_POINT('',(0.0409188245846414,0.190686203066149,0.356067308417881));
#685=CARTESIAN_POINT('',(0.0418936351670755,0.191421581328099,0.357431081846838));
#686=CARTESIAN_POINT('',(0.0425160410180277,0.191845264760837,0.358398061076214));
#687=CARTESIAN_POINT('',(0.0429756625178379,0.192111538493524,0.359508520053068));
#688=CARTESIAN_POINT('',(0.0432808826938329,0.192283490723125,0.36067621481405));
#689=CARTESIAN_POINT('',(0.0433534662104157,0.192321678146791,0.36128793121587));
#690=CARTESIAN_POINT('',(0.0433309532522002,0.192309507674286,0.362508019227503));
#691=CARTESIAN_POINT('',(0.0432391065771995,0.192260381475218,0.363114201660194));
#692=CARTESIAN_POINT('',(0.0428131609506623,0.192018979981658,0.364878155010956));
#693=CARTESIAN_POINT('',(0.0423445085180865,0.191738065913612,0.365984415791998));
#694=CARTESIAN_POINT('',(0.0413313739922337,0.191011070074006,0.368081673144794));
#695=CARTESIAN_POINT('',(0.0407775279104769,0.190561207991436,0.369077178920507));
#696=CARTESIAN_POINT('',(0.0402261369298041,0.190023552298714,0.370023544842771));
#697=DRAUGHTING_PRE_DEFINED_CURVE_FONT('continuous');
#698=COLOUR_RGB('',0.0,0.0,0.0);
#699=CARTESIAN_POINT('',(0.0402261310029738,0.190023547227553,0.370023546519519));
#700=CARTESIAN_POINT('',(0.0380839234805523,0.172651046306945,0.352651044991451));
#701=CARTESIAN_POINT('',(0.0374820237757334,0.173627006045862,0.352114088244905));
#702=CARTESIAN_POINT('',(0.0369740962864467,0.174723342385062,0.351685236463246));
#703=CARTESIAN_POINT('',(0.0362528268354159,0.177078953395015,0.351100384926224));
#704=CARTESIAN_POINT('',(0.03601962842002,0.178469108651648,0.35093040814695));
#705=CARTESIAN_POINT('',(0.0359826193264266,0.181088126370153,0.350963261612204));
#706=CARTESIAN_POINT('',(0.0361626051581694,0.182434220354379,0.351154979668316));
#707=CARTESIAN_POINT('',(0.0367671160817715,0.184721197722344,0.351754291375488));
#708=CARTESIAN_POINT('',(0.0376475883970925,0.186864820972955,0.35260401250046));
#709=CARTESIAN_POINT('',(0.0388950434331168,0.188582790093557,0.35384975038433));
#710=CARTESIAN_POINT('',(0.0402164275239093,0.1900631036748,0.355270570854554));
#711=CARTESIAN_POINT('',(0.0409188245846414,0.190686203066149,0.356067308417881));
#712=CARTESIAN_POINT('',(0.0418936351670755,0.191421581328099,0.357431081846838));
#713=CARTESIAN_POINT('',(0.0425160410180277,0.191845264760837,0.358398061076214));
#714=CARTESIAN_POINT('',(0.0429756625178379,0.192111538493524,0.359508520053068));
#715=CARTESIAN_POINT('',(0.0432808826938329,0.192283490723125,0.36067621481405));
#716=CARTESIAN_POINT('',(0.0433534662104157,0.192321678146791,0.36128793121587));
#717=CARTESIAN_POINT('',(0.0433309532522002,0.192309507674286,0.362508019227503));
#718=CARTESIAN_POINT('',(0.0432391065771995,0.192260381475218,0.363114201660194));
#719=CARTESIAN_POINT('',(0.0428131609506623,0.192018979981658,0.364878155010956));
#720=CARTESIAN_POINT('',(0.0423445085180865,0.191738065913612,0.365984415791998));
#721=CARTESIAN_POINT('',(0.0413313739922337,0.191011070074006,0.368081673144794));
#722=CARTESIAN_POINT('',(0.0407775279104769,0.190561207991436,0.369077178920507));
#723=CARTESIAN_POINT('',(0.0402261369298041,0.190023552298714,0.370023544842771));
#724=DRAUGHTING_PRE_DEFINED_CURVE_FONT('continuous');
#725=COLOUR_RGB('',0.0,0.0,0.0);
#726=CARTESIAN_POINT('',(0.0473083081676211,0.179923659549434,0.373738806173737));
#727=CARTESIAN_POINT('',(0.0380839245004358,0.172651046408796,0.352651044653239));
#728=CARTESIAN_POINT('',(0.0375121925139602,0.17155662982903,0.353578088158901));
#729=CARTESIAN_POINT('',(0.0369911729783598,0.170568478790065,0.354667081683223));
#730=CARTESIAN_POINT('',(0.0362348405017901,0.16887695133696,0.357138185506314));
#731=CARTESIAN_POINT('',(0.036,0.168175874799033,0.358526698438092));
#732=CARTESIAN_POINT('',(0.036,0.167396448881756,0.361014110900289));
#733=CARTESIAN_POINT('',(0.0361127588558691,0.167194823236663,0.362066347777488));
#734=CARTESIAN_POINT('',(0.0365826529173975,0.167072115593741,0.364135221521369));
#735=CARTESIAN_POINT('',(0.0369397375993006,0.167151744403617,0.365149262641686));
#736=CARTESIAN_POINT('',(0.0378457261391453,0.167572351707656,0.36702559510347));
#737=CARTESIAN_POINT('',(0.0383925186930287,0.167911312365515,0.367887133470799));
#738=CARTESIAN_POINT('',(0.0395908614480451,0.168780979358593,0.369412243685259));
#739=CARTESIAN_POINT('',(0.0408930445770729,0.169840496008041,0.370742465622199));
#740=CARTESIAN_POINT('',(0.0429548225255345,0.171830271584978,0.372175177748788));
#741=CARTESIAN_POINT('',(0.044295605391143,0.173367767404513,0.372802734363352));
#742=CARTESIAN_POINT('',(0.0455460100383514,0.175016144008927,0.373289548459692));
#743=CARTESIAN_POINT('',(0.0461309803746516,0.175896427396582,0.373462725650581));
#744=CARTESIAN_POINT('',(0.0469165451910466,0.177572469495112,0.373660631304972));
#745=CARTESIAN_POINT('',(0.0471713149113557,0.178337608178208,0.373711601215277));
#746=CARTESIAN_POINT('',(0.0473655539409696,0.179947380887515,0.373750267074622));
#747=CARTESIAN_POINT('',(0.0472808620415515,0.180785779072123,0.373735512995667));
#748=CARTESIAN_POINT('',(0.0468857329517365,0.182110397377621,0.373650202254638));
#749=CARTESIAN_POINT('',(0.0466627260955073,0.182624703328431,0.373599072308727));
#750=CARTESIAN_POINT('',(0.0458838731158503,0.184099268581442,0.373392018472474));
#751=CARTESIAN_POINT('',(0.0452275555686374,0.184992874287881,0.37318283869367));
#752=CARTESIAN_POINT('',(0.043845314642367,0.1866533753666,0.372596956390358));
#753=CARTESIAN_POINT('',(0.0423822423470163,0.188187305874706,0.371843550214052));
#754=CARTESIAN_POINT('',(0.0409217237613608,0.189467161988101,0.370701812496235));
#755=CARTESIAN_POINT('',(0.0402261325142881,0.190023550913451,0.370023547993188));
#756=DRAUGHTING_PRE_DEFINED_CURVE_FONT('continuous');
#757=COLOUR_RGB('',0.0,0.0,0.0);
#758=CARTESIAN_POINT('',(0.0402261343423298,0.190023549775694,0.370023549775694));
#759=CARTESIAN_POINT('',(0.040574739418002,0.190363471186117,0.370363471186117));
#760=CARTESIAN_POINT('',(0.0409472559177085,0.190691254210533,0.370691254210532));
#761=CARTESIAN_POINT('',(0.0413442208049311,0.191003521551131,0.371003521551131));
#762=DRAUGHTING_PRE_DEFINED_CURVE_FONT('continuous');
#763=COLOUR_RGB('',0.0,0.0,0.0);
#764=CARTESIAN_POINT('',(0.036,0.16771421858452,0.359999999999945));
#765=CARTESIAN_POINT('',(0.0380839245004358,0.172651046408796,0.352651044653239));
#766=CARTESIAN_POINT('',(0.0375121925139602,0.17155662982903,0.353578088158901));
#767=CARTESIAN_POINT('',(0.0369911729783598,0.170568478790065,0.354667081683223));
#768=CARTESIAN_POINT('',(0.0362348405017901,0.16887695133696,0.357138185506314));
#769=CARTESIAN_POINT('',(0.036,0.168175874799033,0.358526698438092));
#770=CARTESIAN_POINT('',(0.036,0.167396448881756,0.361014110900289));
#771=CARTESIAN_POINT('',(0.0361127588558691,0.167194823236663,0.362066347777488));
#772=CARTESIAN_POINT('',(0.0365826529173975,0.167072115593741,0.364135221521369));
#773=CARTESIAN_POINT('',(0.0369397375993006,0.167151744403617,0.365149262641686));
#774=CARTESIAN_POINT('',(0.0378457261391453,0.167572351707656,0.36702559510347));
#775=CARTESIAN_POINT('',(0.0383925186930287,0.167911312365515,0.367887133470799));
#776=CARTESIAN_POINT('',(0.0395908614480451,0.168780979358593,0.369412243685259));
#777=CARTESIAN_POINT('',(0.0408930445770729,0.169840496008041,0.370742465622199));
#778=CARTESIAN_POINT('',(0.0429548225255345,0.171830271584978,0.372175177748788));
#779=CARTESIAN_POINT('',(0.044295605391143,0.173367767404513,0.372802734363352));
#780=CARTESIAN_POINT('',(0.0455460100383514,0.175016144008927,0.373289548459692));
#781=CARTESIAN_POINT('',(0.0461309803746516,0.175896427396582,0.373462725650581));
#782=CARTESIAN_POINT('',(0.0469165451910466,0.177572469495112,0.373660631304972));
#783=CARTESIAN_POINT('',(0.0471713149113557,0.178337608178208,0.373711601215277));
#784=CARTESIAN_POINT('',(0.0473655539409696,0.179947380887515,0.373750267074622));
#785=CARTESIAN_POINT('',(0.0472808620415515,0.180785779072123,0.373735512995667));
#786=CARTESIAN_POINT('',(0.0468857329517365,0.182110397377621,0.373650202254638));
#787=CARTESIAN_POINT('',(0.0466627260955073,0.182624703328431,0.373599072308727));
#788=CARTESIAN_POINT('',(0.0458838731158503,0.184099268581442,0.373392018472474));
#789=CARTESIAN_POINT('',(0.0452275555686374,0.184992874287881,0.37318283869367));
#790=CARTESIAN_POINT('',(0.043845314642367,0.1866533753666,0.372596956390358));
#791=CARTESIAN_POINT('',(0.0423822423470163,0.188187305874706,0.371843550214052));
#792=CARTESIAN_POINT('',(0.0409217237613608,0.189467161988101,0.370701812496235));
#793=CARTESIAN_POINT('',(0.0402261325142881,0.190023550913451,0.370023547993188));
#794=DRAUGHTING_PRE_DEFINED_CURVE_FONT('continuous');
#795=COLOUR_RGB('',0.0,0.0,0.0);
#796=CARTESIAN_POINT('',(0.0537846225716443,0.18,0.373478747419186));
#797=CARTESIAN_POINT('',(0.0537846225716443,0.18,0.373478747419185));
#798=CARTESIAN_POINT('',(0.0537639625373286,0.18002088105147,0.373484548435391));
#799=CARTESIAN_POINT('',(0.0537432913884156,0.180041762102937,0.373490309867517));
#800=CARTESIAN_POINT('',(0.0537226091767483,0.180062643101905,0.373496031700615));
#801=CARTESIAN_POINT('',(0.0537019159541697,0.180083523995876,0.37350171391973));
#802=CARTESIAN_POINT('',(0.0536812117725227,0.180104404732352,0.373507356509911));
#803=CARTESIAN_POINT('',(0.0529160400831746,0.180876101420296,0.37371589169063));
#804=CARTESIAN_POINT('',(0.0521358998794854,0.181647582935416,0.373870299624248));
#805=CARTESIAN_POINT('',(0.0513438812909176,0.182415714234639,0.373969699762699));
#806=CARTESIAN_POINT('',(0.0497404605986584,0.183940577905635,0.374056034359536));
#807=CARTESIAN_POINT('',(0.0481086866965887,0.185430373381743,0.373908074835398));
#808=CARTESIAN_POINT('',(0.0472883274574943,0.186163436486113,0.373773227991846));
#809=CARTESIAN_POINT('',(0.0455778946592577,0.187656788469007,0.373358681902807));
#810=CARTESIAN_POINT('',(0.0438844441054826,0.189056430548652,0.372648375119651));
#811=CARTESIAN_POINT('',(0.043013163645954,0.189753046701902,0.372193583976079));
#812=CARTESIAN_POINT('',(0.0421613608671226,0.190407084255186,0.371646313994695));
#813=CARTESIAN_POINT('',(0.0413442234086284,0.19100352411496,0.371003523599296));
#814=DRAUGHTING_PRE_DEFINED_CURVE_FONT('continuous');
#815=COLOUR_RGB('',0.0,0.0,0.0);
#816=CARTESIAN_POINT('',(0.036,0.166148184116173,0.360000000000132));
#817=CARTESIAN_POINT('',(0.0389304614985108,0.171428811444843,0.351428808871338));
#818=CARTESIAN_POINT('',(0.0383198654499739,0.170605603623546,0.352217382637419));
#819=CARTESIAN_POINT('',(0.0377627932318202,0.169814258165524,0.353081892295944));
#820=CARTESIAN_POINT('',(0.0372702186137156,0.169065162798977,0.354024009874995));
#821=CARTESIAN_POINT('',(0.0365862810018793,0.167919046901626,0.355713700045619));
#822=CARTESIAN_POINT('',(0.0361745768211919,0.1669871253435,0.357601935830565));
#823=CARTESIAN_POINT('',(0.0360596673019736,0.166657202156048,0.358380265556455));
#824=CARTESIAN_POINT('',(0.0359999999999846,0.166375290282601,0.359182519858336));
#825=CARTESIAN_POINT('',(0.036,0.166148184116173,0.360000000000264));
#826=CARTESIAN_POINT('',(0.0359999999999954,0.165941117103189,0.360745348194805));
#827=CARTESIAN_POINT('',(0.0360496021367431,0.165779610957242,0.361503353656424));
#828=CARTESIAN_POINT('',(0.036152188124178,0.165669014066605,0.362266807377035));
#829=CARTESIAN_POINT('',(0.0364840191212413,0.165551203279887,0.363872673069812));
#830=CARTESIAN_POINT('',(0.0370460621957641,0.165678983370944,0.365414410967214));
#831=CARTESIAN_POINT('',(0.0374023784150339,0.165814646911958,0.366195086347551));
#832=CARTESIAN_POINT('',(0.0381453891948103,0.166175468153668,0.367542487612124));
#833=CARTESIAN_POINT('',(0.039027641732507,0.166717549874747,0.368733336771665));
#834=CARTESIAN_POINT('',(0.0394500338785227,0.166995463782345,0.369237321718339));
#835=CARTESIAN_POINT('',(0.0403329649865256,0.167608376718062,0.37017561568496));
#836=CARTESIAN_POINT('',(0.0412763817709545,0.168319561894059,0.370975581605701));
#837=CARTESIAN_POINT('',(0.0417592548586491,0.168695748041956,0.37134121830324));
#838=CARTESIAN_POINT('',(0.0430349739492079,0.169717837723588,0.372205564926428));
#839=CARTESIAN_POINT('',(0.0443547852828775,0.170842366973231,0.372858209366215));
#840=CARTESIAN_POINT('',(0.0451747401262849,0.171562861035135,0.373184948560895));
#841=CARTESIAN_POINT('',(0.0468204209762469,0.173048191764244,0.373699474562477));
#842=CARTESIAN_POINT('',(0.0484626494600617,0.174602911295875,0.373951930970373));
#843=CARTESIAN_POINT('',(0.0492791662688852,0.175392794160369,0.374016657085398));
#844=CARTESIAN_POINT('',(0.0503882527048775,0.176487865808926,0.374024847598109));
#845=CARTESIAN_POINT('',(0.0514789917998097,0.177594420395145,0.373926362267121));
#846=CARTESIAN_POINT('',(0.0517721527406631,0.177894004058515,0.373892073997339));
#847=CARTESIAN_POINT('',(0.0522349857612698,0.178370412754684,0.373825573771984));
#848=CARTESIAN_POINT('',(0.0526935177943867,0.178847844500038,0.373740073401569));
#849=CARTESIAN_POINT('',(0.0528309808882922,0.178991785020362,0.373711626873659));
#850=CARTESIAN_POINT('',(0.0530740380921932,0.179246920546927,0.373659754011079));
#851=CARTESIAN_POINT('',(0.0533158092189408,0.179502130306178,0.373602520142733));
#852=CARTESIAN_POINT('',(0.053452130854822,0.179646145059204,0.373569354961718));
#853=CARTESIAN_POINT('',(0.0536188039545607,0.179823001753212,0.37352530670704));
#854=CARTESIAN_POINT('',(0.0537846225716443,0.180000000000058,0.373478747419185));
#855=DRAUGHTING_PRE_DEFINED_CURVE_FONT('continuous');
#856=COLOUR_RGB('',0.0,0.0,0.0);
#857=CARTESIAN_POINT('',(0.0389304614985108,0.171428811444843,0.351428808871338));
#858=CARTESIAN_POINT('',(0.0389304614985108,0.171428811444843,0.351428808871338));
#859=CARTESIAN_POINT('',(0.0383198654499739,0.170605603623546,0.352217382637419));
#860=CARTESIAN_POINT('',(0.0377627932318202,0.169814258165524,0.353081892295944));
#861=CARTESIAN_POINT('',(0.0372702186137156,0.169065162798977,0.354024009874995));
#862=CARTESIAN_POINT('',(0.0365862810018793,0.167919046901626,0.355713700045619));
#863=CARTESIAN_POINT('',(0.0361745768211919,0.1669871253435,0.357601935830565));
#864=CARTESIAN_POINT('',(0.0360596673019736,0.166657202156048,0.358380265556455));
#865=CARTESIAN_POINT('',(0.0359999999999846,0.166375290282601,0.359182519858336));
#866=CARTESIAN_POINT('',(0.036,0.166148184116173,0.360000000000264));
#867=CARTESIAN_POINT('',(0.0359999999999954,0.165941117103189,0.360745348194805));
#868=CARTESIAN_POINT('',(0.0360496021367431,0.165779610957242,0.361503353656424));
#869=CARTESIAN_POINT('',(0.036152188124178,0.165669014066605,0.362266807377035));
#870=CARTESIAN_POINT('',(0.0364840191212413,0.165551203279887,0.363872673069812));
#871=CARTESIAN_POINT('',(0.0370460621957641,0.165678983370944,0.365414410967214));
#872=CARTESIAN_POINT('',(0.0374023784150339,0.165814646911958,0.366195086347551));
#873=CARTESIAN_POINT('',(0.0381453891948103,0.166175468153668,0.367542487612124));
#874=CARTESIAN_POINT('',(0.039027641732507,0.166717549874747,0.368733336771665));
#875=CARTESIAN_POINT('',(0.0394500338785227,0.166995463782345,0.369237321718339));
#876=CARTESIAN_POINT('',(0.0403329649865256,0.167608376718062,0.37017561568496));
#877=CARTESIAN_POINT('',(0.0412763817709545,0.168319561894059,0.370975581605701));
#878=CARTESIAN_POINT('',(0.0417592548586491,0.168695748041956,0.37134121830324));
#879=CARTESIAN_POINT('',(0.0430349739492079,0.169717837723588,0.372205564926428));
#880=CARTESIAN_POINT('',(0.0443547852828775,0.170842366973231,0.372858209366215));
#881=CARTESIAN_POINT('',(0.0451747401262849,0.171562861035135,0.373184948560895));
#882=CARTESIAN_POINT('',(0.0468204209762469,0.173048191764244,0.373699474562477));
#883=CARTESIAN_POINT('',(0.0484626494600617,0.174602911295875,0.373951930970373));
#884=CARTESIAN_POINT('',(0.0492791662688852,0.175392794160369,0.374016657085398));
#885=CARTESIAN_POINT('',(0.0503882527048775,0.176487865808926,0.374024847598109));
#886=CARTESIAN_POINT('',(0.0514789917998097,0.177594420395145,0.373926362267121));
#887=CARTESIAN_POINT('',(0.0517721527406631,0.177894004058515,0.373892073997339));
#888=CARTESIAN_POINT('',(0.0522349857612698,0.178370412754684,0.373825573771984));
#889=CARTESIAN_POINT('',(0.0526935177943867,0.178847844500038,0.373740073401569));
#890=CARTESIAN_POINT('',(0.0528309808882922,0.178991785020362,0.373711626873659));
#891=CARTESIAN_POINT('',(0.0530740380921932,0.179246920546927,0.373659754011079));
#892=CARTESIAN_POINT('',(0.0533158092189408,0.179502130306178,0.373602520142733));
#893=CARTESIAN_POINT('',(0.053452130854822,0.179646145059204,0.373569354961718));
#894=CARTESIAN_POINT('',(0.0536188039545607,0.179823001753212,0.37352530670704));
#895=CARTESIAN_POINT('',(0.0537846225716443,0.180000000000058,0.373478747419185));
#896=DRAUGHTING_PRE_DEFINED_CURVE_FONT('continuous');
#897=COLOUR_RGB('',0.0,0.0,0.0);
#898=CARTESIAN_POINT('',(0.038083924372742,0.172651046650892,0.35265104486029));
#899=CARTESIAN_POINT('',(0.0389304601795595,0.17142881057474,0.35142881057474));
#900=CARTESIAN_POINT('',(0.0386222533473255,0.171826854257253,0.351826854257253));
#901=CARTESIAN_POINT('',(0.0383404544728327,0.172235090201111,0.352235090201111));
#902=CARTESIAN_POINT('',(0.0380839243113924,0.172651044959766,0.352651044959766));
#903=DRAUGHTING_PRE_DEFINED_CURVE_FONT('continuous');
#904=COLOUR_RGB('',0.0,0.0,0.0);
#905=CARTESIAN_POINT('',(0.0380839245004358,0.172651046408796,0.352651044653239));
#906=CARTESIAN_POINT('',(0.0375121925139602,0.17155662982903,0.353578088158901));
#907=CARTESIAN_POINT('',(0.0369911729783598,0.170568478790065,0.354667081683223));
#908=CARTESIAN_POINT('',(0.0362348405017901,0.16887695133696,0.357138185506314));
#909=CARTESIAN_POINT('',(0.036,0.168175874799033,0.358526698438092));
#910=CARTESIAN_POINT('',(0.036,0.167396448881756,0.361014110900289));
#911=CARTESIAN_POINT('',(0.0361127588558691,0.167194823236663,0.362066347777488));
#912=CARTESIAN_POINT('',(0.0365826529173975,0.167072115593741,0.364135221521369));
#913=CARTESIAN_POINT('',(0.0369397375993006,0.167151744403617,0.365149262641686));
#914=CARTESIAN_POINT('',(0.0378457261391453,0.167572351707656,0.36702559510347));
#915=CARTESIAN_POINT('',(0.0383925186930287,0.167911312365515,0.367887133470799));
#916=CARTESIAN_POINT('',(0.0395908614480451,0.168780979358593,0.369412243685259));
#917=CARTESIAN_POINT('',(0.0408930445770729,0.169840496008041,0.370742465622199));
#918=CARTESIAN_POINT('',(0.0429548225255345,0.171830271584978,0.372175177748788));
#919=CARTESIAN_POINT('',(0.044295605391143,0.173367767404513,0.372802734363352));
#920=CARTESIAN_POINT('',(0.0455460100383514,0.175016144008927,0.373289548459692));
#921=CARTESIAN_POINT('',(0.0461309803746516,0.175896427396582,0.373462725650581));
#922=CARTESIAN_POINT('',(0.0469165451910466,0.177572469495112,0.373660631304972));
#923=CARTESIAN_POINT('',(0.0471713149113557,0.178337608178208,0.373711601215277));
#924=CARTESIAN_POINT('',(0.0473655539409696,0.179947380887515,0.373750267074622));
#925=CARTESIAN_POINT('',(0.0472808620415515,0.180785779072123,0.373735512995667));
#926=CARTESIAN_POINT('',(0.0468857329517365,0.182110397377621,0.373650202254638));
#927=CARTESIAN_POINT('',(0.0466627260955073,0.182624703328431,0.373599072308727));
#928=CARTESIAN_POINT('',(0.0458838731158503,0.184099268581442,0.373392018472474));
#929=CARTESIAN_POINT('',(0.0452275555686374,0.184992874287881,0.37318283869367));
#930=CARTESIAN_POINT('',(0.043845314642367,0.1866533753666,0.372596956390358));
#931=CARTESIAN_POINT('',(0.0423822423470163,0.188187305874706,0.371843550214052));
#932=CARTESIAN_POINT('',(0.0409217237613608,0.189467161988101,0.370701812496235));
#933=CARTESIAN_POINT('',(0.0402261325142881,0.190023550913451,0.370023547993188));
#934=DRAUGHTING_PRE_DEFINED_CURVE_FONT('continuous');
#935=COLOUR_RGB('',0.0,0.0,0.0);
#936=CARTESIAN_POINT('',(0.0380839234805523,0.172651046306945,0.352651044991451));
#937=CARTESIAN_POINT('',(0.0374820237757334,0.173627006045862,0.352114088244905));
#938=CARTESIAN_POINT('',(0.0369740962864467,0.174723342385062,0.351685236463246));
#939=CARTESIAN_POINT('',(0.0362528268354159,0.177078953395015,0.351100384926224));
#940=CARTESIAN_POINT('',(0.03601962842002,0.178469108651648,0.35093040814695));
#941=CARTESIAN_POINT('',(0.0359826193264266,0.181088126370153,0.350963261612204));
#942=CARTESIAN_POINT('',(0.0361626051581694,0.182434220354379,0.351154979668316));
#943=CARTESIAN_POINT('',(0.0367671160817715,0.184721197722344,0.351754291375488));
#944=CARTESIAN_POINT('',(0.0376475883970925,0.186864820972955,0.35260401250046));
#945=CARTESIAN_POINT('',(0.0388950434331168,0.188582790093557,0.35384975038433));
#946=CARTESIAN_POINT('',(0.0402164275239093,0.1900631036748,0.355270570854554));
#947=CARTESIAN_POINT('',(0.0409188245846414,0.190686203066149,0.356067308417881));
#948=CARTESIAN_POINT('',(0.0418936351670755,0.191421581328099,0.357431081846838));
#949=CARTESIAN_POINT('',(0.0425160410180277,0.191845264760837,0.358398061076214));
#950=CARTESIAN_POINT('',(0.0429756625178379,0.192111538493524,0.359508520053068));
#951=CARTESIAN_POINT('',(0.0432808826938329,0.192283490723125,0.36067621481405));
#952=CARTESIAN_POINT('',(0.0433534662104157,0.192321678146791,0.36128793121587));
#953=CARTESIAN_POINT('',(0.0433309532522002,0.192309507674286,0.362508019227503));
#954=CARTESIAN_POINT('',(0.0432391065771995,0.192260381475218,0.363114201660194));
#955=CARTESIAN_POINT('',(0.0428131609506623,0.192018979981658,0.364878155010956));
#956=CARTESIAN_POINT('',(0.0423445085180865,0.191738065913612,0.365984415791998));
#957=CARTESIAN_POINT('',(0.0413313739922337,0.191011070074006,0.368081673144794));
#958=CARTESIAN_POINT('',(0.0407775279104769,0.190561207991436,0.369077178920507));
#959=CARTESIAN_POINT('',(0.0402261369298041,0.190023552298714,0.370023544842771));
#960=DRAUGHTING_PRE_DEFINED_CURVE_FONT('continuous');
#961=COLOUR_RGB('',0.0,0.0,0.0);
#962=CARTESIAN_POINT('',(0.0496030984272538,0.193994372766993,0.36));
#963=CARTESIAN_POINT('',(0.0494509948116771,0.193990058878457,0.359884663648876));
#964=CARTESIAN_POINT('',(0.0492988803566824,0.193983676519113,0.359769419743389));
#965=CARTESIAN_POINT('',(0.0491541824164888,0.193975451719738,0.359659761134027));
#966=CARTESIAN_POINT('',(0.0488833283906148,0.193956852869043,0.359454342000188));
#967=CARTESIAN_POINT('',(0.0486458672396426,0.193935083765746,0.359273931178537));
#968=CARTESIAN_POINT('',(0.0485345629523012,0.193923722878387,0.35918928088142));
#969=CARTESIAN_POINT('',(0.0483194367752168,0.193899820383433,0.359025575164608));
#970=CARTESIAN_POINT('',(0.0481046702100259,0.193871745407927,0.358862059235196));
#971=CARTESIAN_POINT('',(0.0479937231888375,0.19385623154358,0.358777598725448));
#972=CARTESIAN_POINT('',(0.0477574676548515,0.193820707675353,0.358597787998315));
#973=CARTESIAN_POINT('',(0.0474891236500733,0.193774046346976,0.358393532927702));
#974=CARTESIAN_POINT('',(0.0473460791992929,0.193747428310891,0.358284628074517));
#975=CARTESIAN_POINT('',(0.0455254262732902,0.193380480633133,0.356897297076236));
#976=CARTESIAN_POINT('',(0.0437497953018606,0.192707659093707,0.355537505352194));
#977=CARTESIAN_POINT('',(0.042188944682297,0.191828117028014,0.354336002863818));
#978=CARTESIAN_POINT('',(0.0402428809158041,0.190271712122652,0.352828092008491));
#979=CARTESIAN_POINT('',(0.0386459859175039,0.188232224153011,0.351574354512256));
#980=CARTESIAN_POINT('',(0.0382579825107724,0.187670488728536,0.351268304413546));
#981=CARTESIAN_POINT('',(0.0375430178347026,0.186484729194288,0.350701125109296));
#982=CARTESIAN_POINT('',(0.0369661558631682,0.185184870334274,0.350236127437742));
#983=CARTESIAN_POINT('',(0.0367162567278679,0.18450901058517,0.350032258971753));
#984=CARTESIAN_POINT('',(0.0363339664385637,0.183222952194667,0.349714975235421));
#985=CARTESIAN_POINT('',(0.0361056888384118,0.181879641644086,0.349513151480456));
#986=CARTESIAN_POINT('',(0.0360352723098755,0.181256485797675,0.349446408566479));
#987=CARTESIAN_POINT('',(0.035999999999996,0.180628529928152,0.349406190107405));
#988=CARTESIAN_POINT('',(0.036,0.179999999999912,0.34939268391853));
#989=CARTESIAN_POINT('',(0.0359999999999985,0.179920622789856,0.349390978218256));
#990=CARTESIAN_POINT('',(0.0360005627337373,0.179841234128918,0.349389698635958));
#991=CARTESIAN_POINT('',(0.0360016881907785,0.17976184391585,0.349388845376305));
#992=CARTESIAN_POINT('',(0.0360033763606843,0.179682462049048,0.349388418644085));
#993=CARTESIAN_POINT('',(0.0360056272330169,0.179603098426909,0.349388418644085));
#994=CARTESIAN_POINT('',(0.0360261776270878,0.178878511036395,0.349388418644201));
#995=CARTESIAN_POINT('',(0.0360936242695322,0.178155253762493,0.349423978892862));
#996=CARTESIAN_POINT('',(0.0362077834901042,0.177439861538139,0.349495100699792));
#997=CARTESIAN_POINT('',(0.0366078302708189,0.175673368497869,0.349760242854982));
#998=CARTESIAN_POINT('',(0.0372720037479994,0.174025174383373,0.350228047028532));
#999=CARTESIAN_POINT('',(0.0377581701487291,0.173090134323139,0.350576308010027));
#1000=CARTESIAN_POINT('',(0.0383151031081506,0.17222353335393,0.350979651485063));
#1001=CARTESIAN_POINT('',(0.038930460255547,0.171428810476604,0.351428808861064));
#1002=DRAUGHTING_PRE_DEFINED_CURVE_FONT('continuous');
#1003=COLOUR_RGB('',0.0,0.0,0.0);
#1004=CARTESIAN_POINT('',(-0.579050718791989,0.162159170403943,0.52364463401973));
#1005=CARTESIAN_POINT('',(-0.579572358540922,0.161225767995363,0.523798411773799));
#1006=CARTESIAN_POINT('',(-0.580103778468787,0.160323434706088,0.524060137108864));
#1007=CARTESIAN_POINT('',(-0.580599867588507,0.159473534094788,0.524393634079354));
#1008=CARTESIAN_POINT('',(-0.58117516966695,0.158487925725819,0.524780382130562));
#1009=CARTESIAN_POINT('',(-0.581704580732331,0.157568850870871,0.525264298179289));
#1010=CARTESIAN_POINT('',(-0.582122844064856,0.156729589935915,0.525794227619431));
#1011=CARTESIAN_POINT('',(-0.582194254108054,0.15658630302798,0.525884702402348));
#1012=CARTESIAN_POINT('',(-0.58226088979858,0.156448935881128,0.525973963040831));
#1013=CARTESIAN_POINT('',(-0.582332064082781,0.156296124229827,0.526076570695268));
#1014=CARTESIAN_POINT('',(-0.58253273937765,0.155865273065974,0.526365872112787));
#1015=CARTESIAN_POINT('',(-0.582753692633712,0.155344988021174,0.526742661323742));
#1016=CARTESIAN_POINT('',(-0.582909592169597,0.154796975202299,0.527192573592346));
#1017=CARTESIAN_POINT('',(-0.582980558389251,0.154547517127541,0.527397375824102));
#1018=CARTESIAN_POINT('',(-0.583037922985194,0.154290890587351,0.527618341135817));
#1019=CARTESIAN_POINT('',(-0.583072879708335,0.15403620329356,0.527849826062561));
#1020=CARTESIAN_POINT('',(-0.583093423419393,0.153886526158415,0.52798586740231));
#1021=CARTESIAN_POINT('',(-0.583106066010388,0.153739413599509,0.528123751308362));
#1022=CARTESIAN_POINT('',(-0.583110287293744,0.153594893962545,0.528263487435622));
#1023=DRAUGHTING_PRE_DEFINED_CURVE_FONT('continuous');
#1024=COLOUR_RGB('',0.0,0.0,0.0);
#1025=CARTESIAN_POINT('',(-0.579946553237452,0.162133763184944,0.522338207876356));
#1026=CARTESIAN_POINT('',(-0.580261757625183,0.161649883985703,0.522430491491901));
#1027=CARTESIAN_POINT('',(-0.58058647610192,0.161169626113121,0.52255047241247));
#1028=CARTESIAN_POINT('',(-0.58091745892041,0.160694179218019,0.522696149779827));
#1029=CARTESIAN_POINT('',(-0.58118219834425,0.160313888973195,0.522812671061737));
#1030=CARTESIAN_POINT('',(-0.581450798760507,0.159936988286289,0.522945818498095));
#1031=CARTESIAN_POINT('',(-0.581714180062907,0.159573382162835,0.523089967132154));
#1032=CARTESIAN_POINT('',(-0.582780568688099,0.158101199321579,0.523673601818054));
#1033=CARTESIAN_POINT('',(-0.583790258357612,0.156807373868632,0.524448160395417));
#1034=CARTESIAN_POINT('',(-0.584562813183621,0.155713057033883,0.525233237571123));
#1035=CARTESIAN_POINT('',(-0.584726166156253,0.155481669044397,0.52539923833389));
#1036=CARTESIAN_POINT('',(-0.584878821889818,0.155259537854536,0.525565298742131));
#1037=CARTESIAN_POINT('',(-0.58502473700682,0.155037877483437,0.525737126706288));
#1038=CARTESIAN_POINT('',(-0.585422841497288,0.154433114996132,0.526205929977152));
#1039=CARTESIAN_POINT('',(-0.585759820637686,0.153849319388211,0.526705671552613));
#1040=CARTESIAN_POINT('',(-0.58596621315498,0.153292741815956,0.52721871390755));
#1041=CARTESIAN_POINT('',(-0.586041938986514,0.153088532380338,0.527406950183986));
#1042=CARTESIAN_POINT('',(-0.586099841279779,0.152888232748263,0.527596706322296));
#1043=CARTESIAN_POINT('',(-0.586136642638544,0.152691285146325,0.527788078921923));
#1044=SURFACE_SIDE_STYLE('',(#1154));
#1046=SURFACE_STYLE_FILL_AREA(#1155);
#1047=ORIENTED_EDGE('',*,*,#1156,.F.);
#1048=ORIENTED_EDGE('',*,*,#81,.T.);
#1049=ORIENTED_EDGE('',*,*,#83,.T.);
#1050=ORIENTED_EDGE('',*,*,#1157,.F.);
#1051=ORIENTED_EDGE('',*,*,#85,.F.);
#1052=ORIENTED_EDGE('',*,*,#87,.F.);
#1053=CARTESIAN_POINT('',(-0.597504332572749,0.0899977892799916,0.470418079714738));
#1054=DIRECTION('',(0.992545523345572,-5.60586097709048E-006,-0.121874460225428));
#1055=DIRECTION('',(-0.0830195157941837,-0.732138902320073,-0.676077205433564));
#1056=SURFACE_STYLE_FILL_AREA(#1158);
#1057=ORIENTED_EDGE('',*,*,#1159,.F.);
#1058=ORIENTED_EDGE('',*,*,#89,.T.);
#1059=ORIENTED_EDGE('',*,*,#91,.F.);
#1060=ORIENTED_EDGE('',*,*,#93,.T.);
#1061=ORIENTED_EDGE('',*,*,#95,.T.);
#1062=ORIENTED_EDGE('',*,*,#1160,.F.);
#1063=ORIENTED_EDGE('',*,*,#97,.F.);
#1064=ORIENTED_EDGE('',*,*,#99,.F.);
#1065=ORIENTED_EDGE('',*,*,#83,.F.);
#1066=CARTESIAN_POINT('',(-0.269514833733879,0.170938076164866,0.449714794269621));
#1067=DIRECTION('',(0.962408957008335,0.0272953733156705,-0.270229461875804));
#1068=DIRECTION('',(0.270120844436518,0.00766103560814518,0.962795948233224));
#1069=SURFACE_STYLE_FILL_AREA(#1161);
#1070=ORIENTED_EDGE('',*,*,#1162,.F.);
#1071=ORIENTED_EDGE('',*,*,#85,.T.);
#1072=ORIENTED_EDGE('',*,*,#101,.T.);
#1073=ORIENTED_EDGE('',*,*,#103,.T.);
#1074=ORIENTED_EDGE('',*,*,#1163,.F.);
#1075=ORIENTED_EDGE('',*,*,#105,.T.);
#1076=ORIENTED_EDGE('',*,*,#107,.T.);
#1077=ORIENTED_EDGE('',*,*,#109,.F.);
#1078=CARTESIAN_POINT('',(-0.269514833733879,0.170938076164866,0.449714794269621));
#1079=DIRECTION('',(0.962408957008335,0.0272953733156705,-0.270229461875804));
#1080=DIRECTION('',(0.270120844436518,0.00766103560814518,0.962795948233224));
#1081=SURFACE_STYLE_FILL_AREA(#1164);
#1082=ORIENTED_EDGE('',*,*,#1165,.F.);
#1083=ORIENTED_EDGE('',*,*,#93,.F.);
#1084=ORIENTED_EDGE('',*,*,#91,.T.);
#1085=ORIENTED_EDGE('',*,*,#111,.F.);
#1086=ORIENTED_EDGE('',*,*,#107,.F.);
#1087=CARTESIAN_POINT('',(0.05,0.18,500.36));
#1088=DIRECTION('',(0.0,0.0,-1.0));
#1089=DIRECTION('',(1.0,-1.22464679914735E-016,0.0));
#1090=SURFACE_STYLE_FILL_AREA(#1166);
#1091=ORIENTED_EDGE('',*,*,#1167,.F.);
#1092=ORIENTED_EDGE('',*,*,#113,.T.);
#1093=ORIENTED_EDGE('',*,*,#109,.T.);
#1094=ORIENTED_EDGE('',*,*,#111,.T.);
#1095=ORIENTED_EDGE('',*,*,#89,.F.);
#1096=ORIENTED_EDGE('',*,*,#115,.F.);
#1097=ORIENTED_EDGE('',*,*,#117,.T.);
#1098=CARTESIAN_POINT('',(0.05,-500.18,0.36));
#1099=DIRECTION('',(0.0,1.0,0.0));
#1100=DIRECTION('',(1.0,0.0,-1.22464679914735E-016));
#1101=SURFACE_STYLE_FILL_AREA(#1168);
#1102=ORIENTED_EDGE('',*,*,#1167,.T.);
#1103=ORIENTED_EDGE('',*,*,#119,.T.);
#1104=ORIENTED_EDGE('',*,*,#121,.T.);
#1105=ORIENTED_EDGE('',*,*,#123,.T.);
#1106=CARTESIAN_POINT('',(0.05,-500.18,0.36));
#1107=DIRECTION('',(0.0,1.0,0.0));
#1108=DIRECTION('',(1.0,0.0,-1.22464679914735E-016));
#1109=SURFACE_STYLE_FILL_AREA(#1169);
#1110=ORIENTED_EDGE('',*,*,#1165,.T.);
#1111=ORIENTED_EDGE('',*,*,#105,.F.);
#1112=ORIENTED_EDGE('',*,*,#125,.F.);
#1113=ORIENTED_EDGE('',*,*,#121,.F.);
#1114=ORIENTED_EDGE('',*,*,#127,.F.);
#1115=ORIENTED_EDGE('',*,*,#95,.F.);
#1116=CARTESIAN_POINT('',(0.05,0.18,500.36));
#1117=DIRECTION('',(0.0,0.0,-1.0));
#1118=DIRECTION('',(1.0,-1.22464679914735E-016,0.0));
#1119=SURFACE_STYLE_FILL_AREA(#1170);
#1120=ORIENTED_EDGE('',*,*,#1162,.T.);
#1121=ORIENTED_EDGE('',*,*,#113,.F.);
#1122=ORIENTED_EDGE('',*,*,#123,.F.);
#1123=ORIENTED_EDGE('',*,*,#125,.T.);
#1124=ORIENTED_EDGE('',*,*,#1163,.T.);
#1125=ORIENTED_EDGE('',*,*,#129,.T.);
#1126=ORIENTED_EDGE('',*,*,#87,.T.);
#1127=CARTESIAN_POINT('',(-0.269514833733879,0.170938076164866,0.449714794269621));
#1128=DIRECTION('',(0.962408957008335,0.0272953733156705,-0.270229461875804));
#1129=DIRECTION('',(0.270120844436518,0.00766103560814518,0.962795948233224));
#1130=SURFACE_STYLE_FILL_AREA(#1171);
#1131=ORIENTED_EDGE('',*,*,#1159,.T.);
#1132=ORIENTED_EDGE('',*,*,#81,.F.);
#1133=ORIENTED_EDGE('',*,*,#131,.F.);
#1134=ORIENTED_EDGE('',*,*,#1160,.T.);
#1135=ORIENTED_EDGE('',*,*,#127,.T.);
#1136=ORIENTED_EDGE('',*,*,#119,.F.);
#1137=ORIENTED_EDGE('',*,*,#117,.F.);
#1138=ORIENTED_EDGE('',*,*,#115,.T.);
#1139=CARTESIAN_POINT('',(-0.269514833733879,0.170938076164866,0.449714794269621));
#1140=DIRECTION('',(0.962408957008335,0.0272953733156705,-0.270229461875804));
#1141=DIRECTION('',(0.270120844436518,0.00766103560814518,0.962795948233224));
#1142=SURFACE_STYLE_FILL_AREA(#1172);
#1143=ORIENTED_EDGE('',*,*,#1156,.T.);
#1144=ORIENTED_EDGE('',*,*,#129,.F.);
#1145=ORIENTED_EDGE('',*,*,#103,.F.);
#1146=ORIENTED_EDGE('',*,*,#101,.F.);
#1147=ORIENTED_EDGE('',*,*,#1157,.T.);
#1148=ORIENTED_EDGE('',*,*,#99,.T.);
#1149=ORIENTED_EDGE('',*,*,#97,.T.);
#1150=ORIENTED_EDGE('',*,*,#131,.T.);
#1151=CARTESIAN_POINT('',(-0.597504332572749,0.0899977892799916,0.470418079714738));
#1152=DIRECTION('',(0.992545523345572,-5.60586097709048E-006,-0.121874460225428));
#1153=DIRECTION('',(-0.0830195157941837,-0.732138902320073,-0.676077205433564));
#1154=SURFACE_STYLE_FILL_AREA(#1173);
#1155=FILL_AREA_STYLE('',(#1174));
#1156=EDGE_CURVE('',#181,#192,#1175,.T.);
#1157=EDGE_CURVE('',#189,#185,#1176,.T.);
#1158=FILL_AREA_STYLE('',(#1177));
#1159=EDGE_CURVE('',#195,#182,#1178,.T.);
#1160=EDGE_CURVE('',#209,#205,#1179,.T.);
#1161=FILL_AREA_STYLE('',(#1180));
#1162=EDGE_CURVE('',#188,#227,#1181,.T.);
#1163=EDGE_CURVE('',#220,#217,#1182,.T.);
#1164=FILL_AREA_STYLE('',(#1183));
#1165=EDGE_CURVE('',#202,#221,#1184,.T.);
#1166=FILL_AREA_STYLE('',(#1185));
#1167=EDGE_CURVE('',#232,#238,#1186,.T.);
#1168=FILL_AREA_STYLE('',(#1187));
#1169=FILL_AREA_STYLE('',(#1188));
#1170=FILL_AREA_STYLE('',(#1189));
#1171=FILL_AREA_STYLE('',(#1190));
#1172=FILL_AREA_STYLE('',(#1191));
#1173=FILL_AREA_STYLE('',(#1192));
#1174=FILL_AREA_STYLE_COLOUR('',#1193);
#1175=CIRCLE('',#1194,0.0150003682838408);
#1176=CIRCLE('',#1195,0.0150003682838408);
#1177=FILL_AREA_STYLE_COLOUR('',#1196);
#1178=LINE('',#1197,#1198);
#1179=LINE('',#1199,#1200);
#1180=FILL_AREA_STYLE_COLOUR('',#1201);
#1181=LINE('',#1202,#1203);
#1182=LINE('',#1204,#1205);
#1183=FILL_AREA_STYLE_COLOUR('',#1206);
#1184=LINE('',#1207,#1208);
#1185=FILL_AREA_STYLE_COLOUR('',#1209);
#1186=LINE('',#1210,#1211);
#1187=FILL_AREA_STYLE_COLOUR('',#1212);
#1188=FILL_AREA_STYLE_COLOUR('',#1213);
#1189=FILL_AREA_STYLE_COLOUR('',#1214);
#1190=FILL_AREA_STYLE_COLOUR('',#1215);
#1191=FILL_AREA_STYLE_COLOUR('',#1216);
#1192=FILL_AREA_STYLE_COLOUR('',#1217);
#1193=COLOUR_RGB('',0.560784339904785,0.686274528503418,0.662745118141174);
#1194=AXIS2_PLACEMENT_3D('',#1218,#1219,#1220);
#1195=AXIS2_PLACEMENT_3D('',#1221,#1222,#1223);
#1196=COLOUR_RGB('',0.560784339904785,0.686274528503418,0.662745118141174);
#1197=CARTESIAN_POINT('',(-0.265733141911767,0.17104533066338,0.463193937544886));
#1198=VECTOR('',#1224,1.0);
#1199=CARTESIAN_POINT('',(-0.27329652555599,0.170830821666352,0.436235650994356));
#1200=VECTOR('',#1225,1.0);
#1201=COLOUR_RGB('',0.560784339904785,0.686274528503418,0.662745118141174);
#1202=CARTESIAN_POINT('',(-0.266138323178422,0.171033839109967,0.461749743622536));
#1203=VECTOR('',#1226,1.0);
#1204=CARTESIAN_POINT('',(-0.272891344289335,0.170842313219764,0.437679844916705));
#1205=VECTOR('',#1227,1.0);
#1206=COLOUR_RGB('',0.560784339904785,0.686274528503418,0.662745118141174);
#1207=CARTESIAN_POINT('',(0.036,0.18,0.360200962907641));
#1208=VECTOR('',#1228,1.0);
#1209=COLOUR_RGB('',0.560784339904785,0.686274528503418,0.662745118141174);
#1210=CARTESIAN_POINT('',(0.036,0.178282333226321,0.36));
#1211=VECTOR('',#1229,1.0);
#1212=COLOUR_RGB('',0.560784339904785,0.686274528503418,0.662745118141174);
#1213=COLOUR_RGB('',0.560784339904785,0.686274528503418,0.662745118141174);
#1214=COLOUR_RGB('',0.560784339904785,0.686274528503418,0.662745118141174);
#1215=COLOUR_RGB('',0.560784339904785,0.686274528503418,0.662745118141174);
#1216=COLOUR_RGB('',0.560784339904785,0.686274528503418,0.662745118141174);
#1217=COLOUR_RGB('',0.560784339904785,0.686274528503418,0.662745118141174);
#1218=CARTESIAN_POINT('',(-0.589202026706127,0.163214803927295,0.53802868542914));
#1219=DIRECTION('',(0.0892252435354732,-0.681155362364661,0.726681655360793));
#1220=DIRECTION('',(0.0830195157941837,0.732138902320073,0.676077205433564));
#1221=CARTESIAN_POINT('',(-0.589202026706127,0.163214803927295,0.53802868542914));
#1222=DIRECTION('',(0.0892252435354732,-0.681155362364661,0.726681655360793));
#1223=DIRECTION('',(0.0830195157941837,0.732138902320073,0.676077205433564));
#1224=DIRECTION('',(-0.962408957008335,-0.0272953733156705,0.270229461875804));
#1225=DIRECTION('',(0.962408957008335,0.0272953733156705,-0.270229461875804));
#1226=DIRECTION('',(0.962408957008335,0.0272953733156705,-0.270229461875804));
#1227=DIRECTION('',(-0.962408957008335,-0.0272953733156705,0.270229461875804));
#1228=DIRECTION('',(0.0,-0.0,1.0));
#1229=DIRECTION('',(0.0,-1.0,-0.0));
#1230=PRESENTATION_LAYER_ASSIGNMENT('9','Calque0',(#133));
#1231=PRESENTATION_LAYER_ASSIGNMENT('1023','',(#61,#63,#65,#67,#69,#71,#73,#75,#77,#79,#81,#83,#85,#87,#89,#91,#93,#95,#97,#99,#101,#103,#105,#107,#109,#111,#113,#115,#117,#119,#121,#123,#125,#127,#129,#131));
ENDSEC;
END-ISO-10303-21;
