ISO-10303-21;
HEADER;
FILE_DESCRIPTION(('STEP AP214'),'1');
FILE_NAME('302.stp','2019-12-02T14:05:13',(' '),(' '),'Spatial InterOp 3D',' ',' ');
FILE_SCHEMA(('AUTOMOTIVE_DESIGN { 1 0 10303 214 1 1 1 1 }'));
ENDSEC;
DATA;
#1=MECHANICAL_DESIGN_GEOMETRIC_PRESENTATION_REPRESENTATION(' ',(#11,#12,#13,#14,#15,#16,#17,#18,#19,#20,#21,#22,#23,#24,#25,#26,#27,#28,#29,#30,#31,#32,#33),#7);
#2=PRODUCT_DEFINITION_CONTEXT('',#34,'design');
#3=APPLICATION_PROTOCOL_DEFINITION('INTERNATIONAL STANDARD','automotive_design',1994,#34);
#4=PRODUCT_CATEGORY_RELATIONSHIP('NONE','NONE',#35,#36);
#5=SHAPE_DEFINITION_REPRESENTATION(#37,#38);
#6=SHAPE_DEFINITION_REPRESENTATION(#37,#39);
#7= (GEOMETRIC_REPRESENTATION_CONTEXT(3)GLOBAL_UNCERTAINTY_ASSIGNED_CONTEXT((#42))GLOBAL_UNIT_ASSIGNED_CONTEXT((#44,#45,#46))REPRESENTATION_CONTEXT('NONE','WORKSPACE'));
#11=STYLED_ITEM('',(#48),#49);
#12=STYLED_ITEM('',(#50),#51);
#13=STYLED_ITEM('',(#52),#53);
#14=STYLED_ITEM('',(#54),#55);
#15=STYLED_ITEM('',(#56),#57);
#16=STYLED_ITEM('',(#58),#59);
#17=STYLED_ITEM('',(#60),#61);
#18=STYLED_ITEM('',(#62),#63);
#19=STYLED_ITEM('',(#64),#65);
#20=STYLED_ITEM('',(#66),#67);
#21=STYLED_ITEM('',(#68),#69);
#22=STYLED_ITEM('',(#70),#71);
#23=STYLED_ITEM('',(#72),#73);
#24=STYLED_ITEM('',(#74),#75);
#25=STYLED_ITEM('',(#76),#77);
#26=STYLED_ITEM('',(#78),#79);
#27=STYLED_ITEM('',(#80),#81);
#28=STYLED_ITEM('',(#82),#83);
#29=STYLED_ITEM('',(#84),#85);
#30=STYLED_ITEM('',(#86),#87);
#31=STYLED_ITEM('',(#88),#89);
#32=STYLED_ITEM('',(#90),#91);
#33=STYLED_ITEM('',(#92),#93);
#34=APPLICATION_CONTEXT(' ');
#35=PRODUCT_CATEGORY('part','NONE');
#36=PRODUCT_RELATED_PRODUCT_CATEGORY('detail',' ',(#94));
#37=PRODUCT_DEFINITION_SHAPE('NONE','NONE',#95);
#38=ADVANCED_BREP_SHAPE_REPRESENTATION('PartBody/Pocket.6',(#89,#96),#7);
#39=GEOMETRICALLY_BOUNDED_WIREFRAME_SHAPE_REPRESENTATION('Point',(#93,#97),#7);
#42=UNCERTAINTY_MEASURE_WITH_UNIT(LENGTH_MEASURE(1.0E-008),#44,'','');
#44= (CONVERSION_BASED_UNIT('METRE',#100)LENGTH_UNIT()NAMED_UNIT(#103));
#45= (NAMED_UNIT(#105)PLANE_ANGLE_UNIT()SI_UNIT($,.RADIAN.));
#46= (NAMED_UNIT(#105)SOLID_ANGLE_UNIT()SI_UNIT($,.STERADIAN.));
#48=PRESENTATION_STYLE_ASSIGNMENT((#111));
#49=ADVANCED_FACE('',(#112),#113,.F.);
#50=PRESENTATION_STYLE_ASSIGNMENT((#114));
#51=ADVANCED_FACE('',(#115),#116,.F.);
#52=PRESENTATION_STYLE_ASSIGNMENT((#117));
#53=ADVANCED_FACE('',(#118),#119,.T.);
#54=PRESENTATION_STYLE_ASSIGNMENT((#120));
#55=ADVANCED_FACE('0:36',(#121,#122),#123,.F.);
#56=PRESENTATION_STYLE_ASSIGNMENT((#124));
#57=ADVANCED_FACE('0:34',(#125),#126,.T.);
#58=PRESENTATION_STYLE_ASSIGNMENT((#127));
#59=ADVANCED_FACE('0:33',(#128),#129,.F.);
#60=PRESENTATION_STYLE_ASSIGNMENT((#130));
#61=ADVANCED_FACE('0:35',(#131),#132,.F.);
#62=PRESENTATION_STYLE_ASSIGNMENT((#133));
#63=EDGE_CURVE('',#134,#135,#136,.F.);
#64=PRESENTATION_STYLE_ASSIGNMENT((#137));
#65=EDGE_CURVE('',#138,#139,#140,.F.);
#66=PRESENTATION_STYLE_ASSIGNMENT((#141));
#67=EDGE_CURVE('',#139,#142,#143,.F.);
#68=PRESENTATION_STYLE_ASSIGNMENT((#144));
#69=EDGE_CURVE('',#145,#146,#147,.F.);
#70=PRESENTATION_STYLE_ASSIGNMENT((#148));
#71=EDGE_CURVE('',#149,#145,#150,.F.);
#72=PRESENTATION_STYLE_ASSIGNMENT((#151));
#73=EDGE_CURVE('0:77',#152,#138,#153,.F.);
#74=PRESENTATION_STYLE_ASSIGNMENT((#154));
#75=EDGE_CURVE('',#155,#149,#156,.F.);
#76=PRESENTATION_STYLE_ASSIGNMENT((#157));
#77=EDGE_CURVE('',#158,#159,#160,.F.);
#78=PRESENTATION_STYLE_ASSIGNMENT((#161));
#79=EDGE_CURVE('0:328',#162,#158,#163,.F.);
#80=PRESENTATION_STYLE_ASSIGNMENT((#164));
#81=EDGE_CURVE('',#159,#162,#165,.F.);
#82=PRESENTATION_STYLE_ASSIGNMENT((#166));
#83=EDGE_CURVE('0:375',#135,#134,#167,.F.);
#84=PRESENTATION_STYLE_ASSIGNMENT((#168));
#85=EDGE_CURVE('0:353',#146,#155,#169,.F.);
#86=PRESENTATION_STYLE_ASSIGNMENT((#170));
#87=EDGE_CURVE('',#142,#152,#171,.F.);
#88=PRESENTATION_STYLE_ASSIGNMENT((#172));
#89=MANIFOLD_SOLID_BREP('PartBody/Pocket.6',#173);
#90=PRESENTATION_STYLE_ASSIGNMENT((#174));
#91=CARTESIAN_POINT('',(0.17,0.0,0.0));
#92=PRESENTATION_STYLE_ASSIGNMENT((#175));
#93=GEOMETRIC_CURVE_SET('Point',(#91));
#94=PRODUCT('PartBody/Pocket.6','','PART--DESC',(#176));
#95=PRODUCT_DEFINITION('','NONE',#177,#2);
#96=AXIS2_PLACEMENT_3D('',#178,#179,#180);
#97=AXIS2_PLACEMENT_3D('',#181,#182,#183);
#100=LENGTH_MEASURE_WITH_UNIT(LENGTH_MEASURE(1.0),#184);
#103=DIMENSIONAL_EXPONENTS(1.0,0.0,0.0,0.0,0.0,0.0,0.0);
#105=DIMENSIONAL_EXPONENTS(0.0,0.0,0.0,0.0,0.0,0.0,0.0);
#111=SURFACE_STYLE_USAGE(.BOTH.,#185);
#112=FACE_OUTER_BOUND('',#186,.T.);
#113=CYLINDRICAL_SURFACE('',#187,0.006);
#114=SURFACE_STYLE_USAGE(.BOTH.,#188);
#115=FACE_OUTER_BOUND('',#189,.T.);
#116=CYLINDRICAL_SURFACE('',#190,0.024);
#117=SURFACE_STYLE_USAGE(.BOTH.,#191);
#118=FACE_OUTER_BOUND('',#192,.T.);
#119=CYLINDRICAL_SURFACE('',#193,0.0075);
#120=SURFACE_STYLE_USAGE(.BOTH.,#194);
#121=FACE_OUTER_BOUND('',#195,.T.);
#122=FACE_BOUND('',#196,.T.);
#123=CYLINDRICAL_SURFACE('',#197,0.015);
#124=SURFACE_STYLE_USAGE(.BOTH.,#198);
#125=FACE_OUTER_BOUND('',#199,.T.);
#126=CYLINDRICAL_SURFACE('',#200,0.0075);
#127=SURFACE_STYLE_USAGE(.BOTH.,#201);
#128=FACE_OUTER_BOUND('',#202,.T.);
#129=CYLINDRICAL_SURFACE('',#203,0.024);
#130=SURFACE_STYLE_USAGE(.BOTH.,#204);
#131=FACE_OUTER_BOUND('',#205,.T.);
#132=CYLINDRICAL_SURFACE('',#206,0.006);
#133=CURVE_STYLE('',#207,POSITIVE_LENGTH_MEASURE(0.35),#208);
#134=VERTEX_POINT('',#209);
#135=VERTEX_POINT('',#210);
#136=B_SPLINE_CURVE_WITH_KNOTS('',3,(#211,#212,#213,#214,#215,#216,#217,#218,#219,#220,#221,#222,#223,#224,#225,#226,#227,#228,#229,#230,#231,#232,#233,#234,#235,#236,#237,#238,#239,#240,#241,#242,#243,#244,#245,#246,#247,#248,#249,#250,#251,#252,#253),.UNSPECIFIED.,.F.,.F.,(4,3,3,3,3,3,3,3,3,3,3,3,3,3,4),(0.000503762393747444,0.00307669550767781,0.00438008557827818,0.00533838410382508,0.00606864052284106,0.00806920591757231,0.0099144683574708,0.0113118537772025,0.0133166024122082,0.0146364859055313,0.0153375592620182,0.0179951299811817,0.0196733750455286,0.0205481018009444,0.0210872273051903),.UNSPECIFIED.);
#137=CURVE_STYLE('',#254,POSITIVE_LENGTH_MEASURE(0.35),#255);
#138=VERTEX_POINT('',#256);
#139=VERTEX_POINT('',#257);
#140=B_SPLINE_CURVE_WITH_KNOTS('',3,(#258,#259,#260,#261,#262,#263,#264,#265,#266,#267,#268,#269,#270,#271,#272,#273,#274,#275,#276,#277,#278,#279,#280,#281,#282,#283,#284,#285,#286,#287,#288,#289,#290,#291,#292,#293,#294),.UNSPECIFIED.,.F.,.F.,(4,3,3,3,3,3,3,3,3,3,3,3,4),(0.0276595825051152,0.0295404586409193,0.0308380007318016,0.0317771694266042,0.0325454263855502,0.0345407874570402,0.0361178924568695,0.0369595116240919,0.0388933025296349,0.0406132768258796,0.0414779131354459,0.0434097958290203,0.044694675246264),.UNSPECIFIED.);
#141=CURVE_STYLE('',#295,POSITIVE_LENGTH_MEASURE(0.35),#296);
#142=VERTEX_POINT('',#297);
#143=B_SPLINE_CURVE_WITH_KNOTS('',3,(#298,#299,#300,#301,#302,#303,#304),.UNSPECIFIED.,.F.,.F.,(4,3,4),(0.0264685529586335,0.0272736966715861,0.0276595825051152),.UNSPECIFIED.);
#144=CURVE_STYLE('',#305,POSITIVE_LENGTH_MEASURE(0.35),#306);
#145=VERTEX_POINT('',#307);
#146=VERTEX_POINT('',#308);
#147=B_SPLINE_CURVE_WITH_KNOTS('',3,(#309,#310,#311,#312),.UNSPECIFIED.,.F.,.F.,(4,4),(-67.2901320138505,-66.3688052448706),.UNSPECIFIED.);
#148=CURVE_STYLE('',#313,POSITIVE_LENGTH_MEASURE(0.35),#314);
#149=VERTEX_POINT('',#315);
#150=B_SPLINE_CURVE_WITH_KNOTS('',5,(#316,#317,#318,#319,#320,#321,#322,#323,#324,#325,#326,#327,#328,#329,#330,#331,#332,#333,#334,#335,#336,#337,#338,#339),.UNSPECIFIED.,.F.,.F.,(6,3,3,3,3,3,3,6),(-66.3688052448706,-61.8838648980489,-56.7542724545024,-51.8253038178985,-48.1662794637478,-44.3721652259437,-39.7939172743583,-34.7268164011438),.UNSPECIFIED.);
#151=CURVE_STYLE('',#340,POSITIVE_LENGTH_MEASURE(0.35),#341);
#152=VERTEX_POINT('',#342);
#153=B_SPLINE_CURVE_WITH_KNOTS('',3,(#343,#344,#345,#346),.UNSPECIFIED.,.F.,.F.,(4,4),(0.044694675246264,0.0451265710642697),.UNSPECIFIED.);
#154=CURVE_STYLE('',#347,POSITIVE_LENGTH_MEASURE(0.35),#348);
#155=VERTEX_POINT('',#349);
#156=B_SPLINE_CURVE_WITH_KNOTS('',3,(#350,#351,#352,#353),.UNSPECIFIED.,.F.,.F.,(4,4),(-34.7268164011438,-32.7224260327703),.UNSPECIFIED.);
#157=CURVE_STYLE('',#354,POSITIVE_LENGTH_MEASURE(0.35),#355);
#158=VERTEX_POINT('',#356);
#159=VERTEX_POINT('',#357);
#160=B_SPLINE_CURVE_WITH_KNOTS('',3,(#358,#359,#360,#361,#362,#363,#364,#365,#366,#367,#368,#369,#370,#371,#372,#373,#374,#375,#376,#377,#378,#379,#380,#381,#382,#383,#384,#385,#386,#387,#388,#389,#390,#391,#392,#393,#394,#395,#396,#397),.UNSPECIFIED.,.F.,.F.,(4,3,3,3,3,3,3,3,3,3,3,3,3,4),(0.0501557633590508,0.0531930614959629,0.0561698040654836,0.0569069134681298,0.0593910767054327,0.0616510420009275,0.0638735318363986,0.0663065403222241,0.0688973888203324,0.0696939509080874,0.073052356489951,0.0749939295035544,0.075896698424134,0.0764107620718146),.UNSPECIFIED.);
#161=CURVE_STYLE('',#398,POSITIVE_LENGTH_MEASURE(0.35),#399);
#162=VERTEX_POINT('',#400);
#163=B_SPLINE_CURVE_WITH_KNOTS('',3,(#401,#402,#403,#404,#405,#406,#407,#408,#409,#410,#411,#412,#413,#414,#415,#416,#417,#418,#419,#420,#421,#422,#423,#424,#425),.UNSPECIFIED.,.F.,.F.,(4,3,3,3,3,3,3,3,4),(0.0764107620718146,0.0785588977331602,0.0807651815290263,0.0820700273540231,0.0829775643118672,0.0851660485695598,0.086851626219638,0.0879468901711341,0.0894690948788493),.UNSPECIFIED.);
#164=CURVE_STYLE('',#426,POSITIVE_LENGTH_MEASURE(0.35),#427);
#165=B_SPLINE_CURVE_WITH_KNOTS('',3,(#428,#429,#430,#431,#432,#433,#434,#435,#436,#437,#438,#439,#440,#441,#442,#443,#444,#445,#446,#447,#448,#449),.UNSPECIFIED.,.F.,.F.,(4,3,3,3,3,3,3,4),(0.0399453048549757,0.0421298199057769,0.043115127738621,0.0440220747760524,0.04621829340162,0.0481870283803354,0.0493692535434756,0.0501557633590508),.UNSPECIFIED.);
#166=CURVE_STYLE('',#450,POSITIVE_LENGTH_MEASURE(0.35),#451);
#167=B_SPLINE_CURVE_WITH_KNOTS('',3,(#452,#453,#454,#455,#456,#457,#458,#459,#460,#461,#462,#463,#464,#465,#466,#467,#468,#469,#470,#471,#472,#473,#474,#475,#476,#477,#478,#479,#480,#481,#482,#483,#484,#485,#486,#487,#488,#489,#490,#491,#492,#493,#494),.UNSPECIFIED.,.F.,.F.,(4,3,3,3,3,3,3,3,3,3,3,3,3,3,4),(0.0210872273051903,0.0230086485279677,0.0244015348133006,0.0254561398805697,0.0261607666936534,0.0280124902430388,0.0298479663288468,0.0305313580154676,0.0323883222002041,0.0341133732608862,0.0349589343266376,0.0368810544194727,0.038441314094432,0.0392360319168257,0.0398051734807255),.UNSPECIFIED.);
#168=CURVE_STYLE('',#495,POSITIVE_LENGTH_MEASURE(0.35),#496);
#169=B_SPLINE_CURVE_WITH_KNOTS('',5,(#497,#498,#499,#500,#501,#502,#503,#504,#505,#506,#507,#508,#509,#510,#511,#512,#513,#514,#515,#516,#517,#518,#519,#520),.UNSPECIFIED.,.F.,.F.,(6,3,3,3,3,3,3,6),(-32.7224260327703,-28.4048179260798,-22.5481861908846,-18.8190478157711,-14.5655772286248,-9.54269992058106,-4.39217701985032,-0.0),.UNSPECIFIED.);
#170=CURVE_STYLE('',#521,POSITIVE_LENGTH_MEASURE(0.35),#522);
#171=B_SPLINE_CURVE_WITH_KNOTS('',3,(#523,#524,#525,#526,#527,#528,#529,#530,#531,#532,#533,#534,#535,#536,#537,#538,#539,#540,#541,#542,#543,#544,#545,#546,#547,#548,#549,#550,#551,#552,#553,#554,#555,#556,#557,#558,#559,#560,#561,#562),.UNSPECIFIED.,.F.,.F.,(4,3,3,3,3,3,3,3,3,3,3,3,3,4),(0.00867687266185313,0.00950759741678942,0.011416976455657,0.0129834851625118,0.0136833532401311,0.0155954045768802,0.0170256761159474,0.0178900702556881,0.0185864944261805,0.0205775656878598,0.0222991229513803,0.0232479511734681,0.0251676896245268,0.0264685529586335),.UNSPECIFIED.);
#172=SURFACE_STYLE_USAGE(.BOTH.,#563);
#173=CLOSED_SHELL('',(#49,#51,#53,#55,#57,#59,#61));
#174=POINT_STYLE(' ',#564,POSITIVE_LENGTH_MEASURE(1.0E-006),#565);
#175=SURFACE_STYLE_USAGE(.BOTH.,#566);
#176=PRODUCT_CONTEXT('',#34,'mechanical');
#177=PRODUCT_DEFINITION_FORMATION_WITH_SPECIFIED_SOURCE(' ','NONE',#94,.NOT_KNOWN.);
#178=CARTESIAN_POINT('',(0.0,0.0,0.0));
#179=DIRECTION('',(0.0,0.0,1.0));
#180=DIRECTION('',(1.0,0.0,0.0));
#181=CARTESIAN_POINT('',(0.0,0.0,0.0));
#182=DIRECTION('',(0.0,0.0,1.0));
#183=DIRECTION('',(1.0,0.0,0.0));
#184= (NAMED_UNIT(#103)LENGTH_UNIT()SI_UNIT($,.METRE.));
#185=SURFACE_SIDE_STYLE('',(#568));
#186=EDGE_LOOP('',(#569,#570,#571,#572,#573));
#187=AXIS2_PLACEMENT_3D('',#574,#575,#576);
#188=SURFACE_SIDE_STYLE('',(#577));
#189=EDGE_LOOP('',(#578,#579,#580,#581,#582,#583));
#190=AXIS2_PLACEMENT_3D('',#584,#585,#586);
#191=SURFACE_SIDE_STYLE('',(#587));
#192=EDGE_LOOP('',(#588,#589,#590,#591,#592));
#193=AXIS2_PLACEMENT_3D('',#593,#594,#595);
#194=SURFACE_SIDE_STYLE('',(#596));
#195=EDGE_LOOP('',(#597,#598,#599));
#196=EDGE_LOOP('',(#600,#601));
#197=AXIS2_PLACEMENT_3D('',#602,#603,#604);
#198=SURFACE_SIDE_STYLE('',(#605));
#199=EDGE_LOOP('',(#606,#607,#608,#609,#610,#611));
#200=AXIS2_PLACEMENT_3D('',#612,#613,#614);
#201=SURFACE_SIDE_STYLE('',(#615));
#202=EDGE_LOOP('',(#616,#617,#618,#619,#620,#621));
#203=AXIS2_PLACEMENT_3D('',#622,#623,#624);
#204=SURFACE_SIDE_STYLE('',(#625));
#205=EDGE_LOOP('',(#626,#627,#628,#629,#630));
#206=AXIS2_PLACEMENT_3D('',#631,#632,#633);
#207=DRAUGHTING_PRE_DEFINED_CURVE_FONT('continuous');
#208=COLOUR_RGB('',0.0,0.0,0.0);
#209=CARTESIAN_POINT('',(0.0154810519334826,0.006,1.59963568560372E-012));
#210=CARTESIAN_POINT('',(0.0159710991735543,-0.006,7.34788079488412E-019));
#211=CARTESIAN_POINT('',(0.0159710991735457,-0.006,-5.07540447757702E-015));
#212=CARTESIAN_POINT('',(0.0164167114424863,-0.00599999999999936,-0.000756088714641366));
#213=CARTESIAN_POINT('',(0.016936685108542,-0.00585283138158273,-0.00152147268532375));
#214=CARTESIAN_POINT('',(0.0174587731237197,-0.00557297879853434,-0.00222304010559566));
#215=CARTESIAN_POINT('',(0.0177232511745784,-0.0054312117716333,-0.00257843838800272));
#216=CARTESIAN_POINT('',(0.0179879162344544,-0.00525601992067503,-0.00291817931520869));
#217=CARTESIAN_POINT('',(0.0182418959381963,-0.00505319278665055,-0.00323500272966544));
#218=CARTESIAN_POINT('',(0.0184286308083665,-0.00490406709675863,-0.00346794252089216));
#219=CARTESIAN_POINT('',(0.018609545836629,-0.00474006542045815,-0.00368849080746919));
#220=CARTESIAN_POINT('',(0.0187806447625938,-0.00456448046271119,-0.00389429301742022));
#221=CARTESIAN_POINT('',(0.0189110280258898,-0.004430678688985,-0.00405112137607667));
#222=CARTESIAN_POINT('',(0.0190404082292674,-0.00428546740380269,-0.00420501311630936));
#223=CARTESIAN_POINT('',(0.0191671119270989,-0.00412750848393786,-0.00435473003928154));
#224=CARTESIAN_POINT('',(0.0195142215541633,-0.00369477398049245,-0.00476488527695461));
#225=CARTESIAN_POINT('',(0.0198353371106142,-0.00316914543997214,-0.00513655529237903));
#226=CARTESIAN_POINT('',(0.0200685875176749,-0.0025786478939727,-0.00541761709969523));
#227=CARTESIAN_POINT('',(0.0202837308048545,-0.00203399039597005,-0.00567686021051604));
#228=CARTESIAN_POINT('',(0.020423013667059,-0.00143363604617877,-0.00585883178786949));
#229=CARTESIAN_POINT('',(0.0204627320822272,-0.000822026190611111,-0.00594342266223339));
#230=CARTESIAN_POINT('',(0.0204928101529942,-0.000358864595677505,-0.00600748187241541));
#231=CARTESIAN_POINT('',(0.0204673457450119,0.000111091852829499,-0.00601714118040343));
#232=CARTESIAN_POINT('',(0.020387852272903,0.000576189623232962,-0.00597226971243586));
#233=CARTESIAN_POINT('',(0.0202738075523471,0.00124343869224037,-0.00590789519350324));
#234=CARTESIAN_POINT('',(0.0200471898410542,0.00189236654294457,-0.00572934211958502));
#235=CARTESIAN_POINT('',(0.0197534788894657,0.00247319319612518,-0.00546656340077019));
#236=CARTESIAN_POINT('',(0.0195601058999344,0.0028555970040784,-0.00529355552970644));
#237=CARTESIAN_POINT('',(0.0193384343757596,0.00320928400349393,-0.00508456114054548));
#238=CARTESIAN_POINT('',(0.0191077582365392,0.00352505099277576,-0.00485530797152257));
#239=CARTESIAN_POINT('',(0.0189852315923295,0.00369277475336786,-0.00473353715651866));
#240=CARTESIAN_POINT('',(0.0188616121961003,0.00384828478137304,-0.00460760883270776));
#241=CARTESIAN_POINT('',(0.0187352024248583,0.0039962595690138,-0.00447547868468454));
#242=CARTESIAN_POINT('',(0.0182560187509095,0.00455719011810651,-0.00397461068099256));
#243=CARTESIAN_POINT('',(0.0177031384367687,0.00504070442915537,-0.00334730236051059));
#244=CARTESIAN_POINT('',(0.0171669751694567,0.00538581495908726,-0.00264442758011482));
#245=CARTESIAN_POINT('',(0.016828390254082,0.00560375085043945,-0.0022005650245308));
#246=CARTESIAN_POINT('',(0.016496573157937,0.0057675098902411,-0.00172657078577748));
#247=CARTESIAN_POINT('',(0.0161917701244531,0.0058700236239765,-0.0012421041236377));
#248=CARTESIAN_POINT('',(0.0160329021651875,0.00592345533523306,-0.000989592758948802));
#249=CARTESIAN_POINT('',(0.0158813300948725,0.00596035201909852,-0.000734404350250842));
#250=CARTESIAN_POINT('',(0.0157390680606446,0.00598077035783906,-0.000479985340186169));
#251=CARTESIAN_POINT('',(0.0156513868613863,0.0059933549130744,-0.00032317777000308));
#252=CARTESIAN_POINT('',(0.0155654275411183,0.00600000000005276,-0.000163496742352528));
#253=CARTESIAN_POINT('',(0.0154810519341345,0.006,1.93606224452338E-012));
#254=DRAUGHTING_PRE_DEFINED_CURVE_FONT('continuous');
#255=COLOUR_RGB('',0.0,0.0,0.0);
#256=CARTESIAN_POINT('',(0.161425807494574,-0.006,-3.62925500498398E-017));
#257=CARTESIAN_POINT('',(0.160035123242756,0.00587841270244927,-0.00120177539485675));
#258=CARTESIAN_POINT('',(0.160035123242756,0.00587841270244927,-0.00120177539485674));
#259=CARTESIAN_POINT('',(0.160050051239637,0.00575052909322384,-0.00182731044585137));
#260=CARTESIAN_POINT('',(0.160104935943503,0.00551371117969711,-0.00245622607260901));
#261=CARTESIAN_POINT('',(0.160192575601123,0.00518153060786653,-0.00302518438442062));
#262=CARTESIAN_POINT('',(0.160253034736324,0.004952372363196,-0.00341768623155437));
#263=CARTESIAN_POINT('',(0.160328533862583,0.0046784246342541,-0.00378280959772774));
#264=CARTESIAN_POINT('',(0.160411479913232,0.00437440157874272,-0.00410665445684114));
#265=CARTESIAN_POINT('',(0.160471516758798,0.00415434788010675,-0.00434105529500218));
#266=CARTESIAN_POINT('',(0.16053531423603,0.00391885251140626,-0.00455379558704291));
#267=CARTESIAN_POINT('',(0.16059940760803,0.0036759450240665,-0.00474209111890954));
#268=CARTESIAN_POINT('',(0.160651837144208,0.00347724231116562,-0.00489612026563847));
#269=CARTESIAN_POINT('',(0.160706331958969,0.00326666274521344,-0.00503945136158769));
#270=CARTESIAN_POINT('',(0.160762190149312,0.00304332851735902,-0.00517089465522451));
#271=CARTESIAN_POINT('',(0.160907268247513,0.0024632720414588,-0.0055122867222631));
#272=CARTESIAN_POINT('',(0.161058988636117,0.00180374736905639,-0.00576425054835365));
#273=CARTESIAN_POINT('',(0.161189355230112,0.00112310980249379,-0.00589394811408638));
#274=CARTESIAN_POINT('',(0.161292395131079,0.000585143554362109,-0.00599645922463441));
#275=CARTESIAN_POINT('',(0.161381967828212,3.38507341279085E-005,-0.00602328161856552));
#276=CARTESIAN_POINT('',(0.161450785355147,-0.000494503456052978,-0.00597958747172007));
#277=CARTESIAN_POINT('',(0.161487509701158,-0.000776458692759894,-0.00595627017104286));
#278=CARTESIAN_POINT('',(0.161518538656434,-0.00105059498935943,-0.00591424861435536));
#279=CARTESIAN_POINT('',(0.161545199128583,-0.00132997509520063,-0.00585074065791213));
#280=CARTESIAN_POINT('',(0.161606456976058,-0.00197190760922403,-0.0057048182343475));
#281=CARTESIAN_POINT('',(0.16163951484301,-0.00261661398682585,-0.00544245309604023));
#282=CARTESIAN_POINT('',(0.161645347394233,-0.00319501886590671,-0.00507856814924248));
#283=CARTESIAN_POINT('',(0.161650535048263,-0.00370947031047085,-0.00475491746214467));
#284=CARTESIAN_POINT('',(0.161635161707347,-0.00417251425038536,-0.00435101518768621));
#285=CARTESIAN_POINT('',(0.161611518377878,-0.00455295468298157,-0.00390776197518685));
#286=CARTESIAN_POINT('',(0.161599632804249,-0.00474420324545601,-0.00368493723722674));
#287=CARTESIAN_POINT('',(0.161585920712267,-0.00491428255800472,-0.00345499965581463));
#288=CARTESIAN_POINT('',(0.161570833077351,-0.00507203488890174,-0.00320538017803871));
#289=CARTESIAN_POINT('',(0.161537122324681,-0.00542450562666647,-0.00264764793413575));
#290=CARTESIAN_POINT('',(0.16149764260659,-0.00569547674105582,-0.00200700311615341));
#291=CARTESIAN_POINT('',(0.161468381538358,-0.00584816223972687,-0.00134126746692553));
#292=CARTESIAN_POINT('',(0.161448920240619,-0.00594971211913028,-0.000898492118368728));
#293=CARTESIAN_POINT('',(0.161433980492459,-0.006,-0.000444437218789907));
#294=CARTESIAN_POINT('',(0.161425807494574,-0.006,-3.6290657627526E-017));
#295=DRAUGHTING_PRE_DEFINED_CURVE_FONT('continuous');
#296=COLOUR_RGB('',0.0,0.0,0.0);
#297=CARTESIAN_POINT('',(0.160051494056177,0.006,9.4478603205817E-015));
#298=CARTESIAN_POINT('',(0.160051494056177,0.006,1.88964437807241E-014));
#299=CARTESIAN_POINT('',(0.16003756638328,0.00600000000000087,-0.000277598888792337));
#300=CARTESIAN_POINT('',(0.160030758069601,0.00598059045990594,-0.000551922772776742));
#301=CARTESIAN_POINT('',(0.160030646243614,0.00594399248531945,-0.00081789567456118));
#302=CARTESIAN_POINT('',(0.160030592648133,0.00592645196466259,-0.000945370028828778));
#303=CARTESIAN_POINT('',(0.160032060572966,0.0059046496630876,-0.00107343886595951));
#304=CARTESIAN_POINT('',(0.160035123242756,0.00587841270244927,-0.00120177539485675));
#305=DRAUGHTING_PRE_DEFINED_CURVE_FONT('continuous');
#306=COLOUR_RGB('',0.0,0.0,0.0);
#307=CARTESIAN_POINT('',(0.161605624873835,-0.0075,2.15320657497235E-018));
#308=CARTESIAN_POINT('',(0.161593499737664,-0.00747172477993075,0.000650637236076195));
#309=CARTESIAN_POINT('',(0.161593499737664,-0.00747172477993074,0.000650637236076198));
#310=CARTESIAN_POINT('',(0.161595698708513,-0.00749056269442119,0.000434308220925883));
#311=CARTESIAN_POINT('',(0.161599728985875,-0.00750004044045577,0.000217103102040255));
#312=CARTESIAN_POINT('',(0.161605628290421,-0.00749999657832961,-1.96793282234223E-009));
#313=DRAUGHTING_PRE_DEFINED_CURVE_FONT('continuous');
#314=COLOUR_RGB('',0.0,0.0,0.0);
#315=CARTESIAN_POINT('',(0.15986140563645,0.0073665986028866,-0.0014082702240512));
#316=CARTESIAN_POINT('',(0.161605624873835,-0.0075,3.38827635587942E-018));
#317=CARTESIAN_POINT('',(0.16162272734161,-0.00749999999999998,-0.00063403572761083));
#318=CARTESIAN_POINT('',(0.161652485061374,-0.00743299978268553,-0.00126773008142072));
#319=CARTESIAN_POINT('',(0.161693524066409,-0.00729913412352737,-0.00189132911007378));
#320=CARTESIAN_POINT('',(0.161798102403371,-0.00687405453921492,-0.0031865453583941));
#321=CARTESIAN_POINT('',(0.161917136866387,-0.00617025198779825,-0.00435530633858396));
#322=CARTESIAN_POINT('',(0.161977969372158,-0.00572086152051826,-0.00493103349756512));
#323=CARTESIAN_POINT('',(0.162074640500661,-0.0047110418422256,-0.00594356112703362));
#324=CARTESIAN_POINT('',(0.16209995700529,-0.00349074555546608,-0.00669333909035323));
#325=CARTESIAN_POINT('',(0.162088946747085,-0.00285229370162958,-0.00698929815994912));
#326=CARTESIAN_POINT('',(0.162021641687489,-0.00169154821221821,-0.00737003135540033));
#327=CARTESIAN_POINT('',(0.161873263994602,-0.000489339698456649,-0.00751051099615563));
#328=CARTESIAN_POINT('',(0.16179565555296,2.4737810866359E-005,-0.00752607767932324));
#329=CARTESIAN_POINT('',(0.161611772038595,0.00106493830601419,-0.00746902247886403));
#330=CARTESIAN_POINT('',(0.161385612291265,0.00207218807939652,-0.00723665593129056));
#331=CARTESIAN_POINT('',(0.16126225576391,0.0025714708113776,-0.0070743901887834));
#332=CARTESIAN_POINT('',(0.16097969765317,0.00363407268327595,-0.00662391998472381));
#333=CARTESIAN_POINT('',(0.160691545942036,0.00459234600369522,-0.00597963226698247));
#334=CARTESIAN_POINT('',(0.160538492923583,0.00507880511082918,-0.00557290426899925));
#335=CARTESIAN_POINT('',(0.16023990190521,0.00600989950031451,-0.00461061135318303));
#336=CARTESIAN_POINT('',(0.160017384773009,0.00671478665734966,-0.00345279213095586));
#337=CARTESIAN_POINT('',(0.159929452793048,0.00701368200191199,-0.0027987813302269));
#338=CARTESIAN_POINT('',(0.159877108600449,0.00723207608604938,-0.00211195149747833));
#339=CARTESIAN_POINT('',(0.15986140563645,0.0073665986028866,-0.0014082702240512));
#340=DRAUGHTING_PRE_DEFINED_CURVE_FONT('continuous');
#341=COLOUR_RGB('',0.0,0.0,0.0);
#342=CARTESIAN_POINT('',(0.161419782131358,-0.00598353887949342,0.00044414240688175));
#343=CARTESIAN_POINT('',(0.161425807494574,-0.006,-7.33181323050641E-017));
#344=CARTESIAN_POINT('',(0.161423060232596,-0.006,0.000149392608412802));
#345=CARTESIAN_POINT('',(0.16142105097868,-0.00599440870860043,0.000297702787364356));
#346=CARTESIAN_POINT('',(0.161419782131358,-0.00598353887949341,0.000444142406881749));
#347=DRAUGHTING_PRE_DEFINED_CURVE_FONT('continuous');
#348=COLOUR_RGB('',0.0,0.0,0.0);
#349=CARTESIAN_POINT('',(0.159887733075839,0.0075,-4.77991967029273E-018));
#350=CARTESIAN_POINT('',(0.15986140563645,0.0073665986028866,-0.0014082702240512));
#351=CARTESIAN_POINT('',(0.159851052948071,0.00745528693566456,-0.000944345518993504));
#352=CARTESIAN_POINT('',(0.159860022047419,0.0075,-0.000471625942240694));
#353=CARTESIAN_POINT('',(0.159887733075839,0.0075,-8.64100593592952E-018));
#354=DRAUGHTING_PRE_DEFINED_CURVE_FONT('continuous');
#355=COLOUR_RGB('',0.0,0.0,0.0);
#356=CARTESIAN_POINT('',(0.0145592207606406,0.0075,4.35649828607881E-012));
#357=CARTESIAN_POINT('',(0.0151717798130389,-0.0075,5.54848529438753E-015));
#358=CARTESIAN_POINT('',(0.0151717798130389,-0.0075,1.1095322709316E-014));
#359=CARTESIAN_POINT('',(0.0157046222393791,-0.0075,-0.000886329018473943));
#360=CARTESIAN_POINT('',(0.0163362664399016,-0.00733993401908923,-0.00176957460796473));
#361=CARTESIAN_POINT('',(0.016985136612093,-0.00704015900059162,-0.00258576125084834));
#362=CARTESIAN_POINT('',(0.0176210700557615,-0.00674636069083864,-0.00338567532415557));
#363=CARTESIAN_POINT('',(0.0182716756821296,-0.00631800134744975,-0.00412330438738692));
#364=CARTESIAN_POINT('',(0.0188504857451077,-0.00579944974800927,-0.0047556684724984));
#365=CARTESIAN_POINT('',(0.018993812327707,-0.00567104453634653,-0.00491225625331763));
#366=CARTESIAN_POINT('',(0.0191332525779492,-0.00553713499523626,-0.00506297666749752));
#367=CARTESIAN_POINT('',(0.0192731761478727,-0.00539200385053667,-0.00521308876538638));
#368=CARTESIAN_POINT('',(0.0197447384250442,-0.00490289130773617,-0.00571898782692492));
#369=CARTESIAN_POINT('',(0.0202008823221625,-0.00430093473284555,-0.00619444333238721));
#370=CARTESIAN_POINT('',(0.0205559697229257,-0.00361128577869674,-0.00657332602451626));
#371=CARTESIAN_POINT('',(0.0208790101699229,-0.00298387825609658,-0.00691801421666782));
#372=CARTESIAN_POINT('',(0.0211180188290235,-0.0022823523702013,-0.00718360557791938));
#373=CARTESIAN_POINT('',(0.0212306422775094,-0.00154796522092067,-0.00733851508650217));
#374=CARTESIAN_POINT('',(0.0213413981683164,-0.000825755911852758,-0.00749085583657007));
#375=CARTESIAN_POINT('',(0.0213292488033017,-7.39317162769306E-005,-0.0075357093540981));
#376=CARTESIAN_POINT('',(0.0211963236116768,0.000659679384081632,-0.00747093187696272));
#377=CARTESIAN_POINT('',(0.0210508074819552,0.00146277958457808,-0.00740001854856616));
#378=CARTESIAN_POINT('',(0.0207614536284495,0.0022405648780898,-0.00719788016004941));
#379=CARTESIAN_POINT('',(0.0203855569559977,0.00294091423017807,-0.00689934949765093));
#380=CARTESIAN_POINT('',(0.0199852742052636,0.00368669833967876,-0.0065814518319336));
#381=CARTESIAN_POINT('',(0.0194881985544834,0.0043457301531712,-0.00615370323588221));
#382=CARTESIAN_POINT('',(0.0189940910611979,0.00488418268379086,-0.00569163943968322));
#383=CARTESIAN_POINT('',(0.0188421766220811,0.00504973110248866,-0.00554957690594378));
#384=CARTESIAN_POINT('',(0.0186853823993962,0.0052098569942272,-0.00539965578451764));
#385=CARTESIAN_POINT('',(0.0185242512488595,0.00536438797635311,-0.00524150184958073));
#386=CARTESIAN_POINT('',(0.0178449021263076,0.00601590996179575,-0.00457470504108245));
#387=CARTESIAN_POINT('',(0.0170941439321005,0.00655840967440925,-0.00376529687428471));
#388=CARTESIAN_POINT('',(0.0163963539411363,0.00692938426969294,-0.00286943089182019));
#389=CARTESIAN_POINT('',(0.0159929451858225,0.00714385338170996,-0.00235150976140294));
#390=CARTESIAN_POINT('',(0.0156073626301864,0.00730164854966551,-0.00180468884957139));
#391=CARTESIAN_POINT('',(0.0152601437110479,0.00739577186834507,-0.00124601704297961));
#392=CARTESIAN_POINT('',(0.0150986980962606,0.00743953618017387,-0.000986252645626828));
#393=CARTESIAN_POINT('',(0.0149464313131579,0.00746950836182309,-0.000725815231758342));
#394=CARTESIAN_POINT('',(0.0148015713915706,0.00748581502566576,-0.000461056831113854));
#395=CARTESIAN_POINT('',(0.0147190838158507,0.00749510052819622,-0.000310295472269105));
#396=CARTESIAN_POINT('',(0.0146380905195886,0.00750000000010927,-0.000156408456134822));
#397=CARTESIAN_POINT('',(0.0145592207623921,0.0075,5.23967027268458E-012));
#398=DRAUGHTING_PRE_DEFINED_CURVE_FONT('continuous');
#399=COLOUR_RGB('',0.0,0.0,0.0);
#400=CARTESIAN_POINT('',(0.0129903810567666,-0.00156524916109564,0.00733484799185977));
#401=CARTESIAN_POINT('',(0.0145592207606406,0.0075,8.71299188278825E-012));
#402=CARTESIAN_POINT('',(0.0142296399766484,0.00749999999924069,0.000653599375414755));
#403=CARTESIAN_POINT('',(0.0139396549327872,0.00741166300057239,0.00135337412211589));
#404=CARTESIAN_POINT('',(0.0137157105988314,0.00721625707185408,0.00204343677976982));
#405=CARTESIAN_POINT('',(0.0134857042896055,0.00701556167728233,0.00275217882391079));
#406=CARTESIAN_POINT('',(0.0133239408500471,0.00670120749761713,0.00345138017612294));
#407=CARTESIAN_POINT('',(0.0132175004509338,0.00629077701404077,0.00408364109094032));
#408=CARTESIAN_POINT('',(0.0131545492065589,0.0060480392012764,0.00445757440656993));
#409=CARTESIAN_POINT('',(0.0131102771158767,0.00577289263531494,0.00480756851805131));
#410=CARTESIAN_POINT('',(0.0130786113044748,0.00547581704251073,0.00512498075283694));
#411=CARTESIAN_POINT('',(0.0130565873276978,0.00526919716866935,0.00534574502124433));
#412=CARTESIAN_POINT('',(0.0130399967028509,0.00504614908861087,0.00555738831412395));
#413=CARTESIAN_POINT('',(0.0130274985594072,0.00480557639609899,0.00575816251084113));
#414=CARTESIAN_POINT('',(0.0129973598527237,0.00422544624730191,0.00624232039010832));
#415=CARTESIAN_POINT('',(0.0129914070021269,0.00354849471914643,0.00665294223099178));
#416=CARTESIAN_POINT('',(0.0129905020538874,0.00282905590151412,0.00694596593038781));
#417=CARTESIAN_POINT('',(0.0129898050598279,0.00227494179841414,0.00717165373093244));
#418=CARTESIAN_POINT('',(0.0129919249457335,0.00169556929927633,0.0073285718655179));
#419=CARTESIAN_POINT('',(0.012992640924445,0.00112510570698092,0.00741512893671573));
#420=CARTESIAN_POINT('',(0.012993106157045,0.000754426724465243,0.00747137246831789));
#421=CARTESIAN_POINT('',(0.0129931270158519,0.000393493371720234,0.0074990207496759));
#422=CARTESIAN_POINT('',(0.0129926917008058,1.91294766791546E-005,0.00749997560416845));
#423=CARTESIAN_POINT('',(0.012992086697225,-0.00050116381212277,0.00750130266692969));
#424=CARTESIAN_POINT('',(0.0129903810567666,-0.00103763034969546,0.00744744131388076));
#425=CARTESIAN_POINT('',(0.0129903810567666,-0.00156524916109564,0.00733484799185978));
#426=DRAUGHTING_PRE_DEFINED_CURVE_FONT('continuous');
#427=COLOUR_RGB('',0.0,0.0,0.0);
#428=CARTESIAN_POINT('',(0.0129903810567666,-0.00156524916109551,0.0073348479918598));
#429=CARTESIAN_POINT('',(0.0129903810567666,-0.0023224435292821,0.00717326347764688));
#430=CARTESIAN_POINT('',(0.0129938800943367,-0.00306116030575778,0.00688882287069105));
#431=CARTESIAN_POINT('',(0.0130195248442604,-0.00372047660179774,0.00651214663958633));
#432=CARTESIAN_POINT('',(0.0130310917011524,-0.00401785588081514,0.00634224987425274));
#433=CARTESIAN_POINT('',(0.0130472665843733,-0.00429906885049368,0.00615435740072094));
#434=CARTESIAN_POINT('',(0.0130694475358925,-0.00456010991220913,0.00595444351628026));
#435=CARTESIAN_POINT('',(0.0130898644529179,-0.00480039057341874,0.0057704286336303));
#436=CARTESIAN_POINT('',(0.0131158304485857,-0.00503056784051277,0.00557118935896497));
#437=CARTESIAN_POINT('',(0.0131497606123126,-0.00525039173085694,0.0053556873202745));
#438=CARTESIAN_POINT('',(0.0132319242387098,-0.00578270652146026,0.0048338381144375));
#439=CARTESIAN_POINT('',(0.0133620306533577,-0.00624385701274543,0.00422072541296508));
#440=CARTESIAN_POINT('',(0.0135589967352959,-0.00659678328844045,0.00356825591085515));
#441=CARTESIAN_POINT('',(0.0137355611313073,-0.00691315356951343,0.00298336899823423));
#442=CARTESIAN_POINT('',(0.0139668585616321,-0.00714432539883234,0.00236600303146597));
#443=CARTESIAN_POINT('',(0.014242413281711,-0.00729070633775666,0.00175943203807221));
#444=CARTESIAN_POINT('',(0.014407883864304,-0.00737860807733632,0.00139518621556492));
#445=CARTESIAN_POINT('',(0.0145885344465481,-0.00743638360072513,0.00103524413969382));
#446=CARTESIAN_POINT('',(0.0147775428136999,-0.00746836777943387,0.000688100800111441));
#447=CARTESIAN_POINT('',(0.0149032861497627,-0.00748964618838832,0.000457153555453009));
#448=CARTESIAN_POINT('',(0.0150338003565357,-0.0075,0.000229514749978717));
#449=CARTESIAN_POINT('',(0.0151717798130414,-0.0075,7.0198952433605E-015));
#450=DRAUGHTING_PRE_DEFINED_CURVE_FONT('continuous');
#451=COLOUR_RGB('',0.0,0.0,0.0);
#452=CARTESIAN_POINT('',(0.0154810519334826,0.006,3.19927110327855E-012));
#453=CARTESIAN_POINT('',(0.0151803378402372,0.0059999999996893,0.000582701295380612));
#454=CARTESIAN_POINT('',(0.0149065439950645,0.00591184774978094,0.00120719674930591));
#455=CARTESIAN_POINT('',(0.0146867658663098,0.00571875101055922,0.00181545776024337));
#456=CARTESIAN_POINT('',(0.0145274432057034,0.00557877035633514,0.00225640137531014));
#457=CARTESIAN_POINT('',(0.0143952846255312,0.00538416273120523,0.00268939987253674));
#458=CARTESIAN_POINT('',(0.0142895003120278,0.00514121556637811,0.00309320262835002));
#459=CARTESIAN_POINT('',(0.0142094071456057,0.00495727139677626,0.00339893643946021));
#460=CARTESIAN_POINT('',(0.0141442746771189,0.00474603980206377,0.0036875655638936));
#461=CARTESIAN_POINT('',(0.0140913774198843,0.00451503325506053,0.00395151549480671));
#462=CARTESIAN_POINT('',(0.0140560344967912,0.00436068788723687,0.00412787174835152));
#463=CARTESIAN_POINT('',(0.0140259210573549,0.00419761825544616,0.00429388891873613));
#464=CARTESIAN_POINT('',(0.0139992054995569,0.00401962199931006,0.00445450771496275));
#465=CARTESIAN_POINT('',(0.0139289983677944,0.00355185686027534,0.00487660577016614));
#466=CARTESIAN_POINT('',(0.0138861694592986,0.00299228220795349,0.00524188289496714));
#467=CARTESIAN_POINT('',(0.0138604846133877,0.00239004831345859,0.00550342339451852));
#468=CARTESIAN_POINT('',(0.013835025132434,0.00179309856263035,0.00576266907541736));
#469=CARTESIAN_POINT('',(0.0138254099495696,0.00115376976644516,0.00592012573382522));
#470=CARTESIAN_POINT('',(0.0138244269247966,0.0005405844487533,0.00597559774865796));
#471=CARTESIAN_POINT('',(0.0138240609211408,0.000312280875795522,0.00599625130773722));
#472=CARTESIAN_POINT('',(0.013824931610928,8.26667487607706E-005,0.00600404067548807));
#473=CARTESIAN_POINT('',(0.0138272324410231,-0.00015249803667546,0.00599806171598877));
#474=CARTESIAN_POINT('',(0.0138334844326194,-0.000791505786719507,0.00598181522972099));
#475=CARTESIAN_POINT('',(0.0138497890052976,-0.00145281964259133,0.00585845867664238));
#476=CARTESIAN_POINT('',(0.0138856363022365,-0.00206989567133068,0.00563165445582437));
#477=CARTESIAN_POINT('',(0.013918937115529,-0.00264313648375341,0.00542096172146516));
#478=CARTESIAN_POINT('',(0.0139702897808525,-0.00317842192678318,0.00512119214108001));
#479=CARTESIAN_POINT('',(0.014045960825876,-0.00363476144839483,0.00477373116265074));
#480=CARTESIAN_POINT('',(0.0140830521856247,-0.00385844348368826,0.00460341766763364));
#481=CARTESIAN_POINT('',(0.0141265890045443,-0.00406957068743695,0.00441810047188222));
#482=CARTESIAN_POINT('',(0.0141792488301199,-0.00426955349548011,0.00421555606643223));
#483=CARTESIAN_POINT('',(0.0142989545650735,-0.00472415221002682,0.00375513435690048));
#484=CARTESIAN_POINT('',(0.0144659701459749,-0.00510759844045389,0.00321248633939388));
#485=CARTESIAN_POINT('',(0.0146856570593595,-0.0053884252654449,0.00263910461306767));
#486=CARTESIAN_POINT('',(0.0148639854756473,-0.00561638332712564,0.00217366835376207));
#487=CARTESIAN_POINT('',(0.0150772685126134,-0.00577822233584233,0.00168742753146061));
#488=CARTESIAN_POINT('',(0.0153128370223358,-0.00587623233506874,0.00121239166290954));
#489=CARTESIAN_POINT('',(0.0154328237758716,-0.00592615370034408,0.000970432278152846));
#490=CARTESIAN_POINT('',(0.0155582866697263,-0.00595980271544332,0.000731465675084705));
#491=CARTESIAN_POINT('',(0.0156863054642252,-0.00597919131686121,0.000499270664441189));
#492=CARTESIAN_POINT('',(0.0157779868319466,-0.0059930765710003,0.000332982923354275));
#493=CARTESIAN_POINT('',(0.0158725285002369,-0.00600000000000014,0.000167248926646086));
#494=CARTESIAN_POINT('',(0.0159710991735457,-0.006,-5.06646267560834E-015));
#495=DRAUGHTING_PRE_DEFINED_CURVE_FONT('continuous');
#496=COLOUR_RGB('',0.0,0.0,0.0);
#497=CARTESIAN_POINT('',(0.159887733075839,0.0075,-8.64100593592971E-018));
#498=CARTESIAN_POINT('',(0.159923548063628,0.00749999999999998,0.000609550721358622));
#499=CARTESIAN_POINT('',(0.159985163304952,0.00743807465301522,0.00121758546271251));
#500=CARTESIAN_POINT('',(0.160070775844153,0.00731483059835865,0.00181426275043419));
#501=CARTESIAN_POINT('',(0.160318762190344,0.0068882163202268,0.00317362495280643));
#502=CARTESIAN_POINT('',(0.16064809392865,0.00616282900250852,0.00438787584261687));
#503=CARTESIAN_POINT('',(0.160852418434975,0.00565578579902105,0.00502375320308678));
#504=CARTESIAN_POINT('',(0.161186710408493,0.00469864860005554,0.00594117695521189));
#505=CARTESIAN_POINT('',(0.161487997923825,0.00356434207025296,0.00662907430791911));
#506=CARTESIAN_POINT('',(0.16159699840459,0.00309941867524456,0.00685912864131653));
#507=CARTESIAN_POINT('',(0.161806320535746,0.00206203860114374,0.00726486835482465));
#508=CARTESIAN_POINT('',(0.161955450689459,0.000956901327767173,0.00747483621395098));
#509=CARTESIAN_POINT('',(0.162014889204191,0.000356350858683795,0.00752777062042208));
#510=CARTESIAN_POINT('',(0.162099214241518,-0.000959931166907166,0.00751081584943219));
#511=CARTESIAN_POINT('',(0.162093072553193,-0.00224688371042673,0.00720882129613785));
#512=CARTESIAN_POINT('',(0.162066045832875,-0.00292042001152284,0.00696295846351525));
#513=CARTESIAN_POINT('',(0.161978171611541,-0.00421067035303343,0.00630986926523253));
#514=CARTESIAN_POINT('',(0.161853420525481,-0.00530889692952667,0.00537241359359104));
#515=CARTESIAN_POINT('',(0.161788771263766,-0.00580468905461501,0.00483257445073757));
#516=CARTESIAN_POINT('',(0.161681116699819,-0.00659364774537232,0.00373062029432357));
#517=CARTESIAN_POINT('',(0.161613248985095,-0.00711862785290697,0.00248132080637706));
#518=CARTESIAN_POINT('',(0.161593623540665,-0.00729989293941123,0.00188273579113288));
#519=CARTESIAN_POINT('',(0.161587209937201,-0.00741784197228035,0.00126941139594704));
#520=CARTESIAN_POINT('',(0.161593499737664,-0.00747172477993075,0.000650637236076195));
#521=DRAUGHTING_PRE_DEFINED_CURVE_FONT('continuous');
#522=COLOUR_RGB('',0.0,0.0,0.0);
#523=CARTESIAN_POINT('',(0.161419782131358,-0.00598353887949341,0.000444142406881749));
#524=CARTESIAN_POINT('',(0.16141734158242,-0.00596263143898421,0.000725809910860576));
#525=CARTESIAN_POINT('',(0.161417568561721,-0.0059232036969726,0.000997988417094384));
#526=CARTESIAN_POINT('',(0.161420490620509,-0.00586298177986936,0.0012749292721245));
#527=CARTESIAN_POINT('',(0.161427206825567,-0.00572456473437496,0.0019114638889858));
#528=CARTESIAN_POINT('',(0.161449659587665,-0.00547258477429377,0.00255076159272109));
#529=CARTESIAN_POINT('',(0.161480974171045,-0.005120839160375,0.0031268204767095));
#530=CARTESIAN_POINT('',(0.161506665543222,-0.00483225708443029,0.00359943552016577));
#531=CARTESIAN_POINT('',(0.161537775101267,-0.00447684387819875,0.00403069274539022));
#532=CARTESIAN_POINT('',(0.161565573751393,-0.00408320753652092,0.00439629573774317));
#533=CARTESIAN_POINT('',(0.161577993336257,-0.00390734288378991,0.00455963594920208));
#534=CARTESIAN_POINT('',(0.161589628893815,-0.00372593913479722,0.00470875099236063));
#535=CARTESIAN_POINT('',(0.161600106041385,-0.00353655986134403,0.00484693143619036));
#536=CARTESIAN_POINT('',(0.161628729784429,-0.00301917250715787,0.00522444272836987));
#537=CARTESIAN_POINT('',(0.161649812897943,-0.00241061045590362,0.00553582123145821));
#538=CARTESIAN_POINT('',(0.161645896264634,-0.00176495508097638,0.00573453865294634));
#539=CARTESIAN_POINT('',(0.161642966505875,-0.00128198556595581,0.00588318522263234));
#540=CARTESIAN_POINT('',(0.161625938247265,-0.000778412136319065,0.00597005766960126));
#541=CARTESIAN_POINT('',(0.161592724589014,-0.000281451980130552,0.00599339509651087));
#542=CARTESIAN_POINT('',(0.161572651693226,1.88892033164596E-005,0.00600749922604592));
#543=CARTESIAN_POINT('',(0.161546804284764,0.000316502979911065,0.0059986589105888));
#544=CARTESIAN_POINT('',(0.161516076030305,0.000604995568348443,0.0059694204377208));
#545=CARTESIAN_POINT('',(0.161491318922247,0.000837427976619922,0.00594586361534383));
#546=CARTESIAN_POINT('',(0.161463502364164,0.0010643257709599,0.00590953760184884));
#547=CARTESIAN_POINT('',(0.161431522758183,0.00129420683220023,0.00585875658100644));
#548=CARTESIAN_POINT('',(0.161340093314569,0.00195143499002871,0.00571357403921361));
#549=CARTESIAN_POINT('',(0.161215493142609,0.00260626167660633,0.00544835559784123));
#550=CARTESIAN_POINT('',(0.161075834638295,0.0031912322700565,0.0050809483955803));
#551=CARTESIAN_POINT('',(0.160955080490947,0.0036970204824034,0.00476327391054525));
#552=CARTESIAN_POINT('',(0.160823761272082,0.00415185235615644,0.00436940879406095));
#553=CARTESIAN_POINT('',(0.160700860890155,0.00452848270086169,0.00393609507354642));
#554=CARTESIAN_POINT('',(0.160633124920316,0.00473606075122536,0.00369727624610801));
#555=CARTESIAN_POINT('',(0.16056862597311,0.00491894172442834,0.00345043429606865));
#556=CARTESIAN_POINT('',(0.160505022628258,0.0050877978591476,0.00318030076320669));
#557=CARTESIAN_POINT('',(0.160376335702758,0.00542943990453748,0.00263374690036486));
#558=CARTESIAN_POINT('',(0.160257003015462,0.00569479676551909,0.00200551428749998));
#559=CARTESIAN_POINT('',(0.160172580126047,0.00584618438048948,0.00134986228531683));
#560=CARTESIAN_POINT('',(0.160115373040708,0.00594876845773409,0.000905575903959368));
#561=CARTESIAN_POINT('',(0.160073996342201,0.00599999999999929,0.000448503468053333));
#562=CARTESIAN_POINT('',(0.160051494056177,0.006,9.47040779443967E-015));
#563=SURFACE_SIDE_STYLE('',(#634));
#564=PRE_DEFINED_MARKER('');
#565=COLOUR_RGB('',0.560784339904785,0.686274528503418,0.560784339904785);
#566=SURFACE_SIDE_STYLE('',(#635));
#568=SURFACE_STYLE_FILL_AREA(#636);
#569=ORIENTED_EDGE('',*,*,#637,.F.);
#570=ORIENTED_EDGE('',*,*,#63,.T.);
#571=ORIENTED_EDGE('',*,*,#638,.F.);
#572=ORIENTED_EDGE('',*,*,#65,.T.);
#573=ORIENTED_EDGE('',*,*,#67,.T.);
#574=CARTESIAN_POINT('',(0.085,0.0,0.0));
#575=DIRECTION('',(1.0,0.0,0.0));
#576=DIRECTION('',(0.0,1.0,0.0));
#577=SURFACE_STYLE_FILL_AREA(#639);
#578=ORIENTED_EDGE('',*,*,#640,.F.);
#579=ORIENTED_EDGE('',*,*,#69,.F.);
#580=ORIENTED_EDGE('',*,*,#71,.F.);
#581=ORIENTED_EDGE('',*,*,#641,.F.);
#582=ORIENTED_EDGE('',*,*,#65,.F.);
#583=ORIENTED_EDGE('',*,*,#73,.F.);
#584=CARTESIAN_POINT('',(0.184424844909728,0.00393581959024031,-0.000546118864443527));
#585=DIRECTION('',(-0.114858156811609,0.983954897560127,-0.136529716110741));
#586=DIRECTION('',(-0.993255768579048,-0.115943857898746,2.46709691360158E-018));
#587=SURFACE_STYLE_FILL_AREA(#642);
#588=ORIENTED_EDGE('',*,*,#643,.F.);
#589=ORIENTED_EDGE('',*,*,#75,.T.);
#590=ORIENTED_EDGE('',*,*,#71,.T.);
#591=ORIENTED_EDGE('',*,*,#644,.F.);
#592=ORIENTED_EDGE('',*,*,#77,.F.);
#593=CARTESIAN_POINT('',(0.085,0.0,0.0));
#594=DIRECTION('',(1.0,0.0,0.0));
#595=DIRECTION('',(0.0,1.0,0.0));
#596=SURFACE_STYLE_FILL_AREA(#645);
#597=ORIENTED_EDGE('',*,*,#79,.T.);
#598=ORIENTED_EDGE('',*,*,#77,.T.);
#599=ORIENTED_EDGE('',*,*,#81,.T.);
#600=ORIENTED_EDGE('',*,*,#83,.F.);
#601=ORIENTED_EDGE('',*,*,#63,.F.);
#602=CARTESIAN_POINT('',(-0.00727128684333413,0.000966713811383139,0.0130841068494887));
#603=DIRECTION('',(0.484752456222276,-0.0644475874255426,-0.872273789965913));
#604=DIRECTION('',(-0.301239004917454,0.923965395576825,-0.235675645099157));
#605=SURFACE_STYLE_FILL_AREA(#646);
#606=ORIENTED_EDGE('',*,*,#643,.T.);
#607=ORIENTED_EDGE('',*,*,#79,.F.);
#608=ORIENTED_EDGE('',*,*,#81,.F.);
#609=ORIENTED_EDGE('',*,*,#644,.T.);
#610=ORIENTED_EDGE('',*,*,#69,.T.);
#611=ORIENTED_EDGE('',*,*,#85,.T.);
#612=CARTESIAN_POINT('',(0.085,0.0,0.0));
#613=DIRECTION('',(1.0,0.0,0.0));
#614=DIRECTION('',(0.0,1.0,0.0));
#615=SURFACE_STYLE_FILL_AREA(#647);
#616=ORIENTED_EDGE('',*,*,#640,.T.);
#617=ORIENTED_EDGE('',*,*,#87,.F.);
#618=ORIENTED_EDGE('',*,*,#67,.F.);
#619=ORIENTED_EDGE('',*,*,#641,.T.);
#620=ORIENTED_EDGE('',*,*,#75,.F.);
#621=ORIENTED_EDGE('',*,*,#85,.F.);
#622=CARTESIAN_POINT('',(0.184424844909728,0.00393581959024031,-0.000546118864443527));
#623=DIRECTION('',(-0.114858156811609,0.983954897560127,-0.136529716110741));
#624=DIRECTION('',(-0.993255768579048,-0.115943857898746,2.46709691360158E-018));
#625=SURFACE_STYLE_FILL_AREA(#648);
#626=ORIENTED_EDGE('',*,*,#637,.T.);
#627=ORIENTED_EDGE('',*,*,#87,.T.);
#628=ORIENTED_EDGE('',*,*,#73,.T.);
#629=ORIENTED_EDGE('',*,*,#638,.T.);
#630=ORIENTED_EDGE('',*,*,#83,.T.);
#631=CARTESIAN_POINT('',(0.085,0.0,0.0));
#632=DIRECTION('',(1.0,0.0,0.0));
#633=DIRECTION('',(0.0,1.0,0.0));
#634=SURFACE_STYLE_FILL_AREA(#649);
#635=SURFACE_STYLE_FILL_AREA(#650);
#636=FILL_AREA_STYLE('',(#651));
#637=EDGE_CURVE('',#134,#142,#652,.T.);
#638=EDGE_CURVE('',#138,#135,#653,.T.);
#639=FILL_AREA_STYLE('',(#654));
#640=EDGE_CURVE('',#146,#152,#655,.T.);
#641=EDGE_CURVE('',#139,#149,#656,.T.);
#642=FILL_AREA_STYLE('',(#657));
#643=EDGE_CURVE('',#155,#158,#658,.T.);
#644=EDGE_CURVE('',#159,#145,#659,.T.);
#645=FILL_AREA_STYLE('',(#660));
#646=FILL_AREA_STYLE('',(#661));
#647=FILL_AREA_STYLE('',(#662));
#648=FILL_AREA_STYLE('',(#663));
#649=FILL_AREA_STYLE('',(#664));
#650=FILL_AREA_STYLE('',(#665));
#651=FILL_AREA_STYLE_COLOUR('',#666);
#652=LINE('',#667,#668);
#653=LINE('',#669,#670);
#654=FILL_AREA_STYLE_COLOUR('',#671);
#655=LINE('',#672,#673);
#656=LINE('',#674,#675);
#657=FILL_AREA_STYLE_COLOUR('',#676);
#658=LINE('',#677,#678);
#659=LINE('',#679,#680);
#660=FILL_AREA_STYLE_COLOUR('',#681);
#661=FILL_AREA_STYLE_COLOUR('',#682);
#662=FILL_AREA_STYLE_COLOUR('',#683);
#663=FILL_AREA_STYLE_COLOUR('',#684);
#664=FILL_AREA_STYLE_COLOUR('',#685);
#665=FILL_AREA_STYLE_COLOUR('',#686);
#666=COLOUR_RGB('',0.560784339904785,0.560784339904785,0.686274528503418);
#667=CARTESIAN_POINT('',(0.085,0.006,-7.3469334916859E-019));
#668=VECTOR('',#687,1.0);
#669=CARTESIAN_POINT('',(0.085,-0.006,7.34882809808234E-019));
#670=VECTOR('',#688,1.0);
#671=COLOUR_RGB('',0.560784339904785,0.560784339904785,0.686274528503418);
#672=CARTESIAN_POINT('',(0.160730762942533,-8.09210404384532E-005,-0.000374881655984028));
#673=VECTOR('',#689,1.0);
#674=CARTESIAN_POINT('',(0.160730762942533,-8.09210404384532E-005,-0.000374881655984028));
#675=VECTOR('',#690,1.0);
#676=COLOUR_RGB('',0.560784339904785,0.560784339904785,0.686274528503418);
#677=CARTESIAN_POINT('',(0.085,0.0075,-9.18833404655745E-019));
#678=VECTOR('',#691,1.0);
#679=CARTESIAN_POINT('',(0.085,-0.0075,9.18136794065284E-019));
#680=VECTOR('',#692,1.0);
#681=COLOUR_RGB('',0.560784339904785,0.560784339904785,0.686274528503418);
#682=COLOUR_RGB('',0.560784339904785,0.560784339904785,0.686274528503418);
#683=COLOUR_RGB('',0.560784339904785,0.560784339904785,0.686274528503418);
#684=COLOUR_RGB('',0.560784339904785,0.560784339904785,0.686274528503418);
#685=COLOUR_RGB('',0.560784339904785,0.560784339904785,0.686274528503418);
#686=COLOUR_RGB('',0.560784339904785,0.686274528503418,0.560784339904785);
#687=DIRECTION('',(1.0,0.0,-0.0));
#688=DIRECTION('',(-1.0,0.0,-0.0));
#689=DIRECTION('',(-0.114858156811609,0.983954897560127,-0.136529716110741));
#690=DIRECTION('',(-0.114858156811609,0.983954897560127,-0.136529716110741));
#691=DIRECTION('',(-1.0,-0.0,-0.0));
#692=DIRECTION('',(1.0,0.0,0.0));
#693=PRESENTATION_LAYER_ASSIGNMENT('9','Calque0',(#89,#93));
#694=PRESENTATION_LAYER_ASSIGNMENT('1023','',(#49,#51,#53,#55,#57,#59,#61,#63,#65,#67,#69,#71,#73,#75,#77,#79,#81,#83,#85,#87));
ENDSEC;
END-ISO-10303-21;
