ISO-10303-21;
HEADER;
FILE_DESCRIPTION(('STEP AP214'),'1');
FILE_NAME('51.stp','2019-12-01T21:42:16',(' '),(' '),'Spatial InterOp 3D',' ',' ');
FILE_SCHEMA(('AUTOMOTIVE_DESIGN { 1 0 10303 214 1 1 1 1 }'));
ENDSEC;
DATA;
#1=MECHANICAL_DESIGN_GEOMETRIC_PRESENTATION_REPRESENTATION(' ',(#10,#11,#12,#13,#14,#15,#16,#17,#18,#19,#20,#21,#22,#23,#24,#25,#26,#27,#28),#6);
#2=PRODUCT_DEFINITION_CONTEXT('',#29,'design');
#3=APPLICATION_PROTOCOL_DEFINITION('INTERNATIONAL STANDARD','automotive_design',1994,#29);
#4=PRODUCT_CATEGORY_RELATIONSHIP('NONE','NONE',#30,#31);
#5=SHAPE_DEFINITION_REPRESENTATION(#32,#33);
#6= (GEOMETRIC_REPRESENTATION_CONTEXT(3)GLOBAL_UNCERTAINTY_ASSIGNED_CONTEXT((#36))GLOBAL_UNIT_ASSIGNED_CONTEXT((#38,#39,#40))REPRESENTATION_CONTEXT('NONE','WORKSPACE'));
#10=STYLED_ITEM('',(#42),#43);
#11=STYLED_ITEM('',(#44),#45);
#12=STYLED_ITEM('',(#46),#47);
#13=STYLED_ITEM('',(#48),#49);
#14=STYLED_ITEM('',(#50),#51);
#15=STYLED_ITEM('',(#52),#53);
#16=STYLED_ITEM('',(#54),#55);
#17=STYLED_ITEM('',(#56),#57);
#18=STYLED_ITEM('',(#58),#59);
#19=STYLED_ITEM('',(#60),#61);
#20=STYLED_ITEM('',(#62),#63);
#21=STYLED_ITEM('',(#64),#65);
#22=STYLED_ITEM('',(#66),#67);
#23=STYLED_ITEM('',(#68),#69);
#24=STYLED_ITEM('',(#70),#71);
#25=STYLED_ITEM('',(#72),#73);
#26=STYLED_ITEM('',(#74),#75);
#27=STYLED_ITEM('',(#76),#77);
#28=STYLED_ITEM('',(#78),#79);
#29=APPLICATION_CONTEXT(' ');
#30=PRODUCT_CATEGORY('part','NONE');
#31=PRODUCT_RELATED_PRODUCT_CATEGORY('detail',' ',(#80));
#32=PRODUCT_DEFINITION_SHAPE('NONE','NONE',#81);
#33=ADVANCED_BREP_SHAPE_REPRESENTATION('PartBody/StrFunRibSweep.1',(#79,#82),#6);
#36=UNCERTAINTY_MEASURE_WITH_UNIT(LENGTH_MEASURE(1.0E-008),#38,'','');
#38= (CONVERSION_BASED_UNIT('METRE',#85)LENGTH_UNIT()NAMED_UNIT(#88));
#39= (NAMED_UNIT(#90)PLANE_ANGLE_UNIT()SI_UNIT($,.RADIAN.));
#40= (NAMED_UNIT(#90)SOLID_ANGLE_UNIT()SI_UNIT($,.STERADIAN.));
#42=PRESENTATION_STYLE_ASSIGNMENT((#96));
#43=ADVANCED_FACE('',(#97),#98,.F.);
#44=PRESENTATION_STYLE_ASSIGNMENT((#99));
#45=ADVANCED_FACE('',(#100),#101,.T.);
#46=PRESENTATION_STYLE_ASSIGNMENT((#102));
#47=ADVANCED_FACE('0:88',(#103,#104),#105,.T.);
#48=PRESENTATION_STYLE_ASSIGNMENT((#106));
#49=ADVANCED_FACE('0:91',(#107,#108),#109,.T.);
#50=PRESENTATION_STYLE_ASSIGNMENT((#110));
#51=ADVANCED_FACE('0:109',(#111),#112,.T.);
#52=PRESENTATION_STYLE_ASSIGNMENT((#113));
#53=ADVANCED_FACE('0:107',(#114),#115,.F.);
#54=PRESENTATION_STYLE_ASSIGNMENT((#116));
#55=EDGE_CURVE('0:98',#117,#118,#119,.T.);
#56=PRESENTATION_STYLE_ASSIGNMENT((#120));
#57=EDGE_CURVE('',#121,#117,#122,.T.);
#58=PRESENTATION_STYLE_ASSIGNMENT((#123));
#59=EDGE_CURVE('',#124,#125,#126,.F.);
#60=PRESENTATION_STYLE_ASSIGNMENT((#127));
#61=EDGE_CURVE('0:99',#125,#128,#129,.F.);
#62=PRESENTATION_STYLE_ASSIGNMENT((#130));
#63=EDGE_CURVE('0:101',#131,#132,#133,.F.);
#64=PRESENTATION_STYLE_ASSIGNMENT((#134));
#65=EDGE_CURVE('',#135,#131,#136,.F.);
#66=PRESENTATION_STYLE_ASSIGNMENT((#137));
#67=EDGE_CURVE('',#138,#139,#140,.T.);
#68=PRESENTATION_STYLE_ASSIGNMENT((#141));
#69=EDGE_CURVE('0:106',#139,#142,#143,.T.);
#70=PRESENTATION_STYLE_ASSIGNMENT((#144));
#71=EDGE_CURVE('',#132,#135,#145,.F.);
#72=PRESENTATION_STYLE_ASSIGNMENT((#146));
#73=EDGE_CURVE('',#128,#124,#147,.F.);
#74=PRESENTATION_STYLE_ASSIGNMENT((#148));
#75=EDGE_CURVE('',#142,#138,#149,.T.);
#76=PRESENTATION_STYLE_ASSIGNMENT((#150));
#77=EDGE_CURVE('',#118,#121,#151,.T.);
#78=PRESENTATION_STYLE_ASSIGNMENT((#152));
#79=MANIFOLD_SOLID_BREP('PartBody/StrFunRibSweep.1',#153);
#80=PRODUCT('PartBody/StrFunRibSweep.1','','PART--DESC',(#154));
#81=PRODUCT_DEFINITION('','NONE',#155,#2);
#82=AXIS2_PLACEMENT_3D('',#156,#157,#158);
#85=LENGTH_MEASURE_WITH_UNIT(LENGTH_MEASURE(1.0),#159);
#88=DIMENSIONAL_EXPONENTS(1.0,0.0,0.0,0.0,0.0,0.0,0.0);
#90=DIMENSIONAL_EXPONENTS(0.0,0.0,0.0,0.0,0.0,0.0,0.0);
#96=SURFACE_STYLE_USAGE(.BOTH.,#160);
#97=FACE_OUTER_BOUND('',#161,.T.);
#98=CYLINDRICAL_SURFACE('',#162,0.0085);
#99=SURFACE_STYLE_USAGE(.BOTH.,#163);
#100=FACE_OUTER_BOUND('',#164,.T.);
#101=CYLINDRICAL_SURFACE('',#165,0.01);
#102=SURFACE_STYLE_USAGE(.BOTH.,#166);
#103=FACE_OUTER_BOUND('',#167,.T.);
#104=FACE_BOUND('',#168,.T.);
#105=PLANE('',#169);
#106=SURFACE_STYLE_USAGE(.BOTH.,#170);
#107=FACE_OUTER_BOUND('',#171,.T.);
#108=FACE_BOUND('',#172,.T.);
#109=PLANE('',#173);
#110=SURFACE_STYLE_USAGE(.BOTH.,#174);
#111=FACE_OUTER_BOUND('',#175,.T.);
#112=CYLINDRICAL_SURFACE('',#176,0.01);
#113=SURFACE_STYLE_USAGE(.BOTH.,#177);
#114=FACE_OUTER_BOUND('',#178,.T.);
#115=CYLINDRICAL_SURFACE('',#179,0.0085);
#116=CURVE_STYLE('',#180,POSITIVE_LENGTH_MEASURE(0.35),#181);
#117=VERTEX_POINT('',#182);
#118=VERTEX_POINT('',#183);
#119=ELLIPSE('',#184,0.0119310035383972,0.0085);
#120=CURVE_STYLE('',#185,POSITIVE_LENGTH_MEASURE(0.35),#186);
#121=VERTEX_POINT('',#187);
#122=ELLIPSE('',#188,0.0119310035383972,0.0085);
#123=CURVE_STYLE('',#189,POSITIVE_LENGTH_MEASURE(0.35),#190);
#124=VERTEX_POINT('',#191);
#125=VERTEX_POINT('',#192);
#126=ELLIPSE('',#193,0.00853971693172317,0.0085);
#127=CURVE_STYLE('',#194,POSITIVE_LENGTH_MEASURE(0.35),#195);
#128=VERTEX_POINT('',#196);
#129=ELLIPSE('',#197,0.00853971693172317,0.0085);
#130=CURVE_STYLE('',#198,POSITIVE_LENGTH_MEASURE(0.35),#199);
#131=VERTEX_POINT('',#200);
#132=VERTEX_POINT('',#201);
#133=ELLIPSE('',#202,0.0100467258020273,0.01);
#134=CURVE_STYLE('',#203,POSITIVE_LENGTH_MEASURE(0.35),#204);
#135=VERTEX_POINT('',#205);
#136=ELLIPSE('',#206,0.0100467258020273,0.01);
#137=CURVE_STYLE('',#207,POSITIVE_LENGTH_MEASURE(0.35),#208);
#138=VERTEX_POINT('',#209);
#139=VERTEX_POINT('',#210);
#140=ELLIPSE('',#211,0.0140364747510556,0.01);
#141=CURVE_STYLE('',#212,POSITIVE_LENGTH_MEASURE(0.35),#213);
#142=VERTEX_POINT('',#214);
#143=ELLIPSE('',#215,0.0140364747510556,0.01);
#144=CURVE_STYLE('',#216,POSITIVE_LENGTH_MEASURE(0.35),#217);
#145=ELLIPSE('',#218,0.0100467258020273,0.01);
#146=CURVE_STYLE('',#219,POSITIVE_LENGTH_MEASURE(0.35),#220);
#147=ELLIPSE('',#221,0.00853971693172317,0.0085);
#148=CURVE_STYLE('',#222,POSITIVE_LENGTH_MEASURE(0.35),#223);
#149=ELLIPSE('',#224,0.0140364747510556,0.01);
#150=CURVE_STYLE('',#225,POSITIVE_LENGTH_MEASURE(0.35),#226);
#151=ELLIPSE('',#227,0.0119310035383972,0.0085);
#152=SURFACE_STYLE_USAGE(.BOTH.,#228);
#153=CLOSED_SHELL('',(#43,#45,#47,#49,#51,#53));
#154=PRODUCT_CONTEXT('',#29,'mechanical');
#155=PRODUCT_DEFINITION_FORMATION_WITH_SPECIFIED_SOURCE(' ','NONE',#80,.NOT_KNOWN.);
#156=CARTESIAN_POINT('',(0.0,0.0,0.0));
#157=DIRECTION('',(0.0,0.0,1.0));
#158=DIRECTION('',(1.0,0.0,0.0));
#159= (NAMED_UNIT(#88)LENGTH_UNIT()SI_UNIT($,.METRE.));
#160=SURFACE_SIDE_STYLE('',(#230));
#161=EDGE_LOOP('',(#231,#232,#233,#234,#235,#236));
#162=AXIS2_PLACEMENT_3D('',#237,#238,#239);
#163=SURFACE_SIDE_STYLE('',(#240));
#164=EDGE_LOOP('',(#241,#242,#243,#244,#245,#246));
#165=AXIS2_PLACEMENT_3D('',#247,#248,#249);
#166=SURFACE_SIDE_STYLE('',(#250));
#167=EDGE_LOOP('',(#251,#252,#253));
#168=EDGE_LOOP('',(#254,#255,#256));
#169=AXIS2_PLACEMENT_3D('',#257,#258,#259);
#170=SURFACE_SIDE_STYLE('',(#260));
#171=EDGE_LOOP('',(#261,#262,#263));
#172=EDGE_LOOP('',(#264,#265,#266));
#173=AXIS2_PLACEMENT_3D('',#267,#268,#269);
#174=SURFACE_SIDE_STYLE('',(#270));
#175=EDGE_LOOP('',(#271,#272,#273,#274));
#176=AXIS2_PLACEMENT_3D('',#275,#276,#277);
#177=SURFACE_SIDE_STYLE('',(#278));
#178=EDGE_LOOP('',(#279,#280,#281,#282));
#179=AXIS2_PLACEMENT_3D('',#283,#284,#285);
#180=DRAUGHTING_PRE_DEFINED_CURVE_FONT('continuous');
#181=COLOUR_RGB('',0.0,0.0,0.0);
#182=CARTESIAN_POINT('',(-2.21233874442084,0.156055574240066,-0.0450000000000016));
#183=CARTESIAN_POINT('',(-2.20396623909488,0.147555574240066,-0.0365000000000016));
#184=AXIS2_PLACEMENT_3D('',#286,#287,#288);
#185=DRAUGHTING_PRE_DEFINED_CURVE_FONT('continuous');
#186=COLOUR_RGB('',0.0,0.0,0.0);
#187=CARTESIAN_POINT('',(-2.20396623909488,0.147555574240066,-0.0535000000000016));
#188=AXIS2_PLACEMENT_3D('',#289,#290,#291);
#189=DRAUGHTING_PRE_DEFINED_CURVE_FONT('continuous');
#190=COLOUR_RGB('',0.0,0.0,0.0);
#191=CARTESIAN_POINT('',(-1.87354662735663,0.147555574240065,-0.0535000000000016));
#192=CARTESIAN_POINT('',(-1.87436928480294,0.156055574240065,-0.0450000000000016));
#193=AXIS2_PLACEMENT_3D('',#292,#293,#294);
#194=DRAUGHTING_PRE_DEFINED_CURVE_FONT('continuous');
#195=COLOUR_RGB('',0.0,0.0,0.0);
#196=CARTESIAN_POINT('',(-1.87354662735663,0.147555574240065,-0.0365000000000016));
#197=AXIS2_PLACEMENT_3D('',#295,#296,#297);
#198=DRAUGHTING_PRE_DEFINED_CURVE_FONT('continuous');
#199=COLOUR_RGB('',0.0,0.0,0.0);
#200=CARTESIAN_POINT('',(-1.8745144596464,0.157555574240065,-0.0450000000000016));
#201=CARTESIAN_POINT('',(-1.87354662735663,0.147555574240065,-0.0350000000000016));
#202=AXIS2_PLACEMENT_3D('',#298,#299,#300);
#203=DRAUGHTING_PRE_DEFINED_CURVE_FONT('continuous');
#204=COLOUR_RGB('',0.0,0.0,0.0);
#205=CARTESIAN_POINT('',(-1.87354662735663,0.147555574240065,-0.0550000000000016));
#206=AXIS2_PLACEMENT_3D('',#301,#302,#303);
#207=DRAUGHTING_PRE_DEFINED_CURVE_FONT('continuous');
#208=COLOUR_RGB('',0.0,0.0,0.0);
#209=CARTESIAN_POINT('',(-2.20396623909488,0.147555574240066,-0.0550000000000016));
#210=CARTESIAN_POINT('',(-2.21381624536072,0.157555574240066,-0.0450000000000016));
#211=AXIS2_PLACEMENT_3D('',#304,#305,#306);
#212=DRAUGHTING_PRE_DEFINED_CURVE_FONT('continuous');
#213=COLOUR_RGB('',0.0,0.0,0.0);
#214=CARTESIAN_POINT('',(-2.20396623909488,0.147555574240066,-0.0350000000000016));
#215=AXIS2_PLACEMENT_3D('',#307,#308,#309);
#216=DRAUGHTING_PRE_DEFINED_CURVE_FONT('continuous');
#217=COLOUR_RGB('',0.0,0.0,0.0);
#218=AXIS2_PLACEMENT_3D('',#310,#311,#312);
#219=DRAUGHTING_PRE_DEFINED_CURVE_FONT('continuous');
#220=COLOUR_RGB('',0.0,0.0,0.0);
#221=AXIS2_PLACEMENT_3D('',#313,#314,#315);
#222=DRAUGHTING_PRE_DEFINED_CURVE_FONT('continuous');
#223=COLOUR_RGB('',0.0,0.0,0.0);
#224=AXIS2_PLACEMENT_3D('',#316,#317,#318);
#225=DRAUGHTING_PRE_DEFINED_CURVE_FONT('continuous');
#226=COLOUR_RGB('',0.0,0.0,0.0);
#227=AXIS2_PLACEMENT_3D('',#319,#320,#321);
#228=SURFACE_SIDE_STYLE('',(#322));
#230=SURFACE_STYLE_FILL_AREA(#323);
#231=ORIENTED_EDGE('',*,*,#324,.F.);
#232=ORIENTED_EDGE('',*,*,#55,.F.);
#233=ORIENTED_EDGE('',*,*,#57,.F.);
#234=ORIENTED_EDGE('',*,*,#325,.F.);
#235=ORIENTED_EDGE('',*,*,#59,.T.);
#236=ORIENTED_EDGE('',*,*,#61,.T.);
#237=CARTESIAN_POINT('',(-502.206389551881,0.147555574241443,-0.0450000000000016));
#238=DIRECTION('',(1.0,-2.75474087985117E-015,-3.16622882857262E-031));
#239=DIRECTION('',(-1.89595510983849E-031,-1.83762617218814E-016,1.0));
#240=SURFACE_STYLE_FILL_AREA(#326);
#241=ORIENTED_EDGE('',*,*,#327,.F.);
#242=ORIENTED_EDGE('',*,*,#63,.F.);
#243=ORIENTED_EDGE('',*,*,#65,.F.);
#244=ORIENTED_EDGE('',*,*,#328,.F.);
#245=ORIENTED_EDGE('',*,*,#67,.T.);
#246=ORIENTED_EDGE('',*,*,#69,.T.);
#247=CARTESIAN_POINT('',(-502.206389551881,0.147555574241443,-0.0450000000000016));
#248=DIRECTION('',(1.0,-2.75474087985117E-015,-3.16622882857262E-031));
#249=DIRECTION('',(-1.89595510983849E-031,-1.83762617218814E-016,1.0));
#250=SURFACE_STYLE_FILL_AREA(#329);
#251=ORIENTED_EDGE('',*,*,#63,.T.);
#252=ORIENTED_EDGE('',*,*,#71,.T.);
#253=ORIENTED_EDGE('',*,*,#65,.T.);
#254=ORIENTED_EDGE('',*,*,#61,.F.);
#255=ORIENTED_EDGE('',*,*,#59,.F.);
#256=ORIENTED_EDGE('',*,*,#73,.F.);
#257=CARTESIAN_POINT('',(-1.873296,0.144966,-0.045));
#258=DIRECTION('',(0.995349151261018,0.0963331048184995,-0.0));
#259=DIRECTION('',(0.0,0.0,1.0));
#260=SURFACE_STYLE_FILL_AREA(#330);
#261=ORIENTED_EDGE('',*,*,#69,.F.);
#262=ORIENTED_EDGE('',*,*,#67,.F.);
#263=ORIENTED_EDGE('',*,*,#75,.F.);
#264=ORIENTED_EDGE('',*,*,#55,.T.);
#265=ORIENTED_EDGE('',*,*,#77,.T.);
#266=ORIENTED_EDGE('',*,*,#57,.T.);
#267=CARTESIAN_POINT('',(-2.206374,0.15,-0.045));
#268=DIRECTION('',(-0.712429593423948,-0.701743595919328,0.0));
#269=DIRECTION('',(0.0,0.0,1.0));
#270=SURFACE_STYLE_FILL_AREA(#331);
#271=ORIENTED_EDGE('',*,*,#327,.T.);
#272=ORIENTED_EDGE('',*,*,#75,.T.);
#273=ORIENTED_EDGE('',*,*,#328,.T.);
#274=ORIENTED_EDGE('',*,*,#71,.F.);
#275=CARTESIAN_POINT('',(-502.206389551881,0.147555574241443,-0.0450000000000016));
#276=DIRECTION('',(1.0,-2.75474087985117E-015,-3.16622882857262E-031));
#277=DIRECTION('',(-1.89595510983849E-031,-1.83762617218814E-016,1.0));
#278=SURFACE_STYLE_FILL_AREA(#332);
#279=ORIENTED_EDGE('',*,*,#324,.T.);
#280=ORIENTED_EDGE('',*,*,#73,.T.);
#281=ORIENTED_EDGE('',*,*,#325,.T.);
#282=ORIENTED_EDGE('',*,*,#77,.F.);
#283=CARTESIAN_POINT('',(-502.206389551881,0.147555574241443,-0.0450000000000016));
#284=DIRECTION('',(1.0,-2.75474087985117E-015,-3.16622882857262E-031));
#285=DIRECTION('',(-1.89595510983849E-031,-1.83762617218814E-016,1.0));
#286=CARTESIAN_POINT('',(-2.20396623909488,0.147555574240066,-0.0450000000000016));
#287=DIRECTION('',(0.712429593423948,0.701743595919328,7.41830388863971E-033));
#288=DIRECTION('',(0.701743595919328,-0.712429593423948,-1.3091792667172E-016));
#289=CARTESIAN_POINT('',(-2.20396623909488,0.147555574240066,-0.0450000000000016));
#290=DIRECTION('',(0.712429593423948,0.701743595919328,7.41830388863971E-033));
#291=DIRECTION('',(0.701743595919328,-0.712429593423948,-1.3091792667172E-016));
#292=CARTESIAN_POINT('',(-1.87354662735663,0.147555574240065,-0.0450000000000016));
#293=DIRECTION('',(-0.995349151261018,-0.0963331048184995,-2.59106392670579E-033));
#294=DIRECTION('',(0.0963331048184995,-0.995349151261018,-1.8290796508225E-016));
#295=CARTESIAN_POINT('',(-1.87354662735663,0.147555574240065,-0.0450000000000016));
#296=DIRECTION('',(-0.995349151261018,-0.0963331048184995,-2.59106392670579E-033));
#297=DIRECTION('',(0.0963331048184995,-0.995349151261018,-1.8290796508225E-016));
#298=CARTESIAN_POINT('',(-1.87354662735663,0.147555574240065,-0.0450000000000016));
#299=DIRECTION('',(-0.995349151261018,-0.0963331048184995,3.74408737408987E-033));
#300=DIRECTION('',(0.0963331048184995,-0.995349151261018,-1.8290796508225E-016));
#301=CARTESIAN_POINT('',(-1.87354662735663,0.147555574240065,-0.0450000000000016));
#302=DIRECTION('',(-0.995349151261018,-0.0963331048184995,3.74408737408987E-033));
#303=DIRECTION('',(0.0963331048184995,-0.995349151261018,-1.8290796508225E-016));
#304=CARTESIAN_POINT('',(-2.20396623909488,0.147555574240066,-0.0450000000000016));
#305=DIRECTION('',(0.712429593423948,0.701743595919328,0.0));
#306=DIRECTION('',(0.701743595919328,-0.712429593423948,-1.3091792667172E-016));
#307=CARTESIAN_POINT('',(-2.20396623909488,0.147555574240066,-0.0450000000000016));
#308=DIRECTION('',(0.712429593423948,0.701743595919328,0.0));
#309=DIRECTION('',(0.701743595919328,-0.712429593423948,-1.3091792667172E-016));
#310=CARTESIAN_POINT('',(-1.87354662735663,0.147555574240065,-0.0450000000000016));
#311=DIRECTION('',(-0.995349151261018,-0.0963331048184995,3.74408737408987E-033));
#312=DIRECTION('',(0.0963331048184995,-0.995349151261018,-1.8290796508225E-016));
#313=CARTESIAN_POINT('',(-1.87354662735663,0.147555574240065,-0.0450000000000016));
#314=DIRECTION('',(-0.995349151261018,-0.0963331048184995,-2.59106392670579E-033));
#315=DIRECTION('',(0.0963331048184995,-0.995349151261018,-1.8290796508225E-016));
#316=CARTESIAN_POINT('',(-2.20396623909488,0.147555574240066,-0.0450000000000016));
#317=DIRECTION('',(0.712429593423948,0.701743595919328,0.0));
#318=DIRECTION('',(0.701743595919328,-0.712429593423948,-1.3091792667172E-016));
#319=CARTESIAN_POINT('',(-2.20396623909488,0.147555574240066,-0.0450000000000016));
#320=DIRECTION('',(0.712429593423948,0.701743595919328,7.41830388863971E-033));
#321=DIRECTION('',(0.701743595919328,-0.712429593423948,-1.3091792667172E-016));
#322=SURFACE_STYLE_FILL_AREA(#333);
#323=FILL_AREA_STYLE('',(#334));
#324=EDGE_CURVE('',#118,#128,#335,.T.);
#325=EDGE_CURVE('',#124,#121,#336,.T.);
#326=FILL_AREA_STYLE('',(#337));
#327=EDGE_CURVE('',#132,#142,#338,.T.);
#328=EDGE_CURVE('',#138,#135,#339,.T.);
#329=FILL_AREA_STYLE('',(#340));
#330=FILL_AREA_STYLE('',(#341));
#331=FILL_AREA_STYLE('',(#342));
#332=FILL_AREA_STYLE('',(#343));
#333=FILL_AREA_STYLE('',(#344));
#334=FILL_AREA_STYLE_COLOUR('',#345);
#335=LINE('',#346,#347);
#336=LINE('',#348,#349);
#337=FILL_AREA_STYLE_COLOUR('',#350);
#338=LINE('',#351,#352);
#339=LINE('',#353,#354);
#340=FILL_AREA_STYLE_COLOUR('',#355);
#341=FILL_AREA_STYLE_COLOUR('',#356);
#342=FILL_AREA_STYLE_COLOUR('',#357);
#343=FILL_AREA_STYLE_COLOUR('',#358);
#344=FILL_AREA_STYLE_COLOUR('',#359);
#345=COLOUR_RGB('',0.560784339904785,0.686274528503418,0.662745118141174);
#346=CARTESIAN_POINT('',(-2.04253135716556,0.147555574240065,-0.0365000000000016));
#347=VECTOR('',#360,1.0);
#348=CARTESIAN_POINT('',(-2.04253135716556,0.147555574240065,-0.0535000000000016));
#349=VECTOR('',#361,1.0);
#350=COLOUR_RGB('',0.560784339904785,0.686274528503418,0.662745118141174);
#351=CARTESIAN_POINT('',(-2.04319752021377,0.147555574240065,-0.0350000000000016));
#352=VECTOR('',#362,1.0);
#353=CARTESIAN_POINT('',(-2.04319752021377,0.147555574240065,-0.0550000000000016));
#354=VECTOR('',#363,1.0);
#355=COLOUR_RGB('',0.560784339904785,0.686274528503418,0.662745118141174);
#356=COLOUR_RGB('',0.560784339904785,0.686274528503418,0.662745118141174);
#357=COLOUR_RGB('',0.560784339904785,0.686274528503418,0.662745118141174);
#358=COLOUR_RGB('',0.560784339904785,0.686274528503418,0.662745118141174);
#359=COLOUR_RGB('',0.560784339904785,0.686274528503418,0.662745118141174);
#360=DIRECTION('',(1.0,-2.75474087985117E-015,-3.16622882857262E-031));
#361=DIRECTION('',(-1.0,2.75474087985117E-015,3.16622882857262E-031));
#362=DIRECTION('',(-1.0,2.75474087985117E-015,3.16622882857262E-031));
#363=DIRECTION('',(1.0,-2.75474087985117E-015,-3.16622882857262E-031));
#364=PRESENTATION_LAYER_ASSIGNMENT('9','Calque0',(#79));
#365=PRESENTATION_LAYER_ASSIGNMENT('1023','',(#43,#45,#47,#49,#51,#53,#55,#57,#59,#61,#63,#65,#67,#69,#71,#73,#75,#77));
ENDSEC;
END-ISO-10303-21;
